<?xml version="1.0" encoding="utf-8"?>
<COLLADA xmlns="http://www.collada.org/2005/11/COLLADASchema" version="1.4.1">
  <asset>
    <contributor>
      <author>Blender User</author>
      <authoring_tool>Blender 2.78.0 commit date:2017-02-24, commit time:14:33, hash:e92f2352830</authoring_tool>
    </contributor>
    <created>2017-07-14T10:06:20</created>
    <modified>2017-07-14T10:06:20</modified>
    <unit name="meter" meter="1"/>
    <up_axis>Z_UP</up_axis>
  </asset>
  <library_images/>
  <library_effects>
    <effect id="Metall_Alu_008_002-effect">
      <profile_COMMON>
        <technique sid="common">
          <phong>
            <emission>
              <color sid="emission">0 0 0 1</color>
            </emission>
            <ambient>
              <color sid="ambient">0 0 0 1</color>
            </ambient>
            <diffuse>
              <color sid="diffuse">0.45 0.45 0.45 1</color>
            </diffuse>
            <specular>
              <color sid="specular">0.325 0.325 0.325 1</color>
            </specular>
            <shininess>
              <float sid="shininess">70</float>
            </shininess>
            <index_of_refraction>
              <float sid="index_of_refraction">1</float>
            </index_of_refraction>
          </phong>
        </technique>
      </profile_COMMON>
    </effect>
    <effect id="Kunststoff_druckteile_005_002-effect">
      <profile_COMMON>
        <technique sid="common">
          <phong>
            <emission>
              <color sid="emission">0 0 0 1</color>
            </emission>
            <ambient>
              <color sid="ambient">0 0 0 1</color>
            </ambient>
            <diffuse>
              <color sid="diffuse">0.5 0.5 0.5 1</color>
            </diffuse>
            <specular>
              <color sid="specular">0.5 0.5 0.5 1</color>
            </specular>
            <shininess>
              <float sid="shininess">50</float>
            </shininess>
            <index_of_refraction>
              <float sid="index_of_refraction">1</float>
            </index_of_refraction>
          </phong>
        </technique>
      </profile_COMMON>
    </effect>
    <effect id="Gummi_008_002-effect">
      <profile_COMMON>
        <technique sid="common">
          <phong>
            <emission>
              <color sid="emission">0 0 0 1</color>
            </emission>
            <ambient>
              <color sid="ambient">0 0 0 1</color>
            </ambient>
            <diffuse>
              <color sid="diffuse">0.1 0.1 0.1 1</color>
            </diffuse>
            <specular>
              <color sid="specular">0.025 0.025 0.025 1</color>
            </specular>
            <shininess>
              <float sid="shininess">50</float>
            </shininess>
            <index_of_refraction>
              <float sid="index_of_refraction">1</float>
            </index_of_refraction>
          </phong>
        </technique>
      </profile_COMMON>
    </effect>
  </library_effects>
  <library_materials>
    <material id="Metall_Alu_008_002-material" name="Metall_Alu_008_002">
      <instance_effect url="#Metall_Alu_008_002-effect"/>
    </material>
    <material id="Kunststoff_druckteile_005_002-material" name="Kunststoff_druckteile_005_002">
      <instance_effect url="#Kunststoff_druckteile_005_002-effect"/>
    </material>
    <material id="Gummi_008_002-material" name="Gummi_008_002">
      <instance_effect url="#Gummi_008_002-effect"/>
    </material>
  </library_materials>
  <library_geometries>
    <geometry id="Circle_034-mesh" name="Circle.034">
      <mesh>
        <source id="Circle_034-mesh-positions">
          <float_array id="Circle_034-mesh-positions-array" count="1590">0.002322375 -1.16049e-4 -0.007919907 0.002057492 -0.00108093 -0.007912456 0.001362144 -0.001886308 -0.007917106 4.38963e-4 -0.002281606 -0.007915258 -5.8966e-4 -0.002252876 -0.007898747 -0.001535117 -0.001739144 -0.007923841 -0.002124786 -9.38066e-4 -0.007906019 -0.002317845 1.14266e-4 -0.007920086 -0.002052247 0.001079261 -0.007912993 -0.001357555 0.00188452 -0.007917165 -4.35755e-4 0.00228095 -0.007914304 5.94236e-4 0.002251088 -0.007898628 0.001539647 0.001737356 -0.007923662 0.002129316 9.36285e-4 -0.00790584 0.002525269 -1.04141e-4 -0.005999982 0.002230644 -0.001188635 -0.005999982 0.001494586 -0.002037942 -0.005999982 4.63009e-4 -0.002483785 -0.005999982 -6.59903e-4 -0.002437889 -0.005999982 -0.001651644 -0.001909315 -0.005999982 -0.002315878 -0.001002788 -0.005999982 -0.002520978 1.0219e-4 -0.005999982 -0.002226352 0.001186728 -0.005999982 -0.001490354 0.002036035 -0.005999982 -4.58745e-4 0.002481877 -0.005999982 6.64167e-4 0.002435982 -0.005999982 0.001655936 0.001907348 -0.005999982 0.00232017 0.001000821 -0.005999982 0.007370114 -0.003310859 -0.005791068 0.005778551 -0.003250002 -0.005799949 0.003630995 -0.004953384 -0.005795598 0.001120805 -0.006029129 -0.00578022 -0.001603484 -0.005915045 -0.00577563 -0.003758132 -0.004790544 -0.005799949 -0.003668308 -0.002594232 -0.005799949 -0.003556311 1.44566e-4 -0.005799949 -0.003444314 0.002883374 -0.005799949 -0.003322362 0.005866944 -0.005799949 -0.001129269 0.005777239 -0.005799949 0.001601636 0.0056656 -0.005799949 0.007727026 0.005415141 -0.005799949 0.00757277 0.001643419 -0.005799949 -0.004263579 -0.005486488 -0.005232274 -0.004124522 -4.46877e-4 -0.005365967 -0.004027962 0.001958012 -0.005368113 -0.003951549 0.003862023 -0.005369782 -0.003844261 0.00590384 -0.005341529 -0.004940569 0.001449525 -0.004619598 -0.006084024 0.003159105 -0.003604769 -0.008418023 0.00414586 -0.001615524 -0.008341848 0.006079614 -0.00160557 -0.004299938 -0.00552833 -0.003999948 -0.004105091 -4.46969e-4 -0.005056321 0.004721879 -0.005599498 -0.004794776 -0.004944503 0.001495897 -0.00440675 -0.006124973 0.003104269 -0.003276288 0.003575205 -0.005942404 -0.00524199 0.001059949 -0.006895244 -0.005265712 -0.001615107 -0.006786286 -0.005264937 0.007077515 -0.005857586 -0.004315197 0.003590464 -0.005969822 -0.003999948 0.001060307 -0.006894886 -0.003999948 -0.001615226 -0.006785988 -0.003999948 0.004719614 -0.005639076 -0.003934264 0.005509912 -0.005835711 -0.004388272 0.005799591 -0.006270051 -0.002324759 0.006959378 -0.007524251 -0.001595854 0.006959438 -0.007524251 -7.14205e-4 0.01154339 -0.007707655 -0.001595854 0.01059532 -5.30809e-4 -0.00552988 0.009233117 -0.007617354 -0.001595854 0.01038825 -0.007662475 -0.001595854 0.008077979 -0.007572174 -0.001595854 0.007378339 -0.003315389 -0.004827857 0.01053917 -0.006258487 -0.004457533 0.008748233 -0.007196664 -0.002302944 0.0100885 -0.006908357 -0.002892613 0.007266461 -0.006673991 -0.003107249 0.007584869 0.001642763 -0.004821062 0.007141172 -0.004829347 -0.004137337 0.01050686 -0.005206763 -0.004443585 0.008798718 -0.006421566 -0.002302408 0.01014 -0.006034493 -0.00298953 0.007332205 -0.005666851 -0.003149747 0.01424169 -6.47828e-4 -0.008993327 0.0141285 -0.003402829 -0.008523106 0.01403409 -0.005718648 -0.007277369 0.01394367 -0.007939815 -0.004999995 0.01389604 -0.009100615 -0.002774178 0.01816821 0.008472979 -0.005419135 0.01822322 0.009836554 -0.002831518 0.01745355 -0.008886575 -0.003560483 0.01751697 -0.007427513 -0.005967915 0.01758038 -0.00587821 -0.007336378 0.01768368 -0.003354191 -0.008589804 0.01779723 -5.77283e-4 -0.008999943 0.01467579 0.009975254 -0.002826571 0.01462113 0.008612513 -0.005413293 0.01453667 0.006560444 -0.007383882 0.01443177 0.00401014 -0.008610427 0.01808387 0.006419301 -0.007391691 0.01873141 0.004052579 -0.008708417 0.02038419 -0.008829176 -0.003514468 0.02045184 -0.007542252 -0.005967915 0.02050548 -0.006028294 -0.007317662 0.02031922 -0.004351794 -0.008264422 0.02010983 0.009131312 -0.005306959 0.02051639 0.01041382 -0.002891957 0.01955747 0.007220566 -0.007205605 0.01887214 0.004804134 -0.00847429 0.02539801 0.01014971 -0.004212856 0.02619302 0.01077318 -0.002808988 0.02486491 0.009144246 -0.005690038 0.02442163 0.008064091 -0.006778955 0.03097897 0.01039618 -0.003871381 0.03116852 0.01096779 -0.00229758 0.0305885 0.009768426 -0.004969894 0.03037595 0.009121179 -0.005848705 0.0356763 0.01018762 -0.003760755 0.03572762 0.01061248 -0.002644419 0.03538334 0.009694814 -0.00472486 0.03521084 0.00904715 -0.005499958 0.04365766 0.008951663 -0.00395292 0.04351222 0.009503781 -0.002660036 0.043765 0.008388578 -0.004902362 0.04394721 0.00767678 -0.005764186 0.01888817 0.003640055 -0.008809268 0.02474647 0.006810367 -0.007701635 0.03052353 0.007987976 -0.006955385 0.03533673 0.008109211 -0.006636798 0.04404515 0.006918072 -0.006499946 0.02374899 -0.008763313 -0.003461599 0.02381527 -0.007533192 -0.005886793 0.02388668 -0.006365418 -0.007164597 0.02366226 -0.005615055 -0.007683813 0.02888935 -0.0086627 -0.003380894 0.02892798 -0.007464051 -0.005731642 0.02894586 -0.006871759 -0.006507158 0.0288912 -0.006316363 -0.007115483 0.03410291 -0.008534491 -0.003291964 0.0340963 -0.008204519 -0.004162073 0.03411978 -0.007087349 -0.005977332 0.03414809 -0.006232023 -0.00674951 0.0450769 -0.008445382 -0.00272119 0.04711204 -0.007650673 -0.004484891 0.04714709 -0.006809592 -0.005704045 0.04718118 -0.006072044 -0.006499946 0.04437047 0.008560597 -0.003918349 0.04438871 0.009028136 -0.002744972 0.04435157 0.008078098 -0.004787385 0.04432564 0.007414221 -0.005558788 0.0443269 0.006768047 -0.006499946 0.04629248 0.008297562 -0.003905832 0.04631066 0.008765995 -0.002737641 0.04627263 0.007823824 -0.004775762 0.04621809 0.007184088 -0.005562365 0.04591792 0.006300687 -0.006499946 0.05067205 0.008132696 -0.00390923 0.05069112 0.008600115 -0.002734661 0.05065244 0.007651507 -0.004781007 0.05062842 0.007064282 -0.005610227 0.0505895 0.006109654 -0.006499946 0.04998999 -0.008549451 -0.002687573 0.05002206 -0.007764875 -0.004482746 0.05005639 -0.006925284 -0.005701184 0.05008673 -0.006187021 -0.006499946 0.0528925 0.006001114 -0.006499946 0.05237495 -0.006236851 -0.006485998 0.05401939 0.005643367 -0.006192743 0.05384916 -0.005478858 -0.006452679 0.05576598 0.002454757 -0.006499946 0.05551099 -0.003789246 -0.006499946 0.05670326 7.49617e-4 -0.006499946 0.05657285 -0.001312613 -0.006499946 0.05220103 0.008584797 -0.002593398 0.05209386 -0.00868237 -0.00251913 0.05476999 0.007653117 -0.00258696 0.05406123 -0.008002698 -0.002515971 0.05736935 0.005207538 -0.002578794 0.05683851 -0.005846679 -0.002515971 0.05859333 0.001188457 -0.0026142 0.05846846 -0.00200653 -0.002604246 0.05599337 -0.002046465 -0.006499946 0.05647408 0.00150609 -0.006499946 0.05837678 -0.003247976 -0.002582192 0.0586425 0.00244534 -0.002619683 0.05220746 0.008739829 -0.002007007 0.05061763 -0.007788419 -0.004482328 0.05132842 -0.006976068 -0.005699992 0.05223643 -0.008682668 -0.001900851 0.05479025 0.007688581 -0.002001702 0.05495131 -0.007498204 -0.001951754 0.05733704 0.005188882 -0.001999974 0.05682629 -0.005845248 -0.002021193 0.05859333 0.001188635 -0.002020478 0.05846846 -0.002006292 -0.002019822 0.0584104 -0.00326395 -0.002019524 0.05864244 0.002444446 -0.002020716 0.05164921 0.008084237 -0.003903448 0.05490791 1.73528e-5 -0.001917481 0.05133837 0.007624268 -0.004781365 0.05175942 0.007019162 -0.005611419 0.01067775 -5.02563e-4 -0.008996605 0.01058298 -0.003258526 -0.00852108 0.01049125 -0.00560528 -0.007281363 0.01404416 0.009993791 -0.002824127 0.01205247 0.008710443 -0.005406677 0.008359789 0.006290256 -0.007721245 0.008206665 0.003121495 -0.008872687 0.00810039 0.001646578 -0.005799949 0.008271694 0.005430221 -0.005799949 0.003772974 0.004355072 -0.001749515 0.002669572 0.004398226 -0.003134191 0.001075148 0.004460573 -0.003902614 -6.94542e-4 0.004529714 -0.003902614 -0.002288997 0.004592061 -0.003134191 -0.003394067 0.004635274 -0.001750528 0.01062142 -0.007802724 -0.005005776 0.01140075 -0.009012162 -0.002780497 0.01162892 -0.009318888 -0.001599967 0.0518344 -1.42101e-4 -0.008947551 0.05160987 -8.77175e-4 -0.008917808 0.05106383 -0.00148195 -0.008891105 0.05034101 -0.001783847 -0.008883774 0.04959058 -0.001759588 -0.00888592 0.04887104 -0.001379549 -0.008889794 0.04839432 -7.66147e-4 -0.008896291 0.04823499 2.27832e-5 -0.008929193 0.04841423 7.78482e-4 -0.008951008 0.04894477 0.001424431 -0.008969128 0.04968643 0.001754045 -0.008981108 0.05048608 0.001702427 -0.008999943 0.05123758 0.001323819 -0.008975863 0.05170816 6.71906e-4 -0.008958399 0.05202639 -3.71999e-4 -0.005641877 0.05180054 -0.00101906 -0.005823194 0.05123347 -0.001222014 -0.005573093 0.04996138 -0.002021253 -0.005783736 0.04996138 -0.002021253 -0.005783736 0.04872542 -0.001138985 -0.005525171 0.0481773 -8.72889e-4 -0.005816221 0.04800516 -2.03062e-4 -0.005632579 0.0482521 9.50628e-4 -0.005264639 0.04882848 0.001382052 -0.005224585 0.05011463 0.001899302 -0.005784511 0.05011463 0.00189954 -0.005784511 0.05133485 0.001254856 -0.005229353 0.05187809 8.70799e-4 -0.005273342 0.002322375 -1.1605e-4 0.007919907 0.002057433 -0.00108093 0.007912397 0.001362144 -0.001886308 0.007917106 4.38959e-4 -0.002281606 0.007915258 -5.89664e-4 -0.002252876 0.007898747 -0.001535117 -0.001739144 0.007923781 -0.002124786 -9.38069e-4 0.007906019 -0.002317845 1.14264e-4 0.007920026 -0.002052247 0.001079261 0.007912993 -0.001357555 0.00188452 0.007917165 -4.35759e-4 0.00228095 0.007914304 5.94234e-4 0.002251088 0.007898628 0.001539647 0.001737356 0.007923662 0.002129316 9.36283e-4 0.00790584 0.002525269 -1.04143e-4 0.005999982 0.002230644 -0.001188635 0.005999982 0.001494586 -0.002037942 0.005999982 4.63005e-4 -0.002483844 0.005999982 -6.59907e-4 -0.002437889 0.005999982 -0.001651644 -0.001909315 0.005999982 -0.002315878 -0.001002788 0.005999982 -0.002520978 1.02188e-4 0.005999982 -0.002226352 0.001186728 0.005999982 -0.001490354 0.002036035 0.005999982 -4.58749e-4 0.002481877 0.005999982 6.64163e-4 0.002435922 0.005999982 0.001655936 0.001907348 0.005999982 0.00232017 0.001000821 0.005999982 0.007370114 -0.003310859 0.005791008 0.005778551 -0.003250002 0.005799949 0.003630995 -0.004953384 0.005795538 0.001120805 -0.006029129 0.00578022 -0.001603484 -0.005915045 0.00577563 -0.003758132 -0.004790544 0.005799949 -0.003668308 -0.002594232 0.005799949 -0.003556311 1.44564e-4 0.005799949 -0.003444314 0.002883374 0.005799949 -0.003322362 0.005866944 0.005799949 -0.001129269 0.005777239 0.005799949 0.001601636 0.0056656 0.005799949 0.007727026 0.005415141 0.005799949 0.00757277 0.001643419 0.005799949 -0.004263639 -0.005486488 0.005232274 -0.004124522 -4.46879e-4 0.005365967 -0.004027962 0.001958012 0.005368053 -0.003951549 0.003862023 0.005369782 -0.003844261 0.00590384 0.00534147 -0.004940569 0.001449525 0.004619538 -0.006084084 0.003159105 0.003604769 -0.008418023 0.00414586 0.001615464 -0.008341848 0.006079614 0.00160551 -0.008589684 0.004206359 -1.7792e-7 -0.008488237 0.006085395 0 -0.004299938 -0.00552833 0.003999948 -0.004105091 -4.46971e-4 0.005056321 0.004721879 -0.005599498 0.004794776 -0.004944503 0.001495897 0.00440675 -0.006124973 0.003104269 0.003276228 0.003575205 -0.005942404 0.00524193 0.001059889 -0.006895244 0.005265712 -0.001615107 -0.006786286 0.005264937 0.007077515 -0.005857586 0.004315197 0.003590464 -0.005969822 0.003999948 0.001060307 -0.006894886 0.003999948 -0.001615226 -0.006785988 0.003999948 0.004719614 -0.005639076 0.003934264 0.005509912 -0.005835711 0.004388272 0.005799591 -0.006270051 0.002324759 0.006959378 -0.007524251 0.001595854 0.006959438 -0.007524251 7.14191e-4 0.006224453 -0.006729483 0 0.006959378 -0.007524251 0 0.01154339 -0.007707655 0.001595854 0.01059532 -5.30811e-4 0.00552988 0.01154339 -0.007707655 0 0.009233117 -0.007617354 0.001595854 0.01038825 -0.007662475 0.001595854 0.008077979 -0.007572174 0.001595854 0.007378339 -0.003315389 0.004827857 0.01053917 -0.006258487 0.004457533 0.008748233 -0.007196664 0.002302944 0.0100885 -0.006908357 0.002892613 0.007266461 -0.006673991 0.003107249 0.007584869 0.001642763 0.004821062 0.007141172 -0.004829347 0.004137337 0.01050686 -0.005206763 0.004443526 0.008798718 -0.006421566 0.002302408 0.01014 -0.006034493 0.00298953 0.007332205 -0.005666851 0.003149747 0.01424169 -6.4783e-4 0.008993327 0.0141285 -0.003402829 0.008523106 0.01403409 -0.005718648 0.007277309 0.01394367 -0.007939875 0.004999935 0.01389604 -0.009100615 0.002774178 0.01387768 -0.009550273 0 0.01816821 0.008472979 0.005419135 0.01822322 0.009836554 0.002831518 0.0182411 0.01029336 0 0.01742714 -0.00946033 0 0.01745355 -0.008886575 0.003560483 0.01751697 -0.007427513 0.005967915 0.01758038 -0.00587821 0.007336378 0.01768368 -0.003354191 0.008589804 0.01779723 -5.77285e-4 0.008999943 0.01469469 0.01043295 0 0.01467579 0.009975254 0.002826571 0.01462113 0.008612513 0.005413234 0.01453667 0.006560444 0.007383882 0.01443177 0.00401014 0.008610427 0.01808387 0.006419301 0.007391691 0.01873141 0.004052579 0.008708417 0.02035802 -0.009396851 0 0.02038419 -0.008829236 0.003514468 0.02045184 -0.007542252 0.005967915 0.02050548 -0.006028294 0.007317602 0.02031922 -0.004351794 0.008264362 0.02010983 0.009131312 0.005306959 0.02051639 0.01041382 0.002891957 0.02061653 0.01089835 0 0.01955747 0.007220566 0.007205605 0.01887214 0.004804134 0.00847423 0.02539801 0.01014971 0.004212856 0.02619302 0.01077318 0.002808988 0.02621096 0.01123154 0 0.02486491 0.009144246 0.005690038 0.02442163 0.008064091 0.006778955 0.03097897 0.01039618 0.003871381 0.03116852 0.01096779 0.00229758 0.03119724 0.01127654 0 0.0305885 0.009768426 0.004969894 0.03037595 0.009121179 0.005848705 0.0356763 0.01018762 0.003760755 0.03572762 0.01061248 0.002644419 0.03574705 0.01101589 0 0.03538334 0.009694814 0.00472486 0.03521084 0.00904715 0.005499958 0.04365766 0.008951663 0.00395292 0.04351222 0.009503781 0.002660036 0.04338365 0.009940266 0 0.043765 0.008388578 0.004902362 0.04394721 0.00767678 0.005764186 0.01888817 0.003640055 0.008809268 0.02474647 0.006810367 0.007701635 0.03052347 0.007987976 0.006955385 0.03533673 0.008109211 0.006636798 0.04404515 0.006918072 0.006499946 0.02372229 -0.009324073 0 0.02374893 -0.008763313 0.003461599 0.02381527 -0.007533192 0.005886793 0.02388668 -0.006365418 0.007164597 0.02366226 -0.005615055 0.007683813 0.02887719 -0.009212493 0 0.02888935 -0.0086627 0.003380894 0.02892798 -0.007464051 0.005731642 0.02894586 -0.006871759 0.006507158 0.0288912 -0.006316363 0.007115483 0.03407883 -0.00907576 0 0.03410291 -0.008534491 0.003291964 0.03409624 -0.008204519 0.004162073 0.03411978 -0.007087349 0.005977332 0.03414803 -0.006232023 0.00674951 0.04513174 -0.008815407 0 0.0450769 -0.008445382 0.00272119 0.04711204 -0.007650673 0.004484891 0.04714709 -0.006809592 0.005704045 0.04718118 -0.006072044 0.006499946 0.04437047 0.008560597 0.003918349 0.04438871 0.009028136 0.002745032 0.04440492 0.009442269 0 0.04435157 0.008078098 0.004787385 0.04432564 0.007414221 0.005558788 0.0443269 0.006768047 0.006499946 0.04629248 0.008297562 0.003905832 0.04631066 0.008765995 0.002737641 0.04633063 0.009196341 0 0.04627263 0.007823824 0.004775762 0.04621809 0.007184088 0.005562424 0.04591792 0.006300687 0.006499946 0.05067205 0.008132696 0.00390923 0.05069112 0.008600115 0.002734661 0.05070662 0.009019911 0 0.05065244 0.007651507 0.004781007 0.05062842 0.007064282 0.005610287 0.0505895 0.006109654 0.006499946 0.04996991 -0.00895524 0 0.04998999 -0.008549451 0.002687573 0.05002206 -0.007764875 0.004482746 0.05005639 -0.006925284 0.005701184 0.05008673 -0.006187021 0.006499946 0.0528925 0.006001114 0.006500005 0.05237495 -0.006236851 0.006485998 0.05401939 0.005643367 0.006192803 0.05384916 -0.005478858 0.006452739 0.05576598 0.002454757 0.006499946 0.05551093 -0.003789246 0.006499946 0.05670326 7.49615e-4 0.006499946 0.05657285 -0.001312613 0.006499946 0.05220103 0.008584797 0.002593398 0.05209386 -0.00868237 0.00251913 0.05476999 0.007653117 0.00258696 0.05406123 -0.008002698 0.002516031 0.05736935 0.005207538 0.002578854 0.05683851 -0.005846679 0.002516031 0.05859333 0.001188457 0.0026142 0.05846846 -0.00200653 0.002604246 0.05599337 -0.002046465 0.006499946 0.05647408 0.00150609 0.006499946 0.05837678 -0.003247976 0.002582192 0.0586425 0.00244534 0.002619743 0.05220746 0.008739829 0.002007007 0.05061763 -0.007788419 0.004482328 0.05132842 -0.006976068 0.005699992 0.05053317 -0.008942127 0 0.05223643 -0.008682668 0.001900851 0.05479025 0.007688581 0.002001762 0.05495131 -0.007498204 0.001951754 0.05733704 0.005188882 0.001999974 0.05682629 -0.005845248 0.002021193 0.05859333 0.001188635 0.002020478 0.05846846 -0.002006292 0.002019822 0.0584104 -0.00326395 0.002019584 0.05864244 0.002444446 0.002020716 0.05205571 -0.008727431 0 0.0549463 -0.007501423 0 0.05212843 0.008612215 0 0.05479025 0.007688581 0 0.05164915 0.008084237 0.003903508 0.05490791 1.73509e-5 0.001917481 0.05133837 0.007624268 0.004781365 0.05175942 0.007019162 0.005611419 0.05479687 7.27378e-5 0 0.01067775 -5.02567e-4 0.008996546 0.01058298 -0.003258526 0.00852108 0.01049125 -0.00560528 0.007281363 0.01199823 0.008787155 0 0.01404416 0.009993731 0.002824127 0.01205247 0.008710443 0.005406677 0.008359789 0.006290256 0.007721245 0.008206665 0.003121495 0.008872687 0.008323967 0.005428135 0 0.00810039 0.001646578 0.005799949 0.008271694 0.005430161 0.005799949 0.004166781 0.004339694 0 0.003772974 0.004355072 0.001749515 0.002669572 0.004398226 0.003134191 0.001075148 0.004460573 0.003902614 -6.94546e-4 0.004529714 0.003902614 -0.002288997 0.004592061 0.003134191 -0.003394067 0.004635274 0.001750469 -0.003796815 0.00465101 4.83602e-7 0.008324205 0.005428135 0 0.01062142 -0.007802724 0.005005717 0.01140075 -0.009012162 0.002780497 0.01162892 -0.009318888 0.001599967 0.0518344 -1.42103e-4 0.008947551 0.05160987 -8.77177e-4 0.008917808 0.05106377 -0.00148195 0.008891105 0.05034101 -0.001783847 0.008883774 0.04959058 -0.001759588 0.00888592 0.04887104 -0.001379549 0.008889794 0.04839432 -7.66149e-4 0.008896291 0.04823499 2.27797e-5 0.008929193 0.04841423 7.78479e-4 0.008951067 0.04894477 0.001424431 0.008969128 0.04968643 0.001754045 0.008981108 0.05048608 0.001702427 0.009000003 0.05123758 0.001323819 0.008975863 0.05170816 6.71903e-4 0.008958458 0.05202639 -3.72001e-4 0.005641877 0.05180054 -0.00101906 0.005823194 0.05123347 -0.001222014 0.005573153 0.04996138 -0.002021253 0.005783736 0.04996138 -0.002021253 0.005783736 0.04872542 -0.001138985 0.005525171 0.0481773 -8.72889e-4 0.005816221 0.04800516 -2.03064e-4 0.005632579 0.0482521 9.50626e-4 0.005264639 0.04882848 0.001382052 0.005224585 0.05011463 0.001899302 0.005784571 0.05011463 0.00189954 0.005784571 0.05133485 0.001254856 0.005229353 0.05187809 8.70797e-4 0.005273342</float_array>
          <technique_common>
            <accessor source="#Circle_034-mesh-positions-array" count="530" stride="3">
              <param name="X" type="float"/>
              <param name="Y" type="float"/>
              <param name="Z" type="float"/>
            </accessor>
          </technique_common>
        </source>
        <source id="Circle_034-mesh-normals">
          <float_array id="Circle_034-mesh-normals-array" count="1590">0.6790753 0.2929201 -0.6730936 0.5755956 0.2430564 -0.7807774 0.7139359 -0.03286916 -0.6994392 0.46859 0.5377767 -0.7008707 0.4061806 0.4722548 -0.7822997 0.1908978 0.7212611 -0.6658382 0.1605018 0.6120374 -0.7743704 -0.1334917 0.7040209 -0.6975203 -0.1114255 0.6243306 -0.7731725 -0.4195159 0.5734848 -0.7036488 -0.3746806 0.5081703 -0.7754853 -0.6313467 0.3381201 -0.6979086 -0.5852736 0.295704 -0.7549929 -0.7139359 0.03286916 -0.6994392 -0.682358 0.02704036 -0.7305179 -0.6790204 -0.2928922 -0.6731607 -0.6077275 -0.2467777 -0.7548298 -0.4685353 -0.5376924 -0.7009718 -0.4143925 -0.4813522 -0.7723852 -0.1908987 -0.7219054 -0.6651394 -0.1674886 -0.6141049 -0.7712476 0.1335522 -0.703377 -0.6981582 0.1144473 -0.6255537 -0.7717412 0.4195749 -0.5743061 -0.7029436 0.3732175 -0.5121098 -0.773597 0.6317217 -0.3381553 -0.6975521 0.5530431 -0.2991212 -0.7776053 0.6291292 -0.0217604 -0.7769962 0.6556702 -0.236156 -0.717166 -0.009155631 0.8130535 -0.5821171 0.03643995 0.8917113 -0.4511355 -0.1837259 0.7748231 -0.6048918 -0.4000455 0.01852512 -0.9163081 -0.4422215 0.004486262 -0.8968948 -0.418965 -0.1539989 -0.8948479 -0.09176999 -0.3165409 -0.9441294 0.06808727 -0.325757 -0.9429987 0.1872667 -0.2923448 -0.9377983 0.05798614 -0.246075 -0.9675147 -0.2961268 0.8622865 -0.4108176 -0.4180472 0.01672428 -0.9082714 -0.6313823 0.0250563 -0.7750669 -0.8773634 -0.06231999 -0.4757624 -0.76509 -0.4828774 -0.4259893 -0.6212509 0.03589069 -0.7827895 -0.5856388 0.7341772 -0.3435275 -0.7767878 -0.1576038 -0.6097229 -0.8706034 -0.2515429 -0.4228191 -0.8643277 0.04001033 -0.5013351 -0.607731 0.794143 0 -0.8269701 -0.5612117 -0.03408956 0.6025452 -0.5319232 -0.5949764 -0.06775325 -0.8154811 -0.5748043 -0.8609762 -0.4803106 -0.1673976 -0.8102838 -0.5756525 0.1098384 -0.2087526 -0.8579611 -0.4693882 0.135962 -0.8726291 -0.4690766 0.3428236 -0.7833702 -0.5184624 -0.2371318 -0.9714775 2.13632e-4 0.3163021 -0.948418 -0.02136349 0.2940227 -0.6531736 -0.6977928 -0.6635494 -0.746226 -0.0533781 -0.4198812 -0.9075759 -0.002410948 -0.4189034 -0.9080309 0 -0.560176 -0.2140601 -0.8002383 -0.6817413 -0.2155887 -0.6991068 -0.9954681 -0.01294004 -0.09421205 -0.9476526 -0.3049176 -0.0947622 -0.6415508 -0.3772212 -0.6679197 -0.6913484 -0.04272669 -0.7212571 -0.03442513 -0.8637723 0.5027049 -0.03491348 -0.8642314 0.5018817 -0.05179131 -0.8533821 0.5187069 -0.01776218 -0.6427363 -0.7658816 -0.185158 -0.9818228 -0.04171925 -0.8103513 -0.5840194 -0.04745763 -0.9879872 -0.1370297 -0.07144463 -0.3730308 -0.9094286 -0.1838145 0.2736978 -0.8055591 -0.5255132 0.3391007 -0.01455771 -0.9406375 0.9965584 -0.08288884 9.76599e-4 0.8606526 -0.0735827 -0.503848 -0.4372552 -0.6157646 -0.6554707 -0.8540819 0.005493462 -0.5201095 0.9960592 -0.07553529 0.04648089 -0.01229918 0.2705218 -0.9626353 -0.01638883 0.2696379 -0.9628224 0.001098632 -0.05209583 -0.9986416 0.005462825 0.5727162 -0.8197356 -0.08847421 0.5840399 -0.8068889 0.02691793 0.7969182 -0.6034873 -0.09686774 0.7906291 -0.6045844 0.03256398 0.9480794 -0.3163622 -0.1043753 0.9426128 -0.3171544 -0.2089934 0.9779171 0 -0.1069372 0.9942659 0 -0.01580905 -0.9505598 -0.310139 -0.009064078 -0.936046 -0.3517612 0.01382523 -0.9999045 0 -0.02807736 -0.815404 -0.5782111 -0.05560588 -0.7587365 -0.6490201 -0.0254836 -0.5981485 -0.80098 -0.03970474 -0.5634967 -0.8251638 -0.009949266 -0.3249699 -0.9456721 0.001831114 -0.2876386 -0.9577373 0.08032643 -0.04507678 -0.9957489 -0.02087479 -0.5815647 -0.8132323 3.96747e-4 -0.7835443 -0.6213359 0.02359139 -0.9997218 0 0.02188223 -0.949086 -0.3142562 0.05426239 -0.2842215 -0.9572219 8.24012e-4 -0.6517935 -0.7583962 0.01351982 -0.8167468 -0.5768378 0.02172935 -0.999764 0 0.02362197 -0.9506171 -0.3094663 0.04550457 -0.3333341 -0.94171 0.02032542 -0.7676672 -0.6405264 0.03326576 -0.8404948 -0.5407977 0.0217598 -0.9997633 0 0.02597188 -0.9501575 -0.3106865 0.04898351 -0.4183287 -0.906974 0.0322898 -0.7737957 -0.6326118 0.01184141 -0.9006224 -0.4344412 0.01760941 -0.9632105 -0.2681705 0.02426242 -0.9997057 0 0.0472126 -0.3587792 -0.9322277 0.004181087 -0.3932675 -0.9194146 -0.002227902 -0.7808371 -0.6247307 -0.01245188 -0.8649822 -0.5016482 0.02490371 -0.9996899 0 -0.006347894 -0.9999799 0 0.155312 0.4150605 -0.8964391 0.07129293 0.4454285 -0.8924746 -0.03070223 0.122992 -0.9919327 0.02920693 0.3302489 -0.943442 0.04010242 0.3966906 -0.9170761 0.1793305 0.4007774 -0.8984531 0.3931274 0.7278397 -0.5618722 0.04141426 0.3747735 -0.926191 0.2926464 0.9210625 -0.2569087 0.2917603 0.9564916 0 0.08377563 0.9606276 -0.2649081 0.2932621 0.8630006 -0.4113727 0.07962501 0.9011453 -0.4261419 0.2977467 0.7821803 -0.5473034 0.07223802 0.8257169 -0.5594403 0.05444538 0.7464573 -0.6632023 0.02588033 0.7534296 -0.6570191 0.08371478 0.9964898 0 0.1569608 0.9876049 0 0.04150521 0.9669502 -0.2515645 0.04019439 0.9029242 -0.4279162 0.03103804 0.8458415 -0.5325307 -0.009613394 -0.4022679 -0.9154716 -0.02734518 -0.778575 -0.6269556 0.00463885 -0.9638513 -0.2664004 -0.02911502 -0.8724446 -0.4878451 -0.01623618 -0.9998683 0 0.01611435 0.3664489 -0.9302987 0.231612 0.4514434 -0.8617162 0.5500414 0.04605293 -0.8338667 0.974188 -0.03891134 -0.2223593 0.9712914 -0.05432343 -0.2316071 0.3823778 -0.2167794 -0.898217 0.903714 -0.3112077 -0.2940252 0.7269665 -0.636172 -0.2584668 0.466116 0.2143041 -0.8583762 0.9468235 0.2064614 -0.2467771 0.533024 -0.1723439 -0.8283617 0.4828096 0.4459122 -0.7536957 0.5185152 0.7959011 -0.3125436 0.2852042 0.2786121 -0.917079 0.481556 -0.2735094 -0.8326442 0.4193627 -0.89485 -0.1529006 0.2043538 0.9149838 -0.3479142 0.334129 -0.4362783 -0.8354753 0.1834187 -0.9448353 -0.2713742 0.1823539 -0.5046704 -0.8438335 0.7737587 0.5721475 -0.271928 -0.02810835 -0.9593787 -0.2807179 0.07281839 -0.8002395 -0.5952432 0.5940035 0.418363 0.6871189 0.742635 -0.2386943 0.6257142 0.7164707 -0.02786409 0.6970605 0.5698685 -0.4881055 0.661062 0.7171098 -0.03042763 0.6962957 0.6742962 0.7297195 0.1132881 0.15174 0.9863405 -0.06408965 0.7302101 -0.6829354 0.01980715 0.2780603 -0.9600116 -0.03256392 0.2624976 -0.9649327 0 0.05981683 -0.9982094 0 0.2538578 0.9672416 0 0.09817934 0.8468084 -0.5227586 0.1966967 0.8711727 -0.4498541 0.1659662 0.7766962 -0.607617 0.6976108 0.002746701 0.7164717 0.8109923 0.5850571 0 0.9999909 0.004272639 0 0.7465725 0.1515607 0.6478108 -0.6438683 0.5414146 -0.5406516 -0.2560263 0.8752017 -0.4104539 -0.5780292 0.8160161 0 -0.7025572 -0.4191232 -0.575108 -0.2299923 0.9497558 -0.2122911 -0.9006531 0.3604322 -0.2427194 0.03619569 0.8919225 -0.4507375 0.01153606 0.8757353 0.4826539 -0.9306309 -0.3659593 0 -0.2227883 0.9748669 0 -0.9945414 -0.1043432 0 -0.09088605 0.9769799 0.1930032 0.2842833 0.9482521 0.1414245 0.2596882 0.9141427 0.3112962 0.08786463 0.8678425 0.4890083 -0.643187 -0.7541235 -0.1326964 -0.7071018 -0.6359308 -0.3091911 -0.4720038 -0.8815966 0 0.6840379 0.2801402 -0.6735086 0.8190718 0.5697917 -0.06677579 0.7240906 -0.06125134 -0.6869797 0.4994775 0.5696718 -0.652684 0.5491334 0.8349769 -0.03558546 0.2061275 0.6938875 -0.6899505 -0.3586614 0.9280881 -0.1000723 -0.1548549 0.7356982 -0.6593695 -0.7528356 0.6550841 -0.06405878 -0.4480886 0.5922937 -0.6696304 -0.5080791 0.8613051 -0.003051877 -0.6615604 0.307601 -0.6839003 -0.8196297 0.571873 -0.03418171 -0.7287235 0.001068115 -0.6848073 -0.9973843 0.03210574 -0.0647608 -0.6773142 -0.3490489 -0.647619 -0.7563297 -0.6497868 -0.07577943 -0.4834849 -0.5979929 -0.6392549 -0.5284392 -0.8487683 -0.01855564 -0.2191274 -0.7217165 -0.6565886 -0.3929922 -0.6468792 0.6535323 0.1639797 -0.738809 -0.6536604 0.375603 -0.5978762 0.7081431 0.4334343 -0.6474962 -0.6268042 0.4579647 -0.8887678 -0.01898264 0.6277815 -0.4023661 -0.6663273 0.6942602 -0.7157461 -0.07556658 0.9963931 -0.05948203 -0.06051969 0.6790753 0.2929201 0.6730936 0.7139359 -0.03286916 0.6994392 0.5755956 0.2430564 0.7807774 0.46859 0.5377767 0.7008707 0.1908978 0.7212611 0.6658382 0.1605018 0.6120374 0.7743704 -0.1334917 0.7040209 0.6975203 -0.4195232 0.5734643 0.7036612 -0.1114255 0.6243306 0.7731725 -0.6313467 0.3381201 0.6979086 -0.5852736 0.295704 0.7549929 -0.7139359 0.03286916 0.6994392 -0.6790204 -0.2928922 0.6731607 -0.6077275 -0.2467777 0.7548298 -0.4685353 -0.5376924 0.7009718 -0.1908987 -0.7219054 0.6651394 -0.1675183 -0.6141017 0.7712436 0.1335522 -0.703377 0.6981582 0.4195749 -0.5743061 0.7029436 0.3732175 -0.5121098 0.773597 0.6317217 -0.3381553 0.6975521 0.5530431 -0.2991212 0.7776053 0.6291292 -0.0217604 0.7769962 0.6556702 -0.236156 0.717166 0.3391007 -0.01455771 0.9406375 -0.009155631 0.8130535 0.5821171 0.03643995 0.8917113 0.4511355 0.03619569 0.8919225 0.4507375 -0.1837259 0.7748231 0.6048918 -0.3746806 0.5081703 0.7754853 -0.4000455 0.01852512 0.9163081 -0.682358 0.02704036 0.7305179 -0.4180472 0.01672428 0.9082714 -0.4422215 0.004486262 0.8968948 -0.418965 -0.1539989 0.8948479 -0.4143925 -0.4813522 0.7723852 -0.09176999 -0.3165409 0.9441294 0.06808727 -0.325757 0.9429987 0.1144473 -0.6255537 0.7717412 0.1872667 -0.2923448 0.9377983 0.05798614 -0.246075 0.9675147 0.4061806 0.4722548 0.7822997 -0.2961268 0.8622865 0.4108176 -0.6212509 0.03589069 0.7827895 -0.6313823 0.0250563 0.7750669 -0.8773634 -0.06231999 0.4757624 -0.76509 -0.4828774 0.4259893 -0.5856388 0.7341772 0.3435275 -0.8643277 0.04001033 0.5013351 -0.7767878 -0.1576038 0.6097229 -0.8706034 -0.2515429 0.4228191 -0.979822 -0.1901962 -0.06143534 -0.8269701 -0.5612117 0.03408956 -0.06775325 -0.8154811 0.5748043 -0.8609762 -0.4803106 0.1673976 -0.8102838 -0.5756525 -0.1098384 -0.2087526 -0.8579611 0.4693882 0.135962 -0.8726291 0.4690766 0.3428236 -0.7833702 0.5184624 -0.2371318 -0.9714775 -2.13632e-4 0.154334 -0.9880187 -1.83113e-4 0.3163021 -0.948418 0.02136349 0.6025452 -0.5319232 0.5949764 0.2940227 -0.6531736 0.6977928 -0.6635494 -0.746226 0.0533781 -0.4198812 -0.9075759 0.002410948 -0.7342017 -0.6789314 0 -0.560176 -0.2140601 0.8002383 -0.9476526 -0.3049176 0.0947622 -0.9954681 -0.01294004 0.09421205 -0.6913484 -0.04272669 0.7212571 -0.03445625 -0.8636952 -0.5028354 -0.01776218 -0.6427363 0.7658816 -0.05179059 -0.8535534 -0.518425 -0.4372552 -0.6157646 0.6554707 -0.185158 -0.9818228 0.04171925 -0.8103501 -0.5840185 0.04748809 -0.9879872 -0.1370297 0.07144463 -0.03491324 -0.8642866 -0.5017867 -0.3730308 -0.9094286 0.1838145 0.2736978 -0.8055591 0.5255132 0.9965584 -0.08288884 -9.76599e-4 0.02188181 -7.32448e-4 0.9997604 0.8606526 -0.0735827 0.503848 -0.8540819 0.005523979 0.5201094 0.9960592 -0.07553529 -0.04648089 -0.01229918 0.2705218 0.9626353 0.001098632 -0.05209583 0.9986416 -0.01638883 0.2696379 0.9628224 0.005462825 0.5727162 0.8197356 0.02691793 0.7969182 0.6034873 -0.08847421 0.5840399 0.8068889 0.03256398 0.9480794 0.3163622 -0.09686774 0.7906291 0.6045844 -0.1043753 0.9426128 0.3171544 -0.01580905 -0.9505598 0.310139 -0.009064078 -0.936046 0.3517612 -0.02807736 -0.815404 0.5782111 -0.05560588 -0.7587365 0.6490201 -0.0254836 -0.5981485 0.80098 -0.03970474 -0.5634967 0.8251638 -0.009949266 -0.3249699 0.9456721 0.001831114 -0.2876386 0.9577373 0.08032643 -0.04507678 0.9957489 -0.02087479 -0.5815647 0.8132323 3.96747e-4 -0.7835443 0.6213359 0.02188223 -0.949086 0.3142562 8.24012e-4 -0.6517935 0.7583962 0.05426239 -0.2842215 0.9572219 0.01351982 -0.8167468 0.5768378 0.02362197 -0.9506171 0.3094663 0.02032542 -0.7676672 0.6405264 0.04550457 -0.3333341 0.94171 0.03326576 -0.8404948 0.5407977 0.02597188 -0.9501575 0.3106865 0.0322898 -0.7737957 0.6326118 0.04898351 -0.4183287 0.906974 0.01184141 -0.9006224 0.4344412 0.01760941 -0.9632105 0.2681705 -0.002227902 -0.7808371 0.6247307 0.004181087 -0.3932675 0.9194146 -0.01245188 -0.8649822 0.5016482 0.00463885 -0.9638513 0.2664004 0.155312 0.4150605 0.8964391 0.07129293 0.4454285 0.8924746 -0.03070223 0.122992 0.9919327 0.02920693 0.3302489 0.943442 0.04010242 0.3966906 0.9170761 0.1793305 0.4007774 0.8984531 0.04141426 0.3747735 0.926191 0.3931532 0.727831 0.5618655 0.2926464 0.9210625 0.2569087 0.08377563 0.9606276 0.2649081 0.2932621 0.8630006 0.4113727 0.07962501 0.9011453 0.4261419 0.2977467 0.7821803 0.5473034 0.07220762 0.8257187 0.5594415 0.05444538 0.7464573 0.6632023 0.01611435 0.3664489 0.9302987 0.02588033 0.7534296 0.6570191 0.04150521 0.9669502 0.2515645 0.04019385 0.9029125 0.4279412 0.03106856 0.8458406 0.5325302 -0.02734518 -0.778575 0.6269556 -0.009613394 -0.4022679 0.9154716 -0.02911502 -0.8724446 0.4878451 -0.02810835 -0.9593787 0.2807179 0.1823539 -0.5046704 0.8438335 0.231612 0.4514434 0.8617162 0.5500414 0.04605293 0.8338667 0.533024 -0.1723439 0.8283617 0.9712931 -0.05429303 0.2316076 0.3823778 -0.2167794 0.898217 0.481556 -0.2735094 0.8326442 0.7269521 -0.6361861 0.2584725 0.466116 0.2143041 0.8583762 0.9468235 0.2064614 0.2467771 0.4828096 0.4459122 0.7536957 0.2852042 0.2786121 0.917079 0.5185152 0.7959011 0.3125436 0.334129 -0.4362783 0.8354753 0.4193627 -0.89485 0.1529006 0.2043538 0.9149838 0.3479142 0.1834187 -0.9448353 0.2713742 0.903714 -0.3112077 0.2940252 0.7737587 0.5721475 0.271928 0.02249246 -0.874339 0.4847944 0.0728197 -0.800254 0.5952234 0.7465725 0.1515607 -0.6478108 0.5940035 0.418363 -0.6871189 0.742635 -0.2386943 -0.6257142 0.974188 -0.03891134 0.2223593 0.7164707 -0.02786409 -0.6970605 0.5698685 -0.4881055 -0.661062 0.7171098 -0.03042763 -0.6962957 0.6742962 0.7297195 -0.1132881 0.7302101 -0.6829354 -0.01980715 0.15174 0.9863405 0.06408965 0.2780603 -0.9600116 0.03256392 0.09814912 0.8468109 0.5227601 0.1659662 0.7766962 0.607617 0.1966967 0.8711727 0.4498541 0.6976108 0.002746701 -0.7164717 0.8386667 -0.5446451 0 -0.6438683 0.5414146 0.5406516 -0.2560263 0.8752017 0.4104539 -0.2299923 0.9497558 0.2122911 -0.6817413 -0.2155887 0.6991068 -0.7025572 -0.4191232 0.575108 -0.6415508 -0.3772212 0.6679197 -0.9006688 0.3603957 0.2427154 0.01153606 0.8757353 -0.4826539 -0.1602262 0.9835758 -0.08310401 -0.09088605 0.9769799 -0.1930032 0.2842822 0.948248 -0.1414544 0.2596882 0.9141427 -0.3112962 0.08786463 0.8678425 -0.4890083 -0.643187 -0.7541235 0.1326964 -0.7071018 -0.6359308 0.3091911 0.6840379 0.2801402 0.6735086 0.724092 -0.06122094 0.686981 0.8190718 0.5697917 0.06677579 0.4994775 0.5696718 0.652684 0.5491334 0.8349769 0.03558546 0.2061275 0.6938875 0.6899505 -0.1548545 0.735727 0.6593374 -0.7337481 0.6765546 0.06235116 -0.4480886 0.5922937 0.6696304 -0.5080564 0.8613184 0.003051936 -0.6615666 0.3075734 0.6839067 -0.8196297 0.571873 0.03418171 -0.7287236 0.001037597 0.6848073 -0.6773142 -0.3490489 0.647619 -0.9973843 0.03210574 0.0647608 -0.4834849 -0.5979929 0.6392549 -0.5284392 -0.8487683 0.01855564 -0.2191274 -0.7217165 0.6565886 0.1639801 -0.7387804 0.6536927 -0.3890903 -0.6404777 0.6621158 0.4334343 -0.6474962 0.6268042 0.4579647 -0.8887678 0.01898264 0.6277737 -0.4023917 0.6663191 0.9963931 -0.05948203 0.06051969 -0.9985466 0.0538963 0 -0.979822 -0.1901962 0.06143534 0.154334 -0.9880187 1.83113e-4 0.9990597 -0.04156643 -0.01232951 0.02188181 -7.32448e-4 -0.9997604 0.02249246 -0.874339 -0.4847944 -0.1602262 0.9835758 0.08310401 0.2923697 0.9563054 0 -0.5568299 -0.8237848 -0.1063913 0.9990597 -0.04156643 0.01232951 0.0472126 -0.3587792 0.9322277 -0.5568299 -0.8237848 0.1063913 -0.3372945 0.9366239 0.09470003 -0.7563297 -0.6497868 0.07577943 0.3757154 -0.598044 0.7079417 0.6942451 -0.715761 0.07556492 -0.1505801 0.9885979 0 -0.1469812 0.9398436 -0.3083676 -0.1337063 0.8051983 -0.5777358 -0.1488729 0.3665363 -0.918416 -0.03451693 0.9994042 0 -0.03070169 0.957613 -0.2864171 -0.1034289 0.6090981 -0.7863219 -0.05652159 0.8833486 -0.4652962 -0.0742529 0.7807694 -0.6203917 -0.1105408 0.6684638 -0.7354842 0.002746701 0.8372685 -0.5467851 -0.007080495 0.7568824 -0.653513 0.07742649 0.8264217 -0.5577027 0.09619593 0.9618072 -0.2562683 0.09869688 0.9951176 0 0.2939016 0.923852 -0.2451927 0.09042727 0.9041815 -0.4174671 0.3001261 0.8631145 -0.4061499 0.3108983 0.7911779 -0.5266686 0.07974529 0.7632724 -0.6411366 0.3880197 0.7194265 -0.5760784 0.2870651 0.9579111 0 -0.1469812 0.9398436 0.3083676 -0.1337063 0.8051983 0.5777358 -0.1034289 0.6090981 0.7863219 -0.1488729 0.3665363 0.918416 -0.03070169 0.957613 0.2864171 -0.05652159 0.8833486 0.4652962 -0.0742529 0.7807694 0.6203917 -0.1105408 0.6684638 0.7354842 -0.007080495 0.7568824 0.653513 0.002746701 0.8372685 0.5467851 0.07974529 0.7632724 0.6411366 0.07742649 0.8264217 0.5577027 0.09619593 0.9618072 0.2562683 0.2938994 0.9238451 0.2452213 0.09042727 0.9041815 0.4174671 0.3001261 0.8631145 0.4061499 0.3109259 0.7911704 0.5266637 0.3880197 0.7194265 0.5760784 0.0223096 0.9997512 0 0.01925766 0.9716423 -0.2356699 0.01498502 0.9049625 -0.4252274 0.01925766 0.9716423 0.2356699 0.01498502 0.9049625 0.4252274</float_array>
          <technique_common>
            <accessor source="#Circle_034-mesh-normals-array" count="530" stride="3">
              <param name="X" type="float"/>
              <param name="Y" type="float"/>
              <param name="Z" type="float"/>
            </accessor>
          </technique_common>
        </source>
        <vertices id="Circle_034-mesh-vertices">
          <input semantic="POSITION" source="#Circle_034-mesh-positions"/>
        </vertices>
        <polylist material="Metall_Alu_008_002-material" count="854">
          <input semantic="VERTEX" source="#Circle_034-mesh-vertices" offset="0"/>
          <input semantic="NORMAL" source="#Circle_034-mesh-normals" offset="1"/>
          <vcount>3 3 3 3 3 3 3 3 3 3 3 3 3 3 3 3 3 3 3 3 3 3 3 3 3 3 3 3 3 3 3 3 3 3 3 3 3 3 3 3 3 3 3 3 3 3 3 3 3 3 3 3 3 3 3 3 3 3 3 3 3 3 3 3 3 3 3 3 3 3 3 3 3 3 3 3 3 3 3 3 3 3 3 3 3 3 3 3 3 3 3 3 3 3 3 3 3 3 3 3 3 3 3 3 3 3 3 3 3 3 3 3 3 3 3 3 3 3 3 3 3 3 3 3 3 3 3 3 3 3 3 3 3 3 3 3 3 3 3 3 3 3 3 3 3 3 3 3 3 3 3 3 3 3 3 3 3 3 3 3 3 3 3 3 3 3 3 3 3 3 3 3 3 3 3 3 3 3 3 3 3 3 3 3 3 3 3 3 3 3 3 3 3 3 3 3 3 3 3 3 3 3 3 3 3 3 3 3 3 3 3 3 3 3 3 3 3 3 3 3 3 3 3 3 3 3 3 3 3 3 3 3 3 3 3 3 3 3 3 3 3 3 3 3 3 3 3 3 3 3 3 3 3 3 3 3 3 3 3 3 3 3 3 3 3 3 3 3 3 3 3 3 3 3 3 3 3 3 3 3 3 3 3 3 3 3 3 3 3 3 3 3 3 3 3 3 3 3 3 3 3 3 3 3 3 3 3 3 3 3 3 3 3 3 3 3 3 3 3 3 3 3 3 3 3 3 3 3 3 3 3 3 3 3 3 3 3 3 3 3 3 3 3 3 3 3 3 3 3 3 3 3 3 3 3 3 3 3 3 3 3 3 3 3 3 3 3 3 3 3 3 3 3 3 3 3 3 3 3 3 3 3 3 3 3 3 3 3 3 3 3 3 3 3 3 3 3 3 3 3 3 3 3 3 3 3 3 3 3 3 3 3 3 3 3 3 3 3 3 3 3 3 3 3 3 3 3 3 3 3 3 3 3 3 3 3 3 3 3 3 3 3 3 3 3 3 3 3 3 3 3 3 3 3 3 3 3 3 3 3 3 3 3 3 3 3 3 3 3 3 3 3 3 3 3 3 3 3 3 3 3 3 3 3 3 3 3 3 3 3 3 3 3 3 3 3 3 3 3 3 3 3 3 3 3 3 3 3 3 3 3 3 3 3 3 3 3 3 3 3 3 3 3 3 3 3 3 3 3 3 3 3 3 3 3 3 3 3 3 3 3 3 3 3 3 3 3 3 3 3 3 3 3 3 3 3 3 3 3 3 3 3 3 3 3 3 3 3 3 3 3 3 3 3 3 3 3 3 3 3 3 3 3 3 3 3 3 3 3 3 3 3 3 3 3 3 3 3 3 3 3 3 3 3 3 3 3 3 3 3 3 3 3 3 3 3 3 3 3 3 3 3 3 3 3 3 3 3 3 3 3 3 3 3 3 3 3 3 3 3 3 3 3 3 3 3 3 3 3 3 3 3 3 3 3 3 3 3 3 3 3 3 3 3 3 3 3 3 3 3 3 3 3 3 3 3 3 3 3 3 3 3 3 3 3 3 3 3 3 3 3 3 3 3 3 3 3 3 3 3 3 3 3 3 3 3 3 3 3 3 3 3 3 3 3 3 3 3 3 3 3 3 3 3 3 3 3 3 3 3 3 3 3 3 3 3 3 3 3 3 3 3 3 3 3 3 3 3 3 3 3 3 3 3 3 3 3 3 3 3 3 3 3 3 3 3 3 3 3 3 3 3 3 3 3 3 3 3 3 3 3 3 3 3 3 3 3 3 3 3 3 3 3 3 3 3 3 3 3 3 3 3 3 3 3 3 3 3 3 3 3 3 3 3 3 3 3 3 3 3 3 3 3 3 3 3 3 3 3 3 3 3 3 3 3 3 3 3 3 3 3 3 3 3 3 3 3 3 3 3 3 3 3 3 </vcount>
          <p>13 0 27 1 0 2 12 3 26 4 27 1 11 5 25 6 12 3 10 7 24 8 25 6 9 9 23 10 24 8 8 11 22 12 9 9 7 13 21 14 22 12 6 15 20 16 7 13 5 17 19 18 20 16 4 19 18 20 5 17 3 21 17 22 18 20 2 23 16 24 3 21 1 25 15 26 2 23 0 2 14 27 15 26 14 27 27 1 28 28 27 1 26 4 40 29 5 17 3 21 4 19 25 6 24 8 39 30 24 8 23 10 37 31 23 10 22 12 37 31 22 12 21 14 36 32 21 14 20 16 34 33 20 16 19 18 33 34 19 18 18 20 32 35 18 20 17 22 31 36 17 22 16 24 30 37 16 24 15 26 29 38 15 26 14 27 28 28 26 4 25 6 40 29 37 31 36 32 46 39 36 32 35 40 44 41 35 40 34 33 43 42 34 33 33 34 42 43 46 39 45 44 50 45 45 44 44 41 48 46 44 41 43 42 47 47 50 45 49 48 300 49 43 42 42 43 51 50 28 28 59 51 64 52 48 46 47 47 55 53 47 47 43 42 54 54 32 35 31 36 58 55 31 36 30 37 57 56 30 37 29 38 56 57 33 34 32 35 58 55 58 55 57 56 62 58 57 56 56 57 60 59 42 43 58 55 51 50 59 51 77 60 64 52 65 61 64 52 67 62 65 61 67 62 319 63 202 64 203 65 80 66 69 67 209 68 208 69 70 70 72 71 77 60 71 72 70 70 75 73 60 59 56 57 63 74 68 75 71 72 74 76 72 71 66 77 77 60 63 74 53 78 65 61 53 78 29 38 64 52 28 28 41 79 73 80 75 73 77 60 83 81 76 82 75 73 82 83 74 76 76 82 80 66 77 60 59 51 79 84 59 51 28 28 73 80 99 85 101 86 84 87 98 88 100 89 101 86 97 90 89 91 100 89 96 92 90 93 89 91 352 94 345 95 90 93 88 96 91 97 342 98 87 99 92 100 88 96 86 101 93 102 87 99 85 103 94 104 86 101 84 87 95 105 85 103 93 102 94 104 104 106 92 100 93 102 103 107 91 97 92 100 103 107 346 108 91 97 102 109 104 106 105 110 133 111 103 107 104 106 132 112 102 109 103 107 132 112 359 113 102 109 131 114 133 111 134 115 137 116 132 112 133 111 136 117 131 114 132 112 136 117 394 118 131 114 135 119 137 116 138 120 141 121 136 117 137 116 140 122 135 119 136 117 139 123 399 124 135 119 139 123 141 121 142 125 146 126 140 122 141 121 145 127 139 123 140 122 144 128 404 129 139 123 409 130 95 105 105 110 94 104 130 131 146 126 129 132 101 86 126 133 95 105 127 134 105 110 95 105 105 110 127 134 134 115 128 135 138 120 134 115 129 132 142 125 138 120 151 136 150 137 156 138 148 139 416 140 153 141 147 142 148 139 152 143 149 144 147 142 154 145 150 137 149 144 155 146 156 138 155 146 160 147 153 141 422 148 428 149 152 143 153 141 158 150 154 145 152 143 157 151 155 146 154 145 159 152 145 127 146 126 165 153 144 128 145 127 164 154 143 155 144 128 163 156 409 130 143 155 432 157 161 158 165 153 156 138 151 136 156 138 146 126 130 131 151 136 146 126 165 153 161 158 166 159 172 160 180 161 181 162 182 163 184 164 179 165 183 166 185 167 172 160 173 168 182 163 172 160 168 169 176 170 170 171 171 172 179 165 177 173 166 159 174 174 168 169 169 175 177 173 175 176 166 159 168 169 167 177 173 168 181 162 184 164 170 171 178 178 183 166 171 172 169 175 168 169 171 172 170 171 182 163 162 179 163 156 175 176 163 156 164 154 188 180 185 167 178 178 192 181 164 154 165 153 167 177 167 177 175 176 188 180 432 157 162 179 175 176 184 164 181 162 196 182 180 161 185 167 194 183 179 165 184 164 193 184 181 162 180 161 195 185 178 178 176 170 190 186 177 173 179 165 193 184 176 170 174 174 186 187 175 176 177 173 191 188 189 189 191 188 470 190 175 176 189 189 460 191 190 186 186 187 472 192 428 149 472 192 158 150 186 187 174 174 158 150 161 158 160 147 166 159 200 193 198 194 201 195 159 152 157 151 198 194 160 147 159 152 201 195 157 151 158 150 174 174 174 174 166 159 198 194 199 196 190 186 473 197 191 188 199 196 478 198 195 185 194 183 199 196 194 183 197 199 199 196 195 185 199 196 196 182 191 188 193 184 199 196 190 186 199 196 192 181 99 85 84 87 208 69 98 88 99 85 208 69 97 90 98 88 207 200 96 92 97 90 206 201 206 201 207 200 482 202 85 103 86 101 204 203 84 87 85 103 202 64 352 94 96 92 205 204 205 204 206 201 352 94 41 79 40 29 210 205 39 30 38 206 213 207 487 208 207 200 210 205 490 209 498 210 210 205 210 205 40 29 212 211 40 29 39 30 213 207 50 45 300 49 216 212 46 39 50 45 215 213 37 31 46 39 215 213 38 206 37 31 214 214 207 200 208 69 209 68 80 66 203 65 74 76 88 96 342 98 218 215 87 99 88 96 217 216 204 203 217 216 74 76 86 101 87 99 204 203 74 76 217 216 68 75 319 63 67 62 68 75 67 62 66 77 68 75 68 75 218 215 322 217 233 218 247 219 220 220 232 221 246 222 233 218 231 223 245 224 246 222 230 225 244 226 231 223 229 227 243 228 230 225 228 229 242 230 229 227 227 231 241 232 242 230 226 233 240 234 241 232 225 235 239 236 226 233 224 237 238 238 239 236 223 239 237 240 238 238 222 241 236 242 223 239 221 243 235 244 236 242 220 220 234 245 221 243 231 223 229 227 230 225 261 246 248 247 275 248 260 249 261 246 275 248 259 250 260 249 273 251 258 252 259 250 273 251 257 253 258 252 272 254 256 255 257 253 270 256 255 257 256 255 270 256 254 258 255 257 268 259 253 260 254 258 268 259 252 261 253 260 266 262 251 263 252 261 266 262 250 264 251 263 264 265 249 266 250 264 263 267 248 247 249 266 263 267 262 268 276 269 275 248 275 248 289 270 288 271 251 263 253 260 252 261 273 251 287 272 272 254 272 254 286 273 285 274 271 275 285 274 270 256 270 256 284 276 269 277 269 277 283 278 282 279 268 259 282 279 281 280 267 281 281 280 280 282 266 262 280 282 279 283 265 284 279 283 278 285 264 265 278 285 277 286 263 267 277 286 276 269 274 287 288 271 273 251 285 274 294 288 284 276 284 276 293 289 292 290 283 278 292 290 291 291 282 279 291 291 290 292 294 288 298 293 293 289 293 289 297 294 296 295 292 290 296 295 295 296 298 293 300 49 297 294 291 291 302 297 301 298 276 269 277 286 314 299 296 295 305 300 295 296 295 296 304 301 291 291 280 282 308 302 279 283 279 283 307 303 278 285 278 285 306 304 277 286 281 280 290 292 308 302 308 302 312 305 307 303 307 303 311 306 310 307 290 292 301 298 308 302 309 308 314 299 330 309 315 310 317 311 314 299 315 310 318 312 319 63 479 313 321 314 333 315 321 314 479 313 486 316 323 317 328 318 330 309 324 319 329 320 328 318 310 307 313 321 306 304 320 322 327 323 324 319 325 324 330 309 316 325 313 321 315 310 303 326 303 326 314 299 277 286 276 269 326 327 289 270 328 318 334 328 336 329 329 320 335 330 328 318 327 323 333 315 329 320 330 309 336 329 332 331 309 308 332 331 326 327 356 332 337 333 358 334 355 335 356 332 358 334 354 336 355 335 357 337 353 338 354 336 343 339 352 94 353 338 344 340 341 341 342 98 347 342 340 343 341 341 348 344 339 345 340 343 349 346 338 347 339 345 350 348 337 333 338 347 351 349 349 346 362 350 350 348 348 344 361 351 349 346 347 342 360 352 361 351 346 108 359 113 360 352 362 350 397 353 363 354 361 351 396 355 362 350 360 352 395 356 396 355 359 113 394 118 395 356 397 353 402 357 398 358 396 355 401 359 397 353 395 356 400 360 401 359 394 118 399 124 400 360 402 357 407 361 403 362 401 359 406 363 402 357 400 360 405 364 401 359 399 124 404 129 405 364 407 361 412 365 413 366 406 363 411 367 412 365 405 364 410 368 411 367 404 129 409 130 405 364 351 349 350 348 363 354 393 369 392 370 413 366 358 334 351 349 389 371 390 372 389 371 351 349 363 354 398 358 390 372 391 373 390 372 398 358 392 370 391 373 403 362 419 374 425 375 418 376 415 377 421 378 416 140 414 379 420 380 415 377 417 381 423 382 414 379 418 376 424 383 417 381 425 375 431 384 430 385 421 378 427 386 428 149 420 380 426 387 427 386 423 382 429 388 426 387 424 383 430 385 429 388 412 365 435 389 436 390 411 367 434 391 435 389 410 368 433 392 434 391 409 130 432 157 410 368 431 384 425 375 436 390 419 374 413 366 425 375 393 369 413 366 419 374 436 390 438 393 437 394 443 395 444 396 452 397 453 398 442 399 450 400 454 401 443 395 456 402 444 396 443 395 453 398 439 403 441 404 447 405 442 399 440 406 448 407 437 394 439 403 445 408 440 406 438 393 446 409 437 394 438 393 439 403 444 396 453 398 455 410 441 404 454 401 449 411 442 399 441 404 439 403 442 399 453 398 441 404 433 392 446 409 434 391 434 391 458 412 459 413 456 402 469 414 464 415 435 389 459 413 438 393 438 393 459 413 446 409 432 157 460 191 446 409 455 410 468 416 452 397 451 417 466 418 456 402 450 400 465 419 455 410 452 397 467 420 451 417 449 411 464 415 462 421 448 407 463 422 465 419 447 405 462 421 457 423 446 409 461 424 463 422 461 424 470 190 463 422 446 409 460 191 461 424 462 421 473 197 472 192 428 149 427 386 472 192 457 423 427 386 445 408 431 384 437 394 430 385 476 425 477 426 474 427 429 388 476 425 474 427 430 385 477 426 429 388 426 387 474 427 445 408 445 408 474 427 437 394 475 428 478 198 473 197 463 422 471 429 478 198 467 420 475 428 466 418 466 418 475 428 469 414 467 420 468 416 475 428 463 422 475 428 465 419 462 421 464 415 475 428 356 332 486 316 337 333 355 335 485 430 486 316 354 336 484 431 485 430 353 338 483 432 484 431 484 431 482 202 485 430 338 347 480 433 481 434 337 333 479 313 338 347 352 94 483 432 353 338 483 432 352 94 484 431 289 270 488 435 489 436 287 272 493 437 286 273 487 208 498 210 489 436 490 209 491 438 489 436 489 436 491 438 492 439 288 271 492 439 493 437 298 293 496 440 300 49 294 288 495 441 298 293 285 274 495 441 294 288 286 273 494 442 285 274 485 430 489 436 488 435 333 315 327 323 480 433 341 341 500 443 342 98 340 343 499 444 341 341 481 434 327 323 499 444 339 345 481 434 340 343 327 323 320 322 499 444 319 63 322 217 320 322 317 311 320 322 316 325 320 322 322 217 500 443 515 445 502 446 529 447 514 448 515 445 528 449 513 450 514 448 528 449 512 451 513 450 526 452 511 453 512 451 525 454 510 455 511 453 524 456 509 457 510 455 524 456 508 458 509 457 523 459 507 460 508 458 521 461 506 462 507 460 521 461 505 463 506 462 520 464 504 465 505 463 518 466 503 467 504 465 518 466 502 446 503 467 516 468 511 453 513 450 512 451 27 1 14 27 0 2 13 0 12 3 27 1 25 6 26 4 12 3 11 5 10 7 25 6 10 7 9 9 24 8 22 12 23 10 9 9 8 11 7 13 22 12 20 16 21 14 7 13 6 15 5 17 20 16 18 20 19 18 5 17 4 19 3 21 18 20 16 24 17 22 3 21 15 26 16 24 2 23 1 25 0 2 15 26 27 1 41 79 28 28 41 79 27 1 40 29 12 3 10 7 11 5 1 25 2 23 3 21 1 25 3 21 5 17 10 7 8 11 9 9 12 3 8 11 10 7 13 0 0 2 12 3 12 3 0 2 8 11 7 13 5 17 6 15 1 25 5 17 7 13 0 2 1 25 7 13 8 11 0 2 7 13 24 8 38 206 39 30 38 206 24 8 37 31 22 12 36 32 37 31 21 14 35 40 36 32 35 40 21 14 34 33 34 33 20 16 33 34 33 34 19 18 32 35 32 35 18 20 31 36 31 36 17 22 30 37 30 37 16 24 29 38 29 38 15 26 28 28 25 6 39 30 40 29 36 32 45 44 46 39 45 44 36 32 44 41 44 41 35 40 43 42 43 42 34 33 42 43 45 44 49 48 50 45 49 48 45 44 48 46 48 46 44 41 47 47 49 48 299 469 300 49 52 470 43 42 51 50 29 38 28 28 64 52 47 47 54 54 55 53 43 42 52 470 54 54 31 36 57 56 58 55 30 37 56 57 57 56 29 38 53 78 56 57 42 43 33 34 58 55 57 56 61 471 62 58 61 471 57 56 60 59 58 55 62 58 51 50 64 52 66 77 67 62 318 312 65 61 319 63 69 67 202 64 80 66 202 64 69 67 208 69 75 73 70 70 77 60 76 82 71 72 75 73 56 57 53 78 63 74 71 72 76 82 74 76 66 77 64 52 77 60 53 78 64 52 65 61 41 79 78 472 73 80 81 473 75 73 83 81 75 73 81 473 82 83 76 82 82 83 80 66 83 81 77 60 79 84 79 84 59 51 73 80 101 86 95 105 84 87 99 85 98 88 101 86 98 88 97 90 100 89 97 90 96 92 89 91 96 92 352 94 90 93 91 97 346 108 342 98 92 100 91 97 88 96 93 102 92 100 87 99 94 104 93 102 86 101 95 105 94 104 85 103 94 104 105 110 104 106 93 102 104 106 103 107 102 109 91 97 103 107 359 113 346 108 102 109 105 110 134 115 133 111 104 106 133 111 132 112 131 114 102 109 132 112 394 118 359 113 131 114 134 115 138 120 137 116 133 111 137 116 136 117 135 119 131 114 136 117 399 124 394 118 135 119 138 120 142 125 141 121 137 116 141 121 140 122 136 117 140 122 139 123 404 129 399 124 139 123 145 127 141 121 146 126 144 128 140 122 145 127 143 155 139 123 144 128 139 123 143 155 409 130 146 126 142 125 129 132 126 133 127 134 95 105 127 134 128 135 134 115 128 135 129 132 138 120 150 137 155 146 156 138 416 140 422 148 153 141 148 139 153 141 152 143 147 142 152 143 154 145 149 144 154 145 155 146 161 158 156 138 160 147 158 150 153 141 428 149 157 151 152 143 158 150 159 152 154 145 157 151 160 147 155 146 159 152 164 154 145 127 165 153 163 156 144 128 164 154 162 179 143 155 163 156 143 155 162 179 432 157 165 153 146 126 156 138 167 177 165 153 166 159 173 168 172 160 181 162 171 172 182 163 179 165 185 167 180 161 172 160 182 163 183 166 172 160 176 170 178 178 170 171 169 175 171 172 177 173 174 174 176 170 168 169 167 177 169 175 175 176 168 169 169 175 167 177 182 163 173 168 184 164 178 178 185 167 183 166 170 171 171 172 168 169 170 171 183 166 182 163 163 156 187 474 175 176 187 474 163 156 188 180 197 199 185 167 192 181 188 180 164 154 167 177 175 176 187 474 188 180 460 191 432 157 175 176 181 162 195 185 196 182 185 167 197 199 194 183 184 164 196 182 193 184 180 161 194 183 195 185 192 181 178 178 190 186 191 188 177 173 193 184 190 186 176 170 186 187 189 189 175 176 191 188 191 188 471 429 470 190 189 189 470 190 460 191 473 197 190 186 472 192 472 192 186 187 158 150 160 147 201 195 166 159 200 193 159 152 198 194 159 152 200 193 201 195 198 194 157 151 174 174 166 159 201 195 198 194 478 198 199 196 473 197 471 429 191 188 478 198 193 184 196 182 199 196 199 196 197 199 192 181 84 87 202 64 208 69 207 200 98 88 208 69 206 201 97 90 207 200 205 204 96 92 206 201 207 200 487 208 482 202 203 65 85 103 204 203 85 103 203 65 202 64 206 201 482 202 352 94 209 68 41 79 210 205 38 206 214 214 213 207 498 210 487 208 210 205 211 475 490 209 210 205 211 475 210 205 212 211 212 211 40 29 213 207 300 49 497 476 216 212 50 45 216 212 215 213 37 31 215 213 214 214 210 205 207 200 209 68 203 65 204 203 74 76 342 98 219 477 218 215 88 96 218 215 217 216 87 99 217 216 204 203 217 216 218 215 68 75 322 217 319 63 68 75 66 77 72 71 70 70 68 75 66 77 71 72 66 77 70 70 71 72 218 215 219 477 322 217 247 219 234 245 220 220 246 222 247 219 233 218 232 221 231 223 246 222 244 226 245 224 231 223 243 228 244 226 230 225 242 230 243 228 229 227 228 229 227 231 242 230 227 231 226 233 241 232 239 236 240 234 226 233 225 235 224 237 239 236 224 237 223 239 238 238 236 242 237 240 223 239 222 241 221 243 236 242 234 245 235 244 221 243 231 223 228 229 229 227 233 218 231 223 232 221 233 218 228 229 231 223 220 220 228 229 233 218 227 231 225 235 226 233 227 231 224 237 225 235 220 220 227 231 228 229 220 220 224 237 227 231 221 243 222 241 223 239 220 220 221 243 223 239 224 237 220 220 223 239 248 247 262 268 275 248 274 287 260 249 275 248 260 249 274 287 273 251 272 254 258 252 273 251 271 275 257 253 272 254 257 253 271 275 270 256 269 277 255 257 270 256 255 257 269 277 268 259 267 281 253 260 268 259 253 260 267 281 266 262 265 284 251 263 266 262 251 263 265 284 264 265 250 264 264 265 263 267 262 268 248 247 263 267 276 269 289 270 275 248 274 287 275 248 288 271 258 252 260 249 259 250 250 264 249 266 251 263 251 263 249 266 253 260 256 255 258 252 257 253 256 255 260 249 258 252 248 247 261 246 260 249 248 247 260 249 256 255 253 260 255 257 254 258 253 260 249 266 255 257 249 266 248 247 255 257 248 247 256 255 255 257 287 272 286 273 272 254 271 275 272 254 285 274 285 274 284 276 270 256 284 276 283 278 269 277 268 259 269 277 282 279 267 281 268 259 281 280 266 262 267 281 280 282 265 284 266 262 279 283 264 265 265 284 278 285 263 267 264 265 277 286 262 268 263 267 276 269 288 271 287 272 273 251 294 288 293 289 284 276 283 278 284 276 292 290 282 279 283 278 291 291 281 280 282 279 290 292 298 293 297 294 293 289 292 290 293 289 296 295 291 291 292 290 295 296 300 49 299 469 297 294 290 292 291 291 301 298 309 308 276 269 314 299 305 300 304 301 295 296 304 301 302 297 291 291 308 302 307 303 279 283 307 303 306 304 278 285 306 304 303 326 277 286 280 282 281 280 308 302 312 305 311 306 307 303 306 304 307 303 310 307 301 298 312 305 308 302 317 311 316 325 314 299 317 311 315 310 319 63 480 433 479 313 333 315 488 435 321 314 486 316 325 324 323 317 330 309 323 317 324 319 328 318 313 321 303 326 306 304 327 323 329 320 324 319 330 309 314 299 316 325 315 310 314 299 303 326 326 327 331 478 289 270 330 309 328 318 336 329 335 330 334 328 328 318 333 315 335 330 329 320 309 308 330 309 332 331 276 269 309 308 326 327 337 333 351 349 358 334 357 337 355 335 358 334 343 339 354 336 357 337 344 340 353 338 343 339 345 95 352 94 344 340 342 98 346 108 347 342 341 341 347 342 348 344 340 343 348 344 349 346 339 345 349 346 350 348 338 347 350 348 351 349 362 350 363 354 350 348 361 351 362 350 349 346 348 344 347 342 361 351 347 342 346 108 360 352 397 353 398 358 363 354 396 355 397 353 362 350 361 351 360 352 396 355 360 352 359 113 395 356 402 357 403 362 398 358 401 359 402 357 397 353 396 355 395 356 401 359 395 356 394 118 400 360 407 361 408 479 403 362 406 363 407 361 402 357 405 364 406 363 401 359 400 360 399 124 405 364 408 479 407 361 413 366 407 361 406 363 412 365 406 363 405 364 411 367 409 130 410 368 405 364 392 370 408 479 413 366 363 354 390 372 351 349 403 362 391 373 398 358 408 479 392 370 403 362 425 375 424 383 418 376 421 378 422 148 416 140 420 380 421 378 415 377 423 382 420 380 414 379 424 383 423 382 417 381 424 383 425 375 430 385 422 148 421 378 428 149 421 378 420 380 427 386 420 380 423 382 426 387 423 382 424 383 429 388 413 366 412 365 436 390 412 365 411 367 435 389 411 367 410 368 434 391 432 157 433 392 410 368 425 375 413 366 436 390 431 384 436 390 437 394 451 417 443 395 452 397 455 410 453 398 450 400 443 395 451 417 456 402 443 395 454 401 453 398 441 404 449 411 447 405 450 400 442 399 448 407 439 403 447 405 445 408 448 407 440 406 446 409 438 393 440 406 439 403 452 397 444 396 455 410 454 401 456 402 449 411 440 406 442 399 439 403 453 398 454 401 441 404 446 409 458 412 434 391 435 389 434 391 459 413 449 411 456 402 464 415 436 390 435 389 438 393 459 413 458 412 446 409 433 392 432 157 446 409 468 416 467 420 452 397 466 418 469 414 456 402 465 419 468 416 455 410 467 420 466 418 451 417 447 405 449 411 462 421 450 400 448 407 465 419 445 408 447 405 457 423 448 407 446 409 463 422 470 190 471 429 463 422 460 191 470 190 461 424 457 423 462 421 472 192 427 386 457 423 472 192 437 394 477 426 430 385 426 387 429 388 474 427 477 426 476 425 429 388 427 386 426 387 445 408 474 427 477 426 437 394 462 421 475 428 473 197 475 428 463 422 478 198 475 428 468 416 465 419 464 415 469 414 475 428 486 316 479 313 337 333 356 332 355 335 486 316 355 335 354 336 485 430 354 336 353 338 484 431 482 202 487 208 485 430 339 345 338 347 481 434 479 313 480 433 338 347 352 94 482 202 484 431 288 271 289 270 489 436 493 437 494 442 286 273 485 430 487 208 489 436 498 210 490 209 489 436 288 271 489 436 492 439 287 272 288 271 493 437 496 440 497 476 300 49 495 441 496 440 298 293 494 442 495 441 285 274 486 316 485 430 488 435 327 323 481 434 480 433 500 443 501 480 342 98 499 444 500 443 341 341 481 434 499 444 340 343 320 322 500 443 499 444 317 311 319 63 320 322 316 325 323 317 325 324 320 322 324 319 316 325 324 319 323 317 316 325 322 217 501 480 500 443 502 446 516 468 529 447 515 445 529 447 528 449 527 481 513 450 528 449 513 450 527 481 526 452 512 451 526 452 525 454 511 453 525 454 524 456 523 459 509 457 524 456 522 482 508 458 523 459 508 458 522 482 521 461 520 464 506 462 521 461 519 483 505 463 520 464 505 463 519 483 518 466 517 484 503 467 518 466 503 467 517 484 516 468 510 455 513 450 511 453 513 450 515 445 514 448 510 455 515 445 513 450 502 446 515 445 510 455 507 460 509 457 508 458 506 462 509 457 507 460 502 446 510 455 509 457 502 446 509 457 506 462 504 465 503 467 505 463 503 467 502 446 505 463 502 446 506 462 505 463</p>
        </polylist>
        <polylist material="Kunststoff_druckteile_005_002-material" count="94">
          <input semantic="VERTEX" source="#Circle_034-mesh-vertices" offset="0"/>
          <input semantic="NORMAL" source="#Circle_034-mesh-normals" offset="1"/>
          <vcount>3 3 3 3 3 3 3 3 3 3 3 3 3 3 3 3 3 3 3 3 3 3 3 3 3 3 3 3 3 3 3 3 3 3 3 3 3 3 3 3 3 3 3 3 3 3 3 3 3 3 3 3 3 3 3 3 3 3 3 3 3 3 3 3 3 3 3 3 3 3 3 3 3 3 3 3 3 3 3 3 3 3 3 3 3 3 3 3 3 3 3 3 3 3 </vcount>
          <p>90 93 345 95 366 485 89 91 90 93 107 486 100 89 89 91 106 487 101 86 100 89 109 488 107 486 366 485 371 489 106 487 107 486 111 490 108 491 106 487 110 492 109 488 108 491 112 493 113 494 112 493 116 495 117 496 116 495 120 497 119 498 381 499 123 500 118 501 119 498 122 502 120 497 118 501 124 503 121 504 120 497 125 505 121 504 125 505 130 131 117 496 121 504 129 132 113 494 117 496 127 134 109 488 113 494 126 133 109 488 126 133 101 86 130 131 125 505 151 136 123 500 386 506 148 139 122 502 123 500 147 142 124 503 122 502 149 144 125 505 124 503 150 137 344 340 365 507 366 485 343 339 364 508 365 507 357 337 367 509 364 508 358 334 368 510 357 337 365 507 370 511 371 489 364 508 369 512 370 511 367 509 372 513 369 512 368 510 373 514 372 513 373 514 378 515 377 516 378 515 383 517 382 518 380 519 385 520 381 499 379 521 384 522 380 519 382 518 387 523 379 521 383 517 388 524 382 518 383 517 392 370 393 369 378 515 391 373 392 370 373 514 390 372 378 515 368 510 389 371 373 514 368 510 358 334 389 371 393 369 419 374 388 524 385 520 415 377 386 506 384 522 414 379 385 520 387 523 417 381 384 522 388 524 418 376 387 523 107 486 90 93 366 485 106 487 89 91 107 486 108 491 100 89 106 487 100 89 108 491 109 488 111 490 107 486 371 489 110 492 106 487 111 490 112 493 108 491 110 492 113 494 109 488 112 493 117 496 113 494 116 495 121 504 117 496 120 497 381 499 386 506 123 500 119 498 123 500 122 502 118 501 122 502 124 503 120 497 124 503 125 505 129 132 121 504 130 131 128 135 117 496 129 132 117 496 128 135 127 134 113 494 127 134 126 133 125 505 150 137 151 136 386 506 416 140 148 139 123 500 148 139 147 142 122 502 147 142 149 144 124 503 149 144 150 137 345 95 344 340 366 485 344 340 343 339 365 507 343 339 357 337 364 508 368 510 367 509 357 337 366 485 365 507 371 489 365 507 364 508 370 511 364 508 367 509 369 512 367 509 368 510 372 513 372 513 373 514 377 516 377 516 378 515 382 518 385 520 386 506 381 499 384 522 385 520 380 519 387 523 384 522 379 521 388 524 387 523 382 518 388 524 383 517 393 369 383 517 378 515 392 370 390 372 391 373 378 515 389 371 390 372 373 514 419 374 418 376 388 524 415 377 416 140 386 506 414 379 415 377 385 520 417 381 414 379 384 522 418 376 417 381 387 523</p>
        </polylist>
        <polylist material="Gummi_008_002-material" count="24">
          <input semantic="VERTEX" source="#Circle_034-mesh-vertices" offset="0"/>
          <input semantic="NORMAL" source="#Circle_034-mesh-normals" offset="1"/>
          <vcount>3 3 3 3 3 3 3 3 3 3 3 3 3 3 3 3 3 3 3 3 3 3 3 3 </vcount>
          <p>111 490 371 489 376 525 110 492 111 490 115 526 112 493 110 492 114 527 115 526 376 525 119 498 114 527 115 526 119 498 116 495 114 527 118 501 370 511 375 528 376 525 369 512 374 529 375 528 372 513 377 516 374 529 375 528 380 519 376 525 374 529 379 521 380 519 377 516 382 518 379 521 115 526 111 490 376 525 114 527 110 492 115 526 116 495 112 493 114 527 376 525 381 499 119 498 118 501 114 527 119 498 120 497 116 495 118 501 371 489 370 511 376 525 370 511 369 512 375 528 369 512 372 513 374 529 380 519 381 499 376 525 375 528 374 529 380 519 374 529 377 516 379 521</p>
        </polylist>
      </mesh>
    </geometry>
  </library_geometries>
  <library_controllers/>
  <library_visual_scenes>
    <visual_scene id="Scene" name="Scene">
      <node id="VIS_hollie_right_hand_k" name="VIS_hollie_right_hand_k" type="NODE">
        <instance_geometry url="#Circle_034-mesh" name="VIS_hollie_right_hand_k">
          <bind_material>
            <technique_common>
              <instance_material symbol="Metall_Alu_008_002-material" target="#Metall_Alu_008_002-material"/>
              <instance_material symbol="Kunststoff_druckteile_005_002-material" target="#Kunststoff_druckteile_005_002-material"/>
              <instance_material symbol="Gummi_008_002-material" target="#Gummi_008_002-material"/>
            </technique_common>
          </bind_material>
        </instance_geometry>
      </node>
    </visual_scene>
  </library_visual_scenes>
  <scene>
    <instance_visual_scene url="#Scene"/>
  </scene>
</COLLADA>