<?xml version="1.0" encoding="utf-8"?>
<COLLADA xmlns="http://www.collada.org/2005/11/COLLADASchema" version="1.4.1">
  <asset>
    <contributor>
      <author>Blender User</author>
      <authoring_tool>Blender 2.78.0 commit date:2017-02-24, commit time:14:33, hash:e92f2352830</authoring_tool>
    </contributor>
    <created>2017-07-17T14:53:00</created>
    <modified>2017-07-17T14:53:00</modified>
    <unit name="meter" meter="1"/>
    <up_axis>Z_UP</up_axis>
  </asset>
  <library_images/>
  <library_geometries>
    <geometry id="VIS_neck_cross-mesh" name="VIS neck cross">
      <mesh>
        <source id="VIS_neck_cross-mesh-positions">
          <float_array id="VIS_neck_cross-mesh-positions-array" count="1107">85.01181 1066.265 -141.5791 87.79293 1062.46 -141.6458 85.42477 1057.929 -140.7888 88.03783 1061.097 -141.5423 95.37129 1066.502 -143.2398 90.05821 1064.771 -142.2437 95.71678 1058.17 -142.4314 92.97113 1062.378 -142.4524 90.22388 1059.573 -141.7275 91.71623 1059.888 -141.9947 88.92622 1060.029 -141.5706 92.72669 1061.026 -142.273 92.47929 1063.676 -142.5104 91.41794 1064.561 -142.4356 88.52462 1064.092 -141.9302 98.6412 1068.573 -122.6352 96.21755 1064.041 -121.7666 98.97976 1060.206 -121.8281 88.20213 1068.364 -120.9823 94.21782 1066.907 -121.7515 88.5372 1060.061 -120.1664 91.02843 1064.447 -120.9919 93.95156 1061.734 -121.1689 92.4411 1062 -120.9594 95.48531 1062.413 -121.4823 91.35879 1063.104 -120.9038 91.43688 1065.759 -121.193 92.44091 1066.678 -121.447 95.89397 1065.643 -121.8836 80.96508 1063.605 -127.8861 90.2507 1063.425 -129.3074 80.98674 1062.772 -127.841 90.36151 1062.731 -129.3666 80.93783 1061.816 -128.212 80.81449 1061.088 -129.1443 92.23128 1061.165 -131.426 80.59832 1061.02 -130.4479 80.46457 1061.465 -131.2541 90.08658 1061.821 -132.994 80.37224 1062.13 -131.7654 89.649 1062.592 -133.3757 80.3274 1062.945 -131.9786 89.63859 1063.482 -133.4482 80.33088 1063.774 -131.8601 90.14732 1064.491 -133.141 80.39012 1064.537 -131.3958 80.50619 1065.045 -130.6434 92.10122 1065.363 -131.8468 80.68447 1065.151 -129.4832 80.86658 1064.597 -128.4354 90.32135 1064.134 -129.5137 91.45647 1065.327 -131.2504 90.71697 1064.892 -130.1684 90.85235 1061.819 -129.903 91.66685 1061.251 -130.9456 91.50005 1061.161 -131.9133 90.80212 1061.329 -132.4381 91.19082 1065.171 -132.4502 103.4058 1065.475 -132.9557 93.41581 1065.103 -130.8374 103.5485 1065.096 -132.2196 94.18015 1064.339 -130.2048 103.6149 1064.616 -131.7882 103.6714 1063.985 -131.4954 94.42189 1063.51 -129.9601 103.6957 1063.142 -131.4463 94.29602 1062.797 -129.9975 93.96304 1062.175 -130.1983 103.6382 1062.177 -131.8195 93.25654 1061.549 -130.6681 103.5074 1061.455 -132.7706 103.3612 1061.331 -133.7983 92.97221 1061.336 -132.7579 103.1365 1062.026 -135.0719 93.63731 1062.183 -133.8129 93.75366 1063.299 -134.125 103.0404 1062.881 -135.5375 103.0308 1064.02 -135.5255 93.48757 1064.171 -133.8784 103.0926 1064.859 -135.0524 92.86303 1064.975 -133.1309 103.2728 1065.519 -133.8456 103.1713 1065.286 -134.4998 103.2283 1061.593 -134.5257 80.63172 1067.711 -126.5294 80.54914 1063.654 -127.2885 80.89785 1059.291 -125.6576 80.56108 1062.267 -127.3532 79.45371 1066.771 -133.9189 80.11006 1065.686 -129.8417 79.70462 1058.619 -133.1811 79.74621 1062.79 -132.425 80.2761 1060.487 -129.3248 80.05707 1060.579 -130.6931 80.46196 1061.096 -128.0956 79.86637 1061.374 -131.8106 79.77289 1064.303 -132.1014 79.90592 1065.313 -131.1634 80.37574 1065.192 -128.2289 103.153 1067.127 -137.6046 103.4399 1063.501 -136.1886 103.4001 1058.923 -136.8479 103.5152 1062.156 -135.8526 104.2985 1067.93 -130.2427 103.7336 1066.018 -134.0883 104.5554 1059.62 -129.4232 104.2636 1063.715 -130.9876 103.9499 1060.843 -133.2529 103.7055 1061.072 -134.7631 104.1225 1061.291 -132.1229 104.2369 1062.202 -131.3112 104.1435 1065.13 -131.6017 103.9527 1065.926 -132.7194 103.5099 1065.202 -135.57 81.79955 1058.498 -125.7837 80.53134 1057.731 -133.2164 83.45715 1058.556 -125.6861 82.44325 1057.708 -133.9802 85.3688 1058.701 -124.904 85.06439 1057.509 -136.6983 101.3638 1058.873 -128.2408 97.93969 1057.772 -138.2984 100.5723 1057.998 -136.8861 103.9044 1058.891 -129.2562 102.7313 1058.109 -136.6865 96.54464 1057.568 -139.9345 85.4806 1057.221 -139.8425 95.74683 1057.378 -141.5387 99.1658 1059.076 -125.4553 87.03407 1058.896 -123.5341 88.53469 1059.197 -120.9122 98.92169 1059.392 -122.5078 103.553 1068.761 -130.3007 102.292 1067.983 -137.7048 101.0493 1068.817 -129.0604 100.3124 1067.919 -137.8707 98.26629 1067.778 -138.7017 99.1397 1068.97 -126.9969 85.05861 1068.619 -125.9824 84.47853 1067.492 -137.1788 82.01337 1067.627 -134.9392 81.32563 1068.412 -126.8033 80.35926 1067.641 -134.19 96.46532 1067.529 -140.5464 85.26866 1067.145 -140.8875 95.45909 1067.285 -142.6099 87.45191 1068.939 -123.4788 88.14836 1069.115 -121.8417 98.49816 1069.281 -123.3229 95.49853 1065.032 -122.2634 95.62944 1064.206 -122.2032 95.46382 1063.38 -122.0866 94.74898 1062.534 -121.8969 93.61541 1062.151 -121.6656 92.5209 1062.469 -121.5326 91.89596 1063.028 -121.4908 91.45639 1064.039 -121.5278 91.64463 1065.157 -121.6735 92.30831 1066.017 -121.8678 93.37203 1066.372 -122.0717 94.20318 1066.261 -122.1933 94.92273 1065.836 -122.2602 88.34846 1062.191 -141.1961 88.76688 1061.006 -141.1403 89.63981 1060.307 -141.1935 90.86465 1060.145 -141.3721 92.06639 1060.821 -141.6381 92.56356 1062.148 -141.8464 92.22217 1063.329 -141.9184 91.63362 1063.933 -141.8918 90.73146 1064.322 -141.7869 89.51766 1064.122 -141.5722 88.69496 1063.397 -141.3765 87.47345 1068.411 -121.4974 87.09031 1068.351 -122.5539 87.77732 1059.926 -120.5981 87.44519 1059.784 -121.5078 86.78349 1059.671 -122.6481 86.45399 1068.126 -123.5382 86.10529 1059.716 -123.4142 85.90659 1068.132 -124.1931 85.17845 1067.977 -124.7836 85.05919 1059.437 -124.2127 84.30017 1067.89 -125.3128 84.23781 1059.459 -124.6244 83.55244 1067.9 -125.634 82.86365 1059.365 -125.0221 82.45187 1067.768 -125.8669 81.43816 1067.682 -125.8946 81.64029 1059.354 -125.0792 103.8071 1067.969 -129.4695 102.6103 1068.027 -129.0194 104.0288 1059.676 -128.6391 103.1919 1059.608 -128.3448 102.2484 1059.726 -127.8192 101.4924 1068.234 -128.318 101.2483 1059.684 -126.9954 100.8018 1068.27 -127.646 100.2369 1068.252 -126.8461 100.3857 1059.934 -125.8181 99.67382 1068.415 -125.7723 99.84031 1059.858 -124.6087 99.33644 1068.558 -124.2948 99.62189 1060.065 -123.4463 99.33014 1068.504 -123.3842 99.57276 1060.134 -122.4676 96.50124 1058.217 -142.0098 96.22151 1066.502 -142.8507 97.00485 1058.344 -140.7323 96.64786 1066.738 -141.7137 97.1364 1066.852 -140.8739 97.88381 1058.351 -139.4446 98.16465 1066.998 -139.7462 98.55948 1058.52 -138.8399 99.26219 1066.93 -139.017 99.37844 1058.664 -138.2886 100.3887 1058.673 -137.8267 100.3964 1067.165 -138.5661 101.4807 1058.627 -137.5279 101.3314 1067.233 -138.3662 102.469 1067.121 -138.3218 102.7229 1058.81 -137.4967 79.97693 1066.759 -134.7725 80.19263 1067.019 -134.805 80.24591 1058.449 -133.947 81.317 1058.307 -134.3085 81.78012 1066.689 -135.5992 82.42132 1058.27 -135.0013 82.66445 1066.823 -136.3322 83.26902 1058.219 -135.8401 83.37319 1066.763 -137.179 83.91263 1058.153 -136.745 83.9556 1066.663 -138.251 84.32144 1058.089 -137.6337 84.21521 1066.523 -139.0352 84.64793 1057.97 -138.8397 84.39726 1066.524 -139.9587 84.72978 1057.834 -140.1132 84.42419 1066.315 -140.8946 102.9657 1067.161 -137.9885 103.2285 1058.807 -137.138 96.12824 1058.156 -142.3143 95.76007 1066.471 -143.1905 84.88026 1057.966 -140.4577 84.63753 1066.272 -141.3146 85.1173 1057.84 -140.6292 79.6022 1066.726 -134.4218 79.92651 1058.412 -133.6419 80.79039 1067.552 -126.234 81.25326 1059.299 -125.25 81.11137 1067.774 -126.0075 88.12757 1059.946 -120.2955 87.70136 1068.265 -121.203 99.24678 1060.261 -121.9815 98.93068 1068.483 -122.7592 99.18132 1068.536 -123.0294 104.3642 1059.709 -128.9415 104.1144 1068.019 -129.7784 98.78696 1068.932 -122.892 98.84043 1069.172 -123.364 99.16917 1068.867 -123.414 99.04571 1068.962 -124.8667 99.40296 1068.678 -125.2972 99.70651 1068.887 -127.1159 102.4248 1068.695 -129.5531 103.7467 1068.567 -129.838 102.5595 1068.386 -129.1739 103.6885 1068.327 -129.5687 100.3552 1068.627 -127.5136 101.7124 1068.615 -128.9267 88.25135 1068.981 -121.4217 88.31145 1068.644 -121.1002 104.2055 1068.228 -130.2693 103.9625 1068.545 -130.2414 87.72456 1068.892 -121.723 87.8509 1068.65 -121.2496 102.6476 1067.904 -137.5922 103.0217 1067.501 -137.6945 87.40234 1068.836 -122.7557 83.00601 1068.435 -126.4091 81.54338 1068.346 -126.454 82.56549 1068.149 -126.0853 81.53997 1068.081 -126.1026 84.44633 1068.448 -125.7221 85.29387 1068.35 -124.9827 86.15361 1068.704 -124.8292 86.50448 1068.581 -123.9617 102.729 1067.664 -137.9409 102.4074 1067.577 -138.1897 81.09664 1068.056 -126.2008 80.89848 1068.155 -126.6738 100.7012 1067.67 -138.1968 99.29541 1067.423 -138.8519 95.79682 1067.178 -142.6665 96.30129 1067.178 -141.7412 96.06571 1066.871 -142.8188 98.42358 1067.572 -139.1168 97.2253 1067.352 -140.2629 79.58251 1067.196 -133.9565 79.99254 1067.586 -134.0155 95.49298 1066.97 -143.0213 80.04911 1067.478 -134.3789 79.68069 1067.115 -134.3742 79.92358 1067.058 -134.6564 85.01976 1067.016 -141.0921 84.99821 1066.813 -141.3433 85.17017 1066.536 -141.5515 81.49389 1067.04 -135.3364 81.21483 1067.371 -134.9515 84.92143 1067.237 -139.3532 84.87332 1067.029 -140.7261 84.57208 1066.982 -139.4036 84.58105 1066.707 -140.9046 84.0295 1067.362 -137.3691 83.55455 1067.199 -137.0128 82.8162 1067.439 -135.9219 98.94932 1059.681 -122.0496 99.35984 1059.755 -122.3465 88.50739 1059.319 -120.6199 88.61448 1059.667 -120.285 99.42459 1059.578 -123.6421 99.29932 1059.18 -125.0054 102.7702 1059.06 -128.5103 104.0317 1059.178 -128.8821 101.7779 1059.32 -127.6767 101.6362 1058.985 -127.9776 100.5774 1059.164 -126.7558 100.3078 1059.531 -125.8915 99.63871 1059.398 -124.8909 88.04844 1059.495 -120.6314 88.14588 1059.299 -120.9381 104.3074 1059.171 -129.3206 83.18088 1058.705 -125.3909 81.56874 1058.676 -125.4746 82.86742 1058.963 -125.1775 81.58602 1058.957 -125.2237 86.87214 1059.261 -122.881 85.72455 1058.947 -124.211 85.82669 1059.312 -123.7886 84.50863 1059.02 -124.7139 87.56575 1059.205 -122.1309 103.1886 1058.437 -136.8258 81.10535 1058.877 -125.6491 81.3534 1058.588 -125.8917 102.7806 1058.506 -137.3312 102.6548 1058.227 -137.0469 79.80885 1058.27 -133.1443 80.07415 1057.951 -133.0472 100.8348 1058.244 -137.3636 96.14652 1057.51 -141.647 96.8505 1057.86 -140.6218 96.42659 1057.881 -141.9176 97.41027 1058.049 -139.8219 97.61264 1057.848 -139.1288 98.98237 1057.919 -137.7354 98.75052 1058.083 -138.3399 99.64716 1058.312 -137.9633 80.23263 1058.025 -133.6632 95.90133 1057.559 -142.0167 95.80859 1057.844 -142.3018 81.5038 1057.908 -134.0114 83.14523 1057.806 -135.0906 84.26704 1057.61 -135.923 85.07095 1057.387 -140.0044 84.27488 1057.729 -136.6793 85.18495 1057.423 -138.1047 84.8826 1057.587 -138.295 85.39321 1057.494 -140.515 85.43293 1057.267 -140.13</float_array>
          <technique_common>
            <accessor source="#VIS_neck_cross-mesh-positions-array" count="369" stride="3">
              <param name="X" type="float"/>
              <param name="Y" type="float"/>
              <param name="Z" type="float"/>
            </accessor>
          </technique_common>
        </source>
        <source id="VIS_neck_cross-mesh-normals">
          <float_array id="VIS_neck_cross-mesh-normals-array" count="2238">-0.1618447 -0.1010857 -0.9816252 -0.1582726 -0.1029947 -0.9820091 -0.1556885 -0.08831667 -0.9838503 -0.1481606 -0.1015883 -0.9837319 -0.1541026 -0.1107361 -0.98183 -0.1533093 -0.1073094 -0.9823344 -0.1567203 -0.1043322 -0.9821169 -0.1558591 -0.1057816 -0.9820989 -0.152337 -0.1049754 -0.9827379 -0.1507213 -0.1032454 -0.9831701 -0.1496461 -0.1006664 -0.9836018 -0.1516353 -0.09868806 -0.9834976 -0.1535145 -0.09481793 -0.9835867 -0.1580222 -0.09669458 -0.9826899 -0.1597033 -0.09952861 -0.9821349 0.1624361 0.101258 0.9815098 0.1531351 0.1140531 0.9816016 0.1454861 0.1025596 0.9840301 0.1553825 0.08679884 0.9840337 0.1530388 0.09417372 0.9837228 0.159993 0.09949266 0.9820914 0.1581478 0.09642732 0.9826958 0.1509175 0.09837162 0.9836396 0.148111 0.1010013 0.9837998 0.1482706 0.1045655 0.9834033 0.1503944 0.1072719 0.982789 0.1533794 0.1150994 0.9814412 0.1566219 0.10511 0.9820497 0.1581405 0.1036278 0.9819638 -0.1520944 -0.05734622 -0.986701 -0.1480279 0.3644936 -0.9193651 -0.0165798 0.9986504 -0.04922044 0.1180774 0.6154777 0.7792593 0.152772 0.2580249 0.9539833 0.162214 -0.1402713 0.9767348 0.1477192 -0.5227825 0.83957 0.03606277 -0.9957206 0.08508825 -0.122455 -0.4899498 -0.8631072 0.008084416 -0.9986507 -0.05129742 -0.0510475 -0.9140413 -0.4023962 -0.05421191 -0.8867053 -0.459146 -0.1191338 -0.6123256 -0.7815783 -0.1510093 -0.2626309 -0.9530065 -0.160106 0.05851113 -0.9853642 -0.1511541 0.4393082 -0.8855285 -0.1032031 0.7904981 -0.6037067 -0.1015488 0.8380588 -0.536046 -0.01169532 0.9998869 0.009464621 0.02455365 0.9612035 0.2747451 0.06579244 0.8783473 0.473474 0.079396 0.7946563 0.6018452 0.1244261 0.4963759 0.8591445 0.1507458 0.0819565 0.9851695 0.1463971 -0.3548868 0.9233761 0.1057443 -0.7838897 0.6118294 0.1021189 -0.8313511 0.546285 0.05070883 -0.97131 0.2323479 -0.05374777 0.9701281 -0.2365643 -0.01320016 -0.9723786 -0.2330358 -0.06156986 -0.8923287 -0.4471674 -0.09810954 -0.6913648 -0.7158137 -0.103316 -0.6721777 -0.733146 -0.1393555 -0.3172826 -0.9380362 -0.1547362 0.07892906 -0.984798 -0.1531456 0.376877 -0.9135153 -0.1213166 0.6798699 -0.7232283 -0.06859314 0.9240644 -0.3760319 -0.03915143 0.9927122 -0.1139724 0.01403927 0.990697 0.1353606 0.09981006 0.744394 0.6602391 0.1565601 0.2507687 0.9553031 0.1624029 -0.222447 0.9613234 0.1390194 -0.6140322 0.7769416 0.07167375 -0.9422702 0.3270929 -0.1374659 -0.4272964 -0.8936001 0.005010545 -0.9987238 -0.05025714 0.07160919 -0.9429478 0.3251487 0.1033386 -0.7946981 0.5981439 0.1403177 -0.4940303 0.8580472 0.1499898 -0.009194374 0.9886448 0.1227561 0.4852532 0.8657138 0.08533936 0.7881919 0.609484 0.03383231 0.9422656 0.333153 -0.113846 0.798775 -0.5907601 -0.154934 0.3643866 -0.918269 -0.1603261 -0.0620355 -0.9851129 -0.9843125 -0.01289111 0.175962 -0.9857823 -0.01627707 0.1672379 -0.9874426 -0.003930389 0.1579298 -0.9888021 -0.01701641 0.1482595 -0.9869605 -0.02598994 0.1588505 -0.9874358 -0.0212689 0.1565833 -0.9865828 -0.01927602 0.1621199 -0.9868483 -0.02202379 0.1601421 -0.9877338 -0.0190972 0.1549755 -0.9881696 -0.01776015 0.1523332 -0.9881356 -0.01525908 0.1528245 -0.9878415 -0.01371312 0.1548588 -0.9877058 -0.01177167 0.1558807 -0.9870507 -0.007789015 0.1602194 -0.9863362 -0.010683 0.1643984 0.98667 0.01476532 -0.1620627 0.986683 0.01475375 -0.1619846 0.9875 0.02212715 -0.1560583 0.9898759 0.01670551 -0.140949 0.9880072 0.005980074 -0.1542924 0.9872171 0.01374751 -0.1587878 0.9873761 0.01280808 -0.1578752 0.9880701 0.007379829 -0.1538276 0.9883717 0.01105493 -0.1516552 0.9889521 0.01410955 -0.1475629 0.9883946 0.0184561 -0.1507832 0.9878305 0.02016109 -0.1542225 0.9874094 0.02305841 -0.1564968 0.987319 0.0160923 -0.1579315 0.9873865 0.01663464 -0.157453 0.02904033 -0.9947851 0.09777194 0.02763324 -0.9947786 0.09824454 0.03539043 -0.9946249 0.09730863 0.02780485 -0.9946218 0.09977132 0.03150558 -0.9945219 0.09966838 0.03245401 -0.9946737 0.09783196 0.03303623 -0.9946728 0.09764486 0.04561871 -0.9942921 0.09644705 0.04191726 -0.9942942 0.09809237 0.03229731 -0.9948014 0.09657728 0.03194534 -0.9949335 0.09532576 0.03197836 -0.9943158 0.1015559 0.03092664 -0.9948186 0.09684824 0.03120166 -0.9940731 0.1041401 0.03006023 -0.9948297 0.09700751 0.03537327 -0.9933754 0.1093344 -0.02748644 0.9946177 -0.09990143 -0.02375006 0.9947641 -0.09940063 -0.02832609 0.9946864 -0.09897828 -0.02741622 0.9946814 -0.09928411 -0.03193283 0.9945819 -0.09893018 -0.03150206 0.9946397 -0.09848642 -0.0349766 0.9945421 -0.09829908 -0.03346049 0.994545 -0.09879714 -0.03634363 0.9944191 -0.09904521 -0.03199535 0.9941657 -0.1030098 -0.03103387 0.994539 -0.09964537 -0.03093415 0.9942424 -0.1025918 -0.03178805 0.9947951 -0.09681034 -0.03092885 0.9950976 -0.09393668 -0.02871018 0.9955938 -0.0892682 -0.9759504 -0.1428017 0.1647072 -0.9682405 0.2125613 0.1316358 -0.9772912 0.1656904 0.1320931 -0.8902876 0.4445791 0.09867835 -0.7579632 0.6508381 0.04360687 -0.3292115 0.9429386 -0.04986619 0.2595443 0.9544637 -0.1470918 0.6480714 0.7383915 -0.1864981 0.8182143 0.5460175 -0.1799731 0.9028875 0.3854039 -0.1904153 0.9718562 0.1691364 -0.1639769 0.9731743 -0.1822079 -0.1404716 0.8550497 -0.5127394 -0.07738494 0.7826481 -0.6189423 -0.06612509 0.3228345 -0.9456005 0.04021894 -0.1146435 -0.9865331 0.1166599 -0.4904143 -0.8567875 0.1594023 -0.798218 -0.571909 0.1891252 -0.7659701 -0.6168852 0.180949 -0.9575148 -0.2263155 0.1787365 -0.3176102 0.9468693 -0.05061888 -0.6744365 0.7376406 0.03196656 -0.3037321 -0.9402913 0.15362 0.1325612 -0.9875505 0.08468621 0.5234394 -0.8519299 0.01505661 0.9802322 -0.1388362 -0.140959 0.4251362 0.8919357 -0.1539807 0.05832463 0.992392 -0.1084279 0.9864714 -0.001805484 -0.1639234 0.9315087 0.32081 -0.1713842 0.8911014 0.414019 -0.1858136 0.6484634 0.7398623 -0.1791621 0.6092194 0.774284 -0.1712779 0.1138592 0.9869794 -0.1136121 0.06838196 0.991454 -0.111099 -0.4903815 0.8715077 -5.36186e-4 -0.7608274 0.64772 0.04000645 -0.9230177 0.3649665 0.1218104 -0.9470297 -0.2624525 0.1850773 -0.9252852 -0.3335336 0.180562 -0.6877854 -0.7027807 0.1817982 -0.7003269 -0.6906315 0.1804727 -0.3753347 -0.9127585 0.1612325 0.1532562 -0.9847811 0.0819686 0.176432 -0.9810194 0.08045345 0.658941 -0.7520185 -0.01628065 0.9004663 -0.4226429 -0.1026328 0.9507799 -0.2896586 -0.1100702 0.338691 0.928323 -0.1533128 0.547904 -0.8365305 -0.004261374 -0.257977 -0.956581 0.1356498 -0.9816647 0.1388412 0.130605 -0.3157492 0.9473201 -0.05373275 -0.940132 0.002456068 0.3408018 -0.9394942 0.0029096 0.3425525 -0.8657228 0.02518063 0.49989 -0.8420133 0.0239197 0.5389262 -0.7469623 0.04075318 0.6636163 -0.7664276 0.04122555 0.6410064 -0.6360923 0.05619978 0.7695637 -0.6158958 0.06110745 0.7854543 -0.5197018 0.06420826 0.8519316 -0.4450749 0.07615566 0.8922493 -0.3925748 0.07773739 0.916429 -0.2826781 0.0912677 0.9548631 -0.2162179 0.08715814 0.972447 -0.03547859 0.09824138 0.99453 -0.04725557 0.09619039 0.9942406 0.3544625 0.1025382 0.9294312 0.3230217 0.09774702 0.9413302 0.4939343 0.1032994 0.8633412 0.5417554 0.09710603 0.8349081 0.6299875 0.1011422 0.7699909 0.6970634 0.09014678 0.7113201 0.8129016 0.08592021 0.5760287 0.8122714 0.08582895 0.5769303 0.8877733 0.07206153 0.4546052 0.9073455 0.07392221 0.4138354 0.974768 0.04859268 0.2178673 0.9831399 0.05059462 0.1757159 0.9993648 0.0344848 0.008987426 0.9982783 0.03416049 0.04768043 0.9305018 -0.00575304 -0.3662425 0.9364284 -0.00119704 -0.3508569 0.8654422 -0.02171391 -0.5005382 0.8257902 -0.02214992 -0.5635423 0.7411749 -0.04743087 -0.6696343 0.6727149 -0.04760527 -0.7383688 0.5495284 -0.0634647 -0.8330612 0.5650626 -0.0645368 -0.8225201 0.4152112 -0.07405847 -0.9067057 0.3825623 -0.08049416 -0.9204166 0.2597348 -0.08400696 -0.9620192 0.2145739 -0.09101456 -0.9724579 0.02940052 -0.0964142 -0.994907 0.03933101 -0.09752434 -0.9944558 -0.02972495 -0.09975135 -0.9945684 -0.329702 -0.09606826 -0.9391845 -0.4629399 -0.1098626 -0.879555 -0.5311257 -0.1002139 -0.8413459 -0.6255217 -0.1025747 -0.7734346 -0.7032446 -0.08975541 -0.7052596 -0.7668617 -0.09023028 -0.6354383 -0.8149977 -0.07999497 -0.573916 -0.8790051 -0.07878011 -0.4702593 -0.9082642 -0.06846225 -0.4127579 -0.9507661 -0.06241744 -0.3035588 -0.9651589 -0.05467551 -0.2558885 -0.9796735 -0.05398058 -0.1931992 -0.9974988 -0.03710234 -0.06016498 -0.9990767 -0.03786969 -0.02029401 0.8982139 -0.01346987 -0.4393522 0.8645793 -0.02390497 -0.5019275 0.5771346 -0.06473356 -0.8140795 0.5594658 -0.06494277 -0.8263053 0.6368924 -0.05653554 -0.768877 0.5944003 -0.05818957 -0.8020613 0.269712 -0.08909136 -0.9588109 0.1180717 -0.09104013 -0.9888229 -0.9037085 -0.07145971 -0.4221429 -0.8921929 -0.07208114 -0.4458657 -0.6172307 -0.09856837 -0.7805835 -0.5755807 -0.09874212 -0.8117615 -0.4337199 -0.106329 -0.8947521 -0.675801 -0.09448266 -0.7310035 -0.6818765 -0.09463262 -0.7253201 -0.9110454 -0.07358729 -0.405686 -0.9589302 -0.05470824 -0.2783164 -0.8757079 0.02226245 0.4823278 -0.7536192 0.0359857 0.6563256 -0.6031895 0.06098967 0.7952626 -0.4113854 0.07431405 0.908427 -0.3038859 0.08552682 0.9488617 -0.3198254 0.07986003 0.9441049 -0.4149515 0.0776394 0.9065249 -0.6545409 0.04876595 0.7544522 -0.7809623 0.03811001 0.6234145 0.4794514 0.103474 0.8714468 0.4181021 0.1014505 0.9027172 0.7208641 0.09268593 0.686851 0.8371427 0.07522898 0.5417867 0.9222084 0.06841021 0.3805939 0.6617118 0.09219151 0.7440688 0.6983562 0.09247714 0.7097512 0.9315541 0.06405383 0.3579163 0.9318507 0.06403398 0.3571467 0.4619023 0.3839274 0.7995288 0.6322813 0.3985534 0.6643611 0.3189582 0.8298637 0.457812 0.6554613 0.6408072 0.3996707 0.706446 0.5469997 0.4491385 0.85546 0.4053076 0.3223569 0.6793842 0.7337159 -0.009905815 0.8338226 0.5509347 -0.03479635 0.9129732 0.4068747 0.03054666 0.7079883 0.6941348 0.1301131 0.7444779 0.6377556 0.1975362 0.1599228 0.9323477 0.3242725 0.2005124 0.7932572 0.5749242 0.2715755 0.6877821 0.6732032 0.3439607 0.355318 0.8691607 0.7948638 0.593999 0.123923 0.8395107 0.5058602 0.1983113 0.5070842 0.8091718 0.2968277 0.1595983 0.9843503 0.07471877 0.8334067 0.4056912 0.3752973 0.5191041 0.7885642 0.3296934 0.632959 0.6216273 0.461457 0.2419402 0.9438945 0.2247845 0.6068199 0.545372 0.5782204 0.2068484 0.9129399 0.3517875 0.1467987 0.9891141 0.01016968 0.5609223 0.8273953 0.02798861 0.2916474 0.951969 -0.09325599 0.5866572 0.5736915 0.5715867 0.2295566 0.876226 0.423712 0.3662142 0.7230216 0.5857705 0.3599242 0.7821051 0.5086907 0.5392726 0.3955844 0.7434368 0.3200281 0.4119679 0.8531498 0.02742862 0.9540787 0.2982977 0.08621031 0.8020145 0.5910505 0.1024051 0.6956543 0.7110404 0.1272432 0.5422382 0.8305342 0.1406526 0.3370066 0.9309369 0.9029494 0.3085095 0.2991726 0.7520112 0.544462 0.3715379 0.7518432 0.5443062 0.3721057 0.4386515 0.8793762 0.1851556 0.619259 0.3938439 0.6792682 0.6449775 0.4956392 0.581675 -0.6715239 0.571606 0.4715106 -0.4325976 0.2719385 0.8595981 -0.6565358 0.3365976 0.6750281 -0.3533611 0.8623784 0.3625459 -0.4146463 0.76082 0.4992207 -0.2266021 0.650518 0.7248985 -0.2683881 0.4608762 0.8459084 0.4799091 0.8624305 -0.160938 0.9410436 0.2877649 -0.1778439 0.9437655 0.2787322 -0.1778066 0.7720537 0.6087279 -0.1827114 0.696689 0.693103 -0.185021 0.2562475 0.9558132 -0.1440776 -0.7800366 0.5888936 0.2115357 -0.4492181 0.8882841 0.09567987 -0.8007568 0.5397148 0.2598011 -0.444568 0.8911361 0.09075087 -0.06628489 0.971972 0.2255589 -0.06309139 0.7973772 0.6001743 -0.04818081 0.5072089 0.8604753 -0.0639379 0.4745944 0.8778793 -0.2247284 0.8614736 0.4553684 -0.2412517 0.5353974 0.8094117 -0.2361653 0.5175773 0.8223987 -0.3961901 0.7348594 0.5504682 -0.3993385 0.7301279 0.5544745 -0.2146083 0.9676986 0.1322981 -0.3858045 0.1845935 0.9039249 -0.7267769 0.08638417 0.6814199 -0.4079281 0.8665027 0.2876941 -0.4771228 0.5236701 0.7057787 -0.4694457 0.8279222 0.3068645 -0.6042643 0.5121558 0.6103779 -0.6122615 0.4990985 0.6132183 -0.3968906 0.9121026 0.1026969 -0.6937409 0.6067332 0.3880701 -0.7885341 0.4638279 0.403829 -0.6306211 0.5653253 0.5317184 -0.1441136 0.9476344 0.2849919 -0.06698578 0.7911311 0.6079676 -0.2208893 0.3253293 0.9194394 0.3312888 0.8113251 -0.4816632 0.6522959 0.6863948 -0.3215156 0.8855425 0.2115553 -0.4135928 0.2451542 0.7711058 -0.5876184 0.7104188 0.3895745 -0.5861202 0.5235336 0.3208733 -0.7892738 0.5145583 0.3023875 -0.8023663 -0.2099962 0.5448292 0.8118269 -0.174497 0.7868902 0.5919076 -0.3436986 0.8602409 0.376639 -0.6947097 0.3813189 0.6098971 -0.7067101 0.3898705 0.5903913 -0.4040145 0.846839 0.3458847 -0.7133545 0.5639759 0.4160007 -0.1594766 0.4884062 0.8579199 0.06540912 0.2862257 -0.9559271 0.1658712 0.751461 -0.6385868 0.6187915 0.7093747 -0.3374682 0.7524082 0.5715568 -0.3274213 0.8344194 0.3863407 -0.393046 0.1405353 0.5278928 -0.8376032 0.3197779 0.4259721 -0.8463392 0.2593556 0.900335 -0.3494734 0.3028426 0.2839825 -0.9097475 0.2412235 0.9023666 -0.3571354 0.3219605 0.6302524 -0.7064867 0.375841 0.7551571 -0.5371047 0.5482654 0.2319139 -0.8035054 0.5546222 0.4885143 -0.6736083 0.140049 0.8600252 -0.4906555 0.0252006 0.3929952 -0.9191952 0.046961 0.8198829 -0.5706023 0.02861768 0.7695959 -0.6378896 0.5464492 0.6071521 -0.5768533 0.3225284 0.8953413 -0.3071472 0.7133693 0.487603 -0.5033366 0.5564848 0.7734903 -0.3033767 0.2568289 0.9371676 -0.2361266 0.7035094 0.5236008 -0.4805381 -0.9481429 0.2969607 0.1133115 -0.1848754 0.9796577 -0.07805007 -0.8423437 0.5326548 0.0820735 -0.6859828 0.7270705 0.02821493 -0.5157525 0.8567332 -0.002764582 0.5524944 0.3006721 -0.7773971 0.1510757 0.7914479 -0.5922722 0.3519303 0.6448756 -0.6784399 0.3656497 0.4683113 -0.8043537 0.1459632 0.3869484 -0.9104756 -0.6784934 0.6688607 -0.3037633 -0.6732664 0.6803241 -0.289606 -0.3250657 0.5870034 -0.7414577 -0.5646932 0.565953 -0.600682 -0.4386857 0.2561936 -0.8613476 -0.9283638 0.2572119 -0.2682963 -0.9293133 0.2233437 -0.2940995 -0.7153776 0.2251284 -0.6614772 -0.6824359 0.1556874 -0.7141727 -0.2853398 0.90598 -0.3127005 -0.08852905 0.8874454 -0.452331 -0.1100635 0.7773697 -0.6193402 -0.1091729 0.7854381 -0.6092358 -0.1410524 0.5372295 -0.8315581 -0.1444004 0.4487555 -0.881911 -0.159702 0.1921482 -0.9682843 -0.3112739 0.5969376 -0.7394417 -0.2454593 0.7932337 -0.5572525 -0.3104175 0.5930284 -0.7429391 -0.1580976 0.8614703 -0.4825704 -0.3292775 0.9351811 -0.1304331 -0.6950158 0.706479 -0.1335684 -0.8912596 0.4450964 -0.08686542 -0.9241441 0.3663605 -0.1083413 -0.8386358 0.5192072 -0.1646638 -0.8548251 0.3819364 -0.3512815 -0.823194 0.4765671 -0.3086023 -0.582156 0.6604563 -0.4742277 -0.1892309 0.9593703 -0.2092857 -0.6047383 0.5867959 -0.5384815 -0.7492667 0.4839891 -0.4520554 -0.3730668 0.8063637 -0.4589106 -0.667636 0.491016 -0.559612 -0.6303615 0.5322616 -0.5651036 -0.3582212 0.3546017 -0.8636754 -0.2750047 0.8776355 -0.3925918 -0.4720913 0.4693045 -0.746246 -0.4705267 0.5668815 -0.6762027 -0.6415614 0.04948145 -0.7654742 -0.2131122 0.964405 -0.1565445 -0.5360125 0.7925465 -0.2907931 -0.5764081 0.8106629 -0.1028559 -0.9065177 0.3564926 -0.2261388 -0.8310326 0.3203358 -0.4547196 -0.7016874 0.4378708 -0.5620534 -0.445393 0.3444586 -0.826422 -0.6345117 0.6264993 -0.4526519 -0.6295672 0.7261889 -0.2762153 -0.5427278 0.3205768 -0.7763229 -0.3415076 0.9248509 -0.1674022 0.4651885 -0.7610111 0.4521746 0.7732562 -0.2481876 0.5835047 0.5906508 -0.3426427 0.7305667 0.5160417 -0.4224244 0.7451567 0.1013271 -0.8441333 0.5264711 0.1198057 -0.7075743 0.6964089 0.1553924 -0.3918419 0.9068148 0.1552989 -0.2567136 0.953929 0.07706737 -0.9176511 0.3898424 0.9072381 -0.4082604 0.101206 0.6398249 -0.7515966 0.1603953 0.8795359 -0.4694674 0.07757067 0.6020058 -0.7864754 0.1380058 0.2343751 -0.8086149 0.539639 0.3319965 -0.4117902 0.8486502 0.4530664 -0.222012 0.8633896 0.1395941 -0.9550929 0.2613638 0.496964 -0.6863614 0.5309754 0.6088275 -0.6529288 0.4505698 0.1423257 -0.9727318 0.1831288 0.5831848 -0.4352045 0.6859245 0.5826501 -0.4357994 0.6860014 0.6407139 -0.6143526 0.4604961 0.756051 -0.4836096 0.4410317 0.4312759 -0.8425531 0.3226538 0.7530449 -0.2557169 0.6062445 0.3092743 -0.9425066 0.1266121 0.4781811 -0.8539816 0.2050811 0.8388515 -0.4997095 0.2159137 0.8618152 -0.4461231 0.2413477 0.7192631 -0.5638152 0.4059223 0.8901982 -0.2421464 0.3858917 0.3400135 -0.7033279 0.6242761 0.4448369 -0.5551101 0.7028321 0.2892523 -0.4741896 0.8315512 0.1715237 -0.9581075 0.2293684 0.2084243 -0.8363409 0.5070439 -0.5800254 -0.4186763 0.6987708 -0.2025364 -0.318528 0.9260233 -0.3200304 -0.528769 0.7861196 -0.2587317 -0.628032 0.7339168 -0.2537124 -0.8500562 0.4615567 -0.3440836 -0.8776099 0.3337775 0.6500912 -0.3300098 0.6844523 0.8373284 -0.3713234 0.4012482 0.7642215 -0.4235129 0.4864181 0.5700889 -0.7342956 0.3685224 -0.7757223 -0.5157638 0.3636518 -0.009811341 -0.8704255 0.4922024 -0.02377426 -0.6648265 0.7466195 -0.03191018 -0.3606019 0.9321739 -0.04100823 -0.3366206 0.940747 -0.7580835 -0.4379994 0.4831833 -0.2525085 -0.8702359 0.4230002 -0.6002477 -0.489062 0.6328673 -0.2610294 -0.8592646 0.4399183 -0.7483581 -0.09279406 0.6567721 -0.5287382 -0.574622 0.6246964 -0.314659 -0.6796599 0.6626101 -0.2292407 -0.8735147 0.4294424 -0.4974281 -0.3141592 0.8086219 -0.4936619 -0.3834049 0.7805758 -0.142351 -0.7607614 0.6332285 -0.08693295 -0.9200453 0.3820462 -0.4444423 -0.8245652 0.3500903 -0.581982 -0.6490608 0.4899155 -0.7668544 -0.5374717 0.3507975 -0.5396931 -0.77714 0.323705 -0.4477305 -0.8224313 0.3509191 -0.2611948 -0.9441112 0.2010753 -0.4157055 -0.4202307 0.8065948 -0.1599807 -0.7375323 0.6560888 0.004446744 -0.8913754 0.453244 -0.2406308 -0.3336194 0.9114796 -0.2431707 -0.3517388 0.9039624 -0.02720111 -0.656241 0.7540611 0.9102449 -0.4007689 -0.1041085 0.8643643 -0.4964327 -0.08018028 0.5820875 -0.8130939 -0.007247865 0.5708845 -0.8210219 -0.003754019 -0.4940461 -0.5618174 0.6635358 -0.5396499 -0.4705508 0.6981117 -0.7049142 -0.3408763 0.6220123 -0.3551319 -0.2763763 0.8930271 -0.4892569 -0.7674515 0.4143019 -0.2620278 -0.9080616 0.3267502 0.8532361 -0.3872263 -0.349348 0.6133598 -0.5472586 -0.5694715 0.5474739 -0.3173441 -0.7743158 0.4877106 -0.7209023 -0.4923803 0.4680625 -0.8056144 -0.3631846 -0.8795398 -0.4372949 0.1875715 -0.9484971 -0.2647189 0.1740037 -0.7826839 -0.5947351 0.1835654 -0.6645596 -0.724365 0.1834555 -0.2278403 -0.9638268 0.1382996 -0.3827579 -0.9116542 0.1496093 0.037216 -0.7215802 -0.69133 0.1353537 -0.5732938 -0.8080927 0.04715228 -0.946029 -0.3206335 0.08507043 -0.9043568 -0.4182127 0.09018743 -0.4620181 -0.8822729 0.3036016 -0.9520212 -0.03849363 0.8882345 -0.3512938 -0.2960275 0.8999764 -0.2892976 -0.3261125 0.7310883 -0.5681769 -0.3777366 0.801138 -0.3643077 -0.474824 0.2317367 -0.9560919 -0.1794063 0.4680253 0.0558319 -0.8819497 0.7111182 -0.5116048 -0.4822568 0.6935647 -0.6124163 -0.3793604 0.4361 -0.8122197 -0.3874481 0.5233113 -0.6372354 -0.565753 0.6611784 -0.4210835 -0.6209121 0.3733893 -0.8491055 -0.3736315 0.4361055 -0.5882381 -0.6810199 0.5693752 -0.2792461 -0.7731971 0.252555 -0.7686956 -0.5876421 0.2284977 -0.9111315 -0.3429696 0.181057 -0.6282858 -0.756621 0.3762791 -0.4705079 -0.7981456 0.3725389 -0.4598762 -0.8060575 0.4145237 -0.8768655 -0.2434688 0.3918411 -0.8963384 -0.2074568 0.6852201 -0.6893992 -0.2349514 0.5583339 -0.8233191 -0.1020247 -0.4890184 -0.8420794 -0.2275161 -0.7019393 -0.6626803 -0.2610289 -0.5957533 -0.4338937 -0.6758803 -0.746695 -0.5716047 -0.3401688 -0.9048573 -0.301742 -0.3003084 0.2325237 -0.93236 -0.2768352 0.5275688 -0.7235791 -0.4450894 0.4657269 -0.5450673 -0.6971372 0.4742777 -0.5149486 -0.7140649 0.628556 -0.3325742 -0.7030732 0.2519919 -0.2952346 -0.9215947 -0.2015236 -0.8743447 -0.4414857 -0.2558513 -0.6517111 -0.7140119 -0.3344612 -0.5170599 -0.787899 -0.4410411 -0.6595325 -0.6086869 -0.3901243 -0.8624567 -0.3224464 -0.5732229 -0.6456968 -0.5044712 -0.7968113 -0.6040846 0.01318109 -0.4501063 -0.5701676 -0.6872505 -0.5149998 -0.7119021 -0.4774629 -0.2782078 -0.9485861 -0.1509472 -0.6633452 -0.6035911 -0.4423246 -0.6568961 -0.6252004 -0.4214406 -0.07308822 -0.9958374 0.05446273 -0.5033094 -0.8529046 -0.1386849 -0.4335085 -0.8971646 -0.08465331 -0.5475938 -0.8367337 0.004209041 -0.1963637 -0.9580585 -0.2087227 -0.1757994 -0.8933049 -0.4136437 -0.7262697 -0.652563 -0.2160876 -0.8172526 -0.4634256 -0.3425421 -0.4859766 -0.8737678 0.01888531 -0.7449774 -0.652836 -0.1371638 -0.3950952 -0.9164088 0.06399059 -0.8341861 -0.5508074 -0.02729511 -0.1354218 -0.3984723 -0.9071278 -0.09401947 -0.7185706 -0.6890695 -0.06639093 -0.8624088 -0.5018398 -0.03967368 -0.9306633 -0.3637195 -0.01040208 -0.9880154 -0.1540048 -0.1271669 -0.5217057 -0.8435947 -0.6602595 -0.5588985 -0.5016872 -0.3413935 -0.9355248 -0.09079611 -0.4147434 -0.8018026 -0.430233 -0.587387 -0.6334347 -0.5037232 -0.6350347 -0.6017525 -0.484381 -0.2834038 -0.4960164 -0.8207619 0.8516082 0.001618087 0.5241764 0.7140024 -0.2650263 0.6480446 0.8298388 -0.3191312 0.4577367 0.7971011 -0.5277556 0.2934349 0.6846293 -0.6772251 0.2695347 0.7564816 -0.6442439 0.1126296 0.6927792 -0.7077171 -0.1385412 0.6678159 -0.7279063 -0.1554813 0.6773691 -0.5925111 -0.4360066 0.5885789 -0.607731 -0.5331396 0.6544862 -0.452839 -0.6054623 0.566761 -0.3046711 -0.7654787 0.5405024 -0.295907 -0.7875888 0.6438329 -0.02598828 -0.7647247 0.5085725 0.1714506 -0.8437766 0.6206255 0.2503893 -0.743054 0.5399692 0.5212137 -0.6608855 0.6742776 0.5405662 -0.5031283 0.5861822 0.7184622 -0.3744363 0.7226341 0.666545 -0.1830787 0.6296576 0.7767146 0.01567977 0.7556191 0.6480317 0.09536635 0.7672246 0.5592609 0.3139964 0.7044022 0.5609682 0.4348934 0.8224627 0.3405632 0.4556005 0.7369713 0.2023469 0.6449257 0.5228115 -0.2710953 -0.8081929 0.6136744 -0.3942322 -0.6840943 0.2979962 -0.5488929 -0.7809705 0.230377 -0.7852865 -0.5746752 -0.004881501 -0.7167516 -0.6973115 -0.2016094 -0.8303303 -0.5195242 -0.3667355 -0.6775622 -0.6375066 -0.5706058 -0.6403864 -0.514115 -0.5947734 -0.5541416 -0.5823846 -0.7853415 -0.3213326 -0.5291355 -0.7547466 -0.2549949 -0.6044298 -0.8409973 0.0810694 -0.5349312 -0.7094068 0.1579775 -0.6868661 -0.6832538 0.4699386 -0.5588578 -0.4301183 0.4586002 -0.7776144 -0.2663416 0.7062518 -0.6559503 -0.04575729 0.5638136 -0.8246336 0.1390125 0.6528976 -0.7445806 0.2878625 0.4250379 -0.8581829 0.4781197 0.4181979 -0.772342 0.4912823 0.1328999 -0.8608016 0.6450034 0.0580185 -0.761974 -0.7791637 -0.3610417 -0.5123993 -0.7306956 -0.4140922 -0.5427814 -0.7886479 -0.589569 -0.1744794 -0.6310129 -0.7648088 -0.1299627 -0.7266283 -0.6651158 0.1721405 -0.5941128 -0.7456104 0.3018199 -0.67024 -0.5628098 0.4837598 -0.5418668 -0.5325358 0.65022 -0.6381903 -0.3636431 0.6785844 -0.5221667 -0.1695252 0.8358248 -0.5862182 -0.1122162 0.802344 -0.6280363 0.1644632 0.7606065 -0.5221557 0.301868 0.7976399 -0.655751 0.4008284 0.639787 -0.5880231 0.60812 0.5333095 -0.67894 0.5894551 0.4377023 -0.6655438 0.7299846 0.1554801 -0.755039 0.6492676 0.09147638 -0.6871815 0.6869146 -0.2364954 -0.8210966 0.4974364 -0.2799242 -0.741259 0.4031496 -0.5366616 -0.8394261 0.2334929 -0.4907595 -0.7651847 0.02341824 -0.643385 -0.8215723 -0.05208277 -0.5677203 -0.6065015 -0.06465011 0.7924496 -0.6520393 -0.04828268 0.7566462 -0.3954715 -0.2864216 0.8726769 -0.3910134 -0.5921438 0.7046093 -0.2455819 -0.5431553 0.8029146 0.0451852 -0.5642731 0.8243508 0.2063052 -0.7212178 0.6612738 0.3308472 -0.553018 0.7646642 0.6168243 -0.5071151 0.6019652 0.6370528 -0.3347544 0.6943366 0.8115734 -0.1669565 0.5598877 0.7637717 -0.04470694 0.6439365 0.8392002 0.238558 0.4887057 0.7166033 0.3338766 0.6123775 0.6310157 0.5929567 0.5002216 0.5701957 0.594929 0.5665125 0.2863645 0.7215965 0.6303126 0.2179787 0.8148527 0.5371225 -0.1063883 0.7247518 0.680747 -0.2152838 0.7655714 0.6062618 -0.3660259 0.4875057 0.7926937 -0.6329157 0.4003351 0.6626837 -0.5400796 0.2226684 0.8116236</float_array>
          <technique_common>
            <accessor source="#VIS_neck_cross-mesh-normals-array" count="746" stride="3">
              <param name="X" type="float"/>
              <param name="Y" type="float"/>
              <param name="Z" type="float"/>
            </accessor>
          </technique_common>
        </source>
        <vertices id="VIS_neck_cross-mesh-vertices">
          <input semantic="POSITION" source="#VIS_neck_cross-mesh-positions"/>
        </vertices>
        <polylist count="746">
          <input semantic="VERTEX" source="#VIS_neck_cross-mesh-vertices" offset="0"/>
          <input semantic="NORMAL" source="#VIS_neck_cross-mesh-normals" offset="1"/>
          <vcount>3 3 3 3 3 3 3 3 3 3 3 3 3 3 3 3 3 3 3 3 3 3 3 3 3 3 3 3 3 3 3 3 3 3 3 3 3 3 3 3 3 3 3 3 3 3 3 3 3 3 3 3 3 3 3 3 3 3 3 3 3 3 3 3 3 3 3 3 3 3 3 3 3 3 3 3 3 3 3 3 3 3 3 3 3 3 3 3 3 3 3 3 3 3 3 3 3 3 3 3 3 3 3 3 3 3 3 3 3 3 3 3 3 3 3 3 3 3 3 3 3 3 3 3 3 3 3 3 3 3 3 3 3 3 3 3 3 3 3 3 3 3 3 3 3 3 3 3 3 3 3 3 3 3 3 3 3 3 3 3 3 3 3 3 3 3 3 3 3 3 3 3 3 3 3 3 3 3 3 3 3 3 3 3 3 3 3 3 3 3 3 3 3 3 3 3 3 3 3 3 3 3 3 3 3 3 3 3 3 3 3 3 3 3 3 3 3 3 3 3 3 3 3 3 3 3 3 3 3 3 3 3 3 3 3 3 3 3 3 3 3 3 3 3 3 3 3 3 3 3 3 3 3 3 3 3 3 3 3 3 3 3 3 3 3 3 3 3 3 3 3 3 3 3 3 3 3 3 3 3 3 3 3 3 3 3 3 3 3 3 3 3 3 3 3 3 3 3 3 3 3 3 3 3 3 3 3 3 3 3 3 3 3 3 3 3 3 3 3 3 3 3 3 3 3 3 3 3 3 3 3 3 3 3 3 3 3 3 3 3 3 3 3 3 3 3 3 3 3 3 3 3 3 3 3 3 3 3 3 3 3 3 3 3 3 3 3 3 3 3 3 3 3 3 3 3 3 3 3 3 3 3 3 3 3 3 3 3 3 3 3 3 3 3 3 3 3 3 3 3 3 3 3 3 3 3 3 3 3 3 3 3 3 3 3 3 3 3 3 3 3 3 3 3 3 3 3 3 3 3 3 3 3 3 3 3 3 3 3 3 3 3 3 3 3 3 3 3 3 3 3 3 3 3 3 3 3 3 3 3 3 3 3 3 3 3 3 3 3 3 3 3 3 3 3 3 3 3 3 3 3 3 3 3 3 3 3 3 3 3 3 3 3 3 3 3 3 3 3 3 3 3 3 3 3 3 3 3 3 3 3 3 3 3 3 3 3 3 3 3 3 3 3 3 3 3 3 3 3 3 3 3 3 3 3 3 3 3 3 3 3 3 3 3 3 3 3 3 3 3 3 3 3 3 3 3 3 3 3 3 3 3 3 3 3 3 3 3 3 3 3 3 3 3 3 3 3 3 3 3 3 3 3 3 3 3 3 3 3 3 3 3 3 3 3 3 3 3 3 3 3 3 3 3 3 3 3 3 3 3 3 3 3 3 3 3 3 3 3 3 3 3 3 3 3 3 3 3 3 3 3 3 3 3 3 3 3 3 3 3 3 3 3 3 3 3 3 3 3 3 3 3 3 3 3 3 3 3 3 3 3 3 3 3 3 3 3 3 3 3 3 3 3 3 3 3 3 3 3 3 3 3 3 3 3 3 3 3 3 3 3 3 3 3 3 3 3 3 3 3 3 3 3 3 3 3 3 3 3 3 3 3 3 3 3 3 3 3 3 3 3 3 3 3 3 3 3 3 3 3 3 3 3 3 3 3 3 3 3 3 3 3 3 3 3 3 </vcount>
          <p>0 0 1 0 2 0 2 1 1 1 3 1 4 2 5 2 0 2 6 3 7 3 4 3 2 4 8 4 6 4 6 5 8 5 9 5 3 6 10 6 2 6 2 7 10 7 8 7 6 8 9 8 11 8 11 9 7 9 6 9 4 10 7 10 12 10 4 11 12 11 13 11 4 12 13 12 5 12 5 13 14 13 0 13 0 14 14 14 1 14 15 15 16 15 17 15 18 16 19 16 15 16 20 17 21 17 18 17 17 18 22 18 20 18 20 19 22 19 23 19 17 20 16 20 24 20 17 21 24 21 22 21 20 22 23 22 25 22 25 23 21 23 20 23 18 24 21 24 26 24 18 25 26 25 27 25 18 26 27 26 19 26 19 27 28 27 15 27 28 28 16 28 15 28 29 29 30 29 31 29 31 30 32 30 33 30 34 31 35 31 36 31 37 32 38 32 39 32 39 33 40 33 41 33 41 34 42 34 43 34 43 35 44 35 45 35 46 36 47 36 48 36 49 37 50 37 29 37 51 38 48 38 47 38 48 39 51 39 52 39 48 40 52 40 49 40 49 41 52 41 50 41 29 42 50 42 30 42 31 43 30 43 32 43 33 44 32 44 53 44 33 45 53 45 34 45 34 46 53 46 54 46 36 47 35 47 55 47 55 48 56 48 36 48 36 49 56 49 37 49 37 50 56 50 38 50 39 51 38 51 40 51 41 52 40 52 42 52 43 53 42 53 44 53 45 54 44 54 57 54 57 55 46 55 45 55 57 56 47 56 46 56 54 57 35 57 34 57 47 58 58 58 59 58 59 59 58 59 60 59 59 60 60 60 61 60 61 61 60 61 62 61 61 62 63 62 64 62 64 63 65 63 66 63 67 64 66 64 68 64 67 65 68 65 69 65 69 66 70 66 35 66 35 67 70 67 71 67 35 68 71 68 72 68 72 69 73 69 74 69 75 70 74 70 76 70 75 71 77 71 78 71 78 72 79 72 80 72 47 73 80 73 81 73 62 74 63 74 61 74 81 75 58 75 47 75 82 76 81 76 80 76 79 77 82 77 80 77 77 78 79 78 78 78 77 79 75 79 76 79 73 80 76 80 74 80 83 81 73 81 72 81 83 82 72 82 71 82 70 83 69 83 68 83 65 84 68 84 66 84 63 85 65 85 64 85 84 86 85 86 86 86 86 87 85 87 87 87 88 88 89 88 84 88 90 89 91 89 88 89 86 90 92 90 90 90 90 91 92 91 93 91 87 92 94 92 86 92 86 93 94 93 92 93 90 94 93 94 95 94 90 95 95 95 91 95 88 96 91 96 96 96 88 97 96 97 97 97 88 98 97 98 89 98 89 99 98 99 84 99 84 100 98 100 85 100 99 101 100 101 101 101 101 102 100 102 102 102 103 103 104 103 99 103 105 104 106 104 103 104 101 105 107 105 105 105 102 106 108 106 101 106 108 107 107 107 101 107 107 108 109 108 105 108 105 109 109 109 110 109 105 110 110 110 106 110 103 111 106 111 111 111 103 112 111 112 112 112 103 113 112 113 104 113 104 114 113 114 99 114 99 115 113 115 100 115 114 116 115 116 116 116 116 117 115 117 117 117 116 118 117 118 118 118 118 119 117 119 119 119 118 120 119 120 120 120 120 121 119 121 121 121 120 122 121 122 122 122 120 123 122 123 123 123 123 124 122 124 124 124 121 125 119 125 125 125 125 126 119 126 126 126 125 127 126 127 127 127 118 128 120 128 128 128 118 129 128 129 129 129 129 130 128 130 130 130 130 131 128 131 131 131 132 132 133 132 134 132 134 133 133 133 135 133 134 134 135 134 136 134 134 135 136 135 137 135 137 136 136 136 138 136 138 137 136 137 139 137 138 138 139 138 140 138 138 139 140 139 141 139 141 140 140 140 142 140 139 141 136 141 143 141 139 142 143 142 144 142 144 143 143 143 145 143 137 144 138 144 146 144 137 145 146 145 147 145 137 146 147 146 148 146 149 147 64 147 150 147 150 148 64 148 151 148 151 149 64 149 66 149 151 150 66 150 67 150 151 151 67 151 152 151 152 152 69 152 153 152 153 153 54 153 154 153 154 154 53 154 155 154 155 155 53 155 32 155 155 156 32 156 156 156 156 157 32 157 30 157 156 158 50 158 157 158 157 159 50 159 52 159 157 160 52 160 158 160 158 161 51 161 159 161 159 162 47 162 160 162 160 163 59 163 161 163 161 164 59 164 149 164 149 165 59 165 61 165 149 166 61 166 64 166 35 167 153 167 69 167 69 168 152 168 67 168 47 169 59 169 160 169 51 170 47 170 159 170 51 171 158 171 52 171 30 172 50 172 156 172 53 173 154 173 54 173 54 174 153 174 35 174 162 175 42 175 40 175 162 176 40 176 163 176 163 177 40 177 38 177 163 178 38 178 56 178 163 179 56 179 164 179 164 180 55 180 165 180 165 181 55 181 35 181 165 182 72 182 166 182 166 183 72 183 74 183 166 184 74 184 167 184 167 185 75 185 168 185 168 186 75 186 78 186 168 187 78 187 80 187 168 188 80 188 169 188 169 189 80 189 170 189 170 190 47 190 57 190 170 191 57 191 171 191 171 192 44 192 172 192 172 193 44 193 42 193 172 194 42 194 162 194 56 195 55 195 164 195 57 196 44 196 171 196 47 197 170 197 80 197 75 198 167 198 74 198 72 199 165 199 35 199 173 200 174 200 175 200 175 201 174 201 176 201 176 202 174 202 177 202 177 203 174 203 178 203 177 204 178 204 179 204 179 205 178 205 180 205 179 206 180 206 181 206 179 207 181 207 182 207 182 208 181 208 183 208 182 209 183 209 184 209 184 210 183 210 185 210 184 211 185 211 186 211 186 212 185 212 187 212 186 213 187 213 188 213 186 214 188 214 189 214 190 215 191 215 192 215 192 216 191 216 193 216 193 217 191 217 194 217 194 218 191 218 195 218 194 219 195 219 196 219 196 220 195 220 197 220 196 221 197 221 198 221 196 222 198 222 199 222 199 223 198 223 200 223 199 224 200 224 201 224 201 225 200 225 202 225 201 226 202 226 203 226 203 227 202 227 204 227 203 228 204 228 205 228 206 229 207 229 208 229 208 230 207 230 209 230 208 231 209 231 210 231 208 232 210 232 211 232 211 233 210 233 212 233 211 234 212 234 213 234 213 235 212 235 214 235 213 236 214 236 215 236 215 237 214 237 216 237 216 238 214 238 217 238 216 239 217 239 218 239 218 240 217 240 219 240 218 241 219 241 220 241 218 242 220 242 221 242 222 243 223 243 224 243 224 244 223 244 225 244 225 245 223 245 226 245 225 246 226 246 227 246 227 247 226 247 228 247 227 248 228 248 229 248 229 249 228 249 230 249 229 250 230 250 231 250 231 251 230 251 232 251 231 252 232 252 233 252 233 253 232 253 234 253 233 254 234 254 235 254 235 255 234 255 236 255 235 256 236 256 237 256 237 257 236 257 238 257 99 258 101 258 239 258 239 259 101 259 240 259 239 260 240 260 221 260 239 261 221 261 220 261 207 262 206 262 241 262 207 263 241 263 242 263 242 264 241 264 6 264 242 265 6 265 4 265 237 266 238 266 243 266 243 267 238 267 244 267 243 268 244 268 245 268 245 269 244 269 0 269 245 270 0 270 2 270 222 271 224 271 246 271 246 272 224 272 247 272 246 273 247 273 90 273 246 274 90 274 88 274 84 275 86 275 248 275 248 276 86 276 249 276 248 277 249 277 250 277 250 278 249 278 189 278 250 279 189 279 188 279 20 280 18 280 251 280 251 281 18 281 252 281 251 282 252 282 175 282 175 283 252 283 173 283 15 284 17 284 253 284 15 285 253 285 254 285 254 286 253 286 255 286 255 287 253 287 205 287 255 288 205 288 204 288 190 289 192 289 256 289 190 290 256 290 257 290 257 291 256 291 105 291 257 292 105 292 103 292 258 293 15 293 254 293 255 294 258 294 254 294 148 295 258 295 259 295 260 296 259 296 258 296 260 297 258 297 255 297 260 298 255 298 204 298 261 299 259 299 260 299 261 300 260 300 202 300 202 301 260 301 204 301 202 302 262 302 261 302 261 303 262 303 263 303 132 304 264 304 265 304 265 305 264 305 266 305 265 306 266 306 267 306 267 307 191 307 190 307 202 308 200 308 262 308 262 309 200 309 263 309 263 310 200 310 268 310 263 311 134 311 137 311 200 312 198 312 268 312 263 313 268 313 134 313 198 314 197 314 268 314 268 315 269 315 134 315 268 316 197 316 269 316 134 317 269 317 264 317 263 318 137 318 261 318 261 319 137 319 148 319 148 320 259 320 261 320 197 321 195 321 269 321 134 322 264 322 132 322 195 323 266 323 269 323 269 324 266 324 264 324 195 325 191 325 266 325 266 326 191 326 267 326 148 327 147 327 270 327 148 328 270 328 258 328 258 329 270 329 271 329 258 330 271 330 15 330 15 331 271 331 18 331 257 332 103 332 272 332 257 333 272 333 265 333 265 334 272 334 273 334 273 335 132 335 265 335 190 336 257 336 267 336 267 337 257 337 265 337 274 338 173 338 275 338 275 339 252 339 18 339 275 340 173 340 252 340 270 341 147 341 274 341 275 342 270 342 274 342 271 343 270 343 275 343 18 344 271 344 275 344 276 345 132 345 273 345 103 346 99 346 277 346 103 347 277 347 272 347 272 348 277 348 273 348 273 349 277 349 276 349 132 350 276 350 133 350 174 351 274 351 278 351 278 352 147 352 146 352 173 353 274 353 174 353 274 354 147 354 278 354 279 355 141 355 280 355 281 356 280 356 282 356 281 357 282 357 187 357 187 358 282 358 188 358 281 359 283 359 279 359 281 360 187 360 283 360 187 361 185 361 283 361 283 362 185 362 284 362 283 363 284 363 285 363 283 364 285 364 138 364 185 365 183 365 284 365 138 366 285 366 146 366 285 367 284 367 286 367 183 368 181 368 284 368 285 369 286 369 146 369 181 370 180 370 284 370 284 371 180 371 286 371 146 372 286 372 278 372 278 373 286 373 174 373 174 374 286 374 178 374 286 375 180 375 178 375 283 376 138 376 279 376 279 377 280 377 281 377 138 378 141 378 279 378 133 379 276 379 287 379 287 380 276 380 277 380 239 381 277 381 99 381 133 382 287 382 288 382 287 383 277 383 239 383 287 384 239 384 288 384 288 385 239 385 220 385 250 386 282 386 289 386 289 387 282 387 280 387 280 388 141 388 289 388 250 389 289 389 248 389 248 390 289 390 84 390 290 391 289 391 141 391 289 392 290 392 84 392 188 393 282 393 250 393 219 394 288 394 220 394 291 395 292 395 136 395 293 396 294 396 295 396 295 397 294 397 209 397 295 398 209 398 207 398 219 399 217 399 291 399 291 400 217 400 292 400 136 401 292 401 296 401 217 402 214 402 292 402 136 403 296 403 143 403 292 404 212 404 296 404 296 405 297 405 143 405 292 406 214 406 212 406 296 407 212 407 297 407 136 408 135 408 291 408 291 409 288 409 219 409 291 410 135 410 288 410 135 411 133 411 288 411 212 412 210 412 297 412 297 413 294 413 143 413 297 414 210 414 294 414 143 415 294 415 293 415 143 416 293 416 145 416 210 417 209 417 294 417 88 418 84 418 298 418 299 419 141 419 142 419 84 420 290 420 298 420 298 421 290 421 299 421 290 422 141 422 299 422 295 423 207 423 242 423 300 424 145 424 293 424 300 425 293 425 295 425 242 426 300 426 295 426 4 427 300 427 242 427 299 428 301 428 298 428 298 429 301 429 302 429 301 430 223 430 303 430 301 431 303 431 302 431 223 432 222 432 303 432 88 433 298 433 302 433 88 434 302 434 246 434 302 435 303 435 246 435 246 436 303 436 222 436 142 437 301 437 299 437 144 438 145 438 304 438 304 439 145 439 305 439 305 440 145 440 300 440 305 441 300 441 306 441 306 442 300 442 4 442 306 443 4 443 0 443 307 444 223 444 308 444 308 445 142 445 140 445 223 446 301 446 308 446 308 447 301 447 142 447 309 448 144 448 310 448 311 449 310 449 312 449 311 450 312 450 236 450 236 451 312 451 238 451 236 452 234 452 311 452 234 453 232 453 311 453 311 454 232 454 313 454 232 455 314 455 313 455 313 456 315 456 139 456 313 457 314 457 315 457 232 458 230 458 314 458 315 459 140 459 139 459 314 460 230 460 315 460 230 461 228 461 315 461 307 462 226 462 223 462 140 463 315 463 308 463 308 464 315 464 307 464 315 465 228 465 307 465 307 466 228 466 226 466 313 467 139 467 309 467 313 468 309 468 311 468 311 469 309 469 310 469 139 470 144 470 309 470 238 471 312 471 244 471 244 472 312 472 305 472 0 473 305 473 306 473 312 474 304 474 305 474 312 475 310 475 304 475 244 476 305 476 0 476 304 477 310 477 144 477 316 478 131 478 317 478 253 479 317 479 205 479 17 480 316 480 317 480 17 481 317 481 253 481 318 482 131 482 316 482 318 483 316 483 319 483 319 484 316 484 17 484 17 485 20 485 319 485 318 486 130 486 131 486 203 487 317 487 320 487 320 488 131 488 321 488 203 489 205 489 317 489 317 490 131 490 320 490 322 491 123 491 323 491 323 492 192 492 193 492 193 493 194 493 324 493 325 494 326 494 120 494 325 495 324 495 326 495 120 496 326 496 321 496 120 497 321 497 128 497 194 498 196 498 324 498 324 499 196 499 326 499 326 500 196 500 327 500 326 501 327 501 328 501 326 502 328 502 321 502 196 503 199 503 327 503 128 504 321 504 131 504 321 505 328 505 320 505 320 506 328 506 201 506 320 507 201 507 203 507 328 508 327 508 201 508 201 509 327 509 199 509 324 510 325 510 322 510 324 511 322 511 193 511 193 512 322 512 323 512 325 513 120 513 322 513 120 514 123 514 322 514 175 515 329 515 251 515 251 516 319 516 20 516 251 517 329 517 319 517 329 518 318 518 319 518 329 519 330 519 130 519 318 520 329 520 130 520 256 521 192 521 323 521 105 522 256 522 331 522 331 523 256 523 323 523 331 524 323 524 123 524 329 525 175 525 176 525 114 526 332 526 333 526 333 527 334 527 335 527 335 528 334 528 186 528 335 529 186 529 189 529 176 530 177 530 336 530 336 531 337 531 129 531 336 532 177 532 337 532 129 533 337 533 118 533 177 534 179 534 338 534 177 535 338 535 337 535 338 536 339 536 337 536 337 537 339 537 118 537 338 538 182 538 339 538 179 539 182 539 338 539 339 540 332 540 118 540 118 541 332 541 116 541 129 542 340 542 336 542 336 543 340 543 176 543 176 544 340 544 329 544 340 545 330 545 329 545 129 546 130 546 340 546 340 547 130 547 330 547 182 548 184 548 339 548 339 549 334 549 332 549 116 550 332 550 114 550 339 551 184 551 186 551 339 552 186 552 334 552 332 553 334 553 333 553 101 554 105 554 341 554 341 555 105 555 331 555 341 556 331 556 124 556 124 557 331 557 123 557 333 558 335 558 342 558 342 559 335 559 249 559 342 560 249 560 86 560 189 561 249 561 335 561 333 562 342 562 343 562 333 563 343 563 114 563 240 564 101 564 341 564 344 565 240 565 341 565 221 566 240 566 344 566 345 567 344 567 341 567 345 568 341 568 124 568 346 569 342 569 86 569 86 570 90 570 346 570 342 571 346 571 347 571 342 572 347 572 343 572 115 573 114 573 343 573 343 574 347 574 115 574 218 575 344 575 345 575 218 576 345 576 348 576 348 577 345 577 124 577 348 578 124 578 122 578 218 579 221 579 344 579 125 580 127 580 349 580 350 581 351 581 208 581 208 582 351 582 206 582 350 583 352 583 353 583 350 584 208 584 352 584 121 585 353 585 354 585 121 586 354 586 122 586 208 587 211 587 352 587 352 588 211 588 353 588 353 589 355 589 354 589 353 590 211 590 355 590 211 591 213 591 355 591 355 592 356 592 354 592 355 593 213 593 356 593 213 594 215 594 356 594 356 595 348 595 354 595 354 596 348 596 122 596 218 597 348 597 216 597 348 598 356 598 216 598 356 599 215 599 216 599 121 600 125 600 353 600 353 601 125 601 350 601 350 602 349 602 351 602 350 603 125 603 349 603 357 604 115 604 347 604 357 605 347 605 346 605 357 606 247 606 224 606 247 607 357 607 346 607 247 608 346 608 90 608 127 609 358 609 349 609 349 610 358 610 351 610 358 611 359 611 351 611 351 612 359 612 241 612 351 613 241 613 206 613 359 614 6 614 241 614 360 615 115 615 357 615 360 616 357 616 225 616 225 617 357 617 224 617 360 618 225 618 361 618 361 619 362 619 117 619 117 620 362 620 119 620 363 621 235 621 237 621 225 622 227 622 361 622 227 623 229 623 361 623 361 624 364 624 362 624 361 625 229 625 364 625 229 626 231 626 364 626 362 627 365 627 119 627 362 628 364 628 365 628 364 629 366 629 365 629 119 630 365 630 126 630 361 631 117 631 360 631 117 632 115 632 360 632 364 633 231 633 366 633 231 634 233 634 366 634 365 635 366 635 126 635 233 636 235 636 366 636 366 637 363 637 126 637 366 638 235 638 363 638 2 639 6 639 359 639 367 640 359 640 358 640 367 641 358 641 368 641 368 642 358 642 127 642 368 643 127 643 126 643 359 644 367 644 2 644 237 645 243 645 245 645 368 646 126 646 363 646 367 647 368 647 363 647 367 648 363 648 245 648 245 649 363 649 237 649 2 650 367 650 245 650 100 651 77 651 76 651 77 652 100 652 113 652 77 653 113 653 79 653 79 654 113 654 82 654 82 655 113 655 104 655 82 656 104 656 81 656 81 657 104 657 58 657 58 658 104 658 112 658 58 659 112 659 60 659 60 660 112 660 111 660 60 661 111 661 62 661 62 662 111 662 63 662 63 663 111 663 106 663 63 664 106 664 65 664 65 665 106 665 110 665 65 666 110 666 68 666 68 667 110 667 109 667 68 668 109 668 70 668 70 669 109 669 107 669 70 670 107 670 71 670 71 671 107 671 108 671 71 672 108 672 83 672 83 673 108 673 73 673 73 674 108 674 102 674 73 675 102 675 76 675 76 676 102 676 100 676 162 677 1 677 172 677 172 678 1 678 14 678 172 679 14 679 171 679 171 680 14 680 5 680 171 681 5 681 170 681 170 682 5 682 13 682 170 683 13 683 169 683 169 684 13 684 12 684 169 685 12 685 168 685 168 686 12 686 7 686 168 687 7 687 167 687 167 688 7 688 11 688 167 689 11 689 166 689 166 690 11 690 9 690 166 691 9 691 165 691 165 692 9 692 8 692 165 693 8 693 164 693 164 694 8 694 10 694 164 695 10 695 163 695 163 696 10 696 3 696 163 697 3 697 162 697 162 698 3 698 1 698 29 699 85 699 49 699 49 700 85 700 98 700 49 701 98 701 48 701 48 702 98 702 89 702 48 703 89 703 46 703 46 704 89 704 97 704 46 705 97 705 45 705 45 706 97 706 96 706 45 707 96 707 43 707 43 708 96 708 91 708 43 709 91 709 41 709 41 710 91 710 39 710 39 711 91 711 95 711 39 712 95 712 37 712 37 713 95 713 93 713 37 714 93 714 36 714 36 715 93 715 92 715 36 716 92 716 34 716 34 717 92 717 94 717 34 718 94 718 33 718 33 719 94 719 87 719 33 720 87 720 31 720 31 721 87 721 85 721 31 722 85 722 29 722 150 723 16 723 28 723 28 724 149 724 150 724 149 725 28 725 161 725 161 726 28 726 19 726 161 727 19 727 160 727 160 728 19 728 159 728 159 729 19 729 27 729 159 730 27 730 158 730 158 731 27 731 26 731 158 732 26 732 157 732 157 733 26 733 21 733 157 734 21 734 156 734 156 735 21 735 25 735 156 736 25 736 155 736 155 737 25 737 23 737 155 738 23 738 154 738 154 739 23 739 153 739 153 740 23 740 22 740 153 741 22 741 152 741 152 742 22 742 24 742 152 743 24 743 151 743 151 744 24 744 16 744 151 745 16 745 150 745</p>
        </polylist>
      </mesh>
    </geometry>
  </library_geometries>
  <library_controllers/>
  <library_visual_scenes>
    <visual_scene id="Scene" name="Scene">
      <node id="VIS_neck_cross" name="VIS_neck_cross" type="NODE">
        <matrix sid="transform">1 0 0 0 0 1 0 0 0 0 1 0 0 0 0 1</matrix>
        <instance_geometry url="#VIS_neck_cross-mesh" name="VIS_neck_cross"/>
      </node>
    </visual_scene>
  </library_visual_scenes>
  <scene>
    <instance_visual_scene url="#Scene"/>
  </scene>
</COLLADA>