<?xml version="1.0" encoding="UTF-8"?>
<COLLADA xmlns="http://www.collada.org/2005/11/COLLADASchema" version="1.4.1">
    <asset>
        <contributor>
            <author>VCGLab</author>
            <authoring_tool>VCGLib | MeshLab</authoring_tool>
        </contributor>
        <created>Mi Nov 9 07:42:56 2016 GMT</created>
        <modified>Mi Nov 9 07:42:56 2016 GMT</modified>
        <up_axis>Y_UP</up_axis>
    </asset>
    <library_geometries>
        <geometry id="shape0-lib" name="shape0">
            <mesh>
                <source id="shape0-lib-positions" name="position">
                    <float_array id="shape0-lib-positions-array" count="1365">0.0271647 0.0023493 -0.0187125 0.0271781 0.0023485 -0.0189254 0.0275087 0.000183491 -0.0189186 0.027139 0.00247678 -0.0187006 0.0268853 0.00373321 -0.0185833 0.0264598 0.00571563 -0.0179927 0.026519 0.00571457 -0.0189417 0.0263018 0.00632058 -0.0178136 0.0259973 0.00748616 -0.0174687 0.02561 0.0088915 -0.016728 0.025748 0.00889467 -0.0189631 0.0251086 0.0104284 -0.0159215 0.0249405 0.0109435 -0.0156511 0.0246196 0.0118762 -0.0148945 0.0248696 0.0118919 -0.0189895 0.0237821 0.0139723 -0.0131994 0.023743 0.0140646 -0.013088 0.0235309 0.0146733 -0.0130948 0.0238883 0.0147095 -0.0190206 0.0234434 0.0146058 -0.0124378 0.0224559 0.0173017 -0.0131302 0.0222922 0.0164577 -0.0102189 0.0219816 0.0168796 -0.00943855 0.0228084 0.0173505 -0.0190562 0.0212872 0.0197575 -0.01317 0.020819 0.0183024 -0.00681237 0.0203146 0.0187699 -0.00528114 0.0200292 0.0220439 -0.013214 0.0195272 0.0194352 -0.00310626 0.0193297 0.0195132 -0.00230518 0.0187476 0.0205711 -0.00232551 0.0216343 0.019818 -0.0190962 0.0186863 0.0241639 -0.0132618 0.0174693 0.0225893 -0.00237109 0.0203706 0.0221153 -0.0191404 0.0185057 0.0196398 -0.00105377 0.0172612 0.0261382 -0.0133135 0.0190215 0.0242456 -0.0191885 0.0168237 0.0197526 0.00136509 0.0182701 0.0196726 -0.000731716 0.0172187 0.0198191 0.000706388 0.0161127 0.0244688 -0.00242028 0.0175893 0.0262351 -0.0192404 0.0160546 0.0196352 0.00252926 0.0157603 0.0280696 -0.0133684 0.015134 0.0194945 0.00392268 0.0160854 0.0281742 -0.0192953 0.0146839 0.0263072 -0.00247251 0.0147232 0.0194354 0.00450907 0.0136337 0.0188009 0.00655295 0.0142573 0.0299492 -0.0134235 0.0132533 0.0280965 -0.00252498 0.0134102 0.0186708 0.00697228 0.0145749 0.0300619 -0.0193507 0.0127548 0.031754 -0.0134788 0.0118229 0.0298145 -0.00257765 0.0120745 0.0195973 0.00768845 0.0130015 0.0184379 0.00772245 0.0103817 0.0314406 -0.00263104 0.0130648 0.0318744 -0.0194064 0.0108418 0.021078 0.00764306 0.0122868 0.0182981 0.00816181 0.0120099 0.0181885 0.00835696 0.0112407 0.0334623 -0.0135349 0.00959961 0.0224795 0.00759704 0.011543 0.0335898 -0.0194627 0.0107478 0.0177076 0.00921185 0.0118482 0.0181269 0.00846654 0.00891787 0.0329541 -0.0026857 0.00833811 0.0237839 0.00754988 0.00954478 0.0172765 0.00997617 0.0103821 0.0175766 0.00944419 0.00970307 0.0350522 -0.0135923 0.00999753 0.0351864 -0.0195204 0.00838231 0.0168949 0.0106498 0.00900494 0.0170993 0.0102889 0.00812971 0.036502 -0.0136516 0.00704735 0.0249734 0.0075013 0.00768993 0.0166931 0.0110036 0.0074202 0.0343342 -0.00274214 0.00841629 0.0366421 -0.01958 0.00724252 0.0165627 0.0112322 0.00650881 0.0377899 -0.0137134 0.00587717 0.0355601 -0.00280089 0.00678713 0.0379353 -0.0196421 0.0068619 0.0164678 0.0113969 0.00640514 0.016255 0.0116392 0.00571747 0.0260301 0.00745066 0.00482821 0.0388942 -0.0137781 0.00427736 0.0366113 -0.00286248 0.00611451 0.0161196 0.0117933 0.00307591 0.0397931 -0.0138463 0.00260927 0.037467 -0.00292744 0.00509811 0.0390438 -0.0197071 0.00433868 0.026936 0.00739758 0.00513094 0.0157457 0.012213 0.00123997 0.0404647 -0.0139186 0.00333706 0.0399461 -0.0197757 0.00290112 0.0276735 0.0073416 0.0049819 0.015689 0.0122766 0.000861614 0.0381062 -0.00299629 0.00149185 0.0406199 -0.0198484 0.00139485 0.0282246 0.00728226 0.00382311 0.0153519 0.0126457 0.0038607 0.0153628 0.0126337 -0.000691681 0.0408874 -0.0139956 -0.000977202 0.0385086 -0.00306956 -0.0004494 0.0410437 -0.0199257 0.00258154 0.0154948 0.0127336 0.00327416 0.0152414 0.0127609 -0.00277197 0.0410351 -0.0140794 -0.000189915 0.0285714 0.00721911 0.00125002 0.0157862 0.0126806 0.00262672 0.0151602 0.0128373 -0.00295787 0.0386492 -0.00314939 -0.00255351 0.0411899 -0.0200105 -0.00189639 0.0286926 0.00715033 0.00136303 0.0150719 0.0129014 0.00259628 0.0151581 0.0128388 -0.00517147 0.0408613 -0.0141772 -0.00493676 0.0410144 -0.0201077 -0.000183929 0.015888 0.0126228 0.00129285 0.0150706 0.0129004 -0.00524119 0.0384837 -0.00324242 -0.0038655 0.02855 0.00707005 -0.00183804 0.0157682 0.0125554 -2.98154e-05 0.0150481 0.0128828 -0.00739501 0.0379946 -0.0033312 -0.00743393 0.0403475 -0.0142705 -0.00169532 0.0150999 0.0127635 -0.000125983 0.0150511 0.0128759 -0.00572166 0.0281285 0.00699359 -0.00935188 0.03721 -0.00341291 -0.00721066 0.0404997 -0.0202014 -0.00333095 0.015229 0.0125516 -0.00339754 0.015414 0.0124911 -0.00948964 0.0395232 -0.0143563 -0.00335302 0.0152307 0.0125488 -0.00740823 0.0274522 0.00692317 -0.0111272 0.0361649 -0.00348807 -0.00927674 0.039673 -0.0202877 -0.00373373 0.0152792 0.012477 -0.0113546 0.0384254 -0.0144352 -0.00495505 0.0155285 0.0121336 -0.00893828 0.0265514 0.0068584 -0.0127363 0.0348947 -0.00355718 -0.0111512 0.0385715 -0.020367 -0.00506606 0.0155597 0.012092 -0.0130449 0.0370909 -0.0145078 -0.00652871 0.015971 0.0115441 -0.010325 0.0254566 0.00679884 -0.0141945 0.0334342 -0.00362076 -0.0128502 0.0372322 -0.02044 -0.00684059 0.0160813 0.0113998 -0.0145768 0.0355567 -0.0145746 -0.00810159 0.0165274 0.0108164 -0.0155172 0.0318189 -0.00367933 -0.01439 0.0356923 -0.0205071 -0.00815232 0.0165488 0.0107888 -0.00863375 0.0166655 0.0105574 -0.0115818 0.0241978 0.00674397 -0.0159662 0.0338596 -0.0146362 -0.00935708 0.0168634 0.0101675 -0.0127217 0.0228055 0.00669356 -0.0167197 0.0300836 -0.0037334 -0.0157867 0.0339887 -0.0205689 -0.0103807 0.0171165 0.0096662 -0.0172294 0.0320367 -0.014693 -0.0114774 0.0174515 0.00901039 -0.013758 0.0213098 0.00664696 -0.0178172 0.0282636 -0.00378348 -0.0170565 0.0321586 -0.020626 -0.0121768 0.0176495 0.00862116 -0.0183824 0.0301247 -0.0147456 -0.0137337 0.0181673 0.00761165 -0.0147039 0.0197412 0.00660374 -0.0188253 0.0263939 -0.00383008 -0.0182156 0.0302391 -0.0206789 -0.014034 0.0182618 0.00742701 -0.0194413 0.0281606 -0.0147945 -0.0142376 0.0183304 0.0072934 -0.0197591 0.0245098 -0.00387372 -0.0192802 0.0282673 -0.0207281 -0.0145518 0.018443 0.00707473 -0.0153242 0.0185908 0.00657513 -0.0161764 0.0190499 0.00505836 -0.0204222 0.0261814 -0.0148404 -0.0171876 0.0196077 0.00321654 -0.0177239 0.019693 0.00238503 -0.0206668 0.0225606 -0.0039165 -0.0213755 0.0241344 -0.0148853 -0.0202664 0.0262801 -0.0207742 -0.0187549 0.0198618 0.000738073 -0.0217039 0.0201718 -0.00396588 -0.0196885 0.0200183 -0.000788516 -0.0211995 0.0198246 -0.00297224 -0.0224655 0.021624 -0.0149372 -0.0212361 0.0241957 -0.0208199 -0.0213886 0.0198009 -0.00324031 -0.0229578 0.018433 -0.00878504 -0.0234137 0.0191871 -0.0149831 -0.0218736 0.0197356 -0.0039741 -0.0220014 0.0196593 -0.00478835 -0.0228926 0.0185384 -0.00858289 -0.0239692 0.0165934 -0.0122325 -0.0241837 0.0169049 -0.0150213 -0.0239148 0.0167071 -0.0120905 -0.0223138 0.0217079 -0.0208712 -0.0247579 0.0147029 -0.0145903 -0.0247947 0.0147502 -0.0150527 -0.0232672 0.0192582 -0.0209174 -0.0248918 0.0143271 -0.015058 -0.0240417 0.016964 -0.0209558 -0.0246565 0.0147981 -0.0209874 -0.0249105 0.0142352 -0.0151717 -0.0251564 0.0130747 -0.0161421 -0.0252348 0.0127048 -0.0164514 -0.0251309 0.0127332 -0.021013 -0.0254244 0.0115155 -0.017443 -0.0254723 0.0112157 -0.017693 -0.0255531 0.0107286 -0.0179591 -0.0254843 0.0107423 -0.0210335 -0.0256867 0.00959538 -0.0185756 -0.0257362 0.00879821 -0.0210496 -0.0257811 0.00879264 -0.0190124 -0.025897 0.00730719 -0.0197116 -0.0259058 0.00687376 -0.0210624 -0.0258596 0.00776608 -0.0195691 -0.0259323 0.00687252 -0.0198465 -0.0260151 0.00516841 -0.020373 -0.0260125 0.00494182 -0.0210727 -0.026026 0.00494226 -0.020443 -0.0260784 0.00305977 -0.0208261 -0.0260756 0.00297518 -0.0210813 -0.0260496 0.00401895 -0.0207274 -0.0260809 0.00297577 -0.0208348 -0.0261152 0.000963408 -0.0210408 -0.0261145 0.000946769 -0.0210891 -0.0261155 0.000946964 -0.0210425 -0.026113 0.000472885 -0.0210905 -0.00493676 0.0410144 -0.0201077 -0.00721066 0.0404997 -0.0202014 -0.00927674 0.039673 -0.0202877 -0.01439 0.0356923 -0.0205071 -0.0128502 0.0372322 -0.02044 -0.0202664 0.0262801 -0.0207742 -0.0111512 0.0385715 -0.020367 -0.0182156 0.0302391 -0.0206789 0.0160854 0.0281742 -0.0192953 -0.0170565 0.0321586 -0.020626 -0.0192802 0.0282673 -0.0207281 -0.0260756 0.00297518 -0.0210813 0.00841629 0.0366421 -0.01958 -0.0157867 0.0339887 -0.0205689 0.00851921 0.000285983 -0.0196878 0.0271697 0.000185321 -0.0189323 -0.0254843 0.0107423 -0.0210335 0.0130648 0.0318744 -0.0194064 0.00149185 0.0406199 -0.0198484 -0.025494 0.000469633 -0.0210655 0.0274182 0.00018398 -0.0189223 0.0248696 0.0118919 -0.0189895 -0.0260125 0.00494182 -0.0210727 -0.0232672 0.0192582 -0.0209174 0.0145749 0.0300619 -0.0193507 0.011543 0.0335898 -0.0194627 0.00509811 0.0390438 -0.0197071 -0.00255351 0.0411899 -0.0200105 -0.0255301 0.000469843 -0.0210669 0.0274795 0.000183649 -0.0189198 0.026519 0.00571457 -0.0189417 0.0216343 0.019818 -0.0190962 -0.0257362 0.00879821 -0.0210496 -0.0246565 0.0147981 -0.0209874 -0.0223138 0.0217079 -0.0208712 0.00999753 0.0351864 -0.0195204 0.00678713 0.0379353 -0.0196421 0.00333706 0.0399461 -0.0197757 -0.0004494 0.0410437 -0.0199257 -0.0257604 0.000471167 -0.0210763 0.0275087 0.000183491 -0.0189186 0.0271781 0.0023485 -0.0189254 0.025748 0.00889467 -0.0189631 0.0190215 0.0242456 -0.0191885 0.0238883 0.0147095 -0.0190206 -0.0259058 0.00687376 -0.0210624 -0.0240417 0.016964 -0.0209558 -0.0251309 0.0127332 -0.021013 -0.0212361 0.0241957 -0.0208199 -0.0260094 0.000472325 -0.0210863 0.0175893 0.0262351 -0.0192404 0.0203706 0.0221153 -0.0191404 0.0228084 0.0173505 -0.0190562 -0.0260935 0.000472779 -0.0210898 -0.0261145 0.000946769 -0.0210891 -0.026113 0.000472885 -0.0210905 0.0193297 0.0195132 -0.00230518 0.0187476 0.0205711 -0.00232551 0.0174693 0.0225893 -0.00237109 0.0161127 0.0244688 -0.00242028 0.0146839 0.0263072 -0.00247251 0.0132533 0.0280965 -0.00252498 0.0118229 0.0298145 -0.00257765 0.0120745 0.0195973 0.00768845 0.0108418 0.021078 0.00764306 0.0130015 0.0184379 0.00772245 0.0103817 0.0314406 -0.00263104 0.00959961 0.0224795 0.00759704 0.00891787 0.0329541 -0.0026857 0.00833811 0.0237839 0.00754988 0.00704735 0.0249734 0.0075013 0.0074202 0.0343342 -0.00274214 0.00571747 0.0260301 0.00745066 0.00587717 0.0355601 -0.00280089 0.00427736 0.0366113 -0.00286248 0.00433868 0.026936 0.00739758 0.00260927 0.037467 -0.00292744 0.00290112 0.0276735 0.0073416 0.000861614 0.0381062 -0.00299629 0.00139485 0.0282246 0.00728226 -0.000977202 0.0385086 -0.00306956 -0.000189915 0.0285714 0.00721911 -0.00295787 0.0386492 -0.00314939 -0.00189639 0.0286926 0.00715033 -0.00524119 0.0384837 -0.00324242 -0.0038655 0.02855 0.00707005 -0.00739501 0.0379946 -0.0033312 -0.00572166 0.0281285 0.00699359 -0.00935188 0.03721 -0.00341291 -0.00740823 0.0274522 0.00692317 -0.0111272 0.0361649 -0.00348807 -0.00893828 0.0265514 0.0068584 -0.0127363 0.0348947 -0.00355718 -0.010325 0.0254566 0.00679884 -0.0141945 0.0334342 -0.00362076 -0.0155172 0.0318189 -0.00367933 -0.0115818 0.0241978 0.00674397 -0.0127217 0.0228055 0.00669356 -0.0167197 0.0300836 -0.0037334 -0.013758 0.0213098 0.00664696 -0.0178172 0.0282636 -0.00378348 -0.0147039 0.0197412 0.00660374 -0.0188253 0.0263939 -0.00383008 -0.0197591 0.0245098 -0.00387372 -0.0153242 0.0185908 0.00657513 -0.0206668 0.0225606 -0.0039165 -0.0217039 0.0201718 -0.00396588 -0.0218736 0.0197356 -0.0039741 0.00482821 0.0388942 -0.0137781 0.00307591 0.0397931 -0.0138463 0.00123997 0.0404647 -0.0139186 -0.000691681 0.0408874 -0.0139956 -0.00277197 0.0410351 -0.0140794 -0.00517147 0.0408613 -0.0141772 -0.00743393 0.0403475 -0.0142705 -0.00948964 0.0395232 -0.0143563 -0.0113546 0.0384254 -0.0144352 -0.0130449 0.0370909 -0.0145078 -0.0145768 0.0355567 -0.0145746 0.0275087 0.000183491 -0.0189186 0.0271647 0.0023493 -0.0187125 0.0263018 0.00632058 -0.0178136 0.0259973 0.00748616 -0.0174687 0.02561 0.0088915 -0.016728 0.0251086 0.0104284 -0.0159215 0.0249405 0.0109435 -0.0156511 0.0246196 0.0118762 -0.0148945 0.0160546 0.0196352 0.00252926 0.015134 0.0194945 0.00392268 0.0147232 0.0194354 0.00450907 0.0147232 0.0194354 0.00450907 0.0136337 0.0188009 0.00655295 0.0134102 0.0186708 0.00697228 0.0130015 0.0184379 0.00772245 0.0122868 0.0182981 0.00816181 0.0122868 0.0182981 0.00816181 0.0120099 0.0181885 0.00835696 0.0118482 0.0181269 0.00846654 0.0107478 0.0177076 0.00921185 0.0103821 0.0175766 0.00944419 0.00954478 0.0172765 0.00997617 0.00900494 0.0170993 0.0102889 0.00838231 0.0168949 0.0106498 0.00768993 0.0166931 0.0110036 0.00724252 0.0165627 0.0112322 0.0068619 0.0164678 0.0113969 0.0068619 0.0164678 0.0113969 0.00640514 0.016255 0.0116392 0.00611451 0.0161196 0.0117933 0.00513094 0.0157457 0.012213 0.0049819 0.015689 0.0122766 0.0038607 0.0153628 0.0126337 0.00382311 0.0153519 0.0126457 0.00327416 0.0152414 0.0127609 0.00262672 0.0151602 0.0128373 0.00259628 0.0151581 0.0128388 0.00136303 0.0150719 0.0129014 0.00129285 0.0150706 0.0129004 -2.98154e-05 0.0150481 0.0128828 -0.000125983 0.0150511 0.0128759 -0.00169532 0.0150999 0.0127635 -0.00333095 0.015229 0.0125516 -0.00335302 0.0152307 0.0125488 -0.00373373 0.0152792 0.012477 -0.00495505 0.0155285 0.0121336 -0.00506606 0.0155597 0.012092 -0.00652871 0.015971 0.0115441 -0.00684059 0.0160813 0.0113998 -0.00810159 0.0165274 0.0108164 -0.00810159 0.0165274 0.0108164 -0.00815232 0.0165488 0.0107888 -0.00863375 0.0166655 0.0105574 -0.00863375 0.0166655 0.0105574 -0.00935708 0.0168634 0.0101675 -0.00935708 0.0168634 0.0101675 -0.0103807 0.0171165 0.0096662 -0.0103807 0.0171165 0.0096662 -0.0114774 0.0174515 0.00901039 -0.0114774 0.0174515 0.00901039 -0.0121768 0.0176495 0.00862116 -0.0121768 0.0176495 0.00862116 -0.0137337 0.0181673 0.00761165 -0.0137337 0.0181673 0.00761165 -0.014034 0.0182618 0.00742701 -0.014034 0.0182618 0.00742701 -0.0142376 0.0183304 0.0072934 -0.0142376 0.0183304 0.0072934 -0.0145518 0.018443 0.00707473 -0.0145518 0.018443 0.00707473 -0.0145518 0.018443 0.00707473 -0.0153242 0.0185908 0.00657513 -0.0171876 0.0196077 0.00321654 -0.0171876 0.0196077 0.00321654 -0.0177239 0.019693 0.00238503 -0.0187549 0.0198618 0.000738073 -0.0196885 0.0200183 -0.000788516 -0.0196885 0.0200183 -0.000788516 -0.0220014 0.0196593 -0.00478835 -0.0220014 0.0196593 -0.00478835 -0.0228926 0.0185384 -0.00858289 -0.0228926 0.0185384 -0.00858289 -0.0252348 0.0127048 -0.0164514 -0.0254244 0.0115155 -0.017443 -0.0255531 0.0107286 -0.0179591 -0.0256867 0.00959538 -0.0185756 -0.0239148 0.0167071 -0.0120905 -0.0239148 0.0167071 -0.0120905 0.0222922 0.0164577 -0.0102189 0.0222922 0.0164577 -0.0102189 0.020819 0.0183024 -0.00681237 0.020819 0.0183024 -0.00681237 0.0195272 0.0194352 -0.00310626 0.0195272 0.0194352 -0.00310626 0.0172187 0.0198191 0.000706388 0.0172187 0.0198191 0.000706388</float_array>
                    <technique_common>
                        <accessor count="455" source="#shape0-lib-positions-array" stride="3">
                            <param name="X" type="float"/>
                            <param name="Y" type="float"/>
                            <param name="Z" type="float"/>
                        </accessor>
                    </technique_common>
                </source>
                <source id="shape0-lib-normals" name="normal">
                    <float_array id="shape0-lib-normals-array" count="1398">0.986655 0.15087 0.0612306 0.979505 0.192077 0.0606277 0.979494 0.192079 0.0608085 0.969996 0.235539 0.0602455 0.969995 0.235552 0.0602026 0.957786 0.281246 0.0595472 0.957778 0.281267 0.0595796 0.942489 0.329014 0.058857 0.931969 0.326439 0.157707 0.923772 0.37852 0.0580301 0.912866 0.375508 0.160215 0.889854 0.426117 0.163048 0.901158 0.429708 0.0571355 0.862619 0.477773 0.166195 0.830837 0.530078 0.16949 0.874348 0.482042 0.0561359 0.772083 0.433736 0.464501 0.796487 0.579443 0.172782 0.842994 0.535102 0.055014 0.73268 0.475086 0.487313 0.732593 0.475189 0.487344 0.808989 0.585354 0.0538225 0.691715 0.51259 0.508706 0.775027 0.607275 0.174785 0.691715 0.51259 0.508706 0.788319 0.612887 0.0540629 -0.66682 -0.532942 -0.520888 0.766366 0.617923 0.175652 0.666896 0.532895 0.520839 0.778899 0.624854 0.0536113 0.75371 0.632916 0.17703 0.655645 0.539725 0.52804 0.656843 0.540586 0.525666 0.733277 0.655844 0.179369 0.766649 0.639855 0.0532402 0.640525 0.549698 0.536246 -0.432724 -0.370528 -0.821863 0.703405 0.686889 0.182772 0.616732 0.564662 0.548451 0.746195 0.663668 0.0523327 0.41837 0.373667 0.827852 0.418401 0.373657 0.827842 0.395949 0.378407 0.83668 0.395954 0.378405 0.836678 0.70341 0.686884 0.182773 0.582953 0.584187 0.564705 0.716635 0.695556 0.0513423 0.365361 0.383907 0.848013 0.365324 0.383917 0.848025 0.661841 0.725873 0.187283 0.326529 0.389592 0.86116 0.675779 0.735392 0.0502145 0.326461 0.389607 0.861179 0.53771 0.607439 0.58471 0.605888 0.77184 0.192778 0.619857 0.783226 0.0483029 -0.280619 -0.394012 -0.875219 0.532805 0.822529 0.198911 0.479752 0.632959 0.607619 0.280366 0.394643 0.875016 0.440373 0.874091 0.205028 0.547303 0.83566 0.0461823 0.408434 0.658623 0.631979 0.227581 0.398455 0.888504 0.328574 0.920789 0.210209 0.454668 0.889615 0.0431494 0.32419 0.681808 0.655773 0.227969 0.398399 0.88843 0.341934 0.938902 0.0392924 0.170624 0.400305 0.900358 0.170265 0.400343 0.900409 0.200714 0.956123 0.213409 0.22928 0.699679 0.676668 0.21184 0.976699 0.0344046 0.108465 0.394713 0.91238 0.11048 0.399934 0.909861 0.0606201 0.974982 0.21386 0.12765 0.709553 0.692993 0.0738761 0.304157 0.949753 0.0696391 0.997147 0.029134 0.0490626 0.3915 0.918869 0.0274678 0.299213 0.953791 0.0282458 0.299237 0.953761 -0.0791733 0.974205 0.211321 -0.0800079 0.712544 0.697051 -0.0743397 0.996972 0.0227977 -0.0097792 0.385768 0.922544 -0.0179163 0.292719 0.956031 -0.017722 0.29273 0.956031 -0.224778 0.952458 0.205664 -0.0800392 0.712544 0.697047 -0.2214 0.975045 0.0164112 -0.0653958 0.384747 0.920703 -0.0596577 0.285268 0.956589 -0.0595333 0.285278 0.956594 -0.186459 0.695034 0.694378 -0.371991 0.907209 0.196454 -0.122982 0.374838 0.918897 -0.102056 0.275884 0.955758 -0.29571 0.666257 0.684585 -0.371816 0.928255 0.00981791 -0.183226 0.361745 0.914095 -0.10173 0.276029 0.955751 -0.393762 0.620121 0.678528 -0.504359 0.843521 0.184648 -0.145876 0.26453 0.953281 -0.506733 0.862095 0.00358865 -0.183234 0.361777 0.914081 -0.484452 0.577951 0.656718 -0.614965 0.769637 0.17169 -0.242189 0.346228 0.90635 -0.619018 0.785375 -0.00187145 -0.242173 0.346235 0.906352 -0.561869 0.533478 0.632222 -0.7021 0.694102 0.158992 -0.29817 0.328921 0.89605 -0.706989 0.707196 -0.00635927 -0.29818 0.328914 0.896049 -0.571872 0.544224 0.613826 -0.767896 0.623343 0.147579 -0.349689 0.310618 0.883874 -0.773125 0.634177 -0.00984835 -0.391623 0.288987 0.873566 -0.634544 0.498097 0.590976 -0.816106 0.561192 0.137969 -0.353586 0.314769 0.88085 -0.821353 0.570285 -0.0124555 -0.431311 0.272007 0.860223 -0.714142 0.415156 0.563602 -0.850617 0.509376 0.130335 -0.399343 0.29556 0.867853 -0.855759 0.517177 -0.0143127 -0.464297 0.256622 0.847687 -0.720671 0.419367 0.552055 -0.874654 0.468453 0.124626 -0.438456 0.277196 0.854938 -0.879674 0.475322 -0.0155602 -0.467386 0.258752 0.845339 -0.764286 0.366515 0.530597 -0.890552 0.438574 0.120702 0.492988 -0.245428 -0.834702 -0.895477 0.444809 -0.0163165 0.764316 -0.366458 -0.530594 -0.901167 0.417084 0.118065 -0.777268 0.350502 0.522497 -0.912009 0.393602 0.1154 -0.906429 0.422024 -0.0167764 -0.789218 0.331971 0.516653 -0.779354 0.351741 0.518541 -0.926818 0.358487 0.111784 -0.917337 0.39773 -0.0174455 -0.806848 0.304404 0.506295 -0.942522 0.316256 0.107861 -0.931614 0.362968 -0.0186957 -0.95726 0.269972 0.103769 -0.947192 0.320073 -0.0195374 -0.970066 0.221369 0.0998346 -0.961724 0.273268 -0.020284 -0.974397 0.22386 -0.0208979 -0.974341 0.224111 -0.0208101 -0.984392 0.174693 -0.0213467 -0.984342 0.174982 -0.0212525 -0.991459 0.128615 -0.0216184 -0.991505 0.128276 -0.0215036 -0.995893 0.0878899 -0.0217403 -0.995924 0.08757 -0.0215905 -0.998239 0.0552233 -0.0216739 -0.998261 0.0548696 -0.0215599 -0.99925 0.0321665 -0.0215736 -0.999266 0.0317435 -0.0214306 -0.999585 0.0192659 -0.0214077 -0.999608 0.0180326 -0.0214207 -0.999768 -0.00308469 -0.0213361 0.0404878 0.0030759 -0.999175 0.0404877 0.00307531 -0.999175 0.0404877 0.00307569 -0.999175 0.0404985 0.00307781 -0.999175 0.0404905 0.00307607 -0.999175 0.0404886 0.00307566 -0.999175 0.0404948 0.00307713 -0.999175 0.04049 0.00307583 -0.999175 0.0404896 0.00307582 -0.999175 0.0404424 0.00307677 -0.999177 -0.0408087 -0.101077 0.994041 -0.0408093 -0.101079 0.994041 -0.0402727 -0.293221 0.955196 -0.0402727 -0.293213 0.955199 -0.0381884 -0.474111 0.879637 -0.0381898 -0.474075 0.879656 -0.0360059 -0.543913 0.838369 -0.0346375 -0.636775 0.770271 -0.0345652 -0.644427 0.763884 -0.0297552 -0.774937 0.631337 -0.0237285 -0.883358 0.468099 -0.0167907 -0.957816 0.286891 -0.00920817 -0.995466 0.0946696 -0.0012714 -0.994866 -0.101197 -0.00126958 -0.994859 -0.101261 -0.00127101 -0.994865 -0.101206 0.00671487 -0.95603 -0.293191 0.0145053 -0.879677 -0.475351 0.0142795 -0.880578 -0.473687 0.00683547 -0.956062 -0.293085 -0.00912301 -0.995462 0.0947212 0.014511 -0.880506 -0.473813 0.0216243 -0.771055 -0.636401 -0.0142795 0.880578 0.473687 0.00666617 -0.95604 -0.29316 0.979496 0.192133 0.0605946 0.979486 0.192092 0.0608861 0.969991 0.235564 0.0602312 0.969985 0.235586 0.0602358 0.957792 0.281225 0.0595586 0.957794 0.281216 0.0595647 0.942527 0.328913 0.058815 0.942489 0.329012 0.0588691 0.942508 0.32896 0.0588505 0.923747 0.378578 0.0580588 0.912869 0.375507 0.160205 0.912836 0.375574 0.160232 0.889845 0.42613 0.16306 0.889865 0.426096 0.163044 0.901122 0.42978 0.057171 0.862605 0.477812 0.166158 0.86261 0.477812 0.16613 0.862602 0.477816 0.16616 0.830829 0.530092 0.169488 0.874296 0.482131 0.056179 0.796496 0.57943 0.172785 0.842942 0.535181 0.0550517 0.732692 0.475076 0.487305 0.732681 0.475086 0.487312 0.809689 0.584337 0.0543597 0.775026 0.607276 0.174785 0.691695 0.512604 0.508719 0.787719 0.613696 0.0536234 0.666771 0.533012 0.520878 0.766353 0.617941 0.175649 0.666791 0.532995 0.52087 0.779115 0.624571 0.0537642 0.753728 0.632893 0.177034 0.643695 0.552131 0.529914 0.656843 0.540595 0.525655 0.766396 0.640173 0.05307 0.621199 0.568292 0.539588 0.432859 0.370195 0.821942 0.733278 0.655843 0.179369 0.588623 0.589268 0.553431 0.746458 0.663359 0.0524982 0.418363 0.373673 0.827853 0.395949 0.378406 0.83668 0.544503 0.614198 0.571207 0.71694 0.695229 0.0515193 0.36529 0.383933 0.848032 0.661831 0.725882 0.187282 0.675441 0.735715 0.0500345 0.326589 0.389571 0.861147 0.48732 0.641717 0.592215 0.605908 0.771823 0.192781 0.620224 0.782925 0.0484808 0.280292 0.394656 0.875033 0.532798 0.822533 0.19891 0.416311 0.669603 0.615075 0.28026 0.394665 0.875039 0.440395 0.87408 0.205031 0.546876 0.835949 0.0459923 0.331727 0.695083 0.637822 0.328542 0.920801 0.210204 0.45424 0.889842 0.0429727 0.235686 0.715071 0.658123 0.227615 0.398455 0.888496 0.341407 0.939102 0.0390863 0.170304 0.400339 0.900403 0.200703 0.956125 0.213407 0.132242 0.726966 0.67382 0.212307 0.976591 0.0345839 0.0518167 0.403157 0.913663 0.110477 0.399893 0.909879 0.0605769 0.974986 0.213852 0.0242771 0.729575 0.68347 0.068139 0.997268 0.0285382 -0.008699 0.398195 0.91726 0.02747 0.299207 0.953793 -0.0792109 0.974204 0.211312 0.0231435 0.71998 0.693608 -0.0731682 0.997047 0.0233276 -0.0657178 0.391079 0.918008 -0.0177457 0.292768 0.956019 -0.224774 0.95246 0.205663 -0.222081 0.974886 0.0166512 -0.0596254 0.28521 0.956609 -0.186459 0.695034 0.694378 -0.371942 0.907231 0.196448 -0.102064 0.275908 0.95575 -0.372531 0.927965 0.0100696 -0.123013 0.374828 0.918897 -0.299329 0.676394 0.672973 -0.50436 0.84352 0.184648 -0.507405 0.861699 0.00383705 -0.18324 0.36174 0.914094 -0.402839 0.637042 0.657189 -0.614949 0.76965 0.171688 -0.242069 0.346277 0.906363 -0.61959 0.784924 -0.00163948 -0.4945 0.591706 0.636674 -0.702103 0.694099 0.158992 -0.298247 0.328884 0.896038 -0.707503 0.706684 -0.00612472 -0.625309 0.489987 0.607372 -0.767864 0.623383 0.147575 -0.349551 0.310662 0.883914 -0.349557 0.31066 0.883912 -0.773546 0.633668 -0.00963008 -0.391764 0.288876 0.873539 -0.675589 0.449952 0.584057 -0.816092 0.561212 0.137967 -0.821719 0.569762 -0.0122402 -0.431273 0.272022 0.860237 -0.683592 0.455894 0.569967 -0.850616 0.509378 0.130335 -0.856083 0.516646 -0.0141 -0.464295 0.256623 0.847688 -0.74258 0.386737 0.546818 -0.874648 0.468465 0.124625 -0.879959 0.474802 -0.015356 -0.748099 0.384635 0.540744 -0.747524 0.389614 0.537968 -0.890546 0.438588 0.120701 -0.4931 0.245072 0.834741 -0.895729 0.444309 -0.0161245 -0.764296 0.366502 0.530593 -0.901174 0.417069 0.118067 -0.777275 0.350495 0.522491 -0.91202 0.393576 0.115404 -0.906246 0.422412 -0.0169302 -0.789208 0.331983 0.51666 -0.789225 0.331969 0.516644 -0.926812 0.358503 0.111781 -0.926806 0.358516 0.111789 -0.926683 0.358788 0.111939 -0.926807 0.358514 0.111791 -0.916988 0.398517 -0.0178195 -0.942549 0.316198 0.1078 -0.942556 0.316181 0.10779 -0.931662 0.362847 -0.0186418 -0.957257 0.269975 0.103789 -0.947246 0.319915 -0.0194729 -0.961783 0.273065 -0.0202076 -0.974398 0.223857 -0.0208982 -0.974391 0.223886 -0.0208951 -0.974344 0.224098 -0.0208092 -0.984339 0.175001 -0.0212374 -0.984338 0.17501 -0.021233 -0.991458 0.128621 -0.0216157 -0.995891 0.0879225 -0.0217038 -0.99589 0.0879321 -0.0217106 -0.998239 0.0552231 -0.0216743 -0.99925 0.0321654 -0.0215702 -0.99925 0.0321696 -0.0215653 -0.999576 0.019257 -0.0218416 0.0404855 0.00308355 -0.999175 0.0404879 0.00307557 -0.999175 0.0404878 0.00307589 -0.999175 0.0404878 0.00307546 -0.999175 0.0404878 0.00307546 -0.999175 0.0404879 0.00307582 -0.999175 0.0404876 0.00307543 -0.999175 0.0404875 0.00307516 -0.999175 0.0404878 0.00307585 -0.999175 0.0404878 0.00307571 -0.999175 0.0404877 0.00307544 -0.999175 0.0404878 0.00307572 -0.999175 0.0404877 0.00307609 -0.999175 0.0404879 0.00307513 -0.999175 0.0404877 0.00307652 -0.999175 0.0404878 0.00307455 -0.999175 0.0404871 0.00307242 -0.999175 0.0404879 0.00307609 -0.999175 0.0404881 0.00307489 -0.999175 0.0404878 0.00307531 -0.999175 0.0404881 0.00307608 -0.999175 0.0404879 0.00307592 -0.999175 0.0404879 0.00307626 -0.999175 0.040488 0.00307565 -0.999175 0.0404877 0.00307594 -0.999175 0.0404877 0.00307652 -0.999175 0.040487 0.00307155 -0.999175 0.0404877 0.00307722 -0.999175 0.0404878 0.00307573 -0.999175 0.0404877 0.00307571 -0.999175 0.0404878 0.00307555 -0.999175 0.0404878 0.0030744 -0.999175 0.0404877 0.00307571 -0.999175 0.0404904 0.00307712 -0.999175 0.0404877 0.00307566 -0.999175 0.040492 0.00307825 -0.999175 0.0404885 0.00307618 -0.999175 0.0404931 0.00307676 -0.999175 0.0404863 0.00307484 -0.999175 0.0404884 0.00307612 -0.999175 0.0404634 0.00307167 -0.999176 0.0404862 0.00307526 -0.999175 0.0405245 0.00308127 -0.999174 0.0404307 0.00307625 -0.999178 -0.0408092 -0.101066 0.994042 -0.0408089 -0.1011 0.994039 -0.040273 -0.293216 0.955198 -0.040273 -0.293203 0.955202 -0.0381887 -0.474104 0.87964 -0.0381884 -0.474106 0.879639 -0.0381892 -0.474114 0.879635 -0.0346378 -0.636769 0.770277 -0.0343459 -0.646989 0.761726 -0.0297552 -0.774937 0.631337 -0.0237286 -0.883358 0.468099 -0.0167908 -0.957816 0.286891 -0.00920814 -0.995466 0.0946701 -0.00126911 -0.994863 -0.101222 -0.00126982 -0.994865 -0.101208 -0.00126995 -0.99486 -0.101254 0.00671485 -0.95603 -0.293191 0.0148553 -0.880738 -0.473371 -0.0592943 -0.926331 -0.372015 0.00872972 -0.884002 -0.467402 0.0144259 -0.880476 -0.473871 0.0147084 -0.880258 -0.474267 0.015206 -0.8799 -0.474915 0.0142612 -0.880592 -0.473661 0.0147525 -0.880229 -0.474321 0.0066275 -0.956015 -0.293244 0.00678627 -0.956049 -0.293127 0.0147669 -0.880678 -0.473486 0.0140054 -0.880129 -0.474529 0.013941 -0.880108 -0.47457 0.013306 -0.879826 -0.47511 0.0133069 -0.879751 -0.475248 0.0140927 -0.88023 -0.474339 0.0148617 -0.880729 -0.473388 0.0142587 -0.880329 -0.474149 0.0216167 -0.771078 -0.636373 0.0214281 -0.77127 -0.636148 0.0214116 -0.771422 -0.635964 0.0213588 -0.771928 -0.635351 0.0216716 -0.770713 -0.636813 0.0215898 -0.771655 -0.635675 0.0221006 -0.77467 -0.631979 0.0197387 -0.764001 -0.644912 0.0221968 -0.772277 -0.634898 0.0228164 -0.772731 -0.634324 0.0221698 -0.771623 -0.635693 0.0215747 -0.770952 -0.636527 0.0216324 -0.771 -0.636467 0.0215575 -0.771356 -0.636039 0.0215946 -0.771 -0.636469 0.0215399 -0.770891 -0.636603 0.0215742 -0.770986 -0.636487 0.0216156 -0.771041 -0.636419 0.0216174 -0.771051 -0.636406 0.0216605 -0.771147 -0.636289 -0.0142477 0.880602 0.473643 -0.0142612 0.880592 0.473661 -0.0152056 0.879901 0.474913 -0.00873034 0.884002 0.467402 -0.0144261 0.880476 0.473871 -0.0147084 0.880258 0.474267 -0.0147527 0.880229 0.474319</float_array>
                    <technique_common>
                        <accessor count="466" source="#shape0-lib-normals-array" stride="3">
                            <param name="X" type="float"/>
                            <param name="Y" type="float"/>
                            <param name="Z" type="float"/>
                        </accessor>
                    </technique_common>
                </source>
                <source id="shape0-lib-vcolor" name="vcolor">
                    <float_array id="shape0-lib-vcolor-array" count="1820">0.654902 0.501961 0.313725 1 0.654902 0.501961 0.313725 1 0.654902 0.501961 0.313725 1 0.654902 0.501961 0.313725 1 0.654902 0.501961 0.313725 1 0.654902 0.501961 0.313725 1 0.654902 0.501961 0.313725 1 0.654902 0.501961 0.313725 1 0.654902 0.501961 0.313725 1 0.654902 0.501961 0.313725 1 0.654902 0.501961 0.313725 1 0.654902 0.501961 0.313725 1 0.654902 0.501961 0.313725 1 0.654902 0.501961 0.313725 1 0.654902 0.501961 0.313725 1 0.654902 0.501961 0.313725 1 0.654902 0.501961 0.313725 1 0.654902 0.501961 0.313725 1 0.654902 0.501961 0.313725 1 0.654902 0.501961 0.313725 1 0.654902 0.501961 0.313725 1 0.654902 0.501961 0.313725 1 0.654902 0.501961 0.313725 1 0.654902 0.501961 0.313725 1 0.654902 0.501961 0.313725 1 0.654902 0.501961 0.313725 1 0.654902 0.501961 0.313725 1 0.654902 0.501961 0.313725 1 0.654902 0.501961 0.313725 1 0.654902 0.501961 0.313725 1 0.654902 0.501961 0.313725 1 0.654902 0.501961 0.313725 1 0.654902 0.501961 0.313725 1 0.654902 0.501961 0.313725 1 0.654902 0.501961 0.313725 1 0.654902 0.501961 0.313725 1 0.654902 0.501961 0.313725 1 0.654902 0.501961 0.313725 1 0.654902 0.501961 0.313725 1 0.654902 0.501961 0.313725 1 0.654902 0.501961 0.313725 1 0.654902 0.501961 0.313725 1 0.654902 0.501961 0.313725 1 0.654902 0.501961 0.313725 1 0.654902 0.501961 0.313725 1 0.654902 0.501961 0.313725 1 0.654902 0.501961 0.313725 1 0.654902 0.501961 0.313725 1 0.654902 0.501961 0.313725 1 0.654902 0.501961 0.313725 1 0.654902 0.501961 0.313725 1 0.654902 0.501961 0.313725 1 0.654902 0.501961 0.313725 1 0.654902 0.501961 0.313725 1 0.654902 0.501961 0.313725 1 0.654902 0.501961 0.313725 1 0.654902 0.501961 0.313725 1 0.654902 0.501961 0.313725 1 0.654902 0.501961 0.313725 1 0.654902 0.501961 0.313725 1 0.654902 0.501961 0.313725 1 0.654902 0.501961 0.313725 1 0.654902 0.501961 0.313725 1 0.654902 0.501961 0.313725 1 0.654902 0.501961 0.313725 1 0.654902 0.501961 0.313725 1 0.654902 0.501961 0.313725 1 0.654902 0.501961 0.313725 1 0.654902 0.501961 0.313725 1 0.654902 0.501961 0.313725 1 0.654902 0.501961 0.313725 1 0.654902 0.501961 0.313725 1 0.654902 0.501961 0.313725 1 0.654902 0.501961 0.313725 1 0.654902 0.501961 0.313725 1 0.654902 0.501961 0.313725 1 0.654902 0.501961 0.313725 1 0.654902 0.501961 0.313725 1 0.654902 0.501961 0.313725 1 0.654902 0.501961 0.313725 1 0.654902 0.501961 0.313725 1 0.654902 0.501961 0.313725 1 0.654902 0.501961 0.313725 1 0.654902 0.501961 0.313725 1 0.654902 0.501961 0.313725 1 0.654902 0.501961 0.313725 1 0.654902 0.501961 0.313725 1 0.654902 0.501961 0.313725 1 0.654902 0.501961 0.313725 1 0.654902 0.501961 0.313725 1 0.654902 0.501961 0.313725 1 0.654902 0.501961 0.313725 1 0.654902 0.501961 0.313725 1 0.654902 0.501961 0.313725 1 0.654902 0.501961 0.313725 1 0.654902 0.501961 0.313725 1 0.654902 0.501961 0.313725 1 0.654902 0.501961 0.313725 1 0.654902 0.501961 0.313725 1 0.654902 0.501961 0.313725 1 0.654902 0.501961 0.313725 1 0.654902 0.501961 0.313725 1 0.654902 0.501961 0.313725 1 0.654902 0.501961 0.313725 1 0.654902 0.501961 0.313725 1 0.654902 0.501961 0.313725 1 0.654902 0.501961 0.313725 1 0.654902 0.501961 0.313725 1 0.654902 0.501961 0.313725 1 0.654902 0.501961 0.313725 1 0.654902 0.501961 0.313725 1 0.654902 0.501961 0.313725 1 0.654902 0.501961 0.313725 1 0.654902 0.501961 0.313725 1 0.654902 0.501961 0.313725 1 0.654902 0.501961 0.313725 1 0.654902 0.501961 0.313725 1 0.654902 0.501961 0.313725 1 0.654902 0.501961 0.313725 1 0.654902 0.501961 0.313725 1 0.654902 0.501961 0.313725 1 0.654902 0.501961 0.313725 1 0.654902 0.501961 0.313725 1 0.654902 0.501961 0.313725 1 0.654902 0.501961 0.313725 1 0.654902 0.501961 0.313725 1 0.654902 0.501961 0.313725 1 0.654902 0.501961 0.313725 1 0.654902 0.501961 0.313725 1 0.654902 0.501961 0.313725 1 0.654902 0.501961 0.313725 1 0.654902 0.501961 0.313725 1 0.654902 0.501961 0.313725 1 0.654902 0.501961 0.313725 1 0.654902 0.501961 0.313725 1 0.654902 0.501961 0.313725 1 0.654902 0.501961 0.313725 1 0.654902 0.501961 0.313725 1 0.654902 0.501961 0.313725 1 0.654902 0.501961 0.313725 1 0.654902 0.501961 0.313725 1 0.654902 0.501961 0.313725 1 0.654902 0.501961 0.313725 1 0.654902 0.501961 0.313725 1 0.654902 0.501961 0.313725 1 0.654902 0.501961 0.313725 1 0.654902 0.501961 0.313725 1 0.654902 0.501961 0.313725 1 0.654902 0.501961 0.313725 1 0.654902 0.501961 0.313725 1 0.654902 0.501961 0.313725 1 0.654902 0.501961 0.313725 1 0.654902 0.501961 0.313725 1 0.654902 0.501961 0.313725 1 0.654902 0.501961 0.313725 1 0.654902 0.501961 0.313725 1 0.654902 0.501961 0.313725 1 0.654902 0.501961 0.313725 1 0.654902 0.501961 0.313725 1 0.654902 0.501961 0.313725 1 0.654902 0.501961 0.313725 1 0.654902 0.501961 0.313725 1 0.654902 0.501961 0.313725 1 0.654902 0.501961 0.313725 1 0.654902 0.501961 0.313725 1 0.654902 0.501961 0.313725 1 0.654902 0.501961 0.313725 1 0.654902 0.501961 0.313725 1 0.654902 0.501961 0.313725 1 0.654902 0.501961 0.313725 1 0.654902 0.501961 0.313725 1 0.654902 0.501961 0.313725 1 0.654902 0.501961 0.313725 1 0.654902 0.501961 0.313725 1 0.654902 0.501961 0.313725 1 0.654902 0.501961 0.313725 1 0.654902 0.501961 0.313725 1 0.654902 0.501961 0.313725 1 0.654902 0.501961 0.313725 1 0.654902 0.501961 0.313725 1 0.654902 0.501961 0.313725 1 0.654902 0.501961 0.313725 1 0.654902 0.501961 0.313725 1 0.654902 0.501961 0.313725 1 0.654902 0.501961 0.313725 1 0.654902 0.501961 0.313725 1 0.654902 0.501961 0.313725 1 0.654902 0.501961 0.313725 1 0.654902 0.501961 0.313725 1 0.654902 0.501961 0.313725 1 0.654902 0.501961 0.313725 1 0.654902 0.501961 0.313725 1 0.654902 0.501961 0.313725 1 0.654902 0.501961 0.313725 1 0.654902 0.501961 0.313725 1 0.654902 0.501961 0.313725 1 0.654902 0.501961 0.313725 1 0.654902 0.501961 0.313725 1 0.654902 0.501961 0.313725 1 0.654902 0.501961 0.313725 1 0.654902 0.501961 0.313725 1 0.654902 0.501961 0.313725 1 0.654902 0.501961 0.313725 1 0.654902 0.501961 0.313725 1 0.654902 0.501961 0.313725 1 0.654902 0.501961 0.313725 1 0.654902 0.501961 0.313725 1 0.654902 0.501961 0.313725 1 0.654902 0.501961 0.313725 1 0.654902 0.501961 0.313725 1 0.654902 0.501961 0.313725 1 0.654902 0.501961 0.313725 1 0.654902 0.501961 0.313725 1 0.654902 0.501961 0.313725 1 0.654902 0.501961 0.313725 1 0.654902 0.501961 0.313725 1 0.654902 0.501961 0.313725 1 0.654902 0.501961 0.313725 1 0.654902 0.501961 0.313725 1 0.654902 0.501961 0.313725 1 0.654902 0.501961 0.313725 1 0.654902 0.501961 0.313725 1 0.654902 0.501961 0.313725 1 0.654902 0.501961 0.313725 1 0.654902 0.501961 0.313725 1 0.654902 0.501961 0.313725 1 0.654902 0.501961 0.313725 1 0.654902 0.501961 0.313725 1 0.654902 0.501961 0.313725 1 0.654902 0.501961 0.313725 1 0.654902 0.501961 0.313725 1 0.654902 0.501961 0.313725 1 0.654902 0.501961 0.313725 1 0.654902 0.501961 0.313725 1 0.654902 0.501961 0.313725 1 0.654902 0.501961 0.313725 1 0.654902 0.501961 0.313725 1 0.654902 0.501961 0.313725 1 0.654902 0.501961 0.313725 1 0.654902 0.501961 0.313725 1 0.654902 0.501961 0.313725 1 0.654902 0.501961 0.313725 1 0.654902 0.501961 0.313725 1 0.654902 0.501961 0.313725 1 0.654902 0.501961 0.313725 1 0.654902 0.501961 0.313725 1 0.654902 0.501961 0.313725 1 0.654902 0.501961 0.313725 1 0.654902 0.501961 0.313725 1 0.654902 0.501961 0.313725 1 0.654902 0.501961 0.313725 1 0.654902 0.501961 0.313725 1 0.654902 0.501961 0.313725 1 0.654902 0.501961 0.313725 1 0.654902 0.501961 0.313725 1 0.654902 0.501961 0.313725 1 0.654902 0.501961 0.313725 1 0.654902 0.501961 0.313725 1 0.654902 0.501961 0.313725 1 0.654902 0.501961 0.313725 1 0.654902 0.501961 0.313725 1 0.654902 0.501961 0.313725 1 0.654902 0.501961 0.313725 1 0.654902 0.501961 0.313725 1 0.654902 0.501961 0.313725 1 0.654902 0.501961 0.313725 1 0.654902 0.501961 0.313725 1 0.654902 0.501961 0.313725 1 0.654902 0.501961 0.313725 1 0.654902 0.501961 0.313725 1 0.654902 0.501961 0.313725 1 0.654902 0.501961 0.313725 1 0.654902 0.501961 0.313725 1 0.654902 0.501961 0.313725 1 0.654902 0.501961 0.313725 1 0.654902 0.501961 0.313725 1 0.654902 0.501961 0.313725 1 0.654902 0.501961 0.313725 1 0.654902 0.501961 0.313725 1 0.654902 0.501961 0.313725 1 0.654902 0.501961 0.313725 1 0.654902 0.501961 0.313725 1 0.654902 0.501961 0.313725 1 0.654902 0.501961 0.313725 1 0.654902 0.501961 0.313725 1 0.654902 0.501961 0.313725 1 0.654902 0.501961 0.313725 1 0.654902 0.501961 0.313725 1 0.654902 0.501961 0.313725 1 0.654902 0.501961 0.313725 1 0.654902 0.501961 0.313725 1 0.654902 0.501961 0.313725 1 0.654902 0.501961 0.313725 1 0.654902 0.501961 0.313725 1 0.654902 0.501961 0.313725 1 0.654902 0.501961 0.313725 1 0.654902 0.501961 0.313725 1 0.654902 0.501961 0.313725 1 0.654902 0.501961 0.313725 1 0.654902 0.501961 0.313725 1 0.654902 0.501961 0.313725 1 0.654902 0.501961 0.313725 1 0.654902 0.501961 0.313725 1 0.654902 0.501961 0.313725 1 0.654902 0.501961 0.313725 1 0.654902 0.501961 0.313725 1 0.654902 0.501961 0.313725 1 0.654902 0.501961 0.313725 1 0.654902 0.501961 0.313725 1 0.654902 0.501961 0.313725 1 0.654902 0.501961 0.313725 1 0.654902 0.501961 0.313725 1 0.654902 0.501961 0.313725 1 0.654902 0.501961 0.313725 1 0.654902 0.501961 0.313725 1 0.654902 0.501961 0.313725 1 0.654902 0.501961 0.313725 1 0.654902 0.501961 0.313725 1 0.654902 0.501961 0.313725 1 0.654902 0.501961 0.313725 1 0.654902 0.501961 0.313725 1 0.654902 0.501961 0.313725 1 0.654902 0.501961 0.313725 1 0.654902 0.501961 0.313725 1 0.654902 0.501961 0.313725 1 0.654902 0.501961 0.313725 1 0.654902 0.501961 0.313725 1 0.654902 0.501961 0.313725 1 0.654902 0.501961 0.313725 1 0.654902 0.501961 0.313725 1 0.654902 0.501961 0.313725 1 0.654902 0.501961 0.313725 1 0.654902 0.501961 0.313725 1 0.654902 0.501961 0.313725 1 0.654902 0.501961 0.313725 1 0.654902 0.501961 0.313725 1 0.654902 0.501961 0.313725 1 0.654902 0.501961 0.313725 1 0.654902 0.501961 0.313725 1 0.654902 0.501961 0.313725 1 0.654902 0.501961 0.313725 1 0.654902 0.501961 0.313725 1 0.654902 0.501961 0.313725 1 0.654902 0.501961 0.313725 1 0.654902 0.501961 0.313725 1 0.654902 0.501961 0.313725 1 0.654902 0.501961 0.313725 1 0.654902 0.501961 0.313725 1 0.654902 0.501961 0.313725 1 0.654902 0.501961 0.313725 1 0.654902 0.501961 0.313725 1 0.654902 0.501961 0.313725 1 0.654902 0.501961 0.313725 1 0.654902 0.501961 0.313725 1 0.654902 0.501961 0.313725 1 0.654902 0.501961 0.313725 1 0.654902 0.501961 0.313725 1 0.654902 0.501961 0.313725 1 0.654902 0.501961 0.313725 1 0.654902 0.501961 0.313725 1 0.654902 0.501961 0.313725 1 0.654902 0.501961 0.313725 1 0.654902 0.501961 0.313725 1 0.654902 0.501961 0.313725 1 0.654902 0.501961 0.313725 1 0.654902 0.501961 0.313725 1 0.654902 0.501961 0.313725 1 0.654902 0.501961 0.313725 1 0.654902 0.501961 0.313725 1 0.654902 0.501961 0.313725 1 0.654902 0.501961 0.313725 1 0.654902 0.501961 0.313725 1 0.654902 0.501961 0.313725 1 0.654902 0.501961 0.313725 1 0.654902 0.501961 0.313725 1 0.654902 0.501961 0.313725 1 0.654902 0.501961 0.313725 1 0.654902 0.501961 0.313725 1 0.654902 0.501961 0.313725 1 0.654902 0.501961 0.313725 1 0.654902 0.501961 0.313725 1 0.654902 0.501961 0.313725 1 0.654902 0.501961 0.313725 1 0.654902 0.501961 0.313725 1 0.654902 0.501961 0.313725 1 0.654902 0.501961 0.313725 1 0.654902 0.501961 0.313725 1 0.654902 0.501961 0.313725 1 0.654902 0.501961 0.313725 1 0.654902 0.501961 0.313725 1 0.654902 0.501961 0.313725 1 0.654902 0.501961 0.313725 1 0.654902 0.501961 0.313725 1 0.654902 0.501961 0.313725 1 0.654902 0.501961 0.313725 1 0.654902 0.501961 0.313725 1 0.654902 0.501961 0.313725 1 0.654902 0.501961 0.313725 1 0.654902 0.501961 0.313725 1 0.654902 0.501961 0.313725 1 0.654902 0.501961 0.313725 1 0.654902 0.501961 0.313725 1 0.654902 0.501961 0.313725 1 0.654902 0.501961 0.313725 1 0.654902 0.501961 0.313725 1 0.654902 0.501961 0.313725 1 0.654902 0.501961 0.313725 1 0.654902 0.501961 0.313725 1 0.654902 0.501961 0.313725 1 0.654902 0.501961 0.313725 1 0.654902 0.501961 0.313725 1 0.654902 0.501961 0.313725 1 0.654902 0.501961 0.313725 1 0.654902 0.501961 0.313725 1 0.654902 0.501961 0.313725 1 0.654902 0.501961 0.313725 1 0.654902 0.501961 0.313725 1 0.654902 0.501961 0.313725 1 0.654902 0.501961 0.313725 1 0.654902 0.501961 0.313725 1 0.654902 0.501961 0.313725 1 0.654902 0.501961 0.313725 1 0.654902 0.501961 0.313725 1 0.654902 0.501961 0.313725 1 0.654902 0.501961 0.313725 1 0.654902 0.501961 0.313725 1 0.654902 0.501961 0.313725 1 0.654902 0.501961 0.313725 1 0.654902 0.501961 0.313725 1 0.654902 0.501961 0.313725 1 0.654902 0.501961 0.313725 1 0.654902 0.501961 0.313725 1 0.654902 0.501961 0.313725 1 0.654902 0.501961 0.313725 1 0.654902 0.501961 0.313725 1 0.654902 0.501961 0.313725 1 0.654902 0.501961 0.313725 1 0.654902 0.501961 0.313725 1 0.654902 0.501961 0.313725 1 0.654902 0.501961 0.313725 1 0.654902 0.501961 0.313725 1 0.654902 0.501961 0.313725 1 0.654902 0.501961 0.313725 1 0.654902 0.501961 0.313725 1 0.654902 0.501961 0.313725 1 0.654902 0.501961 0.313725 1 0.654902 0.501961 0.313725 1 0.654902 0.501961 0.313725 1 0.654902 0.501961 0.313725 1 0.654902 0.501961 0.313725 1 0.654902 0.501961 0.313725 1 0.654902 0.501961 0.313725 1 0.654902 0.501961 0.313725 1 0.654902 0.501961 0.313725 1 0.654902 0.501961 0.313725 1</float_array>
                    <technique_common>
                        <accessor count="455" source="#shape0-lib-vcolor-array" stride="4">
                            <param name="R" type="float"/>
                            <param name="G" type="float"/>
                            <param name="B" type="float"/>
                            <param name="A" type="float"/>
                        </accessor>
                    </technique_common>
                </source>
                <vertices id="shape0-lib-vertices">
                    <input semantic="POSITION" source="#shape0-lib-positions"/>
                </vertices>
                <triangles count="466">
                    <input offset="0" semantic="VERTEX" source="#shape0-lib-vertices"/>
                    <input offset="1" semantic="COLOR" source="#shape0-lib-vcolor"/>
                    <input offset="2" semantic="NORMAL" source="#shape0-lib-normals"/>
                    <p>0 0 0 2 2 0 1 1 0 3 3 1 0 0 1 1 1 1 1 1 2 6 6 2 4 4 2 7 7 3 5 5 3 6 6 3 7 7 4 10 10 4 8 8 4 11 11 5 9 9 5 10 10 5 11 11 6 14 14 6 12 12 6 18 18 7 17 17 7 15 15 7 19 19 8 16 16 8 17 17 8 17 17 9 18 18 9 23 23 9 20 20 10 21 21 10 19 19 10 24 24 11 25 25 11 22 22 11 20 20 12 23 23 12 31 31 12 26 26 13 30 30 13 28 28 13 33 33 14 30 30 14 27 27 14 24 24 15 31 31 15 34 34 15 35 35 16 296 296 16 297 297 16 32 32 17 36 36 17 41 41 17 27 27 18 34 34 18 37 37 18 298 298 19 40 40 19 39 39 19 39 39 20 35 35 20 297 297 20 36 36 21 32 32 21 37 37 21 43 43 22 38 38 22 298 298 22 36 36 23 44 44 23 47 47 23 43 43 24 298 298 24 299 299 24 42 42 25 46 46 25 44 44 25 49 49 26 48 48 26 45 45 26 51 51 27 47 47 27 44 44 27 52 52 28 49 49 28 299 299 28 46 46 29 53 53 29 50 50 29 55 55 30 51 51 30 50 50 30 300 300 31 301 301 31 60 60 31 52 52 32 300 300 32 56 56 32 54 54 33 58 58 33 55 55 33 54 54 34 50 50 34 53 53 34 301 301 35 302 302 35 64 64 35 62 62 36 61 61 36 305 305 36 63 63 37 68 68 37 58 58 37 302 302 38 306 306 38 69 69 38 59 59 39 65 65 39 63 63 39 66 66 40 67 67 40 303 303 40 67 67 41 62 62 41 303 303 41 70 70 42 71 71 42 304 304 42 71 71 43 66 66 43 304 304 43 72 72 44 68 68 44 63 63 44 306 306 45 308 308 45 77 77 45 65 65 46 73 73 46 72 72 46 74 74 47 75 75 47 307 307 47 75 75 48 70 70 48 307 307 48 72 72 49 76 76 49 79 79 49 78 78 50 74 74 50 309 309 50 76 76 51 72 72 51 73 73 51 81 81 52 78 78 52 309 309 52 308 308 53 311 311 53 87 87 53 83 83 54 79 79 54 76 76 54 80 80 55 84 84 55 82 82 55 86 86 56 85 85 56 81 81 56 89 89 57 83 83 57 82 82 57 311 311 58 313 313 58 94 94 58 90 90 59 86 86 59 310 310 59 92 92 60 89 89 60 88 88 60 348 348 61 82 82 61 84 84 61 313 313 62 314 314 62 98 98 62 95 95 63 90 90 63 312 312 63 91 91 64 96 96 64 100 100 64 349 349 65 348 348 65 93 93 65 314 314 66 316 316 66 102 102 66 99 99 67 95 95 67 312 312 67 350 350 68 349 349 68 97 97 68 103 103 69 104 104 69 315 315 69 104 104 70 99 99 70 315 315 70 106 106 71 100 100 71 96 96 71 316 316 72 318 318 72 111 111 72 101 101 73 107 107 73 351 351 73 317 317 74 319 319 74 112 112 74 103 103 75 317 317 75 108 108 75 105 105 76 110 110 76 114 114 76 318 318 77 320 320 77 116 116 77 113 113 78 109 109 78 108 108 78 352 352 79 351 351 79 107 107 79 319 319 80 321 321 80 121 121 80 117 117 81 118 118 81 108 108 81 118 118 82 113 113 82 108 108 82 110 110 83 119 119 83 123 123 83 322 322 84 124 124 84 116 116 84 115 115 85 120 120 85 353 353 85 321 321 86 323 323 86 125 125 86 122 122 87 117 117 87 112 112 87 126 126 88 122 122 88 112 112 88 123 123 89 119 119 89 128 128 89 324 324 90 124 124 90 322 322 90 353 353 91 120 120 91 133 133 91 325 325 92 125 125 92 323 323 92 129 129 93 130 130 93 121 121 93 130 130 94 126 126 94 121 121 94 124 124 95 324 324 95 326 326 95 127 127 96 128 128 96 136 136 96 327 327 97 125 125 97 325 325 97 134 134 98 129 129 98 125 125 98 328 328 99 131 131 99 326 326 99 354 354 100 133 133 100 140 140 100 327 327 101 138 138 101 135 135 101 137 137 102 134 134 102 135 135 102 131 131 103 328 328 103 139 139 103 132 132 104 136 136 104 142 142 104 141 141 105 137 137 105 135 135 105 355 355 106 140 140 106 146 146 106 143 143 107 141 141 107 135 135 107 329 329 108 139 139 108 145 145 108 330 330 109 142 142 109 148 148 109 143 143 110 138 138 110 331 331 110 356 356 111 146 146 111 152 152 111 149 149 112 147 147 112 331 331 112 144 144 113 145 145 113 151 151 113 332 332 114 148 148 114 154 154 114 149 149 115 331 331 115 333 333 115 357 357 116 152 152 116 157 157 116 155 155 117 153 153 117 333 333 117 156 156 118 160 160 118 150 150 118 334 334 119 154 154 119 161 161 119 333 333 120 336 336 120 159 159 120 358 358 121 157 157 121 165 165 121 159 159 122 336 336 122 163 163 122 164 164 123 337 337 123 160 160 123 335 335 124 161 161 124 167 167 124 166 166 125 162 162 125 163 163 125 161 161 126 165 165 126 171 171 126 168 168 127 166 166 127 163 163 127 337 337 128 164 164 128 170 170 128 338 338 129 167 167 129 173 173 129 172 172 130 168 168 130 169 169 130 167 167 131 171 171 131 177 177 131 174 174 132 172 172 132 169 169 132 176 176 133 341 341 133 339 339 133 340 340 134 173 173 134 179 179 134 178 178 135 174 174 135 175 175 135 173 173 136 177 177 136 182 182 136 180 180 137 178 178 137 175 175 137 176 176 138 181 181 138 185 185 138 342 342 139 179 179 139 186 186 139 344 344 140 427 427 140 180 180 140 179 179 141 182 182 141 191 191 141 188 188 142 187 187 142 185 185 142 343 343 143 186 186 143 190 190 143 192 192 144 188 188 144 181 181 144 189 189 145 190 190 145 196 196 145 186 186 146 191 191 146 197 197 146 195 195 147 194 194 147 345 345 147 198 198 148 195 195 148 346 346 148 203 203 149 202 202 149 196 196 149 190 190 150 197 197 150 207 207 150 347 347 151 198 198 151 346 346 151 204 204 152 206 206 152 200 200 152 196 196 153 207 207 153 210 210 153 208 208 154 204 204 154 205 205 154 200 200 155 210 210 155 212 212 155 211 211 156 208 208 156 209 209 156 205 205 157 212 212 157 213 213 157 213 213 158 214 214 158 211 211 158 215 215 159 213 213 159 217 217 159 218 218 160 216 216 160 217 217 160 217 217 161 221 221 161 220 220 161 222 222 162 220 220 162 221 221 162 224 224 163 222 222 163 223 223 163 225 225 164 227 227 164 223 223 164 228 228 165 225 225 165 226 226 165 229 229 166 228 228 166 226 226 166 231 231 167 229 229 167 230 230 167 233 233 168 234 234 168 230 230 168 235 235 169 232 232 169 233 233 169 236 236 170 235 235 170 233 233 170 238 238 171 236 236 171 237 237 171 239 239 172 238 238 172 237 237 172 247 247 173 249 249 173 275 275 173 251 251 174 254 254 174 259 259 174 261 261 175 255 255 175 248 248 175 251 251 176 259 259 176 268 268 176 270 270 177 260 260 177 282 282 177 251 251 178 268 268 178 279 279 178 269 269 179 270 270 179 281 281 179 251 251 180 279 279 180 289 289 180 251 251 181 289 289 181 293 293 181 293 293 182 295 295 182 294 294 182 295 295 183 359 359 183 360 360 183 235 235 184 360 360 184 4 4 184 234 234 185 4 4 185 361 361 185 362 362 186 227 227 186 228 228 186 363 363 187 444 444 187 227 227 187 364 364 188 443 443 188 444 444 188 365 365 189 442 442 189 443 443 189 366 366 190 441 441 190 442 442 190 441 441 191 366 366 191 16 16 191 211 211 192 16 16 192 447 447 192 446 446 193 448 448 193 449 449 193 440 440 194 450 450 194 451 451 194 435 435 195 438 438 195 452 452 195 436 436 196 454 454 196 367 367 196 367 367 197 368 368 197 433 433 197 368 368 198 369 369 198 431 431 198 428 428 199 432 432 199 370 370 199 408 408 200 183 183 200 375 375 200 413 413 201 417 417 201 421 421 201 374 374 202 371 371 202 372 372 202 296 296 203 453 453 203 452 452 203 383 383 204 379 379 204 381 381 204 387 387 205 389 389 205 397 397 205 414 414 206 422 422 206 418 418 206 430 430 207 432 432 207 428 428 207 4 4 208 3 3 208 1 1 208 6 6 209 5 5 209 4 4 209 10 10 210 7 7 210 6 6 210 10 10 211 9 9 211 8 8 211 14 14 212 11 11 212 10 10 212 14 14 213 13 13 213 12 12 213 13 13 214 14 14 214 18 18 214 17 17 215 16 16 215 15 15 215 15 15 216 13 13 216 18 18 216 20 20 217 17 17 217 23 23 217 19 19 218 17 17 218 20 20 218 20 20 219 22 22 219 21 21 219 22 22 220 20 20 220 24 24 220 24 24 221 26 26 221 25 25 221 24 24 222 20 20 222 31 31 222 26 26 223 24 24 223 27 27 223 30 30 224 29 29 224 28 28 224 30 30 225 26 26 225 27 27 225 32 32 226 33 33 226 27 27 226 27 27 227 24 24 227 34 34 227 33 33 228 32 32 228 41 41 228 32 32 229 27 27 229 37 37 229 40 40 230 298 298 230 38 38 230 298 298 231 39 39 231 297 297 231 42 42 232 36 36 232 37 37 232 41 41 233 36 36 233 47 47 233 45 45 234 43 43 234 299 299 234 36 36 235 42 42 235 44 44 235 299 299 236 49 49 236 45 45 236 50 50 237 51 51 237 44 44 237 300 300 238 52 52 238 299 299 238 44 44 239 46 46 239 50 50 239 54 54 240 55 55 240 50 50 240 56 56 241 300 300 241 60 60 241 57 57 242 52 52 242 56 56 242 59 59 243 54 54 243 53 53 243 60 60 244 301 301 244 64 64 244 303 303 245 62 62 245 305 305 245 54 54 246 63 63 246 58 58 246 64 64 247 302 302 247 69 69 247 54 54 248 59 59 248 63 63 248 304 304 249 66 66 249 303 303 249 307 307 250 70 70 250 304 304 250 69 69 251 306 306 251 77 77 251 63 63 252 65 65 252 72 72 252 309 309 253 74 74 253 307 307 253 68 68 254 72 72 254 79 79 254 80 80 255 76 76 255 73 73 255 310 310 256 81 81 256 309 309 256 77 77 257 308 308 257 87 87 257 82 82 258 83 83 258 76 76 258 76 76 259 80 80 259 82 82 259 310 310 260 86 86 260 81 81 260 88 88 261 89 89 261 82 82 261 87 87 262 311 311 262 94 94 262 312 312 263 90 90 263 310 310 263 91 91 264 92 92 264 88 88 264 93 93 265 348 348 265 84 84 265 94 94 266 313 313 266 98 98 266 92 92 267 91 91 267 100 100 267 97 97 268 349 349 268 93 93 268 98 98 269 314 314 269 102 102 269 315 315 270 99 99 270 312 312 270 101 101 271 350 350 271 97 97 271 317 317 272 103 103 272 315 315 272 105 105 273 106 106 273 96 96 273 102 102 274 316 316 274 111 111 274 350 350 275 101 101 275 351 351 275 108 108 276 317 317 276 112 112 276 109 109 277 103 103 277 108 108 277 106 106 278 105 105 278 114 114 278 111 111 279 318 318 279 116 116 279 115 115 280 352 352 280 107 107 280 112 112 281 319 319 281 121 121 281 112 112 282 117 117 282 108 108 282 114 114 283 110 110 283 123 123 283 320 320 284 322 322 284 116 116 284 352 352 285 115 115 285 353 353 285 121 121 286 321 321 286 125 125 286 121 121 287 126 126 287 112 112 287 127 127 288 123 123 288 128 128 288 354 354 289 353 353 289 133 133 289 125 125 290 129 129 290 121 121 290 131 131 291 124 124 291 326 326 291 132 132 292 127 127 292 136 136 292 135 135 293 134 134 293 125 125 293 355 355 294 354 354 294 140 140 294 125 125 295 327 327 295 135 135 295 329 329 296 131 131 296 139 139 296 330 330 297 132 132 297 142 142 297 356 356 298 355 355 298 146 146 298 138 138 299 143 143 299 135 135 299 144 144 300 329 329 300 145 145 300 332 332 301 330 330 301 148 148 301 147 147 302 143 143 302 331 331 302 357 357 303 356 356 303 152 152 303 150 150 304 144 144 304 151 151 304 334 334 305 332 332 305 154 154 305 153 153 306 149 149 306 333 333 306 358 358 307 357 357 307 157 157 307 151 151 308 156 156 308 150 150 308 335 335 309 334 334 309 161 161 309 158 158 310 155 155 310 333 333 310 333 333 311 159 159 311 158 158 311 161 161 312 358 358 312 165 165 312 162 162 313 159 159 313 163 163 313 156 156 314 164 164 314 160 160 314 338 338 315 335 335 315 167 167 315 167 167 316 161 161 316 171 171 316 169 169 317 168 168 317 163 163 317 339 339 318 337 337 318 170 170 318 340 340 319 338 338 319 173 173 319 173 173 320 167 167 320 177 177 320 175 175 321 174 174 321 169 169 321 170 170 322 176 176 322 339 339 322 342 342 323 340 340 323 179 179 323 179 179 324 173 173 324 182 182 324 185 185 325 341 341 325 176 176 325 341 341 326 185 185 326 184 184 326 343 343 327 342 342 327 186 186 327 175 175 328 344 344 328 180 180 328 186 186 329 179 179 329 191 191 329 181 181 330 188 188 330 185 185 330 189 189 331 343 343 331 190 190 331 345 345 332 192 192 332 181 181 332 193 193 333 189 189 333 196 196 333 190 190 334 186 186 334 197 197 334 194 194 335 192 192 335 345 345 335 345 345 336 346 346 336 195 195 336 196 196 337 200 200 337 199 199 337 202 202 338 193 193 338 196 196 338 196 196 339 199 199 339 203 203 339 202 202 340 201 201 340 193 193 340 196 196 341 190 190 341 207 207 341 200 200 342 205 205 342 204 204 342 206 206 343 199 199 343 200 200 343 200 200 344 196 196 344 210 210 344 209 209 345 208 208 345 205 205 345 205 205 346 200 200 346 212 212 346 209 209 347 205 205 347 213 213 347 211 211 348 209 209 348 213 213 348 213 213 349 215 215 349 214 214 349 216 216 350 215 215 350 217 217 350 219 219 351 218 218 351 217 217 351 217 217 352 220 220 352 219 219 352 223 223 353 222 222 353 221 221 353 223 223 354 226 226 354 225 225 354 227 227 355 224 224 355 223 223 355 230 230 356 229 229 356 226 226 356 234 234 357 233 233 357 232 232 357 234 234 358 231 231 358 230 230 358 237 237 359 236 236 359 233 233 359 240 240 360 242 242 360 241 241 360 240 240 361 277 277 361 246 246 361 252 252 362 253 253 362 243 243 362 253 253 363 275 275 363 249 249 363 257 257 364 245 245 364 250 250 364 254 254 365 274 274 365 288 288 365 254 254 366 286 286 366 263 263 366 254 254 367 287 287 367 273 273 367 254 254 368 272 272 368 256 256 368 254 254 369 262 262 369 285 285 369 262 262 370 254 254 370 251 251 370 254 254 371 248 248 371 255 255 371 245 245 372 257 257 372 264 264 372 250 250 373 247 247 373 265 265 373 243 243 374 276 276 374 252 252 374 244 244 375 246 246 375 266 266 375 267 267 376 278 278 376 258 258 376 277 277 377 240 240 377 267 267 377 240 240 378 246 246 378 242 242 378 252 252 379 275 275 379 253 253 379 254 254 380 288 288 380 245 245 380 254 254 381 273 273 381 286 286 381 254 254 382 285 285 382 272 272 382 264 264 383 248 248 383 254 254 383 250 250 384 265 265 384 257 257 384 243 243 385 244 244 385 276 276 385 277 277 386 267 267 386 258 258 386 246 246 387 277 277 387 266 266 387 254 254 388 263 263 388 274 274 388 287 287 389 254 254 389 256 256 389 265 265 390 247 247 390 275 275 390 266 266 391 276 276 391 244 244 391 264 264 392 254 254 392 245 245 392 290 290 393 284 284 393 261 261 393 290 290 394 271 271 394 292 292 394 271 271 395 283 283 395 291 291 395 261 261 396 248 248 396 290 290 396 261 261 397 260 260 397 255 255 397 290 290 398 292 292 398 284 284 398 271 271 399 290 290 399 283 283 399 260 260 400 270 270 400 269 269 400 260 260 401 261 261 401 282 282 401 280 280 402 269 269 402 281 281 402 251 251 403 293 293 403 294 294 403 235 235 404 295 295 404 360 360 404 234 234 405 235 235 405 4 4 405 228 228 406 234 234 406 361 361 406 361 361 407 362 362 407 228 228 407 362 362 408 363 363 408 227 227 408 363 363 409 364 364 409 444 444 409 364 364 410 365 365 410 443 443 410 365 365 411 366 366 411 442 442 411 211 211 412 441 441 412 16 16 412 445 445 413 211 211 413 447 447 413 439 439 414 446 446 414 449 449 414 437 437 415 440 440 415 451 451 415 453 453 416 435 435 416 452 452 416 434 434 417 436 436 417 367 367 417 434 434 418 367 367 418 433 433 418 433 433 419 368 368 419 431 431 419 374 374 420 428 428 420 370 370 420 385 385 421 408 408 421 375 375 421 183 183 422 408 408 422 411 411 422 423 423 423 425 425 423 183 183 423 417 417 424 419 419 424 421 421 424 421 421 425 423 423 425 183 183 425 183 183 426 411 411 426 413 413 426 413 413 427 415 415 427 417 417 427 413 413 428 421 421 428 183 183 428 371 371 429 374 374 429 370 370 429 374 374 430 372 372 430 373 373 430 377 377 431 385 385 431 375 375 431 381 381 432 382 382 432 383 383 432 377 377 433 384 384 433 385 385 433 375 375 434 376 376 434 377 377 434 377 377 435 378 378 435 379 379 435 379 379 436 380 380 436 381 381 436 377 377 437 383 383 437 384 384 437 383 383 438 377 377 438 379 379 438 407 407 439 409 409 439 386 386 439 405 405 440 406 406 440 407 407 440 403 403 441 404 404 441 405 405 441 401 401 442 402 402 442 403 403 442 399 399 443 400 400 443 401 401 443 397 397 444 398 398 444 399 399 444 395 395 445 396 396 445 397 397 445 393 393 446 394 394 446 395 395 446 391 391 447 392 392 447 393 393 447 389 389 448 390 390 448 391 391 448 387 387 449 388 388 449 389 389 449 399 399 450 386 386 450 387 387 450 399 399 451 405 405 451 407 407 451 399 399 452 401 401 452 403 403 452 387 387 453 397 397 453 399 399 453 391 391 454 393 393 454 395 395 454 395 395 455 389 389 455 391 391 455 399 399 456 407 407 456 386 386 456 405 405 457 399 399 457 403 403 457 397 397 458 389 389 458 395 395 458 412 412 459 410 410 459 429 429 459 418 418 460 416 416 460 414 414 460 414 414 461 412 412 461 429 429 461 429 429 462 426 426 462 424 424 462 422 422 463 420 420 463 418 418 463 429 429 464 424 424 464 422 422 464 422 422 465 414 414 465 429 429 465</p>
                </triangles>
            </mesh>
        </geometry>
    </library_geometries>
    <library_visual_scenes>
        <visual_scene id="VisualSceneNode" name="VisualScene">
            <node id="node" name="node">
                <instance_geometry url="#shape0-lib"/>
            </node>
        </visual_scene>
    </library_visual_scenes>
    <scene>
        <instance_visual_scene url="#VisualSceneNode"/>
    </scene>
</COLLADA>
