<?xml version="1.0" encoding="utf-8"?>
<COLLADA xmlns="http://www.collada.org/2005/11/COLLADASchema" version="1.4.1">
  <asset>
    <contributor>
      <author>Blender User</author>
      <authoring_tool>Blender 2.76.0 commit date:2015-11-03, commit time:10:56, hash:f337fea</authoring_tool>
    </contributor>
    <created>2016-11-13T17:55:49</created>
    <modified>2016-11-13T17:55:49</modified>
    <unit name="meter" meter="1"/>
    <up_axis>Z_UP</up_axis>
  </asset>
  <library_images/>
  <library_geometries>
    <geometry id="shape0_056-mesh" name="shape0.056">
      <mesh>
        <source id="shape0_056-mesh-positions">
          <float_array id="shape0_056-mesh-positions-array" count="735">-5.3245 49.787 -1.592982 13.4943 49.4661 -2.561382 -5.686235 49.6496 -21.52289 -27.7543 49.9545 -0.7596198 -5.543669 49.6496 18.37671 12.3837 49.34749 15.04221 12.2584 49.3474 -20.01739 -27.8277 49.8109 -21.92869 -27.6764 49.8109 20.41341 -33.742 -74.9223 -4.176742 -42.53247 -75 -4.009972 -31.9831 -74.5018 -13.25561 -23.646 -74.5213 -4.322122 -31.9177 -74.70081 5.053088 -41.50188 -74.7849 5.763218 -41.57117 -74.5786 -13.60231 -24.1376 -74.2705 -12.38111 -24.0798 -74.44811 3.786548 40.66938 46.3931 -4.175952 42.30508 42.5954 -4.217143 37.65327 46.4007 -22.47549 36.2775 48.2228 -3.936222 37.78527 46.40069 14.48421 39.33218 42.61679 15.18791 39.1949 42.6168 -23.25169 33.5256 48.187 -20.51499 33.64516 48.187 12.97331 43.5 13.0286 -3.899158 43.13919 -1.044399 -3.83437 40.3465 13.0476 -24.277 43.19725 25.7572 -4.016096 40.4934 13.0427 16.8464 40.1455 -1.040113 17.2278 39.99628 -1.020616 -24.5374 40.05529 25.7758 -23.8883 40.1986 25.7758 16.22681 -4.035789 13.26129 56.16051 -4.19243 26.02729 54.7765 -27.1253 13.33519 60.5106 -4.212926 -0.8656582 56.9468 15.9592 13.17129 47.9366 15.7398 25.92489 46.66381 -27.2091 26.11119 59.0972 -27.2148 -0.80325 61.2855 15.706 -0.9405779 48.6882 -4.905117 46.71119 50.22781 -5.415987 48.53769 45.04671 -27.5105 46.81669 54.337 -4.647209 42.90659 52.41041 14.3586 46.57199 42.64471 12.5071 48.34389 38.30221 -27.5572 48.66209 48.77281 -27.4488 43.00329 56.66081 15.0991 42.78859 44.50741 -4.44593 13.27381 -58.6122 -4.593327 26.02731 -57.42099 15.6006 13.18261 -52.4243 -4.628619 -0.8153903 -59.3948 -27.5604 13.34821 -61.2691 -27.6348 26.11121 -60.0358 15.3895 25.92491 -51.3597 15.3422 -0.8952013 -53.1244 -27.6556 -0.7513089 -62.0794 -5.275207 46.7112 -53.35139 -5.749069 48.53771 -48.16259 14.0355 46.57201 -47.76429 -5.03268 42.90661 -55.45879 -27.904 46.81671 -55.77399 -27.911 48.66221 -50.25669 12.2157 48.34391 -43.24999 14.7628 42.7886 -49.60659 -27.8586 43.00331 -58.00429 32.713 -40.6654 -4.248387 25.7454 -51.0551 -4.471428 29.9135 -40.5824 -22.96131 38.7234 -28.6384 -4.050435 30.0482 -40.7351 14.73449 23.2993 -51.153 12.79869 23.1766 -50.9481 -21.51631 35.72509 -28.5807 -24.1486 35.8698 -28.6779 16.3602 7.929069 -69.69881 -4.897371 -1.87911 -72.5058 -4.783822 5.984879 -69.53881 -17.57971 16.1015 -65.54891 -4.90273 6.076016 -69.80561 7.919659 -3.33728 -72.5246 5.433548 -3.40988 -72.303 -14.89221 13.8523 -65.4078 -19.58451 13.9578 -65.6866 9.94228 -21.5499 -70.04361 31.49029 -17.7976 -65.88361 37.38979 -36.16669 -70.06351 33.93199 -25.5725 -72.83541 23.95429 -9.076848 -69.97651 26.72739 -3.53839 -65.85841 31.81049 -34.26316 -65.88721 40.24449 -38.1431 -72.88891 25.86659 -15.3453 -72.6711 20.27239 -9.448246 -40.76611 50.11549 -6.427958 -28.63201 54.53199 -29.9294 -40.74251 53.86639 -12.95 -51.25401 44.88789 8.287769 -40.78371 42.86019 12.5662 -28.66991 46.6739 -28.3621 -28.59501 58.6129 -31.7469 -51.24221 48.26469 3.32765 -51.25341 38.33009 -9.82275 -40.37149 -54.6854 -13.2911 -50.72479 -50.55221 -30.3263 -40.33519 -57.18741 -6.83041 -28.38069 -58.0883 7.959816 -40.42729 -48.9265 3.02897 -50.77529 -45.2443 -32.10839 -50.69589 -52.8837 -28.7885 -28.33579 -60.7265 12.2138 -28.44299 -51.9615 -21.803 -69.3523 -39.35551 -25.7727 -72.2544 -32.05101 -36.4351 -69.34949 -41.16791 -18.0913 -65.1631 -44.81921 -9.29858 -69.35269 -35.32871 -15.5212 -72.1492 -28.92801 -38.35506 -72.2882 -33.45571 -34.57468 -65.1436 -46.91241 -3.79552 -65.20769 -40.14681 25.4984 48.8709 -19.11409 27.6966 48.9565 -3.423022 25.6115 48.87089 12.53321 -12.4678 -73.48351 -13.16561 -11.3977 -73.7292 -4.597372 -12.4063 -73.6728 4.054948 11.2727 48.978 29.69591 -5.766589 49.23439 35.03911 -27.6065 49.38009 38.0908 11.0433 48.97791 -34.51679 -6.028069 49.23441 -38.13779 -27.8841 49.38011 -39.59429 -19.7233 -73.7656 13.07569 -28.4786 -74.013 15.63559 -39.60548 -74.095 16.99809 -19.8475 -73.3877 -21.70871 -28.6197 -73.5903 -23.82081 -39.75468 -73.6573 -24.75481 -51.91415 49.8562 21.13211 -51.99089 50 -0.3518089 -52.06768 49.8563 -21.83179 -51.96006 -74.78471 5.989898 -51.99486 -74.9999 -3.921762 -52.03017 -74.5785 -13.63301 38.74187 -15.3283 17.142 41.689 -15.3155 -3.869062 38.593 -15.2797 -24.5384 14.6763 -15.26831 48.43009 -4.938679 -15.21091 56.58689 -27.5898 -15.16101 60.8451 14.3136 -15.15489 -53.09251 -5.352989 -15.08529 -59.3573 -28.0289 -15.03129 -62.0405 25.6986 48.1905 27.84311 29.0117 46.451 30.94461 30.2667 42.6812 32.31301 31.0046 -1.006016 35.7138 31.3166 13.09009 35.0838 31.0495 25.83169 34.0501 25.4761 48.19051 -34.40539 28.7658 46.45101 -37.85729 30.0109 42.68121 -39.26499 30.7271 -0.9703622 -41.9459 31.0433 13.09901 -41.41069 30.7827 25.83171 -40.59959 -51.81126 48.70709 49.90611 -51.791 46.86099 55.54811 -51.78225 43.04619 57.89791 -51.76239 -0.7750592 62.5 -51.76617 13.36819 61.7426 -51.77219 26.14839 60.3348 -52.17028 48.70711 -50.57419 -52.19017 46.86101 -56.16929 -52.19785 43.04621 -58.42529 -52.209 -0.7232388 -62.5 -52.20718 13.38121 -61.68949 -52.2038 26.14841 -60.45639 39.6739 36.0153 15.59761 42.65686 35.9949 -4.137864 39.53416 36.0153 -23.50279 15.3517 36.17809 45.35791 -4.467856 36.28999 53.34361 -27.3543 36.38159 57.62181 15.01 36.17811 -50.29799 -4.859405 36.29 -56.23279 -27.7703 36.38161 -58.80549 -7.815618 -72.5246 14.27919 0.411969 -69.8883 19.06389 7.413609 -65.79751 22.87269 27.1542 -28.69111 34.22209 21.9096 -40.7788 31.32489 15.8295 -51.2248 27.87299 -7.950376 -72.1172 -23.42811 0.2426279 -69.399 -28.32441 7.217449 -65.2863 -32.02521 26.8851 -28.51279 -41.0727 21.6593 -40.49869 -38.74151 15.6016 -50.84909 -35.91431 -51.8871 -72.8879 26.39439 -51.8577 -70.06161 34.58879 -51.83469 -65.88372 41.00879 -51.77 -28.57681 59.73299 -51.78659 -40.72921 54.88809 -51.80648 -51.23321 49.17839 -52.10189 -72.2873 -33.71451 -52.1296 -69.3477 -41.50441 -52.15026 -65.14009 -47.29601 -52.202 -28.31759 -61.1495 -52.18856 -40.32189 -57.6019 -52.17266 -50.68679 -53.28491 18.7925 -59.589 11.32309 21.0929 -59.4657 -4.74335 18.6784 -59.3365 -20.61851 0.01487869 -59.73391 35.02799 -15.289 -59.74931 41.09409 -32.96128 -59.74661 44.20669 -0.2631689 -59.14479 -42.79271 -15.6067 -59.09709 -47.79681 -33.29808 -59.07339 -50.01941 21.1191 48.6976 -29.81809 21.3105 48.6976 23.77461 -14.6032 -73.1128 -19.06071 -14.4989 -73.43111 10.12279 -51.84996 49.42529 39.06851 -52.13166 49.42531 -39.75639 -51.9193 -74.09451 17.39269 -52.07048 -73.65689 -24.91461 29.7411 -15.31391 35.555 29.4643 -15.22479 -41.9262 -51.76286 -15.13791 62.02429 -52.20779 -15.00819 -62.46191 30.5754 36.0763 32.99811 30.3153 36.07631 -39.79139 -51.77826 36.42229 58.85911 -52.20026 36.42231 -59.22639 11.7692 -59.68531 25.33039 11.557 -59.2226 -34.05181 -51.82056 -59.74071 45.04409 -52.1618 -59.06749 -50.41601</float_array>
          <technique_common>
            <accessor source="#shape0_056-mesh-positions-array" count="245" stride="3">
              <param name="X" type="float"/>
              <param name="Y" type="float"/>
              <param name="Z" type="float"/>
            </accessor>
          </technique_common>
        </source>
        <source id="shape0_056-mesh-normals">
          <float_array id="shape0_056-mesh-normals-array" count="1344">0.01816523 0.99981 0.007078766 0.03773158 0.9992464 0.009113192 0.02294397 0.9994189 0.02521157 0.04474985 0.9985896 0.02857238 0.01663887 0.9998298 -0.007976233 0.01910251 0.9994511 -0.02706944 0.03522723 0.9993253 -0.01038676 0.03811198 0.9987686 -0.0317623 0.007409393 0.9999494 -0.006809055 0.001845836 0.9999753 -0.006790041 0.00829035 0.9996679 -0.02440398 0.002024292 0.999709 -0.02404433 0.00790888 0.999946 0.006752908 0.01006746 0.9996536 0.02432245 0.002067148 0.9999755 0.006686329 0.002832055 0.9997078 0.02400714 0.01039659 -0.9997054 0.0219348 4.5766e-4 -0.9997589 0.02195447 0.01471334 -0.9980847 0.06008827 0.001913547 -0.998138 0.06096857 0.008013784 -0.9990392 -0.04308778 0.0108962 -0.9966901 -0.08056211 -4.146e-4 -0.9990599 -0.04335194 2.29521e-4 -0.9966797 -0.08142143 0.03313994 -0.9989023 -0.03310662 0.06490248 -0.9972778 -0.03499668 0.04115688 -0.9963063 -0.0753659 0.101963 -0.9898318 -0.09917974 0.03397178 -0.9993641 0.01083892 0.04363942 -0.9976493 0.05283427 0.06484425 -0.9977964 0.01406204 0.06472331 -0.9959757 0.06199419 0.907413 0.3967333 0.1385803 0.9869767 0.06034386 0.1491166 0.8024203 0.4207488 0.4231929 0.8827704 0.08910495 0.4612773 0.905035 0.3989685 -0.1474307 0.7851995 0.4268576 -0.448614 0.9856679 0.05669879 -0.1588844 0.8676822 0.07910394 -0.4907854 0.371921 0.9262637 -0.06091457 0.08194625 0.9964932 -0.01691591 0.3096131 0.9344633 -0.1758358 0.06919562 0.9966126 -0.04444539 0.3767095 0.9243472 0.06059998 0.3342067 0.9254645 0.1783857 0.0839219 0.9963389 0.01631206 0.07447254 0.9962586 0.04385095 0.9898377 -0.02064257 0.1406956 0.9855809 -0.09765082 0.1381837 0.8963987 -3.06518e-5 0.4432487 0.895212 -0.08391124 0.4376693 0.9884332 -0.02182877 -0.1500782 0.8826721 -0.001958906 -0.4699854 0.9842929 -0.09685647 -0.1476022 0.8825383 -0.07882487 -0.4635871 0.9878733 0.02726954 -0.1528493 0.9861853 0.0560593 -0.1558719 0.8778436 0.04832071 -0.4765037 0.8718636 0.07792234 -0.4835099 0.9889031 0.02486592 0.146467 0.8888762 0.04277533 0.4561462 0.9873407 0.05388981 0.1491784 0.883865 0.07367503 0.4619034 0.3755875 0.09843021 0.9215453 0.3711343 0.1311311 0.9192736 0.6343286 0.07571285 0.7693471 0.6270355 0.1082343 0.7714349 0.1837962 0.1081749 0.9769939 0.05018085 0.110145 0.992648 0.1824638 0.14076 0.9730846 0.05031758 0.1420246 0.9885835 0.1852366 0.0526098 0.9812847 0.1845675 -0.03494805 0.9821983 0.04940557 0.05342328 0.997349 0.0486654 -0.03306519 0.9982678 0.3827304 0.04655677 0.9226863 0.6465972 0.02899771 0.7622803 0.3835154 -0.04254895 0.9225538 0.6484107 -0.06027114 0.7589012 0.1325991 0.9362084 0.3254711 0.03640019 0.9970049 0.06823807 0.2304645 0.9328249 0.2769907 0.06178659 0.9964287 0.05755424 0.0602594 0.9432454 0.3265842 0.0164622 0.949072 0.3146292 0.01627802 0.9974927 0.06887233 0.004563927 0.9977397 0.0670427 0.1591262 0.5156183 0.8419125 0.1823956 0.1437634 0.9726582 0.04416584 0.5240202 0.85056 0.05050134 0.1434535 0.9883677 0.3270747 0.4868218 0.8099548 0.5610458 0.4514224 0.6938628 0.370745 0.1395505 0.9181905 0.6260122 0.1229962 0.7700525 0.1125816 0.0962218 -0.9889727 0.1112608 0.1196498 -0.9865622 0.01718246 0.09611743 -0.9952217 0.01730203 0.1188482 -0.9927617 0.2896252 0.0844537 -0.9534069 0.5720134 0.06380045 -0.8177593 0.2848204 0.1175304 -0.9513486 0.5640388 0.09048509 -0.8207757 0.2948592 0.0420615 -0.9546146 0.2993888 -0.02372884 -0.9538362 0.5806192 0.01791518 -0.8139783 0.5868109 -0.05310225 -0.807981 0.1157714 0.05621033 -0.9916841 0.01716446 0.05735969 -0.9982061 0.1174929 -0.005776703 -0.993057 0.01742386 -0.002664506 -0.9998447 0.0383495 0.9476695 -0.3169416 0.01195466 0.9976679 -0.06720191 0.006832361 0.9496135 -0.3133492 0.002713859 0.9977991 -0.06625461 0.09992963 0.9392453 -0.3283786 0.1994366 0.9382357 -0.2827347 0.02949893 0.9972195 -0.06843441 0.05483043 0.9968034 -0.05811023 0.2495183 0.4623015 -0.8508924 0.2850216 0.1102458 -0.95216 0.5027823 0.4431914 -0.7421532 0.5593931 0.09143984 -0.8238435 0.09787625 0.5032966 -0.8585528 0.01578396 0.5089422 -0.8606561 0.1112735 0.1183385 -0.986719 0.01730132 0.1203297 -0.9925833 0.8240737 -0.554966 0.1136451 0.866769 -0.4840517 0.1200232 0.7460776 -0.5555498 0.3670594 0.7801323 -0.4909341 0.3877852 0.8234038 -0.5529317 -0.1275646 0.7421667 -0.5420346 -0.3941919 0.867002 -0.4794527 -0.1357673 0.7787417 -0.4688609 -0.4168103 0.886555 -0.4426116 -0.1345937 0.9663539 -0.2126047 -0.1447742 0.7990154 -0.4300988 -0.4202256 0.8685359 -0.1977728 -0.4544573 0.8870666 -0.4449097 0.1231592 0.8061842 -0.4422467 0.3930456 0.9669529 -0.2159683 0.1354987 0.8775417 -0.2139285 0.4291331 0.2683981 -0.9626151 0.03653424 0.122473 -0.992255 0.0207445 0.2385295 -0.9635977 0.1207616 0.09068131 -0.9933573 0.07083964 0.2660351 -0.9621198 -0.05958974 0.23262 -0.9617475 -0.1446711 0.1209473 -0.9917035 -0.04354429 0.08683252 -0.9917952 -0.09382194 0.447385 -0.8907724 -0.07982075 0.7664698 -0.6302991 -0.1234788 0.4026315 -0.8868415 -0.2267159 0.690369 -0.6191453 -0.3742322 0.4520562 -0.890165 0.05702316 0.4126364 -0.8883929 0.2012196 0.7675285 -0.6323499 0.1050416 0.6960127 -0.6299059 0.3446518 0.1908636 -0.8540341 0.4839388 0.3020347 -0.5747761 0.760531 0.3087719 -0.8752048 0.372393 0.507098 -0.607285 0.6116018 0.09272009 -0.8405524 0.5337367 0.0236116 -0.8370275 0.5466512 0.1443143 -0.5540958 0.8198483 0.0369538 -0.547328 0.836102 0.05250549 -0.9464102 0.3186708 0.02333796 -0.9911158 0.1309388 0.01244962 -0.9452906 0.3259921 0.004216849 -0.991129 0.1328374 0.1190905 -0.9500758 0.2883983 0.1900237 -0.9578757 0.2153259 0.06262326 -0.9909886 0.1184068 0.1105335 -0.990369 0.08337634 0.3510659 -0.3917388 0.8504666 0.3773579 -0.1784948 0.9087028 0.5885832 -0.4208205 0.6902752 0.6365697 -0.1973857 0.745532 0.1690315 -0.3739824 0.9119022 0.04414606 -0.3685246 0.9285692 0.1817547 -0.1685009 0.9687997 0.04788559 -0.1664032 0.9848945 0.1542611 -0.4857296 0.8603896 0.1554086 -0.4434063 0.8827452 0.03977221 -0.4772584 0.8778625 0.03976732 -0.4367898 0.8986842 0.3222677 -0.5062939 0.7998812 0.5421111 -0.536625 0.6466447 0.327773 -0.4590092 0.8257575 0.5590277 -0.4812729 0.6751773 0.2759927 -0.4362663 -0.8564459 0.2861422 -0.3712965 -0.8833242 0.5172049 -0.4936687 -0.6991354 0.5385756 -0.4223167 -0.7290988 0.1122235 -0.397587 -0.910676 0.01828211 -0.3843968 -0.9229869 0.1169556 -0.3361262 -0.934527 0.0197857 -0.3237852 -0.9459238 0.1152414 -0.2945647 -0.9486576 0.1184284 -0.1042876 -0.9874709 0.0180065 -0.2833461 -0.9588487 0.01790004 -0.09810853 -0.9950148 0.2881287 -0.3299344 -0.8989579 0.5491514 -0.3838153 -0.7423737 0.3006165 -0.1279476 -0.9451239 0.5847138 -0.1645166 -0.7943829 0.1011263 -0.9439821 -0.3141202 0.0522896 -0.9890047 -0.1383309 0.1725699 -0.9549615 -0.2413879 0.0799207 -0.9913352 -0.1042462 0.04123306 -0.9370357 -0.3467908 0.006585836 -0.935573 -0.3530721 0.01873421 -0.9881308 -0.1524685 0.001963019 -0.9881014 -0.1537912 0.07096588 -0.8156383 -0.5741933 0.1105682 -0.4711626 -0.8750889 0.01250958 -0.8089485 -0.5877466 0.01931911 -0.4568801 -0.8893185 0.1689236 -0.8342937 -0.5248036 0.2939823 -0.8648204 -0.4070137 0.2650487 -0.5112131 -0.8175638 0.4863059 -0.5695137 -0.6626921 0.01745247 0.9998171 0.007836937 0.03647029 0.9992834 0.0101273 0.02183675 0.9994009 0.02685517 0.0419445 0.9986251 0.03144222 0.01744258 0.9998219 -0.007210314 0.0204038 0.9994693 -0.02539551 0.03660392 0.9992858 -0.009386777 0.04126614 0.99873 -0.02890872 0.007206141 0.9999495 -0.007024884 0.001764655 0.9999761 -0.006696164 0.007743179 0.999654 -0.02513962 0.001774966 0.9997012 -0.02438402 0.007725894 0.9999459 0.006965041 0.009589314 0.9996406 0.02503734 0.001991331 0.9999752 0.006774663 0.002590477 0.9997001 0.02435374 0.009236335 -0.9997363 0.02103132 1.91863e-4 -0.9997644 0.0217067 0.01313507 -0.9981671 0.05907714 0.001291215 -0.9981726 0.06041502 0.009607076 -0.9989675 -0.04440611 0.01286399 -0.9965591 -0.08188152 1.19323e-4 -0.999037 -0.04387611 0.001033306 -0.9966185 -0.08216249 0.03910106 -0.9984868 -0.03867071 0.06367486 -0.9973013 -0.03654736 0.03762817 -0.9965483 -0.07399725 0.06276541 -0.9958842 -0.06538593 0.03991287 -0.9990738 0.01608616 0.04052311 -0.997841 0.05168533 0.06597775 -0.9977424 0.01253372 0.08309817 -0.9959542 0.03420484 0.9098787 0.3903694 0.140472 0.9870113 0.05442214 0.1511523 0.8057821 0.4090542 0.4282405 0.8814594 0.07456892 0.4663355 0.9075334 0.3925024 -0.1494159 0.7885753 0.4144659 -0.4542764 0.9856571 0.05060017 -0.1609963 0.8658258 0.06337523 -0.496316 0.3807181 0.9223906 -0.0651862 0.0842241 0.9963163 -0.0161311 0.3160153 0.9309583 -0.1828961 0.0771051 0.9960325 -0.04443097 0.3866522 0.9203116 0.05938589 0.3272491 0.9292286 0.171588 0.08610379 0.9961655 0.0155124 0.08235782 0.9956409 0.04377883 0.9893562 -0.02470535 0.1434016 0.9850402 -0.1004369 0.14003 0.893232 -0.009893238 0.4494873 0.8926668 -0.09034508 0.4415698 0.9878984 -0.02603143 -0.1529029 0.8787181 -0.01304292 -0.477163 0.9837391 -0.09960198 -0.149455 0.8792641 -0.08649802 -0.4684151 0.9874934 0.02205252 -0.1561107 0.9860124 0.05015534 -0.158947 0.8739315 0.03480017 -0.4848016 0.8686696 0.06271016 -0.4914069 0.9892217 0.02987778 0.1433449 0.8919864 0.05510056 0.4486917 0.987456 0.05958479 0.1462207 0.8863192 0.08770781 0.4546929 0.3787063 0.1043458 0.9196159 0.3739812 0.138083 0.9170993 0.6396279 0.08722186 0.7637202 0.6316137 0.1214325 0.7657142 0.1843733 0.1092678 0.9767636 0.04978185 0.1093801 0.9927527 0.1831213 0.1423265 0.9727332 0.05002111 0.1427098 0.9884998 0.1850522 0.05229991 0.981336 0.1851586 -0.03400826 0.9821201 0.04993486 0.05434262 0.997273 0.04935306 -0.03190946 0.9982716 0.3802023 0.04238688 0.9239316 0.6417364 0.02006036 0.7666629 0.3824824 -0.04411393 0.9229092 0.6452481 -0.06542831 0.7611663 0.1319526 0.9388727 0.3179727 0.03641939 0.9970114 0.06813311 0.2320765 0.9312185 0.2810206 0.06263971 0.9959564 0.06439858 0.06145262 0.9475201 0.3137345 0.01724046 0.9502929 0.3108797 0.01687651 0.9976118 0.06697678 0.004940092 0.9978005 0.06610566 0.1572033 0.4994162 0.8519804 0.1819732 0.1421599 0.972973 0.04348778 0.5203931 0.8528187 0.05030536 0.1441452 0.988277 0.3265954 0.4681643 0.8210712 0.5622081 0.4410907 0.6995435 0.3689805 0.1324596 0.91995 0.6232893 0.1094456 0.7742946 0.1139891 0.09369742 -0.9890537 0.1124037 0.1171568 -0.9867319 0.01710331 0.09626781 -0.9952086 0.01717448 0.1191471 -0.9927281 0.29407 0.09225434 -0.9513213 0.5791845 0.07739585 -0.8115141 0.2890433 0.1091808 -0.9510697 0.5701546 0.1054686 -0.8147393 0.2993773 0.04904645 -0.9528734 0.3034161 -0.01790547 -0.9526899 0.5876494 0.0294249 -0.8085805 0.5925677 -0.04454231 -0.8042882 0.1141995 0.05362147 -0.9920097 0.01710325 0.05725181 -0.9982132 0.1157734 -0.008486926 -0.9932395 0.01712357 -0.003171443 -0.9998484 0.0363757 0.9436774 -0.3288616 0.01124912 0.9975523 -0.06901478 0.00590676 0.9483389 -0.3172043 0.002309024 0.997738 -0.06718415 0.1000163 0.9413619 -0.3222337 0.2005965 0.9367479 -0.2868179 0.02948504 0.9972165 -0.06848323 0.05486011 0.9963781 -0.06496918 0.2511572 0.4812133 -0.8398534 0.2821483 0.118751 -0.951993 0.5021075 0.4547195 -0.7356075 0.563199 0.1067624 -0.8193953 0.09521895 0.4869796 -0.8682075 0.01496827 0.5049296 -0.8630307 0.1105245 0.120837 -0.9865003 0.01738119 0.1200413 -0.9926167 0.824027 -0.5550516 0.1135665 0.8670188 -0.4835032 0.1204293 0.7486302 -0.5529457 0.3657922 0.7838567 -0.4863002 0.3861097 0.8251702 -0.5506777 -0.12589 0.7451686 -0.5390362 -0.3926372 0.8689835 -0.4763656 -0.133953 0.7826039 -0.4640736 -0.4149302 0.8873724 -0.4412577 -0.1336479 0.9661981 -0.2130949 -0.1450931 0.7999995 -0.4288924 -0.4195857 0.8671851 -0.2003401 -0.45591 0.8869311 -0.4452593 0.1228717 0.8050524 -0.4436724 0.3937584 0.9668169 -0.2170423 0.1347503 0.878251 -0.2125216 0.4283803 0.275344 -0.9608196 0.03180092 0.1277775 -0.9916671 0.01641112 0.2466151 -0.9618777 0.1182042 0.1165521 -0.9914302 0.05900746 0.27416 -0.960159 -0.05414068 0.2418764 -0.9598965 -0.1417562 0.1266284 -0.9911809 -0.03906029 0.1134362 -0.9901647 -0.08189213 0.451354 -0.8889565 -0.07769012 0.7688573 -0.6276651 -0.1220461 0.4071619 -0.8850075 -0.2257902 0.6942279 -0.6154123 -0.3732495 0.4507135 -0.8907994 0.05773955 0.4099538 -0.889512 0.2017589 0.7674503 -0.6324587 0.1049579 0.6930789 -0.6327547 0.345345 0.1889565 -0.8551074 0.4827909 0.2977781 -0.5797617 0.7584225 0.3089128 -0.8751446 0.3724176 0.5019805 -0.6121894 0.6109336 0.08977711 -0.8428752 0.5305673 0.02272111 -0.8379732 0.5452382 0.1419042 -0.5577574 0.8177835 0.03622043 -0.5487298 0.8352147 0.05490344 -0.9454982 0.3209657 0.02426803 -0.9909785 0.1318057 0.01359897 -0.9447149 0.3276111 0.005070745 -0.9909772 0.133935 0.1143597 -0.9513564 0.2860822 0.1824644 -0.9594441 0.2148806 0.05760705 -0.9916049 0.1157638 0.08409583 -0.9931292 0.0813781 0.3473508 -0.3958664 0.8500807 0.3756745 -0.1808533 0.9089339 0.5852885 -0.4242519 0.690976 0.6362159 -0.1978918 0.7456998 0.1663991 -0.3774211 0.9109691 0.04315382 -0.3700382 0.9280138 0.1799307 -0.1712951 0.9686501 0.04698747 -0.1679106 0.9846818 0.1572878 -0.48211 0.8618762 0.1586273 -0.4386849 0.8845299 0.04078042 -0.4758043 0.8786053 0.04077607 -0.4350292 0.8994926 0.3271321 -0.5015251 0.8009103 0.5472938 -0.532045 0.6460632 0.3332914 -0.4523048 0.8272468 0.5655102 -0.4741873 0.6747922 0.277292 -0.4349069 -0.8567178 0.2869998 -0.3701542 -0.8835254 0.5160189 -0.494712 -0.6992743 0.536497 -0.42465 -0.729276 0.1103104 -0.4001538 -0.909785 0.01725125 -0.386081 -0.9223036 0.1151619 -0.3391284 -0.9336647 0.01875376 -0.3258424 -0.9452381 0.1132954 -0.297318 -0.9480328 0.1165797 -0.1071967 -0.9873795 0.01709383 -0.2848646 -0.9584153 0.01724535 -0.09924572 -0.9949135 0.2901657 -0.3275868 -0.8991611 0.5498204 -0.383134 -0.7422304 0.3035287 -0.1239004 -0.9447323 0.5877697 -0.1603736 -0.7929736 0.1061732 -0.9425401 -0.3167735 0.05673205 -0.9884096 -0.1408115 0.179735 -0.9535187 -0.2418627 0.1055363 -0.9887099 -0.1063711 0.04300147 -0.9362781 -0.3486177 0.007492899 -0.9350512 -0.3544337 0.01979279 -0.9879483 -0.1535138 0.002853155 -0.9879121 -0.1549893 0.07212579 -0.814572 -0.5755611 0.1091562 -0.4736799 -0.8739064 0.01267242 -0.8087435 -0.5880251 0.01853519 -0.4586359 -0.888431 0.1689901 -0.834253 -0.5248469 0.294696 -0.8645137 -0.407149 0.2657293 -0.5103207 -0.8179003 0.4844579 -0.5713568 -0.662459</float_array>
          <technique_common>
            <accessor source="#shape0_056-mesh-normals-array" count="448" stride="3">
              <param name="X" type="float"/>
              <param name="Y" type="float"/>
              <param name="Z" type="float"/>
            </accessor>
          </technique_common>
        </source>
        <source id="shape0_056-mesh-colors-shape0-lib-vcolor" name="shape0-lib-vcolor">
          <float_array id="shape0_056-mesh-colors-shape0-lib-vcolor-array" count="4032">0.654902 0.5019608 0.3137255 0.654902 0.5019608 0.3137255 0.654902 0.5019608 0.3137255 0.654902 0.5019608 0.3137255 0.654902 0.5019608 0.3137255 0.654902 0.5019608 0.3137255 0.654902 0.5019608 0.3137255 0.654902 0.5019608 0.3137255 0.654902 0.5019608 0.3137255 0.654902 0.5019608 0.3137255 0.654902 0.5019608 0.3137255 0.654902 0.5019608 0.3137255 0.654902 0.5019608 0.3137255 0.654902 0.5019608 0.3137255 0.654902 0.5019608 0.3137255 0.654902 0.5019608 0.3137255 0.654902 0.5019608 0.3137255 0.654902 0.5019608 0.3137255 0.654902 0.5019608 0.3137255 0.654902 0.5019608 0.3137255 0.654902 0.5019608 0.3137255 0.654902 0.5019608 0.3137255 0.654902 0.5019608 0.3137255 0.654902 0.5019608 0.3137255 0.654902 0.5019608 0.3137255 0.654902 0.5019608 0.3137255 0.654902 0.5019608 0.3137255 0.654902 0.5019608 0.3137255 0.654902 0.5019608 0.3137255 0.654902 0.5019608 0.3137255 0.654902 0.5019608 0.3137255 0.654902 0.5019608 0.3137255 0.654902 0.5019608 0.3137255 0.654902 0.5019608 0.3137255 0.654902 0.5019608 0.3137255 0.654902 0.5019608 0.3137255 0.654902 0.5019608 0.3137255 0.654902 0.5019608 0.3137255 0.654902 0.5019608 0.3137255 0.654902 0.5019608 0.3137255 0.654902 0.5019608 0.3137255 0.654902 0.5019608 0.3137255 0.654902 0.5019608 0.3137255 0.654902 0.5019608 0.3137255 0.654902 0.5019608 0.3137255 0.654902 0.5019608 0.3137255 0.654902 0.5019608 0.3137255 0.654902 0.5019608 0.3137255 0.654902 0.5019608 0.3137255 0.654902 0.5019608 0.3137255 0.654902 0.5019608 0.3137255 0.654902 0.5019608 0.3137255 0.654902 0.5019608 0.3137255 0.654902 0.5019608 0.3137255 0.654902 0.5019608 0.3137255 0.654902 0.5019608 0.3137255 0.654902 0.5019608 0.3137255 0.654902 0.5019608 0.3137255 0.654902 0.5019608 0.3137255 0.654902 0.5019608 0.3137255 0.654902 0.5019608 0.3137255 0.654902 0.5019608 0.3137255 0.654902 0.5019608 0.3137255 0.654902 0.5019608 0.3137255 0.654902 0.5019608 0.3137255 0.654902 0.5019608 0.3137255 0.654902 0.5019608 0.3137255 0.654902 0.5019608 0.3137255 0.654902 0.5019608 0.3137255 0.654902 0.5019608 0.3137255 0.654902 0.5019608 0.3137255 0.654902 0.5019608 0.3137255 0.654902 0.5019608 0.3137255 0.654902 0.5019608 0.3137255 0.654902 0.5019608 0.3137255 0.654902 0.5019608 0.3137255 0.654902 0.5019608 0.3137255 0.654902 0.5019608 0.3137255 0.654902 0.5019608 0.3137255 0.654902 0.5019608 0.3137255 0.654902 0.5019608 0.3137255 0.654902 0.5019608 0.3137255 0.654902 0.5019608 0.3137255 0.654902 0.5019608 0.3137255 0.654902 0.5019608 0.3137255 0.654902 0.5019608 0.3137255 0.654902 0.5019608 0.3137255 0.654902 0.5019608 0.3137255 0.654902 0.5019608 0.3137255 0.654902 0.5019608 0.3137255 0.654902 0.5019608 0.3137255 0.654902 0.5019608 0.3137255 0.654902 0.5019608 0.3137255 0.654902 0.5019608 0.3137255 0.654902 0.5019608 0.3137255 0.654902 0.5019608 0.3137255 0.654902 0.5019608 0.3137255 0.654902 0.5019608 0.3137255 0.654902 0.5019608 0.3137255 0.654902 0.5019608 0.3137255 0.654902 0.5019608 0.3137255 0.654902 0.5019608 0.3137255 0.654902 0.5019608 0.3137255 0.654902 0.5019608 0.3137255 0.654902 0.5019608 0.3137255 0.654902 0.5019608 0.3137255 0.654902 0.5019608 0.3137255 0.654902 0.5019608 0.3137255 0.654902 0.5019608 0.3137255 0.654902 0.5019608 0.3137255 0.654902 0.5019608 0.3137255 0.654902 0.5019608 0.3137255 0.654902 0.5019608 0.3137255 0.654902 0.5019608 0.3137255 0.654902 0.5019608 0.3137255 0.654902 0.5019608 0.3137255 0.654902 0.5019608 0.3137255 0.654902 0.5019608 0.3137255 0.654902 0.5019608 0.3137255 0.654902 0.5019608 0.3137255 0.654902 0.5019608 0.3137255 0.654902 0.5019608 0.3137255 0.654902 0.5019608 0.3137255 0.654902 0.5019608 0.3137255 0.654902 0.5019608 0.3137255 0.654902 0.5019608 0.3137255 0.654902 0.5019608 0.3137255 0.654902 0.5019608 0.3137255 0.654902 0.5019608 0.3137255 0.654902 0.5019608 0.3137255 0.654902 0.5019608 0.3137255 0.654902 0.5019608 0.3137255 0.654902 0.5019608 0.3137255 0.654902 0.5019608 0.3137255 0.654902 0.5019608 0.3137255 0.654902 0.5019608 0.3137255 0.654902 0.5019608 0.3137255 0.654902 0.5019608 0.3137255 0.654902 0.5019608 0.3137255 0.654902 0.5019608 0.3137255 0.654902 0.5019608 0.3137255 0.654902 0.5019608 0.3137255 0.654902 0.5019608 0.3137255 0.654902 0.5019608 0.3137255 0.654902 0.5019608 0.3137255 0.654902 0.5019608 0.3137255 0.654902 0.5019608 0.3137255 0.654902 0.5019608 0.3137255 0.654902 0.5019608 0.3137255 0.654902 0.5019608 0.3137255 0.654902 0.5019608 0.3137255 0.654902 0.5019608 0.3137255 0.654902 0.5019608 0.3137255 0.654902 0.5019608 0.3137255 0.654902 0.5019608 0.3137255 0.654902 0.5019608 0.3137255 0.654902 0.5019608 0.3137255 0.654902 0.5019608 0.3137255 0.654902 0.5019608 0.3137255 0.654902 0.5019608 0.3137255 0.654902 0.5019608 0.3137255 0.654902 0.5019608 0.3137255 0.654902 0.5019608 0.3137255 0.654902 0.5019608 0.3137255 0.654902 0.5019608 0.3137255 0.654902 0.5019608 0.3137255 0.654902 0.5019608 0.3137255 0.654902 0.5019608 0.3137255 0.654902 0.5019608 0.3137255 0.654902 0.5019608 0.3137255 0.654902 0.5019608 0.3137255 0.654902 0.5019608 0.3137255 0.654902 0.5019608 0.3137255 0.654902 0.5019608 0.3137255 0.654902 0.5019608 0.3137255 0.654902 0.5019608 0.3137255 0.654902 0.5019608 0.3137255 0.654902 0.5019608 0.3137255 0.654902 0.5019608 0.3137255 0.654902 0.5019608 0.3137255 0.654902 0.5019608 0.3137255 0.654902 0.5019608 0.3137255 0.654902 0.5019608 0.3137255 0.654902 0.5019608 0.3137255 0.654902 0.5019608 0.3137255 0.654902 0.5019608 0.3137255 0.654902 0.5019608 0.3137255 0.654902 0.5019608 0.3137255 0.654902 0.5019608 0.3137255 0.654902 0.5019608 0.3137255 0.654902 0.5019608 0.3137255 0.654902 0.5019608 0.3137255 0.654902 0.5019608 0.3137255 0.654902 0.5019608 0.3137255 0.654902 0.5019608 0.3137255 0.654902 0.5019608 0.3137255 0.654902 0.5019608 0.3137255 0.654902 0.5019608 0.3137255 0.654902 0.5019608 0.3137255 0.654902 0.5019608 0.3137255 0.654902 0.5019608 0.3137255 0.654902 0.5019608 0.3137255 0.654902 0.5019608 0.3137255 0.654902 0.5019608 0.3137255 0.654902 0.5019608 0.3137255 0.654902 0.5019608 0.3137255 0.654902 0.5019608 0.3137255 0.654902 0.5019608 0.3137255 0.654902 0.5019608 0.3137255 0.654902 0.5019608 0.3137255 0.654902 0.5019608 0.3137255 0.654902 0.5019608 0.3137255 0.654902 0.5019608 0.3137255 0.654902 0.5019608 0.3137255 0.654902 0.5019608 0.3137255 0.654902 0.5019608 0.3137255 0.654902 0.5019608 0.3137255 0.654902 0.5019608 0.3137255 0.654902 0.5019608 0.3137255 0.654902 0.5019608 0.3137255 0.654902 0.5019608 0.3137255 0.654902 0.5019608 0.3137255 0.654902 0.5019608 0.3137255 0.654902 0.5019608 0.3137255 0.654902 0.5019608 0.3137255 0.654902 0.5019608 0.3137255 0.654902 0.5019608 0.3137255 0.654902 0.5019608 0.3137255 0.654902 0.5019608 0.3137255 0.654902 0.5019608 0.3137255 0.654902 0.5019608 0.3137255 0.654902 0.5019608 0.3137255 0.654902 0.5019608 0.3137255 0.654902 0.5019608 0.3137255 0.654902 0.5019608 0.3137255 0.654902 0.5019608 0.3137255 0.654902 0.5019608 0.3137255 0.654902 0.5019608 0.3137255 0.654902 0.5019608 0.3137255 0.654902 0.5019608 0.3137255 0.654902 0.5019608 0.3137255 0.654902 0.5019608 0.3137255 0.654902 0.5019608 0.3137255 0.654902 0.5019608 0.3137255 0.654902 0.5019608 0.3137255 0.654902 0.5019608 0.3137255 0.654902 0.5019608 0.3137255 0.654902 0.5019608 0.3137255 0.654902 0.5019608 0.3137255 0.654902 0.5019608 0.3137255 0.654902 0.5019608 0.3137255 0.654902 0.5019608 0.3137255 0.654902 0.5019608 0.3137255 0.654902 0.5019608 0.3137255 0.654902 0.5019608 0.3137255 0.654902 0.5019608 0.3137255 0.654902 0.5019608 0.3137255 0.654902 0.5019608 0.3137255 0.654902 0.5019608 0.3137255 0.654902 0.5019608 0.3137255 0.654902 0.5019608 0.3137255 0.654902 0.5019608 0.3137255 0.654902 0.5019608 0.3137255 0.654902 0.5019608 0.3137255 0.654902 0.5019608 0.3137255 0.654902 0.5019608 0.3137255 0.654902 0.5019608 0.3137255 0.654902 0.5019608 0.3137255 0.654902 0.5019608 0.3137255 0.654902 0.5019608 0.3137255 0.654902 0.5019608 0.3137255 0.654902 0.5019608 0.3137255 0.654902 0.5019608 0.3137255 0.654902 0.5019608 0.3137255 0.654902 0.5019608 0.3137255 0.654902 0.5019608 0.3137255 0.654902 0.5019608 0.3137255 0.654902 0.5019608 0.3137255 0.654902 0.5019608 0.3137255 0.654902 0.5019608 0.3137255 0.654902 0.5019608 0.3137255 0.654902 0.5019608 0.3137255 0.654902 0.5019608 0.3137255 0.654902 0.5019608 0.3137255 0.654902 0.5019608 0.3137255 0.654902 0.5019608 0.3137255 0.654902 0.5019608 0.3137255 0.654902 0.5019608 0.3137255 0.654902 0.5019608 0.3137255 0.654902 0.5019608 0.3137255 0.654902 0.5019608 0.3137255 0.654902 0.5019608 0.3137255 0.654902 0.5019608 0.3137255 0.654902 0.5019608 0.3137255 0.654902 0.5019608 0.3137255 0.654902 0.5019608 0.3137255 0.654902 0.5019608 0.3137255 0.654902 0.5019608 0.3137255 0.654902 0.5019608 0.3137255 0.654902 0.5019608 0.3137255 0.654902 0.5019608 0.3137255 0.654902 0.5019608 0.3137255 0.654902 0.5019608 0.3137255 0.654902 0.5019608 0.3137255 0.654902 0.5019608 0.3137255 0.654902 0.5019608 0.3137255 0.654902 0.5019608 0.3137255 0.654902 0.5019608 0.3137255 0.654902 0.5019608 0.3137255 0.654902 0.5019608 0.3137255 0.654902 0.5019608 0.3137255 0.654902 0.5019608 0.3137255 0.654902 0.5019608 0.3137255 0.654902 0.5019608 0.3137255 0.654902 0.5019608 0.3137255 0.654902 0.5019608 0.3137255 0.654902 0.5019608 0.3137255 0.654902 0.5019608 0.3137255 0.654902 0.5019608 0.3137255 0.654902 0.5019608 0.3137255 0.654902 0.5019608 0.3137255 0.654902 0.5019608 0.3137255 0.654902 0.5019608 0.3137255 0.654902 0.5019608 0.3137255 0.654902 0.5019608 0.3137255 0.654902 0.5019608 0.3137255 0.654902 0.5019608 0.3137255 0.654902 0.5019608 0.3137255 0.654902 0.5019608 0.3137255 0.654902 0.5019608 0.3137255 0.654902 0.5019608 0.3137255 0.654902 0.5019608 0.3137255 0.654902 0.5019608 0.3137255 0.654902 0.5019608 0.3137255 0.654902 0.5019608 0.3137255 0.654902 0.5019608 0.3137255 0.654902 0.5019608 0.3137255 0.654902 0.5019608 0.3137255 0.654902 0.5019608 0.3137255 0.654902 0.5019608 0.3137255 0.654902 0.5019608 0.3137255 0.654902 0.5019608 0.3137255 0.654902 0.5019608 0.3137255 0.654902 0.5019608 0.3137255 0.654902 0.5019608 0.3137255 0.654902 0.5019608 0.3137255 0.654902 0.5019608 0.3137255 0.654902 0.5019608 0.3137255 0.654902 0.5019608 0.3137255 0.654902 0.5019608 0.3137255 0.654902 0.5019608 0.3137255 0.654902 0.5019608 0.3137255 0.654902 0.5019608 0.3137255 0.654902 0.5019608 0.3137255 0.654902 0.5019608 0.3137255 0.654902 0.5019608 0.3137255 0.654902 0.5019608 0.3137255 0.654902 0.5019608 0.3137255 0.654902 0.5019608 0.3137255 0.654902 0.5019608 0.3137255 0.654902 0.5019608 0.3137255 0.654902 0.5019608 0.3137255 0.654902 0.5019608 0.3137255 0.654902 0.5019608 0.3137255 0.654902 0.5019608 0.3137255 0.654902 0.5019608 0.3137255 0.654902 0.5019608 0.3137255 0.654902 0.5019608 0.3137255 0.654902 0.5019608 0.3137255 0.654902 0.5019608 0.3137255 0.654902 0.5019608 0.3137255 0.654902 0.5019608 0.3137255 0.654902 0.5019608 0.3137255 0.654902 0.5019608 0.3137255 0.654902 0.5019608 0.3137255 0.654902 0.5019608 0.3137255 0.654902 0.5019608 0.3137255 0.654902 0.5019608 0.3137255 0.654902 0.5019608 0.3137255 0.654902 0.5019608 0.3137255 0.654902 0.5019608 0.3137255 0.654902 0.5019608 0.3137255 0.654902 0.5019608 0.3137255 0.654902 0.5019608 0.3137255 0.654902 0.5019608 0.3137255 0.654902 0.5019608 0.3137255 0.654902 0.5019608 0.3137255 0.654902 0.5019608 0.3137255 0.654902 0.5019608 0.3137255 0.654902 0.5019608 0.3137255 0.654902 0.5019608 0.3137255 0.654902 0.5019608 0.3137255 0.654902 0.5019608 0.3137255 0.654902 0.5019608 0.3137255 0.654902 0.5019608 0.3137255 0.654902 0.5019608 0.3137255 0.654902 0.5019608 0.3137255 0.654902 0.5019608 0.3137255 0.654902 0.5019608 0.3137255 0.654902 0.5019608 0.3137255 0.654902 0.5019608 0.3137255 0.654902 0.5019608 0.3137255 0.654902 0.5019608 0.3137255 0.654902 0.5019608 0.3137255 0.654902 0.5019608 0.3137255 0.654902 0.5019608 0.3137255 0.654902 0.5019608 0.3137255 0.654902 0.5019608 0.3137255 0.654902 0.5019608 0.3137255 0.654902 0.5019608 0.3137255 0.654902 0.5019608 0.3137255 0.654902 0.5019608 0.3137255 0.654902 0.5019608 0.3137255 0.654902 0.5019608 0.3137255 0.654902 0.5019608 0.3137255 0.654902 0.5019608 0.3137255 0.654902 0.5019608 0.3137255 0.654902 0.5019608 0.3137255 0.654902 0.5019608 0.3137255 0.654902 0.5019608 0.3137255 0.654902 0.5019608 0.3137255 0.654902 0.5019608 0.3137255 0.654902 0.5019608 0.3137255 0.654902 0.5019608 0.3137255 0.654902 0.5019608 0.3137255 0.654902 0.5019608 0.3137255 0.654902 0.5019608 0.3137255 0.654902 0.5019608 0.3137255 0.654902 0.5019608 0.3137255 0.654902 0.5019608 0.3137255 0.654902 0.5019608 0.3137255 0.654902 0.5019608 0.3137255 0.654902 0.5019608 0.3137255 0.654902 0.5019608 0.3137255 0.654902 0.5019608 0.3137255 0.654902 0.5019608 0.3137255 0.654902 0.5019608 0.3137255 0.654902 0.5019608 0.3137255 0.654902 0.5019608 0.3137255 0.654902 0.5019608 0.3137255 0.654902 0.5019608 0.3137255 0.654902 0.5019608 0.3137255 0.654902 0.5019608 0.3137255 0.654902 0.5019608 0.3137255 0.654902 0.5019608 0.3137255 0.654902 0.5019608 0.3137255 0.654902 0.5019608 0.3137255 0.654902 0.5019608 0.3137255 0.654902 0.5019608 0.3137255 0.654902 0.5019608 0.3137255 0.654902 0.5019608 0.3137255 0.654902 0.5019608 0.3137255 0.654902 0.5019608 0.3137255 0.654902 0.5019608 0.3137255 0.654902 0.5019608 0.3137255 0.654902 0.5019608 0.3137255 0.654902 0.5019608 0.3137255 0.654902 0.5019608 0.3137255 0.654902 0.5019608 0.3137255 0.654902 0.5019608 0.3137255 0.654902 0.5019608 0.3137255 0.654902 0.5019608 0.3137255 0.654902 0.5019608 0.3137255 0.654902 0.5019608 0.3137255 0.654902 0.5019608 0.3137255 0.654902 0.5019608 0.3137255 0.654902 0.5019608 0.3137255 0.654902 0.5019608 0.3137255 0.654902 0.5019608 0.3137255 0.654902 0.5019608 0.3137255 0.654902 0.5019608 0.3137255 0.654902 0.5019608 0.3137255 0.654902 0.5019608 0.3137255 0.654902 0.5019608 0.3137255 0.654902 0.5019608 0.3137255 0.654902 0.5019608 0.3137255 0.654902 0.5019608 0.3137255 0.654902 0.5019608 0.3137255 0.654902 0.5019608 0.3137255 0.654902 0.5019608 0.3137255 0.654902 0.5019608 0.3137255 0.654902 0.5019608 0.3137255 0.654902 0.5019608 0.3137255 0.654902 0.5019608 0.3137255 0.654902 0.5019608 0.3137255 0.654902 0.5019608 0.3137255 0.654902 0.5019608 0.3137255 0.654902 0.5019608 0.3137255 0.654902 0.5019608 0.3137255 0.654902 0.5019608 0.3137255 0.654902 0.5019608 0.3137255 0.654902 0.5019608 0.3137255 0.654902 0.5019608 0.3137255 0.654902 0.5019608 0.3137255 0.654902 0.5019608 0.3137255 0.654902 0.5019608 0.3137255 0.654902 0.5019608 0.3137255 0.654902 0.5019608 0.3137255 0.654902 0.5019608 0.3137255 0.654902 0.5019608 0.3137255 0.654902 0.5019608 0.3137255 0.654902 0.5019608 0.3137255 0.654902 0.5019608 0.3137255 0.654902 0.5019608 0.3137255 0.654902 0.5019608 0.3137255 0.654902 0.5019608 0.3137255 0.654902 0.5019608 0.3137255 0.654902 0.5019608 0.3137255 0.654902 0.5019608 0.3137255 0.654902 0.5019608 0.3137255 0.654902 0.5019608 0.3137255 0.654902 0.5019608 0.3137255 0.654902 0.5019608 0.3137255 0.654902 0.5019608 0.3137255 0.654902 0.5019608 0.3137255 0.654902 0.5019608 0.3137255 0.654902 0.5019608 0.3137255 0.654902 0.5019608 0.3137255 0.654902 0.5019608 0.3137255 0.654902 0.5019608 0.3137255 0.654902 0.5019608 0.3137255 0.654902 0.5019608 0.3137255 0.654902 0.5019608 0.3137255 0.654902 0.5019608 0.3137255 0.654902 0.5019608 0.3137255 0.654902 0.5019608 0.3137255 0.654902 0.5019608 0.3137255 0.654902 0.5019608 0.3137255 0.654902 0.5019608 0.3137255 0.654902 0.5019608 0.3137255 0.654902 0.5019608 0.3137255 0.654902 0.5019608 0.3137255 0.654902 0.5019608 0.3137255 0.654902 0.5019608 0.3137255 0.654902 0.5019608 0.3137255 0.654902 0.5019608 0.3137255 0.654902 0.5019608 0.3137255 0.654902 0.5019608 0.3137255 0.654902 0.5019608 0.3137255 0.654902 0.5019608 0.3137255 0.654902 0.5019608 0.3137255 0.654902 0.5019608 0.3137255 0.654902 0.5019608 0.3137255 0.654902 0.5019608 0.3137255 0.654902 0.5019608 0.3137255 0.654902 0.5019608 0.3137255 0.654902 0.5019608 0.3137255 0.654902 0.5019608 0.3137255 0.654902 0.5019608 0.3137255 0.654902 0.5019608 0.3137255 0.654902 0.5019608 0.3137255 0.654902 0.5019608 0.3137255 0.654902 0.5019608 0.3137255 0.654902 0.5019608 0.3137255 0.654902 0.5019608 0.3137255 0.654902 0.5019608 0.3137255 0.654902 0.5019608 0.3137255 0.654902 0.5019608 0.3137255 0.654902 0.5019608 0.3137255 0.654902 0.5019608 0.3137255 0.654902 0.5019608 0.3137255 0.654902 0.5019608 0.3137255 0.654902 0.5019608 0.3137255 0.654902 0.5019608 0.3137255 0.654902 0.5019608 0.3137255 0.654902 0.5019608 0.3137255 0.654902 0.5019608 0.3137255 0.654902 0.5019608 0.3137255 0.654902 0.5019608 0.3137255 0.654902 0.5019608 0.3137255 0.654902 0.5019608 0.3137255 0.654902 0.5019608 0.3137255 0.654902 0.5019608 0.3137255 0.654902 0.5019608 0.3137255 0.654902 0.5019608 0.3137255 0.654902 0.5019608 0.3137255 0.654902 0.5019608 0.3137255 0.654902 0.5019608 0.3137255 0.654902 0.5019608 0.3137255 0.654902 0.5019608 0.3137255 0.654902 0.5019608 0.3137255 0.654902 0.5019608 0.3137255 0.654902 0.5019608 0.3137255 0.654902 0.5019608 0.3137255 0.654902 0.5019608 0.3137255 0.654902 0.5019608 0.3137255 0.654902 0.5019608 0.3137255 0.654902 0.5019608 0.3137255 0.654902 0.5019608 0.3137255 0.654902 0.5019608 0.3137255 0.654902 0.5019608 0.3137255 0.654902 0.5019608 0.3137255 0.654902 0.5019608 0.3137255 0.654902 0.5019608 0.3137255 0.654902 0.5019608 0.3137255 0.654902 0.5019608 0.3137255 0.654902 0.5019608 0.3137255 0.654902 0.5019608 0.3137255 0.654902 0.5019608 0.3137255 0.654902 0.5019608 0.3137255 0.654902 0.5019608 0.3137255 0.654902 0.5019608 0.3137255 0.654902 0.5019608 0.3137255 0.654902 0.5019608 0.3137255 0.654902 0.5019608 0.3137255 0.654902 0.5019608 0.3137255 0.654902 0.5019608 0.3137255 0.654902 0.5019608 0.3137255 0.654902 0.5019608 0.3137255 0.654902 0.5019608 0.3137255 0.654902 0.5019608 0.3137255 0.654902 0.5019608 0.3137255 0.654902 0.5019608 0.3137255 0.654902 0.5019608 0.3137255 0.654902 0.5019608 0.3137255 0.654902 0.5019608 0.3137255 0.654902 0.5019608 0.3137255 0.654902 0.5019608 0.3137255 0.654902 0.5019608 0.3137255 0.654902 0.5019608 0.3137255 0.654902 0.5019608 0.3137255 0.654902 0.5019608 0.3137255 0.654902 0.5019608 0.3137255 0.654902 0.5019608 0.3137255 0.654902 0.5019608 0.3137255 0.654902 0.5019608 0.3137255 0.654902 0.5019608 0.3137255 0.654902 0.5019608 0.3137255 0.654902 0.5019608 0.3137255 0.654902 0.5019608 0.3137255 0.654902 0.5019608 0.3137255 0.654902 0.5019608 0.3137255 0.654902 0.5019608 0.3137255 0.654902 0.5019608 0.3137255 0.654902 0.5019608 0.3137255 0.654902 0.5019608 0.3137255 0.654902 0.5019608 0.3137255 0.654902 0.5019608 0.3137255 0.654902 0.5019608 0.3137255 0.654902 0.5019608 0.3137255 0.654902 0.5019608 0.3137255 0.654902 0.5019608 0.3137255 0.654902 0.5019608 0.3137255 0.654902 0.5019608 0.3137255 0.654902 0.5019608 0.3137255 0.654902 0.5019608 0.3137255 0.654902 0.5019608 0.3137255 0.654902 0.5019608 0.3137255 0.654902 0.5019608 0.3137255 0.654902 0.5019608 0.3137255 0.654902 0.5019608 0.3137255 0.654902 0.5019608 0.3137255 0.654902 0.5019608 0.3137255 0.654902 0.5019608 0.3137255 0.654902 0.5019608 0.3137255 0.654902 0.5019608 0.3137255 0.654902 0.5019608 0.3137255 0.654902 0.5019608 0.3137255 0.654902 0.5019608 0.3137255 0.654902 0.5019608 0.3137255 0.654902 0.5019608 0.3137255 0.654902 0.5019608 0.3137255 0.654902 0.5019608 0.3137255 0.654902 0.5019608 0.3137255 0.654902 0.5019608 0.3137255 0.654902 0.5019608 0.3137255 0.654902 0.5019608 0.3137255 0.654902 0.5019608 0.3137255 0.654902 0.5019608 0.3137255 0.654902 0.5019608 0.3137255 0.654902 0.5019608 0.3137255 0.654902 0.5019608 0.3137255 0.654902 0.5019608 0.3137255 0.654902 0.5019608 0.3137255 0.654902 0.5019608 0.3137255 0.654902 0.5019608 0.3137255 0.654902 0.5019608 0.3137255 0.654902 0.5019608 0.3137255 0.654902 0.5019608 0.3137255 0.654902 0.5019608 0.3137255 0.654902 0.5019608 0.3137255 0.654902 0.5019608 0.3137255 0.654902 0.5019608 0.3137255 0.654902 0.5019608 0.3137255 0.654902 0.5019608 0.3137255 0.654902 0.5019608 0.3137255 0.654902 0.5019608 0.3137255 0.654902 0.5019608 0.3137255 0.654902 0.5019608 0.3137255 0.654902 0.5019608 0.3137255 0.654902 0.5019608 0.3137255 0.654902 0.5019608 0.3137255 0.654902 0.5019608 0.3137255 0.654902 0.5019608 0.3137255 0.654902 0.5019608 0.3137255 0.654902 0.5019608 0.3137255 0.654902 0.5019608 0.3137255 0.654902 0.5019608 0.3137255 0.654902 0.5019608 0.3137255 0.654902 0.5019608 0.3137255 0.654902 0.5019608 0.3137255 0.654902 0.5019608 0.3137255 0.654902 0.5019608 0.3137255 0.654902 0.5019608 0.3137255 0.654902 0.5019608 0.3137255 0.654902 0.5019608 0.3137255 0.654902 0.5019608 0.3137255 0.654902 0.5019608 0.3137255 0.654902 0.5019608 0.3137255 0.654902 0.5019608 0.3137255 0.654902 0.5019608 0.3137255 0.654902 0.5019608 0.3137255 0.654902 0.5019608 0.3137255 0.654902 0.5019608 0.3137255 0.654902 0.5019608 0.3137255 0.654902 0.5019608 0.3137255 0.654902 0.5019608 0.3137255 0.654902 0.5019608 0.3137255 0.654902 0.5019608 0.3137255 0.654902 0.5019608 0.3137255 0.654902 0.5019608 0.3137255 0.654902 0.5019608 0.3137255 0.654902 0.5019608 0.3137255 0.654902 0.5019608 0.3137255 0.654902 0.5019608 0.3137255 0.654902 0.5019608 0.3137255 0.654902 0.5019608 0.3137255 0.654902 0.5019608 0.3137255 0.654902 0.5019608 0.3137255 0.654902 0.5019608 0.3137255 0.654902 0.5019608 0.3137255 0.654902 0.5019608 0.3137255 0.654902 0.5019608 0.3137255 0.654902 0.5019608 0.3137255 0.654902 0.5019608 0.3137255 0.654902 0.5019608 0.3137255 0.654902 0.5019608 0.3137255 0.654902 0.5019608 0.3137255 0.654902 0.5019608 0.3137255 0.654902 0.5019608 0.3137255 0.654902 0.5019608 0.3137255 0.654902 0.5019608 0.3137255 0.654902 0.5019608 0.3137255 0.654902 0.5019608 0.3137255 0.654902 0.5019608 0.3137255 0.654902 0.5019608 0.3137255 0.654902 0.5019608 0.3137255 0.654902 0.5019608 0.3137255 0.654902 0.5019608 0.3137255 0.654902 0.5019608 0.3137255 0.654902 0.5019608 0.3137255 0.654902 0.5019608 0.3137255 0.654902 0.5019608 0.3137255 0.654902 0.5019608 0.3137255 0.654902 0.5019608 0.3137255 0.654902 0.5019608 0.3137255 0.654902 0.5019608 0.3137255 0.654902 0.5019608 0.3137255 0.654902 0.5019608 0.3137255 0.654902 0.5019608 0.3137255 0.654902 0.5019608 0.3137255 0.654902 0.5019608 0.3137255 0.654902 0.5019608 0.3137255 0.654902 0.5019608 0.3137255 0.654902 0.5019608 0.3137255 0.654902 0.5019608 0.3137255 0.654902 0.5019608 0.3137255 0.654902 0.5019608 0.3137255 0.654902 0.5019608 0.3137255 0.654902 0.5019608 0.3137255 0.654902 0.5019608 0.3137255 0.654902 0.5019608 0.3137255 0.654902 0.5019608 0.3137255 0.654902 0.5019608 0.3137255 0.654902 0.5019608 0.3137255 0.654902 0.5019608 0.3137255 0.654902 0.5019608 0.3137255 0.654902 0.5019608 0.3137255 0.654902 0.5019608 0.3137255 0.654902 0.5019608 0.3137255 0.654902 0.5019608 0.3137255 0.654902 0.5019608 0.3137255 0.654902 0.5019608 0.3137255 0.654902 0.5019608 0.3137255 0.654902 0.5019608 0.3137255 0.654902 0.5019608 0.3137255 0.654902 0.5019608 0.3137255 0.654902 0.5019608 0.3137255 0.654902 0.5019608 0.3137255 0.654902 0.5019608 0.3137255 0.654902 0.5019608 0.3137255 0.654902 0.5019608 0.3137255 0.654902 0.5019608 0.3137255 0.654902 0.5019608 0.3137255 0.654902 0.5019608 0.3137255 0.654902 0.5019608 0.3137255 0.654902 0.5019608 0.3137255 0.654902 0.5019608 0.3137255 0.654902 0.5019608 0.3137255 0.654902 0.5019608 0.3137255 0.654902 0.5019608 0.3137255 0.654902 0.5019608 0.3137255 0.654902 0.5019608 0.3137255 0.654902 0.5019608 0.3137255 0.654902 0.5019608 0.3137255 0.654902 0.5019608 0.3137255 0.654902 0.5019608 0.3137255 0.654902 0.5019608 0.3137255 0.654902 0.5019608 0.3137255 0.654902 0.5019608 0.3137255 0.654902 0.5019608 0.3137255 0.654902 0.5019608 0.3137255 0.654902 0.5019608 0.3137255 0.654902 0.5019608 0.3137255 0.654902 0.5019608 0.3137255 0.654902 0.5019608 0.3137255 0.654902 0.5019608 0.3137255 0.654902 0.5019608 0.3137255 0.654902 0.5019608 0.3137255 0.654902 0.5019608 0.3137255 0.654902 0.5019608 0.3137255 0.654902 0.5019608 0.3137255 0.654902 0.5019608 0.3137255 0.654902 0.5019608 0.3137255 0.654902 0.5019608 0.3137255 0.654902 0.5019608 0.3137255 0.654902 0.5019608 0.3137255 0.654902 0.5019608 0.3137255 0.654902 0.5019608 0.3137255 0.654902 0.5019608 0.3137255 0.654902 0.5019608 0.3137255 0.654902 0.5019608 0.3137255 0.654902 0.5019608 0.3137255 0.654902 0.5019608 0.3137255 0.654902 0.5019608 0.3137255 0.654902 0.5019608 0.3137255 0.654902 0.5019608 0.3137255 0.654902 0.5019608 0.3137255 0.654902 0.5019608 0.3137255 0.654902 0.5019608 0.3137255 0.654902 0.5019608 0.3137255 0.654902 0.5019608 0.3137255 0.654902 0.5019608 0.3137255 0.654902 0.5019608 0.3137255 0.654902 0.5019608 0.3137255 0.654902 0.5019608 0.3137255 0.654902 0.5019608 0.3137255 0.654902 0.5019608 0.3137255 0.654902 0.5019608 0.3137255 0.654902 0.5019608 0.3137255 0.654902 0.5019608 0.3137255 0.654902 0.5019608 0.3137255 0.654902 0.5019608 0.3137255 0.654902 0.5019608 0.3137255 0.654902 0.5019608 0.3137255 0.654902 0.5019608 0.3137255 0.654902 0.5019608 0.3137255 0.654902 0.5019608 0.3137255 0.654902 0.5019608 0.3137255 0.654902 0.5019608 0.3137255 0.654902 0.5019608 0.3137255 0.654902 0.5019608 0.3137255 0.654902 0.5019608 0.3137255 0.654902 0.5019608 0.3137255 0.654902 0.5019608 0.3137255 0.654902 0.5019608 0.3137255 0.654902 0.5019608 0.3137255 0.654902 0.5019608 0.3137255 0.654902 0.5019608 0.3137255 0.654902 0.5019608 0.3137255 0.654902 0.5019608 0.3137255 0.654902 0.5019608 0.3137255 0.654902 0.5019608 0.3137255 0.654902 0.5019608 0.3137255 0.654902 0.5019608 0.3137255 0.654902 0.5019608 0.3137255 0.654902 0.5019608 0.3137255 0.654902 0.5019608 0.3137255 0.654902 0.5019608 0.3137255 0.654902 0.5019608 0.3137255 0.654902 0.5019608 0.3137255 0.654902 0.5019608 0.3137255 0.654902 0.5019608 0.3137255 0.654902 0.5019608 0.3137255 0.654902 0.5019608 0.3137255 0.654902 0.5019608 0.3137255 0.654902 0.5019608 0.3137255 0.654902 0.5019608 0.3137255 0.654902 0.5019608 0.3137255 0.654902 0.5019608 0.3137255 0.654902 0.5019608 0.3137255 0.654902 0.5019608 0.3137255 0.654902 0.5019608 0.3137255 0.654902 0.5019608 0.3137255 0.654902 0.5019608 0.3137255 0.654902 0.5019608 0.3137255 0.654902 0.5019608 0.3137255 0.654902 0.5019608 0.3137255 0.654902 0.5019608 0.3137255 0.654902 0.5019608 0.3137255 0.654902 0.5019608 0.3137255 0.654902 0.5019608 0.3137255 0.654902 0.5019608 0.3137255 0.654902 0.5019608 0.3137255 0.654902 0.5019608 0.3137255 0.654902 0.5019608 0.3137255 0.654902 0.5019608 0.3137255 0.654902 0.5019608 0.3137255 0.654902 0.5019608 0.3137255 0.654902 0.5019608 0.3137255 0.654902 0.5019608 0.3137255 0.654902 0.5019608 0.3137255 0.654902 0.5019608 0.3137255 0.654902 0.5019608 0.3137255 0.654902 0.5019608 0.3137255 0.654902 0.5019608 0.3137255 0.654902 0.5019608 0.3137255 0.654902 0.5019608 0.3137255 0.654902 0.5019608 0.3137255 0.654902 0.5019608 0.3137255 0.654902 0.5019608 0.3137255 0.654902 0.5019608 0.3137255 0.654902 0.5019608 0.3137255 0.654902 0.5019608 0.3137255 0.654902 0.5019608 0.3137255 0.654902 0.5019608 0.3137255 0.654902 0.5019608 0.3137255 0.654902 0.5019608 0.3137255 0.654902 0.5019608 0.3137255 0.654902 0.5019608 0.3137255 0.654902 0.5019608 0.3137255 0.654902 0.5019608 0.3137255 0.654902 0.5019608 0.3137255 0.654902 0.5019608 0.3137255 0.654902 0.5019608 0.3137255 0.654902 0.5019608 0.3137255 0.654902 0.5019608 0.3137255 0.654902 0.5019608 0.3137255 0.654902 0.5019608 0.3137255 0.654902 0.5019608 0.3137255 0.654902 0.5019608 0.3137255 0.654902 0.5019608 0.3137255 0.654902 0.5019608 0.3137255 0.654902 0.5019608 0.3137255 0.654902 0.5019608 0.3137255 0.654902 0.5019608 0.3137255 0.654902 0.5019608 0.3137255 0.654902 0.5019608 0.3137255 0.654902 0.5019608 0.3137255 0.654902 0.5019608 0.3137255 0.654902 0.5019608 0.3137255 0.654902 0.5019608 0.3137255 0.654902 0.5019608 0.3137255 0.654902 0.5019608 0.3137255 0.654902 0.5019608 0.3137255 0.654902 0.5019608 0.3137255 0.654902 0.5019608 0.3137255 0.654902 0.5019608 0.3137255 0.654902 0.5019608 0.3137255 0.654902 0.5019608 0.3137255 0.654902 0.5019608 0.3137255 0.654902 0.5019608 0.3137255 0.654902 0.5019608 0.3137255 0.654902 0.5019608 0.3137255 0.654902 0.5019608 0.3137255 0.654902 0.5019608 0.3137255 0.654902 0.5019608 0.3137255 0.654902 0.5019608 0.3137255 0.654902 0.5019608 0.3137255 0.654902 0.5019608 0.3137255 0.654902 0.5019608 0.3137255 0.654902 0.5019608 0.3137255 0.654902 0.5019608 0.3137255 0.654902 0.5019608 0.3137255 0.654902 0.5019608 0.3137255 0.654902 0.5019608 0.3137255 0.654902 0.5019608 0.3137255 0.654902 0.5019608 0.3137255 0.654902 0.5019608 0.3137255 0.654902 0.5019608 0.3137255 0.654902 0.5019608 0.3137255 0.654902 0.5019608 0.3137255 0.654902 0.5019608 0.3137255 0.654902 0.5019608 0.3137255 0.654902 0.5019608 0.3137255 0.654902 0.5019608 0.3137255 0.654902 0.5019608 0.3137255 0.654902 0.5019608 0.3137255 0.654902 0.5019608 0.3137255 0.654902 0.5019608 0.3137255 0.654902 0.5019608 0.3137255 0.654902 0.5019608 0.3137255 0.654902 0.5019608 0.3137255 0.654902 0.5019608 0.3137255 0.654902 0.5019608 0.3137255 0.654902 0.5019608 0.3137255 0.654902 0.5019608 0.3137255 0.654902 0.5019608 0.3137255 0.654902 0.5019608 0.3137255 0.654902 0.5019608 0.3137255 0.654902 0.5019608 0.3137255 0.654902 0.5019608 0.3137255 0.654902 0.5019608 0.3137255 0.654902 0.5019608 0.3137255 0.654902 0.5019608 0.3137255 0.654902 0.5019608 0.3137255 0.654902 0.5019608 0.3137255 0.654902 0.5019608 0.3137255 0.654902 0.5019608 0.3137255 0.654902 0.5019608 0.3137255 0.654902 0.5019608 0.3137255 0.654902 0.5019608 0.3137255 0.654902 0.5019608 0.3137255 0.654902 0.5019608 0.3137255 0.654902 0.5019608 0.3137255 0.654902 0.5019608 0.3137255 0.654902 0.5019608 0.3137255 0.654902 0.5019608 0.3137255 0.654902 0.5019608 0.3137255 0.654902 0.5019608 0.3137255 0.654902 0.5019608 0.3137255 0.654902 0.5019608 0.3137255 0.654902 0.5019608 0.3137255 0.654902 0.5019608 0.3137255 0.654902 0.5019608 0.3137255 0.654902 0.5019608 0.3137255 0.654902 0.5019608 0.3137255 0.654902 0.5019608 0.3137255 0.654902 0.5019608 0.3137255 0.654902 0.5019608 0.3137255 0.654902 0.5019608 0.3137255 0.654902 0.5019608 0.3137255 0.654902 0.5019608 0.3137255 0.654902 0.5019608 0.3137255 0.654902 0.5019608 0.3137255 0.654902 0.5019608 0.3137255 0.654902 0.5019608 0.3137255 0.654902 0.5019608 0.3137255 0.654902 0.5019608 0.3137255 0.654902 0.5019608 0.3137255 0.654902 0.5019608 0.3137255 0.654902 0.5019608 0.3137255 0.654902 0.5019608 0.3137255 0.654902 0.5019608 0.3137255 0.654902 0.5019608 0.3137255 0.654902 0.5019608 0.3137255 0.654902 0.5019608 0.3137255 0.654902 0.5019608 0.3137255 0.654902 0.5019608 0.3137255 0.654902 0.5019608 0.3137255 0.654902 0.5019608 0.3137255 0.654902 0.5019608 0.3137255 0.654902 0.5019608 0.3137255 0.654902 0.5019608 0.3137255 0.654902 0.5019608 0.3137255 0.654902 0.5019608 0.3137255 0.654902 0.5019608 0.3137255 0.654902 0.5019608 0.3137255 0.654902 0.5019608 0.3137255 0.654902 0.5019608 0.3137255 0.654902 0.5019608 0.3137255 0.654902 0.5019608 0.3137255 0.654902 0.5019608 0.3137255 0.654902 0.5019608 0.3137255 0.654902 0.5019608 0.3137255 0.654902 0.5019608 0.3137255 0.654902 0.5019608 0.3137255 0.654902 0.5019608 0.3137255 0.654902 0.5019608 0.3137255 0.654902 0.5019608 0.3137255 0.654902 0.5019608 0.3137255 0.654902 0.5019608 0.3137255 0.654902 0.5019608 0.3137255 0.654902 0.5019608 0.3137255 0.654902 0.5019608 0.3137255 0.654902 0.5019608 0.3137255 0.654902 0.5019608 0.3137255 0.654902 0.5019608 0.3137255 0.654902 0.5019608 0.3137255 0.654902 0.5019608 0.3137255 0.654902 0.5019608 0.3137255 0.654902 0.5019608 0.3137255 0.654902 0.5019608 0.3137255 0.654902 0.5019608 0.3137255 0.654902 0.5019608 0.3137255 0.654902 0.5019608 0.3137255 0.654902 0.5019608 0.3137255 0.654902 0.5019608 0.3137255 0.654902 0.5019608 0.3137255 0.654902 0.5019608 0.3137255 0.654902 0.5019608 0.3137255 0.654902 0.5019608 0.3137255 0.654902 0.5019608 0.3137255 0.654902 0.5019608 0.3137255 0.654902 0.5019608 0.3137255 0.654902 0.5019608 0.3137255 0.654902 0.5019608 0.3137255 0.654902 0.5019608 0.3137255 0.654902 0.5019608 0.3137255 0.654902 0.5019608 0.3137255 0.654902 0.5019608 0.3137255 0.654902 0.5019608 0.3137255 0.654902 0.5019608 0.3137255 0.654902 0.5019608 0.3137255 0.654902 0.5019608 0.3137255 0.654902 0.5019608 0.3137255 0.654902 0.5019608 0.3137255 0.654902 0.5019608 0.3137255 0.654902 0.5019608 0.3137255 0.654902 0.5019608 0.3137255 0.654902 0.5019608 0.3137255 0.654902 0.5019608 0.3137255 0.654902 0.5019608 0.3137255 0.654902 0.5019608 0.3137255 0.654902 0.5019608 0.3137255 0.654902 0.5019608 0.3137255 0.654902 0.5019608 0.3137255 0.654902 0.5019608 0.3137255 0.654902 0.5019608 0.3137255 0.654902 0.5019608 0.3137255 0.654902 0.5019608 0.3137255 0.654902 0.5019608 0.3137255 0.654902 0.5019608 0.3137255 0.654902 0.5019608 0.3137255 0.654902 0.5019608 0.3137255 0.654902 0.5019608 0.3137255 0.654902 0.5019608 0.3137255 0.654902 0.5019608 0.3137255 0.654902 0.5019608 0.3137255 0.654902 0.5019608 0.3137255 0.654902 0.5019608 0.3137255 0.654902 0.5019608 0.3137255 0.654902 0.5019608 0.3137255 0.654902 0.5019608 0.3137255 0.654902 0.5019608 0.3137255 0.654902 0.5019608 0.3137255 0.654902 0.5019608 0.3137255 0.654902 0.5019608 0.3137255 0.654902 0.5019608 0.3137255 0.654902 0.5019608 0.3137255 0.654902 0.5019608 0.3137255 0.654902 0.5019608 0.3137255 0.654902 0.5019608 0.3137255 0.654902 0.5019608 0.3137255 0.654902 0.5019608 0.3137255 0.654902 0.5019608 0.3137255 0.654902 0.5019608 0.3137255 0.654902 0.5019608 0.3137255 0.654902 0.5019608 0.3137255 0.654902 0.5019608 0.3137255 0.654902 0.5019608 0.3137255 0.654902 0.5019608 0.3137255 0.654902 0.5019608 0.3137255 0.654902 0.5019608 0.3137255 0.654902 0.5019608 0.3137255 0.654902 0.5019608 0.3137255 0.654902 0.5019608 0.3137255 0.654902 0.5019608 0.3137255 0.654902 0.5019608 0.3137255 0.654902 0.5019608 0.3137255 0.654902 0.5019608 0.3137255 0.654902 0.5019608 0.3137255 0.654902 0.5019608 0.3137255 0.654902 0.5019608 0.3137255 0.654902 0.5019608 0.3137255 0.654902 0.5019608 0.3137255 0.654902 0.5019608 0.3137255 0.654902 0.5019608 0.3137255 0.654902 0.5019608 0.3137255 0.654902 0.5019608 0.3137255 0.654902 0.5019608 0.3137255 0.654902 0.5019608 0.3137255 0.654902 0.5019608 0.3137255 0.654902 0.5019608 0.3137255 0.654902 0.5019608 0.3137255 0.654902 0.5019608 0.3137255 0.654902 0.5019608 0.3137255 0.654902 0.5019608 0.3137255 0.654902 0.5019608 0.3137255 0.654902 0.5019608 0.3137255 0.654902 0.5019608 0.3137255 0.654902 0.5019608 0.3137255 0.654902 0.5019608 0.3137255 0.654902 0.5019608 0.3137255 0.654902 0.5019608 0.3137255 0.654902 0.5019608 0.3137255 0.654902 0.5019608 0.3137255 0.654902 0.5019608 0.3137255 0.654902 0.5019608 0.3137255 0.654902 0.5019608 0.3137255 0.654902 0.5019608 0.3137255 0.654902 0.5019608 0.3137255 0.654902 0.5019608 0.3137255 0.654902 0.5019608 0.3137255 0.654902 0.5019608 0.3137255 0.654902 0.5019608 0.3137255 0.654902 0.5019608 0.3137255 0.654902 0.5019608 0.3137255 0.654902 0.5019608 0.3137255 0.654902 0.5019608 0.3137255 0.654902 0.5019608 0.3137255 0.654902 0.5019608 0.3137255 0.654902 0.5019608 0.3137255 0.654902 0.5019608 0.3137255 0.654902 0.5019608 0.3137255 0.654902 0.5019608 0.3137255 0.654902 0.5019608 0.3137255 0.654902 0.5019608 0.3137255 0.654902 0.5019608 0.3137255 0.654902 0.5019608 0.3137255 0.654902 0.5019608 0.3137255 0.654902 0.5019608 0.3137255 0.654902 0.5019608 0.3137255 0.654902 0.5019608 0.3137255 0.654902 0.5019608 0.3137255 0.654902 0.5019608 0.3137255 0.654902 0.5019608 0.3137255 0.654902 0.5019608 0.3137255 0.654902 0.5019608 0.3137255 0.654902 0.5019608 0.3137255 0.654902 0.5019608 0.3137255 0.654902 0.5019608 0.3137255 0.654902 0.5019608 0.3137255 0.654902 0.5019608 0.3137255 0.654902 0.5019608 0.3137255 0.654902 0.5019608 0.3137255 0.654902 0.5019608 0.3137255 0.654902 0.5019608 0.3137255 0.654902 0.5019608 0.3137255 0.654902 0.5019608 0.3137255 0.654902 0.5019608 0.3137255 0.654902 0.5019608 0.3137255 0.654902 0.5019608 0.3137255 0.654902 0.5019608 0.3137255 0.654902 0.5019608 0.3137255 0.654902 0.5019608 0.3137255 0.654902 0.5019608 0.3137255 0.654902 0.5019608 0.3137255 0.654902 0.5019608 0.3137255 0.654902 0.5019608 0.3137255 0.654902 0.5019608 0.3137255 0.654902 0.5019608 0.3137255 0.654902 0.5019608 0.3137255 0.654902 0.5019608 0.3137255 0.654902 0.5019608 0.3137255 0.654902 0.5019608 0.3137255 0.654902 0.5019608 0.3137255 0.654902 0.5019608 0.3137255 0.654902 0.5019608 0.3137255 0.654902 0.5019608 0.3137255 0.654902 0.5019608 0.3137255 0.654902 0.5019608 0.3137255 0.654902 0.5019608 0.3137255 0.654902 0.5019608 0.3137255 0.654902 0.5019608 0.3137255 0.654902 0.5019608 0.3137255 0.654902 0.5019608 0.3137255 0.654902 0.5019608 0.3137255 0.654902 0.5019608 0.3137255 0.654902 0.5019608 0.3137255 0.654902 0.5019608 0.3137255 0.654902 0.5019608 0.3137255 0.654902 0.5019608 0.3137255 0.654902 0.5019608 0.3137255 0.654902 0.5019608 0.3137255 0.654902 0.5019608 0.3137255 0.654902 0.5019608 0.3137255 0.654902 0.5019608 0.3137255 0.654902 0.5019608 0.3137255 0.654902 0.5019608 0.3137255 0.654902 0.5019608 0.3137255 0.654902 0.5019608 0.3137255 0.654902 0.5019608 0.3137255 0.654902 0.5019608 0.3137255 0.654902 0.5019608 0.3137255 0.654902 0.5019608 0.3137255 0.654902 0.5019608 0.3137255 0.654902 0.5019608 0.3137255 0.654902 0.5019608 0.3137255 0.654902 0.5019608 0.3137255 0.654902 0.5019608 0.3137255 0.654902 0.5019608 0.3137255 0.654902 0.5019608 0.3137255 0.654902 0.5019608 0.3137255 0.654902 0.5019608 0.3137255 0.654902 0.5019608 0.3137255 0.654902 0.5019608 0.3137255 0.654902 0.5019608 0.3137255 0.654902 0.5019608 0.3137255 0.654902 0.5019608 0.3137255 0.654902 0.5019608 0.3137255 0.654902 0.5019608 0.3137255 0.654902 0.5019608 0.3137255 0.654902 0.5019608 0.3137255 0.654902 0.5019608 0.3137255 0.654902 0.5019608 0.3137255 0.654902 0.5019608 0.3137255 0.654902 0.5019608 0.3137255 0.654902 0.5019608 0.3137255 0.654902 0.5019608 0.3137255 0.654902 0.5019608 0.3137255 0.654902 0.5019608 0.3137255 0.654902 0.5019608 0.3137255 0.654902 0.5019608 0.3137255 0.654902 0.5019608 0.3137255 0.654902 0.5019608 0.3137255 0.654902 0.5019608 0.3137255 0.654902 0.5019608 0.3137255 0.654902 0.5019608 0.3137255 0.654902 0.5019608 0.3137255 0.654902 0.5019608 0.3137255 0.654902 0.5019608 0.3137255 0.654902 0.5019608 0.3137255 0.654902 0.5019608 0.3137255 0.654902 0.5019608 0.3137255 0.654902 0.5019608 0.3137255 0.654902 0.5019608 0.3137255 0.654902 0.5019608 0.3137255 0.654902 0.5019608 0.3137255 0.654902 0.5019608 0.3137255 0.654902 0.5019608 0.3137255 0.654902 0.5019608 0.3137255 0.654902 0.5019608 0.3137255 0.654902 0.5019608 0.3137255 0.654902 0.5019608 0.3137255 0.654902 0.5019608 0.3137255 0.654902 0.5019608 0.3137255 0.654902 0.5019608 0.3137255 0.654902 0.5019608 0.3137255 0.654902 0.5019608 0.3137255 0.654902 0.5019608 0.3137255 0.654902 0.5019608 0.3137255 0.654902 0.5019608 0.3137255 0.654902 0.5019608 0.3137255 0.654902 0.5019608 0.3137255 0.654902 0.5019608 0.3137255 0.654902 0.5019608 0.3137255 0.654902 0.5019608 0.3137255 0.654902 0.5019608 0.3137255 0.654902 0.5019608 0.3137255 0.654902 0.5019608 0.3137255 0.654902 0.5019608 0.3137255 0.654902 0.5019608 0.3137255 0.654902 0.5019608 0.3137255</float_array>
          <technique_common>
            <accessor source="#shape0_056-mesh-colors-shape0-lib-vcolor-array" count="1344" stride="3">
              <param name="R" type="float"/>
              <param name="G" type="float"/>
              <param name="B" type="float"/>
            </accessor>
          </technique_common>
        </source>
        <vertices id="shape0_056-mesh-vertices">
          <input semantic="POSITION" source="#shape0_056-mesh-positions"/>
        </vertices>
        <polylist count="448">
          <input semantic="VERTEX" source="#shape0_056-mesh-vertices" offset="0"/>
          <input semantic="NORMAL" source="#shape0_056-mesh-normals" offset="1"/>
          <input semantic="COLOR" source="#shape0_056-mesh-colors-shape0-lib-vcolor" offset="2" set="0"/>
          <vcount>3 3 3 3 3 3 3 3 3 3 3 3 3 3 3 3 3 3 3 3 3 3 3 3 3 3 3 3 3 3 3 3 3 3 3 3 3 3 3 3 3 3 3 3 3 3 3 3 3 3 3 3 3 3 3 3 3 3 3 3 3 3 3 3 3 3 3 3 3 3 3 3 3 3 3 3 3 3 3 3 3 3 3 3 3 3 3 3 3 3 3 3 3 3 3 3 3 3 3 3 3 3 3 3 3 3 3 3 3 3 3 3 3 3 3 3 3 3 3 3 3 3 3 3 3 3 3 3 3 3 3 3 3 3 3 3 3 3 3 3 3 3 3 3 3 3 3 3 3 3 3 3 3 3 3 3 3 3 3 3 3 3 3 3 3 3 3 3 3 3 3 3 3 3 3 3 3 3 3 3 3 3 3 3 3 3 3 3 3 3 3 3 3 3 3 3 3 3 3 3 3 3 3 3 3 3 3 3 3 3 3 3 3 3 3 3 3 3 3 3 3 3 3 3 3 3 3 3 3 3 3 3 3 3 3 3 3 3 3 3 3 3 3 3 3 3 3 3 3 3 3 3 3 3 3 3 3 3 3 3 3 3 3 3 3 3 3 3 3 3 3 3 3 3 3 3 3 3 3 3 3 3 3 3 3 3 3 3 3 3 3 3 3 3 3 3 3 3 3 3 3 3 3 3 3 3 3 3 3 3 3 3 3 3 3 3 3 3 3 3 3 3 3 3 3 3 3 3 3 3 3 3 3 3 3 3 3 3 3 3 3 3 3 3 3 3 3 3 3 3 3 3 3 3 3 3 3 3 3 3 3 3 3 3 3 3 3 3 3 3 3 3 3 3 3 3 3 3 3 3 3 3 3 3 3 3 3 3 3 3 3 3 3 3 3 3 3 3 3 3 3 3 3 3 3 3 3 3 3 3 3 3 3 3 3 3 3 3 3 3 3 3 3 3 3 3 3 3 3 3 3 3 3 3 3 3 3 3 3 3 3 3 3 3 3 3 3 3 </vcount>
          <p>0 0 0 4 0 1 5 0 2 1 1 3 5 1 4 128 1 5 4 2 6 133 2 7 132 2 8 5 3 9 132 3 10 226 3 11 0 4 12 1 4 13 6 4 14 2 5 15 6 5 16 135 5 17 1 6 18 127 6 19 126 6 20 6 7 21 126 7 22 225 7 23 2 8 24 7 8 25 3 8 26 3 9 27 7 9 28 146 9 29 136 10 30 137 10 31 7 10 32 137 11 33 230 11 34 146 11 35 3 12 36 8 12 37 4 12 38 8 13 39 134 13 40 133 13 41 145 14 42 144 14 43 8 14 44 144 15 45 229 15 46 134 15 47 9 16 48 13 16 49 14 16 50 10 17 51 14 17 52 147 17 53 13 18 54 139 18 55 140 18 56 14 19 57 140 19 58 231 19 59 9 20 60 10 20 61 15 20 62 11 21 63 15 21 64 143 21 65 10 22 66 148 22 67 149 22 68 15 23 69 149 23 70 232 23 71 11 24 72 16 24 73 12 24 74 12 25 75 16 25 76 129 25 77 142 26 78 141 26 79 16 26 80 141 27 81 227 27 82 129 27 83 12 28 84 17 28 85 13 28 86 17 29 87 138 29 88 139 29 89 12 30 90 130 30 91 131 30 92 17 31 93 131 31 94 228 31 95 22 32 96 23 32 97 19 32 98 23 33 99 183 33 100 184 33 101 160 34 102 161 34 103 23 34 104 161 35 105 237 35 106 183 35 107 19 36 108 24 36 109 20 36 110 24 37 111 167 37 112 166 37 113 184 38 114 185 38 115 24 38 116 185 39 117 238 39 118 167 39 119 18 40 120 20 40 121 25 40 122 25 41 123 126 41 124 127 41 125 20 42 126 166 42 127 165 42 128 165 43 129 225 43 130 126 43 131 21 44 132 26 44 133 22 44 134 22 45 135 26 45 136 159 45 137 127 46 138 128 46 139 26 46 140 128 47 141 226 47 142 159 47 143 31 48 144 32 48 145 28 48 146 32 49 147 150 49 148 151 49 149 163 50 150 162 50 151 32 50 152 162 51 153 233 51 154 150 51 155 28 52 156 33 52 157 29 52 158 33 53 159 168 53 160 169 53 161 151 54 162 152 54 163 33 54 164 152 55 165 234 55 166 168 55 167 27 56 168 29 56 169 34 56 170 30 57 171 34 57 172 185 57 173 29 58 174 169 58 175 170 58 176 34 59 177 170 59 178 238 59 179 27 60 180 30 60 181 35 60 182 31 61 183 35 61 184 164 61 185 30 62 186 184 62 187 183 62 188 35 63 189 183 63 190 237 63 191 40 64 192 41 64 193 37 64 194 41 65 195 186 65 196 187 65 197 163 66 198 164 66 199 41 66 200 164 67 201 237 67 202 186 67 203 36 68 204 37 68 205 42 68 206 38 69 207 42 69 208 176 69 209 37 70 210 187 70 211 188 70 212 188 71 213 239 71 214 176 71 215 38 72 216 43 72 217 39 72 218 43 73 219 155 73 220 154 73 221 175 74 222 174 74 223 43 74 224 174 75 225 235 75 226 155 75 227 36 76 228 39 76 229 44 76 230 40 77 231 44 77 232 162 77 233 39 78 234 154 78 235 153 78 236 44 79 237 153 79 238 233 79 239 49 80 240 50 80 241 46 80 242 50 81 243 132 81 244 133 81 245 160 82 246 159 82 247 50 82 248 159 83 249 226 83 250 132 83 251 45 84 252 46 84 253 51 84 254 47 85 255 51 85 256 171 85 257 46 86 258 133 86 259 134 86 260 51 87 261 134 87 262 229 87 263 47 88 264 52 88 265 48 88 266 52 89 267 188 89 268 187 89 269 172 90 270 173 90 271 52 90 272 52 91 273 173 91 274 239 91 275 45 92 276 48 92 277 53 92 278 49 93 279 53 93 280 161 93 281 48 94 282 187 94 283 186 94 284 53 95 285 186 95 286 237 95 287 58 96 288 59 96 289 55 96 290 59 97 291 191 97 292 190 97 293 181 98 294 182 98 295 59 98 296 182 99 297 240 99 298 191 99 299 55 100 300 60 100 301 56 100 302 60 101 303 170 101 304 169 101 305 55 102 306 190 102 307 189 102 308 189 103 309 238 103 310 170 103 311 54 104 312 56 104 313 61 104 314 57 105 315 61 105 316 156 105 317 56 106 318 169 106 319 168 106 320 61 107 321 168 107 322 234 107 323 57 108 324 62 108 325 58 108 326 62 109 327 180 109 328 181 109 329 157 110 330 158 110 331 62 110 332 158 111 333 236 111 334 180 111 335 63 112 336 67 112 337 68 112 338 64 113 339 68 113 340 137 113 341 67 114 342 178 114 343 177 114 344 68 115 345 177 115 346 230 115 347 64 116 348 69 116 349 65 116 350 69 117 351 165 117 352 166 117 353 136 118 354 135 118 355 69 118 356 135 119 357 225 119 358 165 119 359 63 120 360 65 120 361 70 120 362 70 121 363 189 121 364 190 121 365 65 122 366 166 122 367 167 122 368 70 123 369 167 123 370 238 123 371 66 124 372 71 124 373 67 124 374 71 125 375 179 125 376 178 125 377 66 126 378 190 126 379 191 126 380 71 127 381 191 127 382 240 127 383 72 128 384 76 128 385 77 128 386 73 129 387 77 129 388 216 129 389 196 130 390 197 130 391 77 130 392 197 131 393 241 131 394 216 131 395 73 132 396 78 132 397 74 132 398 78 133 399 203 133 400 202 133 401 217 134 402 218 134 403 78 134 404 218 135 405 242 135 406 203 135 407 72 136 408 74 136 409 79 136 410 75 137 411 79 137 412 152 137 413 74 138 414 202 138 415 201 138 416 79 139 417 201 139 418 234 139 419 75 140 420 80 140 421 76 140 422 76 141 423 80 141 424 195 141 425 151 142 426 150 142 427 80 142 428 80 143 429 150 143 430 233 143 431 85 144 432 86 144 433 82 144 434 86 145 435 131 145 436 130 145 437 193 146 438 192 146 439 86 146 440 192 147 441 228 147 442 131 147 443 82 148 444 87 148 445 83 148 446 87 149 447 198 149 448 199 149 449 130 150 450 129 150 451 87 150 452 129 151 453 227 151 454 198 151 455 81 152 456 83 152 457 88 152 458 84 153 459 88 153 460 218 153 461 83 154 462 199 154 463 200 154 464 88 155 465 200 155 466 242 155 467 81 156 468 84 156 469 89 156 470 85 157 471 89 157 472 194 157 473 217 158 474 216 158 475 89 158 476 89 159 477 216 159 478 241 159 479 94 160 480 95 160 481 91 160 482 95 161 483 219 161 484 220 161 485 193 162 486 194 162 487 95 162 488 194 163 489 241 163 490 219 163 491 90 164 492 91 164 493 96 164 494 92 165 495 96 165 496 206 165 497 91 166 498 220 166 499 221 166 500 96 167 501 221 167 502 243 167 503 92 168 504 97 168 505 93 168 506 97 169 507 140 169 508 139 169 509 205 170 510 204 170 511 97 170 512 204 171 513 231 171 514 140 171 515 90 172 516 93 172 517 98 172 518 94 173 519 98 173 520 192 173 521 93 174 522 139 174 523 138 174 524 98 175 525 138 175 526 228 175 527 103 176 528 104 176 529 100 176 530 104 177 531 153 177 532 154 177 533 196 178 534 195 178 535 104 178 536 195 179 537 233 179 538 153 179 539 99 180 540 100 180 541 105 180 542 101 181 543 105 181 544 207 181 545 100 182 546 154 182 547 155 182 548 105 183 549 155 183 550 235 183 551 101 184 552 106 184 553 102 184 554 106 185 555 221 185 556 220 185 557 208 186 558 209 186 559 106 186 560 209 187 561 243 187 562 221 187 563 99 188 564 102 188 565 107 188 566 103 189 567 107 189 568 197 189 569 102 190 570 220 190 571 219 190 572 107 191 573 219 191 574 241 191 575 108 192 576 112 192 577 113 192 578 109 193 579 113 193 580 222 193 581 112 194 582 202 194 583 203 194 584 113 195 585 203 195 586 242 195 587 109 196 588 114 196 589 110 196 590 114 197 591 215 197 592 214 197 593 223 198 594 224 198 595 114 198 596 224 199 597 244 199 598 215 199 599 108 200 600 110 200 601 115 200 602 111 201 603 115 201 604 158 201 605 110 202 606 214 202 607 213 202 608 115 203 609 213 203 610 236 203 611 111 204 612 116 204 613 112 204 614 116 205 615 201 205 616 202 205 617 157 206 618 156 206 619 116 206 620 156 207 621 234 207 622 201 207 623 117 208 624 121 208 625 122 208 626 118 209 627 122 209 628 141 209 629 121 210 630 199 210 631 198 210 632 122 211 633 198 211 634 227 211 635 118 212 636 123 212 637 119 212 638 123 213 639 210 213 640 211 213 641 142 214 642 143 214 643 123 214 644 143 215 645 232 215 646 210 215 647 117 216 648 119 216 649 124 216 650 120 217 651 124 217 652 224 217 653 119 218 654 211 218 655 212 218 656 124 219 657 212 219 658 244 219 659 120 220 660 125 220 661 121 220 662 125 221 663 200 221 664 199 221 665 223 222 666 222 222 667 125 222 668 222 223 669 242 223 670 200 223 671 1 224 672 0 224 673 5 224 674 127 225 675 1 225 676 128 225 677 5 226 678 4 226 679 132 226 680 128 227 681 5 227 682 226 227 683 2 228 684 0 228 685 6 228 686 136 229 687 2 229 688 135 229 689 6 230 690 1 230 691 126 230 692 135 231 693 6 231 694 225 231 695 0 232 696 2 232 697 3 232 698 145 233 699 3 233 700 146 233 701 2 234 702 136 234 703 7 234 704 7 235 705 137 235 706 146 235 707 0 236 708 3 236 709 4 236 710 4 237 711 8 237 712 133 237 713 3 238 714 145 238 715 8 238 716 8 239 717 144 239 718 134 239 719 10 240 720 9 240 721 14 240 722 148 241 723 10 241 724 147 241 725 14 242 726 13 242 727 140 242 728 147 243 729 14 243 730 231 243 731 11 244 732 9 244 733 15 244 734 142 245 735 11 245 736 143 245 737 15 246 738 10 246 739 149 246 740 143 247 741 15 247 742 232 247 743 9 248 744 11 248 745 12 248 746 130 249 747 12 249 748 129 249 749 11 250 750 142 250 751 16 250 752 16 251 753 141 251 754 129 251 755 9 252 756 12 252 757 13 252 758 13 253 759 17 253 760 139 253 761 17 254 762 12 254 763 131 254 764 138 255 765 17 255 766 228 255 767 18 256 768 22 256 769 19 256 770 19 257 771 23 257 772 184 257 773 22 258 774 160 258 775 23 258 776 23 259 777 161 259 778 183 259 779 18 260 780 19 260 781 20 260 782 20 261 783 24 261 784 166 261 785 19 262 786 184 262 787 24 262 788 24 263 789 185 263 790 167 263 791 21 264 792 18 264 793 25 264 794 21 265 795 25 265 796 127 265 797 25 266 798 20 266 799 165 266 800 25 267 801 165 267 802 126 267 803 18 268 804 21 268 805 22 268 806 160 269 807 22 269 808 159 269 809 21 270 810 127 270 811 26 270 812 26 271 813 128 271 814 159 271 815 27 272 816 31 272 817 28 272 818 28 273 819 32 273 820 151 273 821 31 274 822 163 274 823 32 274 824 32 275 825 162 275 826 150 275 827 27 276 828 28 276 829 29 276 830 29 277 831 33 277 832 169 277 833 28 278 834 151 278 835 33 278 836 33 279 837 152 279 838 168 279 839 30 280 840 27 280 841 34 280 842 184 281 843 30 281 844 185 281 845 34 282 846 29 282 847 170 282 848 185 283 849 34 283 850 238 283 851 31 284 852 27 284 853 35 284 854 163 285 855 31 285 856 164 285 857 35 286 858 30 286 859 183 286 860 164 287 861 35 287 862 237 287 863 36 288 864 40 288 865 37 288 866 37 289 867 41 289 868 187 289 869 40 290 870 163 290 871 41 290 872 41 291 873 164 291 874 186 291 875 38 292 876 36 292 877 42 292 878 175 293 879 38 293 880 176 293 881 42 294 882 37 294 883 188 294 884 42 295 885 188 295 886 176 295 887 36 296 888 38 296 889 39 296 890 39 297 891 43 297 892 154 297 893 38 298 894 175 298 895 43 298 896 43 299 897 174 299 898 155 299 899 40 300 900 36 300 901 44 300 902 163 301 903 40 301 904 162 301 905 44 302 906 39 302 907 153 302 908 162 303 909 44 303 910 233 303 911 45 304 912 49 304 913 46 304 914 46 305 915 50 305 916 133 305 917 49 306 918 160 306 919 50 306 920 50 307 921 159 307 922 132 307 923 47 308 924 45 308 925 51 308 926 172 309 927 47 309 928 171 309 929 51 310 930 46 310 931 134 310 932 171 311 933 51 311 934 229 311 935 45 312 936 47 312 937 48 312 938 48 313 939 52 313 940 187 313 941 47 314 942 172 314 943 52 314 944 188 315 945 52 315 946 239 315 947 49 316 948 45 316 949 53 316 950 160 317 951 49 317 952 161 317 953 53 318 954 48 318 955 186 318 956 161 319 957 53 319 958 237 319 959 54 320 960 58 320 961 55 320 962 55 321 963 59 321 964 190 321 965 58 322 966 181 322 967 59 322 968 59 323 969 182 323 970 191 323 971 54 324 972 55 324 973 56 324 974 56 325 975 60 325 976 169 325 977 60 326 978 55 326 979 189 326 980 60 327 981 189 327 982 170 327 983 57 328 984 54 328 985 61 328 986 157 329 987 57 329 988 156 329 989 61 330 990 56 330 991 168 330 992 156 331 993 61 331 994 234 331 995 54 332 996 57 332 997 58 332 998 58 333 999 62 333 1000 181 333 1001 57 334 1002 157 334 1003 62 334 1004 62 335 1005 158 335 1006 180 335 1007 64 336 1008 63 336 1009 68 336 1010 136 337 1011 64 337 1012 137 337 1013 68 338 1014 67 338 1015 177 338 1016 137 339 1017 68 339 1018 230 339 1019 63 340 1020 64 340 1021 65 340 1022 65 341 1023 69 341 1024 166 341 1025 64 342 1026 136 342 1027 69 342 1028 69 343 1029 135 343 1030 165 343 1031 66 344 1032 63 344 1033 70 344 1034 66 345 1035 70 345 1036 190 345 1037 70 346 1038 65 346 1039 167 346 1040 189 347 1041 70 347 1042 238 347 1043 63 348 1044 66 348 1045 67 348 1046 67 349 1047 71 349 1048 178 349 1049 71 350 1050 66 350 1051 191 350 1052 179 351 1053 71 351 1054 240 351 1055 73 352 1056 72 352 1057 77 352 1058 217 353 1059 73 353 1060 216 353 1061 76 354 1062 196 354 1063 77 354 1064 77 355 1065 197 355 1066 216 355 1067 72 356 1068 73 356 1069 74 356 1070 74 357 1071 78 357 1072 202 357 1073 73 358 1074 217 358 1075 78 358 1076 78 359 1077 218 359 1078 203 359 1079 75 360 1080 72 360 1081 79 360 1082 151 361 1083 75 361 1084 152 361 1085 79 362 1086 74 362 1087 201 362 1088 152 363 1089 79 363 1090 234 363 1091 72 364 1092 75 364 1093 76 364 1094 196 365 1095 76 365 1096 195 365 1097 75 366 1098 151 366 1099 80 366 1100 195 367 1101 80 367 1102 233 367 1103 81 368 1104 85 368 1105 82 368 1106 82 369 1107 86 369 1108 130 369 1109 85 370 1110 193 370 1111 86 370 1112 86 371 1113 192 371 1114 131 371 1115 81 372 1116 82 372 1117 83 372 1118 83 373 1119 87 373 1120 199 373 1121 82 374 1122 130 374 1123 87 374 1124 87 375 1125 129 375 1126 198 375 1127 84 376 1128 81 376 1129 88 376 1130 217 377 1131 84 377 1132 218 377 1133 88 378 1134 83 378 1135 200 378 1136 218 379 1137 88 379 1138 242 379 1139 85 380 1140 81 380 1141 89 380 1142 193 381 1143 85 381 1144 194 381 1145 84 382 1146 217 382 1147 89 382 1148 194 383 1149 89 383 1150 241 383 1151 90 384 1152 94 384 1153 91 384 1154 91 385 1155 95 385 1156 220 385 1157 94 386 1158 193 386 1159 95 386 1160 95 387 1161 194 387 1162 219 387 1163 92 388 1164 90 388 1165 96 388 1166 205 389 1167 92 389 1168 206 389 1169 96 390 1170 91 390 1171 221 390 1172 206 391 1173 96 391 1174 243 391 1175 90 392 1176 92 392 1177 93 392 1178 93 393 1179 97 393 1180 139 393 1181 92 394 1182 205 394 1183 97 394 1184 97 395 1185 204 395 1186 140 395 1187 94 396 1188 90 396 1189 98 396 1190 193 397 1191 94 397 1192 192 397 1193 98 398 1194 93 398 1195 138 398 1196 192 399 1197 98 399 1198 228 399 1199 99 400 1200 103 400 1201 100 400 1202 100 401 1203 104 401 1204 154 401 1205 103 402 1206 196 402 1207 104 402 1208 104 403 1209 195 403 1210 153 403 1211 101 404 1212 99 404 1213 105 404 1214 208 405 1215 101 405 1216 207 405 1217 105 406 1218 100 406 1219 155 406 1220 207 407 1221 105 407 1222 235 407 1223 99 408 1224 101 408 1225 102 408 1226 102 409 1227 106 409 1228 220 409 1229 101 410 1230 208 410 1231 106 410 1232 106 411 1233 209 411 1234 221 411 1235 103 412 1236 99 412 1237 107 412 1238 196 413 1239 103 413 1240 197 413 1241 107 414 1242 102 414 1243 219 414 1244 197 415 1245 107 415 1246 241 415 1247 109 416 1248 108 416 1249 113 416 1250 223 417 1251 109 417 1252 222 417 1253 113 418 1254 112 418 1255 203 418 1256 222 419 1257 113 419 1258 242 419 1259 108 420 1260 109 420 1261 110 420 1262 110 421 1263 114 421 1264 214 421 1265 109 422 1266 223 422 1267 114 422 1268 114 423 1269 224 423 1270 215 423 1271 111 424 1272 108 424 1273 115 424 1274 157 425 1275 111 425 1276 158 425 1277 115 426 1278 110 426 1279 213 426 1280 158 427 1281 115 427 1282 236 427 1283 108 428 1284 111 428 1285 112 428 1286 112 429 1287 116 429 1288 202 429 1289 111 430 1290 157 430 1291 116 430 1292 116 431 1293 156 431 1294 201 431 1295 118 432 1296 117 432 1297 122 432 1298 142 433 1299 118 433 1300 141 433 1301 122 434 1302 121 434 1303 198 434 1304 141 435 1305 122 435 1306 227 435 1307 117 436 1308 118 436 1309 119 436 1310 119 437 1311 123 437 1312 211 437 1313 118 438 1314 142 438 1315 123 438 1316 123 439 1317 143 439 1318 210 439 1319 120 440 1320 117 440 1321 124 440 1322 223 441 1323 120 441 1324 224 441 1325 124 442 1326 119 442 1327 212 442 1328 224 443 1329 124 443 1330 244 443 1331 117 444 1332 120 444 1333 121 444 1334 121 445 1335 125 445 1336 199 445 1337 120 446 1338 223 446 1339 125 446 1340 125 447 1341 222 447 1342 200 447 1343</p>
        </polylist>
      </mesh>
    </geometry>
  </library_geometries>
  <library_controllers/>
  <library_visual_scenes>
    <visual_scene id="Scene" name="Scene">
      <node id="VIZ_RHsegment_link_0" name="VIZ_RHsegment_link_0" type="NODE">
        <instance_geometry url="#shape0_056-mesh" name="VIZ_RHsegment_link_0"/>
      </node>
    </visual_scene>
  </library_visual_scenes>
  <scene>
    <instance_visual_scene url="#Scene"/>
  </scene>
</COLLADA>