<?xml version="1.0" encoding="utf-8"?>
<COLLADA xmlns="http://www.collada.org/2005/11/COLLADASchema" version="1.4.1">
  <asset>
    <contributor>
      <author>Blender User</author>
      <authoring_tool>Blender 2.77.0 commit date:2016-04-05, commit time:18:12, hash:abf6f08</authoring_tool>
    </contributor>
    <created>2017-05-02T16:37:15</created>
    <modified>2017-05-02T16:37:15</modified>
    <unit name="meter" meter="1"/>
    <up_axis>Z_UP</up_axis>
  </asset>
  <library_images>
    <image id="PBRFULL_ICubTorso-material_Base_Color_jpg" name="PBRFULL_ICubTorso-material_Base_Color_jpg">
      <init_from>PBRFULL_Ankle_1-material_Base_Color.jpg</init_from>
    </image>
  </library_images>
  <library_effects>
    <effect id="PBRFULL_Ankle_1-effect">
      <profile_COMMON>
        <newparam sid="PBRFULL_ICubTorso-material_Base_Color_jpg-surface">
          <surface type="2D">
            <init_from>PBRFULL_ICubTorso-material_Base_Color_jpg</init_from>
          </surface>
        </newparam>
        <newparam sid="PBRFULL_ICubTorso-material_Base_Color_jpg-sampler">
          <sampler2D>
            <source>PBRFULL_ICubTorso-material_Base_Color_jpg-surface</source>
          </sampler2D>
        </newparam>
        <technique sid="common">
          <phong>
            <emission>
              <color sid="emission">0 0 0 1</color>
            </emission>
            <ambient>
              <color sid="ambient">0 0 0 1</color>
            </ambient>
            <diffuse>
              <texture texture="PBRFULL_ICubTorso-material_Base_Color_jpg-sampler"/>
            </diffuse>
            <specular>
              <color sid="specular">0.5 0.5 0.5 1</color>
            </specular>
            <shininess>
              <float sid="shininess">50</float>
            </shininess>
            <index_of_refraction>
              <float sid="index_of_refraction">1</float>
            </index_of_refraction>
          </phong>
        </technique>
      </profile_COMMON>
    </effect>
  </library_effects>
  <library_materials>
    <material id="PBRFULL_Ankle_1-material" name="PBRFULL_Ankle_1">
      <instance_effect url="#PBRFULL_Ankle_1-effect"/>
    </material>
  </library_materials>
  <library_geometries>
    <geometry id="Cylinder_026-mesh" name="Cylinder.026">
      <mesh>
        <source id="Cylinder_026-mesh-positions">
          <float_array id="Cylinder_026-mesh-positions-array" count="198">0 0 -0.03149998 0.009375751 0.02263504 -0.03149998 0 0.02449995 -0.03149998 -0.009375691 0.02263504 -0.03149998 -0.01732409 0.01732409 -0.03149998 -0.02263504 0.009375691 -0.03149998 -0.02449995 0 -0.03149998 -0.02263504 -0.009375751 -0.03149998 -0.01732409 -0.01732409 -0.03149998 -0.009375691 -0.02263504 -0.03149998 0 -0.02449995 -0.03149998 0.009375691 -0.02263504 -0.03149998 0.01732409 -0.01732409 -0.03149998 0.02263504 -0.009375691 -0.03149998 0.02449995 0 -0.03149998 0.02263504 0.009375691 -0.03149998 0.01732409 0.01732409 -0.03149998 0 0 0.03149998 0.00937581 0.02263498 0.03149998 0 0.02449995 0.03149998 -0.009375631 0.02263504 0.03149998 -0.01732403 0.01732409 0.03149998 -0.02263498 0.009375751 0.03149998 -0.02449995 0 0.03149998 -0.02263504 -0.009375691 0.03149998 -0.01732409 -0.01732403 0.03149998 -0.009375751 -0.02263498 0.03149998 0 -0.02449995 0.03149998 0.009375691 -0.02263504 0.03149998 0.01732409 -0.01732409 0.03149998 0.02263504 -0.009375751 0.03149998 0.02449995 0 0.03149998 0.02263504 0.009375691 0.03149998 0.01732409 0.01732409 0.03149998 0.01732409 0.01732409 -0.03149998 0.02263504 0.009375691 -0.03149998 0.02449995 0 -0.03149998 0.02263504 -0.009375691 -0.03149998 0.01732409 -0.01732409 -0.03149998 0.009375691 -0.02263504 -0.03149998 0 -0.02449995 -0.03149998 -0.009375691 -0.02263504 -0.03149998 -0.01732409 -0.01732409 -0.03149998 -0.02263504 -0.009375751 -0.03149998 -0.02449995 0 -0.03149998 -0.02263504 0.009375691 -0.03149998 -0.01732409 0.01732409 -0.03149998 -0.009375691 0.02263504 -0.03149998 0 0.02449995 -0.03149998 0.009375751 0.02263504 -0.03149998 0.01732409 0.01732409 0.03149998 0.02263504 0.009375691 0.03149998 0.02449995 0 0.03149998 0.02263504 -0.009375751 0.03149998 0.01732409 -0.01732409 0.03149998 0.009375691 -0.02263504 0.03149998 0 -0.02449995 0.03149998 -0.009375751 -0.02263498 0.03149998 -0.01732409 -0.01732403 0.03149998 -0.02263504 -0.009375691 0.03149998 -0.02449995 0 0.03149998 -0.02263498 0.009375751 0.03149998 -0.01732403 0.01732409 0.03149998 -0.009375631 0.02263504 0.03149998 0 0.02449995 0.03149998 0.00937581 0.02263498 0.03149998</float_array>
          <technique_common>
            <accessor source="#Cylinder_026-mesh-positions-array" count="66" stride="3">
              <param name="X" type="float"/>
              <param name="Y" type="float"/>
              <param name="Z" type="float"/>
            </accessor>
          </technique_common>
        </source>
        <source id="Cylinder_026-mesh-normals">
          <float_array id="Cylinder_026-mesh-normals-array" count="75">0.7071068 0.7071068 0 0.9238803 0.3826816 0 1 0 0 0.9238803 -0.3826816 0 0.7071068 -0.7071068 0 0.3826816 -0.9238803 0 0 -1 0 -0.3826816 -0.9238803 0 -0.7071068 -0.7071068 0 -0.9238803 -0.3826816 0 -1 0 0 -0.9238803 0.3826816 0 -0.7071068 0.7071068 0 -0.3826816 0.9238803 0 0 1 0 0.3826816 0.9238803 0 0 0 -1 1.267e-7 0 -1 -1.267e-7 0 -1 0 0 1 -1.58375e-7 0 1 1.267e-7 0 1 1.26701e-7 0 1 1.58376e-7 0 1 -1.267e-7 0 1</float_array>
          <technique_common>
            <accessor source="#Cylinder_026-mesh-normals-array" count="25" stride="3">
              <param name="X" type="float"/>
              <param name="Y" type="float"/>
              <param name="Z" type="float"/>
            </accessor>
          </technique_common>
        </source>
        <source id="Cylinder_026-mesh-map-0">
          <float_array id="Cylinder_026-mesh-map-0-array" count="384">0.7283971 0.4327312 0.7734591 1 0.7283971 1 1 1 0.9411242 0.4327312 1 0.4327312 0.9411242 1 0.8773975 0.4327312 0.9411242 0.4327312 0.8773972 1 0.8185212 0.4327312 0.8773975 0.4327312 0.8185213 1 0.7734592 0.4327312 0.8185212 0.4327312 0.09383618 0.4327312 0.1527121 1 0.09383624 1 0.152712 0.4327312 0.2164387 1 0.1527121 1 0.2164391 0.4327312 0.2753151 1 0.2164387 1 0.2753151 0.4327312 0.3203771 1 0.2753151 1 0.3203774 0.4327312 0.3792533 1 0.3203771 1 0.3792532 0.4327312 0.4429799 1 0.3792533 1 0.4429803 0.4327312 0.5018563 1 0.4429799 1 0.5018563 0.4327312 0.5469183 1 0.5018563 1 0.5469188 0.4327312 0.6057941 1 0.5469183 1 0.6057941 0.4327312 0.6695212 1 0.6057941 1 0.7283971 1 0.6695217 0.4327312 0.7283971 0.4327312 0.2509284 0.03294014 0.1601885 0.2163656 0.1920526 0 0.1601885 0.2163656 0.1283255 1.34174e-7 0.1920526 0 0.1601885 0.2163656 0.0694496 0.03293913 0.1283255 1.34174e-7 0.1601885 0.2163656 0.02438753 0.09380388 0.0694496 0.03293913 0.1601885 0.2163656 0 0.1733276 0.02438753 0.09380388 0.1601885 0.2163656 0 0.2594028 0 0.1733276 0.1601885 0.2163656 0.02438682 0.3389266 0 0.2594028 0.1601885 0.2163656 0.06944864 0.3997911 0.02438682 0.3389266 0.1601885 0.2163656 0.1283249 0.4327312 0.06944864 0.3997911 0.1601885 0.2163656 0.1920515 0.4327312 0.1283249 0.4327312 0.1601885 0.2163656 0.2509275 0.3997921 0.1920515 0.4327312 0.1601885 0.2163656 0.2959895 0.3389273 0.2509275 0.3997921 0.1601885 0.2163656 0.3203771 0.2594037 0.2959895 0.3389273 0.1601885 0.2163656 0.3203771 0.1733285 0.3203771 0.2594037 0.1601885 0.2163656 0.2959903 0.09380525 0.3203771 0.1733285 0.1601885 0.2163656 0.2509284 0.03294014 0.2959903 0.09380525 0.4805656 0.2163655 0.5124291 0 0.5713046 0.03293925 0.4805656 0.2163655 0.5713046 0.03293925 0.6163668 0.09380435 0.4805656 0.2163655 0.6163668 0.09380435 0.6407539 0.1733269 0.4805656 0.2163655 0.6407539 0.1733269 0.6407539 0.2594029 0.4805656 0.2163655 0.6407539 0.2594029 0.6163669 0.3389264 0.4805656 0.2163655 0.6163669 0.3389264 0.571305 0.3997912 0.4805656 0.2163655 0.571305 0.3997912 0.5124294 0.432731 0.4805656 0.2163655 0.5124294 0.432731 0.4487024 0.4327307 0.4805656 0.2163655 0.4487024 0.4327307 0.3898264 0.3997913 0.4805656 0.2163655 0.3898264 0.3997913 0.3447644 0.3389266 0.4805656 0.2163655 0.3447644 0.3389266 0.3203771 0.2594037 0.4805656 0.2163655 0.3203771 0.2594037 0.3203771 0.1733277 0.4805656 0.2163655 0.3203771 0.1733277 0.3447641 0.09380418 0.4805656 0.2163655 0.3447641 0.09380418 0.3898261 0.03293973 0.4805656 0.2163655 0.3898261 0.03293973 0.4487018 0 0.4805656 0.2163655 0.4487018 0 0.5124291 0 0.7283971 0.4327312 0.7734592 0.4327312 0.7734591 1 1 1 0.9411242 1 0.9411242 0.4327312 0.9411242 1 0.8773972 1 0.8773975 0.4327312 0.8773972 1 0.8185213 1 0.8185212 0.4327312 0.8185213 1 0.7734593 1 0.7734592 0.4327312 0.09383618 0.4327312 0.152712 0.4327312 0.1527121 1 0.152712 0.4327312 0.2164391 0.4327312 0.2164387 1 0.2164391 0.4327312 0.2753151 0.4327312 0.2753151 1 0.2753151 0.4327312 0.3203771 0.4327312 0.3203771 1 0.3203774 0.4327312 0.3792532 0.4327312 0.3792533 1 0.3792532 0.4327312 0.4429803 0.4327312 0.4429799 1 0.4429803 0.4327312 0.5018563 0.4327312 0.5018563 1 0.5018563 0.4327312 0.5469183 0.4327312 0.5469183 1 0.5469188 0.4327312 0.6057941 0.4327312 0.6057941 1 0.6057941 0.4327312 0.6695217 0.4327312 0.6695212 1 0.7283971 1 0.6695212 1 0.6695217 0.4327312</float_array>
          <technique_common>
            <accessor source="#Cylinder_026-mesh-map-0-array" count="192" stride="2">
              <param name="S" type="float"/>
              <param name="T" type="float"/>
            </accessor>
          </technique_common>
        </source>
        <vertices id="Cylinder_026-mesh-vertices">
          <input semantic="POSITION" source="#Cylinder_026-mesh-positions"/>
        </vertices>
        <polylist material="PBRFULL_Ankle_1-material" count="64">
          <input semantic="VERTEX" source="#Cylinder_026-mesh-vertices" offset="0"/>
          <input semantic="NORMAL" source="#Cylinder_026-mesh-normals" offset="1"/>
          <input semantic="TEXCOORD" source="#Cylinder_026-mesh-map-0" offset="2" set="0"/>
          <vcount>3 3 3 3 3 3 3 3 3 3 3 3 3 3 3 3 3 3 3 3 3 3 3 3 3 3 3 3 3 3 3 3 3 3 3 3 3 3 3 3 3 3 3 3 3 3 3 3 3 3 3 3 3 3 3 3 3 3 3 3 3 3 3 3 </vcount>
          <p>50 0 0 35 1 1 34 0 2 51 1 3 36 2 4 35 1 5 52 2 6 37 3 7 36 2 8 53 3 9 38 4 10 37 3 11 54 4 12 39 5 13 38 4 14 55 5 15 40 6 16 39 5 17 56 6 18 41 7 19 40 6 20 57 7 21 42 8 22 41 7 23 58 8 24 43 9 25 42 8 26 59 9 27 44 10 28 43 9 29 60 10 30 45 11 31 44 10 32 61 11 33 46 12 34 45 11 35 62 12 36 47 13 37 46 12 38 63 13 39 48 14 40 47 13 41 64 14 42 49 15 43 48 14 44 34 0 45 65 15 46 50 0 47 16 16 48 0 16 49 1 16 50 0 16 51 2 16 52 1 16 53 0 16 54 3 16 55 2 16 56 0 17 57 4 17 58 3 17 59 0 16 60 5 16 61 4 16 62 0 16 63 6 16 64 5 16 65 0 16 66 7 16 67 6 16 68 0 16 69 8 16 70 7 16 71 0 17 72 9 17 73 8 17 74 0 16 75 10 16 76 9 16 77 0 16 78 11 16 79 10 16 80 0 18 81 12 18 82 11 18 83 0 16 84 13 16 85 12 16 86 0 16 87 14 16 88 13 16 89 0 16 90 15 16 91 14 16 92 0 16 93 16 16 94 15 16 95 17 19 96 33 19 97 18 19 98 17 20 99 18 20 100 19 20 101 17 19 102 19 19 103 20 19 104 17 21 105 20 21 106 21 21 107 17 19 108 21 19 109 22 19 110 17 19 111 22 19 112 23 19 113 17 19 114 23 19 115 24 19 116 17 19 117 24 19 118 25 19 119 17 22 120 25 22 121 26 22 122 17 23 123 26 23 124 27 23 125 17 19 126 27 19 127 28 19 128 17 24 129 28 24 130 29 24 131 17 19 132 29 19 133 30 19 134 17 19 135 30 19 136 31 19 137 17 19 138 31 19 139 32 19 140 17 19 141 32 19 142 33 19 143 50 0 144 51 1 145 35 1 146 51 1 147 52 2 148 36 2 149 52 2 150 53 3 151 37 3 152 53 3 153 54 4 154 38 4 155 54 4 156 55 5 157 39 5 158 55 5 159 56 6 160 40 6 161 56 6 162 57 7 163 41 7 164 57 7 165 58 8 166 42 8 167 58 8 168 59 9 169 43 9 170 59 9 171 60 10 172 44 10 173 60 10 174 61 11 175 45 11 176 61 11 177 62 12 178 46 12 179 62 12 180 63 13 181 47 13 182 63 13 183 64 14 184 48 14 185 64 14 186 65 15 187 49 15 188 34 0 189 49 15 190 65 15 191</p>
        </polylist>
      </mesh>
    </geometry>
  </library_geometries>
  <library_controllers/>
  <library_visual_scenes>
    <visual_scene id="Scene" name="Scene">
      <node id="l_ankle_1_mesh" name="l_ankle_1_mesh" type="NODE">
        <matrix sid="transform">1 0 0 0 0 1 0 0 0 0 1 0 0 0 0 1</matrix>
        <instance_geometry url="#Cylinder_026-mesh" name="l_ankle_1_mesh">
          <bind_material>
            <technique_common>
              <instance_material symbol="PBRFULL_Ankle_1-material" target="#PBRFULL_Ankle_1-material"/>
            </technique_common>
          </bind_material>
        </instance_geometry>
      </node>
    </visual_scene>
  </library_visual_scenes>
  <scene>
    <instance_visual_scene url="#Scene"/>
  </scene>
</COLLADA>