<?xml version="1.0" encoding="utf-8"?>
<COLLADA xmlns="http://www.collada.org/2005/11/COLLADASchema" version="1.4.1">
  <asset>
    <contributor>
      <author>Blender User</author>
      <authoring_tool>Blender 2.78.0</authoring_tool>
    </contributor>
    <created>2017-11-28T11:06:23</created>
    <modified>2017-11-28T11:06:23</modified>
    <unit name="meter" meter="1"/>
    <up_axis>Z_UP</up_axis>
  </asset>
  <library_images/>
  <library_effects/>
  <library_geometries>
    <geometry id="Cylinder-mesh" name="Cylinder">
      <mesh>
        <source id="Cylinder-mesh-positions">
          <float_array id="Cylinder-mesh-positions-array" count="459">0 0.4927548 -1.332394 0 0.07232171 0.8474667 0.1780036 0.4594801 -1.332394 0.02612566 0.067438 0.8474667 0.3319667 0.3641501 -1.332394 0.04872286 0.05344641 0.8474667 0.441096 0.2196397 -1.332394 0.06473976 0.03223657 0.8474667 0.4906527 0.0454657 -1.332394 0.07201319 0.006673038 0.8474667 0.4739441 -0.1348486 -1.332394 0.06956088 -0.01979166 0.8474667 0.3932268 -0.296951 -1.332394 0.05771398 -0.04358345 0.8474667 0.2594019 -0.4189485 -1.332394 0.03807252 -0.06148898 0.8474667 0.09054344 -0.4843645 -1.332394 0.01328915 -0.0710901 0.8474667 -0.09054332 -0.4843645 -1.332394 -0.01328891 -0.0710901 0.8474667 -0.2594019 -0.4189485 -1.332394 -0.03807234 -0.06148898 0.8474667 -0.3932266 -0.2969511 -1.332394 -0.0577138 -0.04358345 0.8474667 -0.4739441 -0.1348486 -1.332394 -0.0695607 -0.01979166 0.8474667 -0.4906526 0.04546582 -1.332394 -0.07201302 0.006673097 0.8474667 -0.4410958 0.2196399 -1.332394 -0.06473958 0.03223663 0.8474667 -0.3319664 0.3641504 -1.332394 -0.04872262 0.05344641 0.8474667 -0.178003 0.4594803 -1.332394 -0.02612543 0.067438 0.8474667 -0.17623 0.4549036 -1.158896 -0.4367021 0.2174522 -1.158896 -0.4692233 -0.1335054 -1.158896 -0.2568181 -0.4147754 -1.158896 0.08964163 -0.4795399 -1.158896 0.38931 -0.2939932 -1.158896 0.4857655 0.04501283 -1.158896 0.3286601 0.3605229 -1.158896 -0.3286598 0.3605232 -1.158896 0 0.4878466 -1.158896 -0.3893098 -0.2939932 -1.158896 -0.08964145 -0.4795399 -1.158896 -0.4857654 0.04501295 -1.158896 0.4692234 -0.1335055 -1.158896 0.4367023 0.2174519 -1.158896 0.1762305 0.4549034 -1.158896 0.2568181 -0.4147754 -1.158896 0.1371949 0.3541407 -1.040292 -0.1999319 -0.3229012 -1.040292 0.199932 -0.3229012 -1.040292 -0.3030763 -0.2288727 -1.040292 0.06978571 -0.3733202 -1.040292 -0.06978553 -0.3733202 -1.040292 0.3030765 -0.2288727 -1.040292 -0.3781666 0.03504246 -1.040292 0.3781668 0.03504234 -1.040292 -0.1371944 0.3541409 -1.040292 0 0.3797869 -1.040292 0.3652888 -0.1039335 -1.040293 0.2558608 0.2806659 -1.040292 -0.3399711 0.1692858 -1.040292 0.3399713 0.1692856 -1.040293 -0.2558605 0.2806661 -1.040292 -0.3652887 -0.1039335 -1.040292 0.0808655 0.08870518 -0.8224498 0.09578812 -0.07233572 -0.8224498 0.04336082 0.1119271 -0.8224498 -0.1074486 0.05350321 -0.8224497 -0.1195204 0.01107531 -0.8224498 -0.06318891 -0.1020537 -0.8224498 0.1074488 0.05350321 -0.8224497 0.1195206 0.01107525 -0.8224498 0.06318908 -0.1020537 -0.8224498 -0.08086526 0.08870524 -0.8224498 -0.04336053 0.1119272 -0.8224498 -0.09578794 -0.07233572 -0.8224498 0 0.1200326 -0.8224498 -0.1154503 -0.03284835 -0.8224498 0.02205598 -0.1179887 -0.8224498 0.1154505 -0.03284835 -0.8224497 -0.0220558 -0.1179887 -0.8224498 0.02335411 -0.006644666 -0.6626986 -0.01635777 0.01794391 -0.6626987 -0.02173525 0.01082301 -0.6626987 -0.004461467 -0.02386736 -0.6626987 -0.008771121 0.02264136 -0.6626987 -0.02417719 0.002240419 -0.6626988 -0.01937645 -0.0146324 -0.6626987 -0.01278209 -0.02064394 -0.6626987 0.02173548 0.01082301 -0.6626986 0.01635807 0.01794385 -0.6626987 1.20209e-7 0.02428096 -0.6626987 -0.02335387 -0.006644666 -0.6626987 0.02417743 0.002240419 -0.6626986 0.01937669 -0.0146324 -0.6626986 0.004461705 -0.02386736 -0.6626987 0.01278233 -0.02064394 -0.6626987 0.008771359 0.02264136 -0.6626987 0.009662747 8.9547e-4 0.8090454 -0.007743895 -0.005847871 0.8090454 0.00933367 -0.002655506 0.8090454 0.007744073 -0.005847871 0.8090454 -0.005108416 -0.008250415 0.8090454 -0.006537437 0.007171452 0.8090454 0.001783192 -0.00953871 0.8090454 0.00868678 0.004325509 0.8090454 -0.008686602 0.004325509 0.8090454 0.005108594 -0.008250415 0.8090454 0.006537675 0.007171452 0.8090454 -0.001783013 -0.00953871 0.8090454 0 0.009704113 0.8090454 0.003505587 0.009048819 0.8090454 -0.003505349 0.009048819 0.8090454 -0.009333491 -0.002655506 0.8090454 -0.009662508 8.95473e-4 0.8090454 0.004961431 0.005436837 -0.5785732 -0.0013538 -0.007250547 -0.5793308 6.15008e-7 0.00735718 -0.578422 0.002660274 0.006860494 -0.5784692 -0.002658903 0.006860196 -0.5784364 -0.007085621 -0.002021133 -0.5789665 -0.007333815 6.74724e-4 -0.5787965 0.007335901 6.74806e-4 -0.5788871 -0.005880057 -0.004445791 -0.5791271 0.007087707 -0.002021372 -0.5790542 0.005881845 -0.004446208 -0.5791999 -0.003879368 -0.006271302 -0.5792535 -0.004959821 0.00543642 -0.5785122 0.001355051 -0.007250666 -0.5793474 0.006593525 0.003277957 -0.5787189 -0.006591618 0.003277599 -0.5786375 0.003880858 -0.006271719 -0.5793017 0.01036924 -0.05583536 0.8123638 1.95755e-5 0.0584681 0.8139668 0.05743068 0.004850506 0.8131812 0.02126973 0.05438369 0.8138981 0.05206179 0.02544456 0.8134757 -0.04535251 -0.03473281 0.8126897 -0.02124464 0.05442017 0.813922 -0.05210924 0.02548772 0.8135352 0.05501908 -0.01611804 0.8128899 -0.05508452 -0.01614779 0.8129567 0.02974683 -0.04848057 0.8124524 0.04532748 -0.0346843 0.8126403 -0.05750405 0.004860937 0.8132506 0.0394597 0.04279434 0.8137247 -0.02973634 -0.04852682 0.8124857 -0.01033377 -0.05585515 0.8123762 -0.03946894 0.04284751 0.8137689</float_array>
          <technique_common>
            <accessor source="#Cylinder-mesh-positions-array" count="153" stride="3">
              <param name="X" type="float"/>
              <param name="Y" type="float"/>
              <param name="Z" type="float"/>
            </accessor>
          </technique_common>
        </source>
        <source id="Cylinder-mesh-normals">
          <float_array id="Cylinder-mesh-normals-array" count="858">0.183679 0.9825933 0.02779662 0.5262286 0.8498888 0.02779704 0.7977086 0.6024021 0.02779698 0.9614542 0.2735568 0.02779704 0.9953494 -0.09223288 0.0277971 0.8948172 -0.4455667 0.02779686 0.6734352 -0.7387236 0.02779704 0.3611019 -0.932112 0.02779746 0 -0.9996136 0.02779704 -0.3611018 -0.932112 0.02779752 -0.6734357 -0.738723 0.02779704 -0.8948175 -0.4455658 0.02779704 -0.9953495 -0.09223252 0.02779704 -0.9614541 0.2735572 0.02779704 -0.7977085 0.6024023 0.02779698 1.51787e-6 0 1 -0.5262289 0.8498886 0.0277965 -0.1836785 0.9825934 0.0277971 0 0 -1 0.6668304 -0.3320413 0.6671476 0.2690979 -0.6946233 0.6671468 -0.2690969 -0.6946234 0.667147 -0.6668305 -0.332043 0.6671466 -0.7164891 0.2038592 0.6671468 -0.1368803 0.7322414 0.667148 0.1368791 0.732243 0.6671465 0.594464 0.4489175 0.6671475 0.7417476 -0.06873309 0.6671479 0.5018545 -0.5505064 0.6671468 0 -0.7449262 0.6671469 -0.5018543 -0.5505068 0.6671467 -0.7417494 -0.06873261 0.667146 -0.5944643 0.4489187 0.6671465 -0.3921529 0.6333493 0.6671468 0.3921537 0.633349 0.6671466 0.7164884 0.2038605 0.6671472 0.2344641 -0.6052209 0.7607459 -0.5810047 -0.2893073 0.7607463 -0.1192605 0.6379989 0.760746 0.517955 0.3911381 0.7607455 0.4372641 -0.4796528 0.7607453 -0.4372619 -0.4796531 0.7607464 -0.5179506 0.3911418 0.7607467 0.3416811 0.5518331 0.7607459 0.5810043 -0.289309 0.760746 -0.2344629 -0.6052209 0.7607464 -0.6242728 0.1776216 0.7607458 0.1192627 0.6379984 0.7607461 0.6462817 -0.059888 0.7607452 0 -0.6490499 0.760746 -0.6462806 -0.05988645 0.7607464 -0.3416791 0.5518338 0.7607464 0.6242732 0.1776188 0.7607462 -0.5804434 -0.6367151 0.5076215 0.453563 0.7325307 0.5076214 -0.3112387 -0.8033997 0.5076215 0.1583161 0.8469102 0.5076212 0 -0.8615803 0.5076214 -0.4535639 0.7325302 0.5076211 0.3112388 -0.8033997 0.5076214 -0.1583107 0.8469109 0.5076217 0.5804433 -0.6367153 0.5076212 -0.6875553 0.5192192 0.5076211 0.7712543 -0.3840412 0.5076213 -0.8286919 0.2357763 0.5076214 0.8579059 -0.07949465 0.5076202 -0.8579052 -0.07949525 0.5076214 0.8286907 0.2357813 0.5076209 -0.7712551 -0.3840391 0.5076215 0.6875541 0.5192212 0.5076206 -0.6543866 -0.7306537 0.1947398 -0.3493602 -0.9164469 0.1951219 0.001146733 -0.9807164 0.1954334 0.3542717 -0.9144763 0.1955117 0.6607041 -0.724762 0.1954231 0.8779391 -0.4371635 0.1952207 0.9766335 -0.09049737 0.1949291 0.9434394 0.2684311 0.1945943 0.7828139 0.5911572 0.1942566 0.5164338 0.8340708 0.1939644 0.1802675 0.9643459 0.1937544 -0.5208625 0.8314217 0.1934953 -0.1812292 0.9641921 0.1936225 -0.7880317 0.584428 0.1935201 -0.946516 0.2580616 0.1936791 -0.9756871 -0.1020406 0.1939653 -0.8731586 -0.4470236 0.1943295 0.0743665 0.05614972 -0.9956489 0.01855707 0.09922516 -0.994892 -0.01701855 0.1004032 -0.9948014 -0.08537459 0.03606772 -0.9956959 -0.07746255 -0.02624678 -0.9966498 -0.03071576 -0.06640863 -0.9973197 0.02584999 -0.06670039 -0.9974382 0.06901204 -0.03435885 -0.997024 0.08426427 0.02397477 -0.996155 0.05147927 0.08314681 -0.9952068 -0.04769605 0.08828723 -0.9949525 -0.07168668 0.06559771 -0.9952678 -0.08723872 0.003886461 -0.9961799 -0.05773949 -0.05061763 -0.9970477 -5.28081e-4 -0.07163083 -0.9974311 0.04942566 -0.05419963 -0.9973062 0.08164674 -0.007564902 -0.9966326 0.5260591 0.8504465 -0.001660645 -0.5264309 0.8502165 -0.001662254 -0.7980159 0.6026343 -0.001660883 -0.9957331 -0.09226644 -0.001656115 -0.6736956 -0.7390072 -0.001650929 0 -0.9999987 -0.001648068 0.6740102 -0.7387203 -0.001648843 0.9957976 -0.09156692 -0.001653015 0.7976458 0.603124 -0.00165838 0.1835533 0.9830085 -0.001662135 -0.1837497 0.9829717 -0.001662731 -0.9618244 0.2736622 -0.001658678 -0.8951616 -0.4457386 -0.001653373 -0.3612403 -0.9324714 -0.001649081 0.3614202 -0.9324016 -0.001647949 0.8954347 -0.4451901 -0.001650631 0.9616303 0.2743437 -0.001655697 0.7436078 0.5456686 -0.3863849 -0.1702162 0.9105788 -0.3766601 -0.8245679 -0.4105857 -0.3892392 0.3269142 -0.8565056 -0.399406 0.8892987 0.2374305 -0.3908637 -0.4876728 0.7876169 -0.3766099 -0.9189188 -0.08514893 -0.3851466 0 -0.9172783 -0.398247 0.9133908 -0.09956532 -0.3947201 0.1735164 0.9091311 -0.3786461 -0.8891639 0.2529892 -0.3812926 -0.3316691 -0.856132 -0.3962748 0.8156215 -0.4204101 -0.3975134 0.4939565 0.7810001 -0.3821594 -0.7387078 0.5578455 -0.378311 -0.6194558 -0.6795111 -0.3931147 0.6104874 -0.6840149 -0.3992854 0.1836786 0.9825932 0.02779746 0.5262287 0.8498887 0.02779704 0.7977091 0.6024017 0.02779692 0.961454 0.2735574 0.02779704 0.9953495 -0.09223204 0.02779692 0.8948174 -0.4455662 0.02779704 0.6734353 -0.7387235 0.02779674 0.3611021 -0.9321119 0.02779704 0 -0.9996137 0.0277971 -0.3611018 -0.932112 0.02779686 -0.6734349 -0.7387238 0.02779686 -0.8948174 -0.4455664 0.0277971 -0.9953495 -0.0922321 0.02779704 -0.9614539 0.2735577 0.02779704 -0.7977082 0.6024028 0.02779704 0 0 1 -7.29934e-6 0 1 1.45986e-5 0 1 -6.0761e-6 0 1 -3.26934e-6 0 1 3.26934e-6 0 1 -0.5262279 0.8498892 0.02779722 -0.183678 0.9825934 0.02779662 6.28955e-7 0 -1 2.51582e-6 0 -1 3.04266e-7 0 -1 6.9807e-7 0 -1 2.02198e-7 0 -1 -2.71592e-7 0 -1 0.6668307 -0.3320411 0.6671474 0.2690985 -0.6946231 0.6671468 -0.2690978 -0.6946231 0.667147 -0.6668303 -0.3320425 0.6671472 -0.7164889 0.2038595 0.667147 -0.1368781 0.7322432 0.6671464 0.1368805 0.7322414 0.6671479 0.594466 0.4489169 0.6671462 0.741749 -0.0687341 0.6671463 0.5018529 -0.5505069 0.6671475 0 -0.7449264 0.6671467 -0.5018541 -0.5505073 0.6671463 -0.7417492 -0.06873285 0.6671462 -0.5944638 0.4489187 0.6671468 -0.3921518 0.6333505 0.6671463 0.3921525 0.6333497 0.6671468 0.7164888 0.2038583 0.6671473 0.234463 -0.6052209 0.7607463 -0.5810058 -0.2893067 0.7607458 -0.1192636 0.6379985 0.7607458 0.517951 0.3911417 0.7607463 0.437263 -0.4796528 0.7607459 -0.4372625 -0.4796529 0.7607461 -0.5179536 0.3911395 0.7607458 0.341679 0.5518338 0.7607464 0.5810067 -0.2893059 0.7607454 -0.2344641 -0.6052211 0.7607457 -0.624273 0.1776183 0.7607465 0.1192615 0.6379989 0.7607457 0.6462813 -0.05988425 0.7607461 0 -0.6490498 0.760746 -0.6462812 -0.05988526 0.760746 -0.3416805 0.5518329 0.7607463 0.6242735 0.1776225 0.760745 -0.580443 -0.6367154 0.5076214 0.4535626 0.7325308 0.5076216 -0.3112429 -0.8033985 0.5076208 0.1583147 0.8469104 0.5076213 0 -0.8615803 0.5076214 -0.4535619 0.7325313 0.5076215 0.3112388 -0.8033997 0.5076214 -0.1583133 0.8469105 0.5076214 0.580443 -0.636717 0.5076195 -0.6875546 0.5192195 0.5076217 0.7712544 -0.3840412 0.5076212 -0.8286901 0.2357809 0.507622 0.8579051 -0.07949489 0.5076214 -0.8579052 -0.07949107 0.507622 0.8286895 0.235783 0.507622 -0.7712548 -0.3840399 0.5076212 0.6875559 0.5192188 0.5076208 -0.6607184 -0.7247748 0.1953274 -0.3542744 -0.914482 0.1954801 0 -0.9807018 0.19551 0.3513604 -0.9156439 0.1953005 0.6556026 -0.7295064 0.1949505 0.8735795 -0.4461075 0.1945434 0.9756699 -0.1018472 0.1941533 0.946658 0.2574378 0.1938154 0.7888462 0.5833059 0.1935873 0.5224879 0.8304029 0.193488 0.1834233 0.9637936 0.1935403 -0.5164453 0.8340923 0.1938417 -0.1802708 0.9643587 0.1936874 -0.7828409 0.591175 0.1940934 -0.9434752 0.2684376 0.1944118 -0.9766687 -0.09049743 0.1947525 -0.8779654 -0.4371756 0.1950749 0.07055991 0.06553667 -0.9953523 0.01607894 0.1003917 -0.994818 -0.01867449 0.09964448 -0.9948479 -0.08553087 0.02433538 -0.9960384 -0.06988096 -0.03479605 -0.9969484 -0.0259363 -0.06694006 -0.9974198 0.0297113 -0.06626659 -0.9973595 0.07611668 -0.02632987 -0.9967513 0.08409839 0.03616297 -0.995801 0.04671335 0.08820199 -0.9950067 -0.05192244 0.08383649 -0.9951259 -0.07524549 0.05682092 -0.9955449 -0.08293163 -0.007684111 -0.9965256 -0.04984378 -0.05469381 -0.9972584 0 -0.07149279 -0.9974411 0.05668157 -0.05043363 -0.9971177 0.08593237 0.003957152 -0.9962932 0.5264315 0.8502161 -0.001661598 -0.52616 0.8503841 -0.001661539 -0.7976979 0.6030552 -0.001659691 -0.9957989 -0.09155297 -0.001654446 -0.6740875 -0.7386497 -0.001649737 -6.99379e-5 -0.9999987 -0.001647889 0.6736944 -0.7390083 -0.001649796 0.9957328 -0.09226876 -0.001654624 0.7980164 0.6026334 -0.00165975 0.1837505 0.9829715 -0.001662611 -0.1836878 0.9829832 -0.001662611 -0.9616415 0.2743045 -0.001657187 -0.8954626 -0.4451338 -0.001651883 -0.3615439 -0.9323536 -0.001648366 0.3612408 -0.9324711 -0.001648426 0.8951624 -0.4457373 -0.001652002 0.9618242 0.2736633 -0.001657307 0.7385421 0.557721 -0.3788178 -0.1723566 0.9095922 -0.3780676 -0.8154016 -0.4212799 -0.3970434 0.3315823 -0.8559094 -0.3968278 0.8888598 0.2529016 -0.382059 -0.4932654 0.7818275 -0.3813595 -0.9137573 -0.09972715 -0.3938302 6.3698e-4 -0.9171213 -0.3986076 0.9185053 -0.08511179 -0.3861398 0.1702295 0.9106467 -0.37649 -0.8895899 0.2380462 -0.3898255 -0.3258877 -0.8568695 -0.3994646 0.8241921 -0.4104002 -0.39023 0.4876298 0.7875508 -0.3768038 -0.7434632 0.5465313 -0.385443 -0.609958 -0.6846294 -0.3990412 0.6192518 -0.6792876 -0.3938219</float_array>
          <technique_common>
            <accessor source="#Cylinder-mesh-normals-array" count="286" stride="3">
              <param name="X" type="float"/>
              <param name="Y" type="float"/>
              <param name="Z" type="float"/>
            </accessor>
          </technique_common>
        </source>
        <vertices id="Cylinder-mesh-vertices">
          <input semantic="POSITION" source="#Cylinder-mesh-positions"/>
        </vertices>
        <polylist count="302">
          <input semantic="VERTEX" source="#Cylinder-mesh-vertices" offset="0"/>
          <input semantic="NORMAL" source="#Cylinder-mesh-normals" offset="1"/>
          <vcount>3 3 3 3 3 3 3 3 3 3 3 3 3 3 3 3 3 3 3 3 3 3 3 3 3 3 3 3 3 3 3 3 3 3 3 3 3 3 3 3 3 3 3 3 3 3 3 3 3 3 3 3 3 3 3 3 3 3 3 3 3 3 3 3 3 3 3 3 3 3 3 3 3 3 3 3 3 3 3 3 3 3 3 3 3 3 3 3 3 3 3 3 3 3 3 3 3 3 3 3 3 3 3 3 3 3 3 3 3 3 3 3 3 3 3 3 3 3 3 3 3 3 3 3 3 3 3 3 3 3 3 3 3 3 3 3 3 3 3 3 3 3 3 3 3 3 3 3 3 3 3 3 3 3 3 3 3 3 3 3 3 3 3 3 3 3 3 3 3 3 3 3 3 3 3 3 3 3 3 3 3 3 3 3 3 3 3 3 3 3 3 3 3 3 3 3 3 3 3 3 3 3 3 3 3 3 3 3 3 3 3 3 3 3 3 3 3 3 3 3 3 3 3 3 3 3 3 3 3 3 3 3 3 3 3 3 3 3 3 3 3 3 3 3 3 3 3 3 3 3 3 3 3 3 3 3 3 3 3 3 3 3 3 3 3 3 3 3 3 3 3 3 3 3 3 3 3 3 3 3 3 3 3 3 3 3 3 3 3 3 3 3 3 3 3 3 3 3 3 3 3 3 </vcount>
          <p>0 0 49 0 2 0 49 1 4 1 2 1 4 2 48 2 6 2 6 3 40 3 8 3 40 4 10 4 8 4 47 5 12 5 10 5 39 6 14 6 12 6 14 7 38 7 16 7 38 8 18 8 16 8 45 9 20 9 18 9 37 10 22 10 20 10 22 11 36 11 24 11 36 12 26 12 24 12 46 13 28 13 26 13 28 14 42 14 30 14 1 15 19 15 7 15 42 16 32 16 30 16 34 17 0 17 32 17 2 18 18 18 26 18 39 19 62 19 57 19 50 20 55 20 38 20 37 21 56 21 52 21 36 22 54 22 67 22 46 23 64 23 35 23 34 24 61 24 43 24 49 25 61 25 51 25 41 26 65 26 48 26 40 27 62 27 47 27 50 28 57 28 53 28 38 29 56 29 45 29 37 30 54 30 44 30 46 31 67 31 58 31 42 32 64 32 66 32 42 33 60 33 34 33 49 34 63 34 41 34 40 35 65 35 59 35 53 36 82 36 55 36 67 37 79 37 81 37 60 38 80 38 61 38 63 39 74 39 65 39 53 40 69 40 76 40 52 41 79 41 54 41 66 42 71 42 77 42 51 43 68 43 63 43 57 44 83 44 69 44 52 45 84 45 73 45 58 46 71 46 64 46 51 47 80 47 70 47 59 48 83 48 62 48 55 49 84 49 56 49 67 50 72 50 58 50 66 51 78 51 60 51 59 52 74 52 75 52 73 53 91 53 79 53 70 54 94 54 68 54 84 55 92 55 73 55 70 56 95 56 101 56 82 57 88 57 84 57 77 58 89 58 78 58 76 59 99 59 82 59 80 60 89 60 95 60 69 61 100 61 76 61 71 62 86 62 77 62 83 63 98 63 69 63 71 64 90 64 87 64 83 65 97 65 85 65 81 66 90 66 72 66 74 67 97 67 75 67 81 68 91 68 96 68 74 69 94 69 93 69 91 70 130 70 127 70 92 71 120 71 130 71 88 72 132 72 120 72 100 73 132 73 99 73 98 74 135 74 100 74 85 75 129 75 98 75 97 76 128 76 85 76 93 77 126 77 97 77 94 78 133 78 93 78 101 79 119 79 94 79 95 80 122 80 101 80 89 81 131 81 123 81 95 82 123 82 121 82 86 83 134 83 131 83 87 84 125 84 134 84 90 85 124 85 125 85 96 86 127 86 124 86 112 87 140 87 109 87 114 88 139 88 115 88 114 89 142 89 137 89 110 90 148 90 143 90 117 91 141 91 145 91 106 92 151 92 150 92 111 93 136 93 108 93 104 94 147 94 105 94 109 95 138 95 102 95 115 96 149 96 112 96 116 97 152 97 142 97 107 98 143 98 152 98 118 99 145 99 148 99 103 100 150 100 141 100 113 101 136 101 151 101 105 102 146 102 111 102 102 103 144 103 104 103 122 104 112 104 119 104 123 105 107 105 116 105 131 106 110 106 107 106 125 107 117 107 118 107 127 108 106 108 103 108 120 109 108 109 113 109 129 110 111 110 135 110 126 111 104 111 128 111 119 112 109 112 133 112 121 113 115 113 122 113 121 114 116 114 114 114 134 115 118 115 110 115 124 116 103 116 117 116 130 117 113 117 106 117 135 118 108 118 132 118 128 119 105 119 129 119 133 120 102 120 126 120 149 121 7 121 140 121 137 122 33 122 1 122 145 123 23 123 25 123 146 124 17 124 136 124 140 125 9 125 138 125 142 126 31 126 33 126 148 127 25 127 27 127 151 128 17 128 19 128 138 129 11 129 144 129 137 130 3 130 139 130 143 131 27 131 29 131 150 132 19 132 21 132 144 133 13 133 147 133 139 134 5 134 149 134 152 135 29 135 31 135 141 136 21 136 23 136 147 137 15 137 146 137 0 138 43 138 49 138 49 139 41 139 4 139 4 140 41 140 48 140 6 141 48 141 40 141 40 142 47 142 10 142 47 143 39 143 12 143 39 144 50 144 14 144 14 145 50 145 38 145 38 146 45 146 18 146 45 147 37 147 20 147 37 148 44 148 22 148 22 149 44 149 36 149 36 150 46 150 26 150 46 151 35 151 28 151 28 152 35 152 42 152 5 153 3 153 1 153 1 154 33 154 31 154 31 153 29 153 27 153 27 153 25 153 23 153 23 153 21 153 19 153 19 153 17 153 15 153 15 155 13 155 11 155 11 153 9 153 7 153 7 153 5 153 1 153 1 153 31 153 19 153 27 156 23 156 19 156 19 153 15 153 11 153 11 157 7 157 19 157 31 158 27 158 19 158 42 159 34 159 32 159 34 160 43 160 0 160 32 161 0 161 2 161 2 162 4 162 6 162 6 18 8 18 2 18 10 18 12 18 18 18 14 18 16 18 18 18 18 18 20 18 22 18 22 18 24 18 26 18 26 18 28 18 30 18 30 163 32 163 2 163 2 18 8 18 10 18 12 18 14 18 18 18 18 164 22 164 26 164 26 165 30 165 2 165 2 166 10 166 18 166 39 167 47 167 62 167 50 168 53 168 55 168 37 169 45 169 56 169 36 170 44 170 54 170 46 171 58 171 64 171 34 172 60 172 61 172 49 173 43 173 61 173 41 174 63 174 65 174 40 175 59 175 62 175 50 176 39 176 57 176 38 177 55 177 56 177 37 178 52 178 54 178 46 179 36 179 67 179 42 180 35 180 64 180 42 181 66 181 60 181 49 182 51 182 63 182 40 183 48 183 65 183 53 184 76 184 82 184 67 185 54 185 79 185 60 186 78 186 80 186 63 187 68 187 74 187 53 188 57 188 69 188 52 189 73 189 79 189 66 190 64 190 71 190 51 191 70 191 68 191 57 192 62 192 83 192 52 193 56 193 84 193 58 194 72 194 71 194 51 195 61 195 80 195 59 196 75 196 83 196 55 197 82 197 84 197 67 198 81 198 72 198 66 199 77 199 78 199 59 200 65 200 74 200 73 201 92 201 91 201 70 202 101 202 94 202 84 203 88 203 92 203 70 204 80 204 95 204 82 205 99 205 88 205 77 206 86 206 89 206 76 207 100 207 99 207 80 208 78 208 89 208 69 209 98 209 100 209 71 210 87 210 86 210 83 211 85 211 98 211 71 212 72 212 90 212 83 213 75 213 97 213 81 214 96 214 90 214 74 215 93 215 97 215 81 216 79 216 91 216 74 217 68 217 94 217 91 218 92 218 130 218 92 219 88 219 120 219 88 220 99 220 132 220 100 221 135 221 132 221 98 222 129 222 135 222 85 223 128 223 129 223 97 224 126 224 128 224 93 225 133 225 126 225 94 226 119 226 133 226 101 227 122 227 119 227 95 228 121 228 122 228 89 229 86 229 131 229 95 230 89 230 123 230 86 231 87 231 134 231 87 232 90 232 125 232 90 233 96 233 124 233 96 234 91 234 127 234 112 235 149 235 140 235 114 236 137 236 139 236 114 237 116 237 142 237 110 238 118 238 148 238 117 239 103 239 141 239 106 240 113 240 151 240 111 241 146 241 136 241 104 242 144 242 147 242 109 243 140 243 138 243 115 244 139 244 149 244 116 245 107 245 152 245 107 246 110 246 143 246 118 247 117 247 145 247 103 248 106 248 150 248 113 249 108 249 136 249 105 250 147 250 146 250 102 251 138 251 144 251 122 252 115 252 112 252 123 253 131 253 107 253 131 254 134 254 110 254 125 255 124 255 117 255 127 256 130 256 106 256 120 257 132 257 108 257 129 258 105 258 111 258 126 259 102 259 104 259 119 260 112 260 109 260 121 261 114 261 115 261 121 262 123 262 116 262 134 263 125 263 118 263 124 264 127 264 103 264 130 265 120 265 113 265 135 266 111 266 108 266 128 267 104 267 105 267 133 268 109 268 102 268 149 269 5 269 7 269 137 270 142 270 33 270 145 271 141 271 23 271 146 272 15 272 17 272 140 273 7 273 9 273 142 274 152 274 31 274 148 275 145 275 25 275 151 276 136 276 17 276 138 277 9 277 11 277 137 278 1 278 3 278 143 279 148 279 27 279 150 280 151 280 19 280 144 281 11 281 13 281 139 282 3 282 5 282 152 283 143 283 29 283 141 284 150 284 21 284 147 285 13 285 15 285</p>
        </polylist>
      </mesh>
    </geometry>
  </library_geometries>
  <library_controllers/>
  <library_visual_scenes>
    <visual_scene id="Scene" name="Scene">
      <node id="Cylinder" name="Cylinder" type="NODE">
        <matrix sid="transform">1 0 0 0 0 1 0 0 0 0 1 0 0 0 0 1</matrix>
        <instance_geometry url="#Cylinder-mesh" name="Cylinder"/>
      </node>
    </visual_scene>
  </library_visual_scenes>
  <scene>
    <instance_visual_scene url="#Scene"/>
  </scene>
</COLLADA>