<?xml version="1.0" encoding="utf-8"?>
<COLLADA xmlns="http://www.collada.org/2005/11/COLLADASchema" version="1.4.1">
  <asset>
    <contributor>
      <author>Blender User</author>
      <authoring_tool>Blender 2.78.0</authoring_tool>
    </contributor>
    <created>2017-08-30T17:26:35</created>
    <modified>2017-08-30T17:26:35</modified>
    <unit name="meter" meter="1"/>
    <up_axis>Z_UP</up_axis>
  </asset>
  <library_images>
    <image id="PBRFULL_LeftHubCap-material_Base_Color_jpg" name="PBRFULL_LeftHubCap-material_Base_Color_jpg">
      <init_from>PBRFULL_LeftHubCap-material_Base_Color.jpg</init_from>
    </image>
  </library_images>
  <library_effects>
    <effect id="PBRFULL_BackSonar-effect">
      <profile_COMMON>
        <newparam sid="PBRFULL_LeftHubCap-material_Base_Color_jpg-surface">
          <surface type="2D">
            <init_from>PBRFULL_LeftHubCap-material_Base_Color_jpg</init_from>
          </surface>
        </newparam>
        <newparam sid="PBRFULL_LeftHubCap-material_Base_Color_jpg-sampler">
          <sampler2D>
            <source>PBRFULL_LeftHubCap-material_Base_Color_jpg-surface</source>
          </sampler2D>
        </newparam>
        <technique sid="common">
          <phong>
            <emission>
              <color sid="emission">0 0 0 1</color>
            </emission>
            <ambient>
              <color sid="ambient">0 0 0 1</color>
            </ambient>
            <diffuse>
              <texture texture="PBRFULL_LeftHubCap-material_Base_Color_jpg-sampler"/>
            </diffuse>
            <specular>
              <color sid="specular">0.5 0.5 0.5 1</color>
            </specular>
            <shininess>
              <float sid="shininess">50</float>
            </shininess>
            <index_of_refraction>
              <float sid="index_of_refraction">1</float>
            </index_of_refraction>
          </phong>
        </technique>
      </profile_COMMON>
    </effect>
  </library_effects>
  <library_materials>
    <material id="PBRFULL_BackSonar-material" name="PBRFULL_BackSonar">
      <instance_effect url="#PBRFULL_BackSonar-effect"/>
    </material>
  </library_materials>
  <library_geometries>
    <geometry id="Back_Sonar-mesh" name="Back Sonar">
      <mesh>
        <source id="Back_Sonar-mesh-positions">
          <float_array id="Back_Sonar-mesh-positions-array" count="504">0.04749143 0.1378945 0.01851361 0.05725872 0.1378945 0.01154679 0.05725872 0.134329 0.01154679 0.04749143 0.134329 0.01851367 0.06106549 0.1378945 1.69397e-4 0.06106555 0.134329 1.69374e-4 0.0574578 0.1378945 -0.01127266 0.0574578 0.134329 -0.01127266 0.04781365 0.1378945 -0.01840901 0.04781359 0.134329 -0.01840901 0.0358166 0.1378945 -0.01851367 0.03581655 0.134329 -0.01851367 0.02604943 0.1378945 -0.01154679 0.02604943 0.134329 -0.01154673 0.0222426 0.1378945 -1.69405e-4 0.0222426 0.134329 -1.69325e-4 0.02585029 0.1378945 0.01127266 0.02585029 0.134329 0.01127266 0.03549444 0.1378945 0.01840901 0.0354945 0.134329 0.01840901 0.00217092 0.1224107 0.01851367 -0.00682646 0.1144753 0.01840901 -0.009184896 0.1171493 0.01840901 -1.87494e-4 0.1250846 0.01851361 -0.01641792 0.1107701 0.01127266 -0.01405948 0.108096 0.01127266 -0.01912361 0.1083837 -1.69406e-4 -0.01676517 0.1057097 -1.69324e-4 -0.01626855 0.1109018 -0.01154679 -0.01391017 0.1082277 -0.01154673 -0.008943259 0.1173624 -0.01851367 -0.006584942 0.1146883 -0.01851367 5.4168e-5 0.1252979 -0.01840901 0.002412438 0.1226238 -0.01840901 0.007287085 0.1316771 -0.01127266 0.009645462 0.1290031 -0.01127266 0.009992837 0.1340634 1.69397e-4 0.01235121 0.1313894 1.69374e-4 0.007137775 0.1315454 0.01154679 0.009496152 0.1288714 0.01154679 -0.03698819 0.08372581 0.01851361 -0.03209298 0.09217786 0.01154679 -0.02900767 0.09039092 0.01154679 -0.03390288 0.08193892 0.01851367 -0.0301851 0.09547203 1.69397e-4 -0.02709972 0.09368515 1.69374e-4 -0.03199321 0.09235018 -0.01127266 -0.02890789 0.09056323 -0.01127266 -0.03682667 0.08400464 -0.01840901 -0.03374141 0.08221769 -0.01840901 -0.04283934 0.07362318 -0.01851367 -0.03975409 0.07183623 -0.01851367 -0.04773449 0.06517118 -0.01154679 -0.04464924 0.06338423 -0.01154673 -0.0496425 0.06187695 -1.69405e-4 -0.04655706 0.06009006 -1.69325e-4 -0.04783433 0.06499886 0.01127266 -0.04474902 0.06321197 0.01127266 -0.04300081 0.0733444 0.01840901 -0.0399155 0.07155752 0.01840901 -0.05313664 0.03497499 0.01851367 -0.0552361 0.02316313 0.01840901 -0.05874645 0.02378708 0.01840901 -0.05664712 0.03559881 0.01851361 -0.06043422 0.01429164 0.01127266 -0.05692368 0.01366776 0.01127266 -0.06106555 0.01073962 -1.69406e-4 -0.05755501 0.01011574 -1.69325e-4 -0.06039935 0.01448774 -0.01154679 -0.05688887 0.0138638 -0.01154673 -0.05869013 0.02410417 -0.01851367 -0.05517971 0.02348029 -0.01851367 -0.05659067 0.03591609 -0.01840901 -0.05308032 0.03529208 -0.01840901 -0.05490309 0.0454114 -0.01127266 -0.05139267 0.04478746 -0.01127266 -0.05427169 0.04896342 1.69397e-4 -0.05076134 0.0483396 1.69374e-4 -0.05493789 0.04521536 0.01154679 -0.05142748 0.04459148 0.01154679 -0.05664712 -0.03559881 0.01851361 -0.05313664 -0.03497499 0.01851367 -0.05142748 -0.04459148 0.01154679 -0.05493789 -0.04521536 0.01154679 -0.05076134 -0.0483396 1.69375e-4 -0.05427169 -0.04896342 1.69398e-4 -0.05139267 -0.04478746 -0.01127266 -0.05490309 -0.0454114 -0.01127266 -0.05308032 -0.03529208 -0.01840901 -0.05659067 -0.03591609 -0.01840901 -0.05517971 -0.02348029 -0.01851367 -0.05869013 -0.02410417 -0.01851367 -0.05688887 -0.0138638 -0.01154673 -0.06039935 -0.01448774 -0.01154679 -0.05755501 -0.01011574 -1.69324e-4 -0.06106555 -0.01073962 -1.69405e-4 -0.05692368 -0.01366776 0.01127266 -0.06043422 -0.01429164 0.01127266 -0.0552361 -0.02316313 0.01840901 -0.05874645 -0.02378708 0.01840901 -0.03390288 -0.08193892 0.01851367 -0.03698819 -0.08372581 0.01851361 -0.04300081 -0.07334434 0.01840901 -0.0399155 -0.07155746 0.01840901 -0.04783433 -0.0649988 0.01127266 -0.04474902 -0.06321191 0.01127266 -0.0496425 -0.06187695 -1.69404e-4 -0.04655706 -0.06009 -1.69324e-4 -0.04773449 -0.06517118 -0.01154679 -0.04464924 -0.06338417 -0.01154673 -0.04283934 -0.07362318 -0.01851367 -0.03975409 -0.07183617 -0.01851367 -0.03682667 -0.08400464 -0.01840901 -0.03374141 -0.08221763 -0.01840901 -0.03199321 -0.09235012 -0.01127266 -0.02890789 -0.09056317 -0.01127266 -0.0301851 -0.09547203 1.69397e-4 -0.02709972 -0.09368509 1.69376e-4 -0.03209298 -0.09217786 0.01154679 -0.02900767 -0.09039092 0.01154679 -1.87494e-4 -0.1250846 0.01851361 0.00217092 -0.1224107 0.01851367 0.009496152 -0.1288714 0.01154679 0.007137775 -0.1315454 0.01154679 0.01235121 -0.1313894 1.69375e-4 0.009992837 -0.1340634 1.69398e-4 0.009645462 -0.1290031 -0.01127266 0.007287085 -0.1316771 -0.01127266 0.002412438 -0.1226238 -0.01840901 5.41676e-5 -0.1252979 -0.01840901 -0.006584942 -0.1146883 -0.01851367 -0.008943259 -0.1173624 -0.01851367 -0.01391017 -0.1082277 -0.01154673 -0.01626855 -0.1109017 -0.01154679 -0.01676517 -0.1057097 -1.69323e-4 -0.01912361 -0.1083837 -1.69405e-4 -0.01405948 -0.108096 0.01127266 -0.01641792 -0.1107701 0.01127266 -0.00682646 -0.1144753 0.01840901 -0.009184896 -0.1171492 0.01840901 0.04749143 -0.134329 0.01851367 0.04749143 -0.1378945 0.01851361 0.03549444 -0.1378945 0.01840901 0.0354945 -0.134329 0.01840901 0.02585029 -0.1378945 0.01127266 0.02585029 -0.134329 0.01127266 0.0222426 -0.1378945 -1.69405e-4 0.0222426 -0.134329 -1.69324e-4 0.02604943 -0.1378945 -0.01154679 0.02604943 -0.134329 -0.01154673 0.0358166 -0.1378945 -0.01851361 0.03581655 -0.134329 -0.01851367 0.04781365 -0.1378945 -0.01840901 0.04781359 -0.134329 -0.01840901 0.0574578 -0.1378945 -0.01127266 0.0574578 -0.134329 -0.01127266 0.06106549 -0.1378945 1.69397e-4 0.06106555 -0.134329 1.69375e-4 0.05725872 -0.1378945 0.01154679 0.05725872 -0.134329 0.01154679 0.04165405 0.1378945 0 -0.004565358 0.1212236 0 -0.03991383 0.07867449 0 -0.05766856 0.02985155 0 -0.05766856 -0.02985155 0 -0.03991383 -0.07867449 0 -0.004565358 -0.1212236 0 0.04165405 -0.1378945 0</float_array>
          <technique_common>
            <accessor source="#Back_Sonar-mesh-positions-array" count="168" stride="3">
              <param name="X" type="float"/>
              <param name="Y" type="float"/>
              <param name="Z" type="float"/>
            </accessor>
          </technique_common>
        </source>
        <source id="Back_Sonar-mesh-normals">
          <float_array id="Back_Sonar-mesh-normals-array" count="687">-0.5806997 0 -0.814118 -0.580703 -1.49681e-5 -0.8141155 -0.9483248 -1.59999e-5 -0.3173012 -0.9483237 0 -0.3173046 -0.9537169 0 0.3007064 -0.9537159 -1.63289e-5 0.3007094 -0.5948215 9.52518e-6 0.8038579 -0.5948207 0 0.8038585 -0.008728742 1.4883e-7 0.999962 -0.008728086 1.48831e-7 0.9999619 0.5807055 1.38125e-5 0.8141138 0.5807114 -9.52519e-6 0.8141096 0.9483235 6.60651e-6 0.3173054 0.9483236 5.44295e-6 0.3173049 0.9537169 0 -0.3007062 0.9537166 -6.80372e-6 -0.3007068 0.5948215 9.52518e-6 -0.8038579 0.5948181 0 -0.8038603 0.008723974 -1.67285e-5 -0.999962 0.008728146 1.48831e-7 -0.999962 0.006545901 0.005773544 -0.999962 0.006553411 0.005757808 -0.999962 0.4461032 0.3934479 -0.8038598 0.4461069 0.3934476 -0.803858 0.7152721 0.6308407 -0.300709 0.7152736 0.6308387 -0.3007098 0.7112195 0.6272816 0.3173087 0.7112342 0.6272683 0.3173016 0.4355162 0.384114 0.8141143 0.4355343 0.384102 0.8141103 -0.006546914 -0.005773365 0.999962 -0.006545841 -0.005773365 0.999962 -0.4461188 -0.3934386 0.8038558 -0.4461057 -0.3934479 0.8038585 -0.7152717 -0.630842 0.3007073 -0.7152691 -0.6308447 0.3007077 -0.7112276 -0.6272754 -0.3173025 -0.7112259 -0.6272777 -0.3173017 -0.4355123 -0.3841072 -0.8141197 -0.4355075 -0.3841272 -0.8141127 -0.2910326 -0.5025047 -0.8141186 -0.2910174 -0.5025195 -0.8141149 -0.475275 -0.8206292 -0.3173034 -0.4752781 -0.8206268 -0.3173049 -0.4779892 -0.8252901 0.3007038 -0.4779728 -0.8252975 0.3007093 -0.298116 -0.5147204 0.8038594 -0.2981154 -0.5147216 0.8038588 -0.004375159 -0.0075531 0.9999619 -0.004374146 -0.0075531 0.9999619 0.2910302 0.5025152 0.8141131 0.2910436 0.5025095 0.8141117 0.4752617 0.8206344 0.3173096 0.4752833 0.8206254 0.317301 0.477972 0.8252984 -0.3007083 0.4779751 0.8252965 -0.3007087 0.2981026 0.5147293 -0.8038586 0.2981035 0.5147266 -0.8038601 0.004373967 0.007553219 -0.9999619 0.00438708 0.007540583 -0.999962 0.001526892 0.008593857 -0.9999619 0.001543104 0.008586108 -0.999962 0.1040837 0.58564 -0.803861 0.1040799 0.5856428 -0.8038594 0.1668789 0.9390035 -0.3007059 0.1668861 0.9390013 -0.3007087 0.1659278 0.9336935 0.3173079 0.1659486 0.9336916 0.317303 0.1016086 0.5717481 0.8141129 0.1016227 0.5717492 0.8141105 -0.00152707 -0.008593797 0.999962 -0.001527428 -0.008593797 0.9999619 -0.1040937 -0.5856425 0.8038578 -0.1040912 -0.585642 0.8038585 -0.1668975 -0.939 0.3007065 -0.1668797 -0.9390015 0.3007113 -0.1659402 -0.9336928 -0.3173038 -0.1659367 -0.9336937 -0.3173028 -0.10161 -0.5717389 -0.8141192 -0.1015891 -0.5717492 -0.8141147 -0.1015891 0.5717492 -0.8141147 -0.10161 0.5717389 -0.8141192 -0.1659366 0.9336938 -0.3173028 -0.1659397 0.9336932 -0.317303 -0.1668797 0.9390015 0.3007113 -0.1668975 0.939 0.3007065 -0.1040912 0.585642 0.8038585 -0.1040937 0.5856425 0.8038578 -0.001527428 0.008593797 0.9999619 -0.00152707 0.008593797 0.999962 0.1016227 -0.5717492 0.8141105 0.1016086 -0.5717481 0.8141129 0.1659487 -0.9336916 0.317303 0.1659278 -0.9336935 0.3173079 0.1668861 -0.9390013 -0.3007087 0.1668789 -0.9390035 -0.3007059 0.1040799 -0.5856428 -0.8038594 0.1040837 -0.58564 -0.803861 0.001543104 -0.008586108 -0.999962 0.001526892 -0.008593857 -0.9999619 0.004386365 -0.007540583 -0.999962 0.004374623 -0.007553219 -0.999962 0.2981035 -0.5147266 -0.8038601 0.2981026 -0.5147293 -0.8038586 0.477987 -0.8252896 -0.3007085 0.4779726 -0.8252993 -0.3007046 0.4752964 -0.8206177 0.3173011 0.4752726 -0.8206284 0.317309 0.2910501 -0.5025048 0.8141124 0.2910377 -0.5025109 0.814113 -0.004374742 0.00755304 0.999962 -0.004374921 0.00755304 0.9999619 -0.2981154 0.5147216 0.8038588 -0.2981243 0.5147177 0.803858 -0.477985 0.8252904 0.3007094 -0.4779884 0.8252887 0.3007088 -0.4752787 0.8206279 -0.3173013 -0.4752867 0.8206224 -0.3173034 -0.2910174 0.5025195 -0.8141149 -0.2910326 0.5025047 -0.8141186 -0.4355075 0.3841272 -0.8141127 -0.4355123 0.3841072 -0.8141197 -0.7112259 0.6272778 -0.3173017 -0.7112278 0.6272752 -0.3173026 -0.715269 0.630845 0.3007076 -0.7152717 0.630842 0.3007073 -0.4461057 0.3934479 0.8038585 -0.4461187 0.3934387 0.8038557 -0.006545841 0.005773365 0.999962 -0.006546854 0.005773305 0.9999619 0.4355343 -0.384102 0.8141103 0.4355067 -0.3841208 0.8141163 0.7112224 -0.6272823 0.3173006 0.7112208 -0.6272826 0.3173037 0.7152735 -0.6308387 -0.3007098 0.7152724 -0.6308403 -0.3007091 0.4461069 -0.3934476 -0.803858 0.4460979 -0.3934587 -0.8038575 0.006554007 -0.005757749 -0.999962 0.006545782 -0.005773723 -0.9999619 0.008723974 1.67328e-5 -0.999962 0.008728086 -1.48831e-7 -0.9999619 0.5948215 -9.52518e-6 -0.8038579 0.9537166 6.80372e-6 -0.3007069 0.9483236 -5.44295e-6 0.3173048 0.9483235 -6.9382e-6 0.3173054 0.5807116 2.31326e-5 0.8141094 0.5807021 -1.38126e-5 0.8141161 -0.008728086 -1.48831e-7 0.9999619 -0.008723974 1.65721e-5 0.999962 -0.5948215 -9.52518e-6 0.8038579 -0.9537159 1.63288e-5 0.3007094 -0.9483237 0 -0.3173046 -0.9483248 1.61036e-5 -0.3173012 -0.580703 1.49681e-5 -0.8141155 0 1 0 0 1 1.05117e-6 0 1 -2.10234e-6 0 1 1.05117e-6 0 1 -1.05116e-6 0 1 -5.25586e-7 0 1 -5.25586e-7 -0.6614581 0.7499821 1.05118e-6 -0.6614551 0.7499848 2.62792e-6 -0.6614589 0.7499815 -5.25583e-6 -0.6614589 0.7499814 1.83955e-6 -0.6614564 0.7499837 -1.57675e-6 -0.6614621 0.7499787 0 -0.6614599 0.7499806 -1.05118e-6 -0.6614574 0.7499828 6.56983e-6 -0.6614574 0.7499828 -3.94191e-6 -0.6614607 0.7499798 2.62793e-6 -0.8653414 0.501183 -7.88377e-7 -0.8653407 0.5011842 -2.89071e-6 -0.8653406 0.5011843 7.88375e-7 -0.8653413 0.5011832 -1.05117e-6 -0.865341 0.5011838 -1.31396e-6 -0.8653424 0.5011812 -2.62793e-7 -0.8653421 0.5011817 -9.19775e-7 -0.8653418 0.5011822 -1.11687e-6 -0.8653413 0.5011832 0 -0.8653423 0.5011814 -1.31397e-7 -0.9845691 0.174996 -2.29945e-7 -0.9845692 0.1749956 0 -0.9845692 0.1749961 0 -0.9845691 0.1749961 -1.2072e-6 -0.9845693 0.174995 -3.28491e-7 -0.9845695 0.1749942 1.31396e-7 -0.98457 0.1749914 -9.85473e-7 -0.9845698 0.1749927 1.72457e-6 -0.9845696 0.1749935 -3.25206e-6 -0.9845704 0.1749894 1.57675e-6 -0.9845704 -0.1749894 1.57675e-6 -0.9845697 -0.174993 -3.25206e-6 -0.9845698 -0.1749927 1.72457e-6 -0.98457 -0.1749914 -9.85473e-7 -0.9845695 -0.1749942 1.31396e-7 -0.9845693 -0.174995 -3.28491e-7 -0.9845691 -0.1749961 -1.2072e-6 -0.9845691 -0.1749961 0 -0.9845692 -0.1749956 0 -0.9845691 -0.174996 -2.29945e-7 -0.8653436 -0.5011793 5.25586e-7 -0.8653417 -0.5011824 1.57675e-6 -0.8653421 -0.5011819 1.44536e-6 -0.8653419 -0.5011821 -9.19775e-7 -0.8653424 -0.5011812 -2.62793e-7 -0.865341 -0.5011838 -1.31396e-6 -0.8653401 -0.5011854 -2.62793e-7 -0.8653406 -0.5011843 -1.83954e-6 -0.8653407 -0.5011842 -2.89071e-6 -0.8653414 -0.501183 -7.88377e-7 -0.6614607 -0.7499798 2.62793e-6 -0.6614573 -0.7499828 -3.94191e-6 -0.6614574 -0.7499828 6.56983e-6 -0.6614599 -0.7499806 -1.05118e-6 -0.6614621 -0.7499786 1.05117e-6 -0.6614614 -0.7499793 0 -0.6614589 -0.7499815 -4.73026e-6 -0.6614589 -0.7499814 -5.25583e-6 -0.6614522 -0.7499874 8.40939e-6 -0.661463 -0.7499778 3.15353e-6 0 -1 0 0 -1 1.05117e-6 0 -1 -2.10234e-6 0 -1 1.05117e-6 0 -1 -1.05117e-6 0 -1 -5.25586e-7 0 -1 -5.25586e-7</float_array>
          <technique_common>
            <accessor source="#Back_Sonar-mesh-normals-array" count="229" stride="3">
              <param name="X" type="float"/>
              <param name="Y" type="float"/>
              <param name="Z" type="float"/>
            </accessor>
          </technique_common>
        </source>
        <source id="Back_Sonar-mesh-map-0">
          <float_array id="Back_Sonar-mesh-map-0-array" count="1440">0.2580921 0.6590442 0.2290349 0.5943003 0.2520236 0.5970102 0.2580921 0.6590442 0.2520236 0.5970102 0.281081 0.6617539 0.5389362 0.8357793 0.5389362 0.9261168 0.5186511 0.9226936 0.5389362 0.8357793 0.5186511 0.9226936 0.5186505 0.8323557 0.5600413 0.8365998 0.5600413 0.9262242 0.5403615 0.92198 0.5600413 0.8365998 0.5403615 0.92198 0.5403611 0.8323557 0.8909586 0.2426865 0.8758941 0.1574547 0.8990118 0.1586273 0.8909586 0.2426865 0.8990118 0.1586273 0.9140762 0.2438596 0.8758941 0.1574547 0.8909583 0.06832951 0.9140762 0.06950205 0.8758941 0.1574547 0.9140762 0.06950205 0.8990118 0.1586273 0.8758941 0.06779766 0.8550114 0.1529291 0.836546 0.1549207 0.8758941 0.06779766 0.836546 0.1549207 0.8574283 0.06978917 0.8550114 0.1529291 0.875894 0.2418678 0.8574286 0.2438596 0.8550114 0.1529291 0.8574286 0.2438596 0.836546 0.1549207 0.281081 0.7188454 0.3264039 0.6394963 0.341209 0.6505193 0.281081 0.7188454 0.341209 0.6505193 0.2958861 0.7298678 0.229035 0.830954 0.2580923 0.7494375 0.281081 0.752147 0.229035 0.830954 0.281081 0.752147 0.2520238 0.8336638 0.2580923 0.7494375 0.2580921 0.6590442 0.281081 0.6617539 0.2580923 0.7494375 0.281081 0.6617539 0.281081 0.752147 0.9027567 0.6809931 0.9176281 0.5923987 0.9408608 0.5931368 0.9027567 0.6809931 0.9408608 0.5931368 0.9259897 0.6817311 0.7970179 0.6671994 0.8052858 0.5923987 0.8322454 0.5924301 0.7970179 0.6671994 0.8322454 0.5924301 0.8239784 0.667231 0.7970182 0.7591627 0.7970179 0.6671994 0.8239784 0.667231 0.7970182 0.7591627 0.8239784 0.667231 0.8239779 0.7591935 0.8052853 0.8331609 0.7970182 0.7591627 0.8239779 0.7591935 0.8052853 0.8331609 0.8239779 0.7591935 0.8322454 0.8331921 0.8771196 0.4485833 0.8919904 0.3624816 0.9152236 0.3617428 0.8771196 0.4485833 0.9152236 0.3617428 0.9003523 0.4478443 0.8919909 0.5371782 0.8771196 0.4485833 0.9003523 0.4478443 0.8919909 0.5371782 0.9003523 0.4478443 0.9152236 0.5364393 0.9413536 0.2434097 0.9423801 0.2979385 0.915103 0.2977811 0.9413536 0.2434097 0.915103 0.2977811 0.9140767 0.2432521 0.941353 0.1557669 0.9413536 0.2434097 0.9140767 0.2432521 0.941353 0.1557669 0.9140767 0.2432521 0.9140762 0.1556094 0.9423801 0.06848704 0.941353 0.1557669 0.9140762 0.1556094 0.9423801 0.06848704 0.9140762 0.1556094 0.9151032 0.06832951 0.9259897 0.6817311 0.9408609 0.7678331 0.9176283 0.7670952 0.9259897 0.6817311 0.9176283 0.7670952 0.9027567 0.6809931 0.9641998 0.8525025 0.9764795 0.9420365 0.9518859 0.9431821 0.9641998 0.8525025 0.9518859 0.9431821 0.939606 0.8536481 0.07339215 0.8272622 0.05646902 0.7411965 0.08237409 0.7387177 0.07339215 0.8272622 0.08237409 0.7387177 0.09929776 0.8247835 0.05646902 0.7411965 0.05646884 0.6531596 0.08237433 0.650681 0.05646902 0.7411965 0.08237433 0.650681 0.08237409 0.7387177 0.05646884 0.6531596 0.07339245 0.5967789 0.09929776 0.5943003 0.05646884 0.6531596 0.09929776 0.5943003 0.08237433 0.650681 0.9275041 0.5360331 0.9152236 0.4514592 0.9398169 0.4526044 0.9275041 0.5360331 0.9398169 0.4526044 0.9520973 0.5371782 0.9152236 0.4514592 0.927504 0.3619256 0.9520974 0.3630706 0.9152236 0.4514592 0.9520974 0.3630706 0.9398169 0.4526044 0.1853845 0.5943003 0.1771177 0.6682985 0.1501577 0.6683307 0.1853845 0.5943003 0.1501577 0.6683307 0.1584247 0.5943321 0.1771177 0.6682985 0.1771177 0.7602617 0.1501579 0.7602933 0.1771177 0.6682985 0.1501579 0.7602933 0.1501577 0.6683307 0.1771177 0.7602617 0.1853845 0.8350625 0.1584247 0.8350941 0.1771177 0.7602617 0.1584247 0.8350941 0.1501579 0.7602933 0.939606 0.8536481 0.9518861 0.769075 0.9764795 0.7679291 0.939606 0.8536481 0.9764795 0.7679291 0.9641998 0.8525025 0.9408609 0.6735988 0.9490266 0.5941022 0.9751538 0.5923987 0.9408609 0.6735988 0.9751538 0.5923987 0.9669882 0.6718951 0.8885245 0.86188 0.9021105 0.9410387 0.878161 0.9379646 0.8885245 0.86188 0.878161 0.9379646 0.8645746 0.858806 0.9021105 0.7710025 0.8885245 0.86188 0.8645746 0.858806 0.9021105 0.7710025 0.8645746 0.858806 0.8781604 0.7679291 0.5186505 0.6622579 0.533866 0.592417 0.5600414 0.5917774 0.5186505 0.6622579 0.5600414 0.5917774 0.5448253 0.6616179 0.5186507 0.753906 0.5186505 0.6622579 0.5448253 0.6616179 0.5186507 0.753906 0.5448253 0.6616179 0.5448254 0.7532662 0.5338667 0.8323557 0.5186507 0.753906 0.5448254 0.7532662 0.5338667 0.8323557 0.5448254 0.7532662 0.5600414 0.8317159 0.89618 0.3314624 0.8961801 0.2438596 0.9140688 0.2501397 0.89618 0.3314624 0.9140688 0.2501397 0.9140689 0.3377425 0.838209 0.4497413 0.8554672 0.3621764 0.8771196 0.3622509 0.838209 0.4497413 0.8771196 0.3622509 0.859861 0.4498155 0.8554673 0.5371038 0.838209 0.4497413 0.859861 0.4498155 0.8554673 0.5371038 0.859861 0.4498155 0.8771196 0.5371783 0.9669882 0.6718951 0.9751538 0.7631779 0.9490261 0.7648816 0.9669882 0.6718951 0.9490261 0.7648816 0.9408609 0.6735988 0.03892081 0.8336637 0.05646884 0.8405249 0.05646884 0.9274078 0.03892081 0.8336637 0.05646884 0.9274078 0.03892099 0.9205465 0.8592203 0.3587657 0.838209 0.3621764 0.8382093 0.2719881 0.8592203 0.3587657 0.8382093 0.2719881 0.8592203 0.2685776 0.80939 0.003343045 0.836546 0.003222763 0.831373 0.07508027 0.80939 0.003343045 0.831373 0.07508027 0.8042167 0.07520025 0.8042167 0.07520025 0.831373 0.07508027 0.8313731 0.1669492 0.8042167 0.07520025 0.8313731 0.1669492 0.8042169 0.1670691 0.8042169 0.1670691 0.8313731 0.1669492 0.836546 0.2437396 0.8042169 0.1670691 0.836546 0.2437396 0.8093898 0.2438596 0.939606 0.9410634 0.9156126 0.9380273 0.9021105 0.8588113 0.939606 0.9410634 0.9021105 0.8588113 0.9261038 0.8618479 0.9261038 0.8618479 0.9021105 0.8588113 0.9156126 0.7679291 0.9261038 0.8618479 0.9156126 0.7679291 0.939606 0.7709656 0.8645746 0.8330358 0.837418 0.8329149 0.8322454 0.761058 0.8645746 0.8330358 0.8322454 0.761058 0.859402 0.7611785 0.859402 0.7611785 0.8322454 0.761058 0.832246 0.6691887 0.859402 0.7611785 0.832246 0.6691887 0.8594021 0.6693091 0.8374186 0.5923987 0.8645746 0.5925197 0.8594021 0.6693091 0.8374186 0.5923987 0.8594021 0.6693091 0.832246 0.6691887 0.2290349 0.9992781 0.2018989 0.9985346 0.1989675 0.9215843 0.2290349 0.9992781 0.1989675 0.9215843 0.2261034 0.9223275 0.2018989 0.8297644 0.2290349 0.8305077 0.2261034 0.9223275 0.2018989 0.8297644 0.2261034 0.9223275 0.1989675 0.9215843 0.8299899 0.3703626 0.803026 0.3703948 0.8112454 0.2964165 0.8299899 0.3703626 0.8112454 0.2964165 0.838209 0.2963836 0.8299899 0.4623253 0.803026 0.4623575 0.803026 0.3703948 0.8299899 0.4623253 0.803026 0.3703948 0.8299899 0.3703626 0.8382089 0.5371456 0.8112452 0.5371782 0.803026 0.4623575 0.8382089 0.5371456 0.803026 0.4623575 0.8299899 0.4623253 0.9970687 0.2053763 0.9699327 0.2061187 0.972864 0.1291682 0.9970687 0.2053763 0.972864 0.1291682 1 0.1284256 1 0.2971957 0.9728642 0.2979385 0.9699327 0.2061187 1 0.2971957 0.9699327 0.2061187 0.9970687 0.2053763 0.1853846 0.745021 0.2111189 0.7427648 0.2290349 0.8275082 0.1853846 0.745021 0.2290349 0.8275082 0.2033005 0.8297644 0.1853845 0.6559436 0.2111191 0.6536873 0.2111189 0.7427648 0.1853845 0.6559436 0.2111189 0.7427648 0.1853846 0.745021 0.2033007 0.5965569 0.2290349 0.5943003 0.2111191 0.6536873 0.2033007 0.5965569 0.2111191 0.6536873 0.1853845 0.6559436 0.9426512 0.06581211 0.9699327 0.06577515 0.9696615 0.1231535 0.9426512 0.06581211 0.9696615 0.1231535 0.9423801 0.12319 0.9423801 0.12319 0.9696615 0.1231535 0.9696621 0.2118181 0.9423801 0.12319 0.9696621 0.2118181 0.9423807 0.2118544 0.9423807 0.2118544 0.9696621 0.2118181 0.9699327 0.297902 0.9423807 0.2118544 0.9699327 0.297902 0.9426512 0.2979385 0.9861554 0.5331088 0.9599358 0.5346631 0.9520974 0.4434494 0.9861554 0.5331088 0.9520974 0.4434494 0.9783172 0.4418958 0.9783172 0.4418958 0.9520974 0.4434494 0.9599357 0.3634791 0.9783172 0.4418958 0.9599357 0.3634791 0.9861554 0.3619256 0.1075175 0.5943003 0.134481 0.5943333 0.1262617 0.6691539 0.1075175 0.5943003 0.1262617 0.6691539 0.09929823 0.6691207 0.09929823 0.6691207 0.1262617 0.6691539 0.1262612 0.7611167 0.09929823 0.6691207 0.1262612 0.7611167 0.09929776 0.7610833 0.09929776 0.7610833 0.1262612 0.7611167 0.134481 0.8350949 0.09929776 0.7610833 0.134481 0.8350949 0.1075168 0.8350621 0.07307732 0.8272622 0.09929776 0.8288165 0.09145885 0.9200301 0.07307732 0.8272622 0.09145885 0.9200301 0.06523984 0.9184753 0.0992977 1 0.07307815 0.9984452 0.06523984 0.9184753 0.0992977 1 0.06523984 0.9184753 0.09145885 0.9200301 0.0274114 0.76892 0.004423022 0.76621 0.004422903 0.6758166 0.0274114 0.76892 0.004422903 0.6758166 0.02741152 0.6785269 0.0334801 0.5943003 0.05646884 0.5970101 0.02741152 0.6785269 0.0334801 0.5943003 0.02741152 0.6785269 0.004422903 0.6758166 0.8139305 0.8331921 0.8322454 0.835394 0.8322454 0.9268145 0.8139305 0.8331921 0.8322454 0.9268145 0.8139305 0.9246132 0.6035155 0.6420377 0.6186238 0.6528585 0.5751496 0.7331765 0.6035155 0.6420377 0.5751496 0.7331765 0.5600413 0.7223555 0.6756423 0.5923987 0.6907504 0.6032187 0.6186238 0.6528585 0.6756423 0.5923987 0.6186238 0.6528585 0.6035155 0.6420377 0.8876922 0.6826973 0.8645746 0.6815238 0.8796389 0.5923987 0.8876922 0.6826973 0.8796389 0.5923987 0.9027566 0.5935721 0.9027567 0.7679291 0.879639 0.7667561 0.8645746 0.6815238 0.9027567 0.7679291 0.8645746 0.6815238 0.8876922 0.6826973 0.8645746 0.9269043 0.8448951 0.9226601 0.8448948 0.8330358 0.8645746 0.9269043 0.8448948 0.8330358 0.8645746 0.8372799 0.89618 0.3376208 0.8758945 0.3341974 0.8758941 0.2438596 0.89618 0.3376208 0.8758941 0.2438596 0.89618 0.2472833 0.004423022 0.76621 0.0274114 0.76892 0.05646878 0.8336637 0.004423022 0.76621 0.05646878 0.8336637 0.03348016 0.8309538 0.399739 0.7223046 0.4730731 0.5939155 0.518397 0.6450937 0.399739 0.7223046 0.518397 0.6450937 0.518397 0.7257639 0.399739 0.7223046 0.518397 0.7257639 0.473074 0.805113 0.399739 0.7223046 0.473074 0.805113 0.3997399 0.8528318 0.399739 0.7223046 0.3997399 0.8528318 0.3264048 0.8506941 0.399739 0.7223046 0.3264048 0.8506941 0.2810814 0.7995156 0.399739 0.7223046 0.2810814 0.7995156 0.281081 0.7188454 0.399739 0.7223046 0.281081 0.7188454 0.3264039 0.6394963 0.399739 0.7223046 0.3264039 0.6394963 0.3997384 0.5917774 0.3997384 0.5917774 0.4730731 0.5939155 0.399739 0.7223046 0.5083258 0.2689352 0.4215267 0.2963836 0.4215259 0.1481921 0.4215259 0.1481921 0.5619712 0.1953666 0.5083258 0.2689352 0.4215259 0.1481921 0.5619712 0.1037786 0.5619712 0.1953666 0.4215259 0.1481921 0.5083256 0.02915549 0.5619712 0.1037786 0.4215259 0.1481921 0.4215256 0 0.5083256 0.02915549 0.4215259 0.1481921 0.3347259 0.02744907 0.4215256 0 0.4215259 0.1481921 0.281081 0.1010175 0.3347259 0.02744907 0.4215259 0.1481921 0.2810812 0.1926053 0.281081 0.1010175 0.4215259 0.1481921 0.3347264 0.2672287 0.2810812 0.1926053 0.4215259 0.1481921 0.4215267 0.2963836 0.3347264 0.2672287 0.4205614 0.4440802 0.5067649 0.5652574 0.4205616 0.5917774 0.4205614 0.4440802 0.4205616 0.5917774 0.334358 0.5618818 0.4205614 0.4440802 0.334358 0.5618818 0.281081 0.4869902 0.4205614 0.4440802 0.281081 0.4869902 0.281081 0.3957084 0.4205614 0.4440802 0.281081 0.3957084 0.3343575 0.3229029 0.4205614 0.4440802 0.3343575 0.3229029 0.4205608 0.2963836 0.4205614 0.4440802 0.4205608 0.2963836 0.5067644 0.3262789 0.4205614 0.4440802 0.5067644 0.3262789 0.5600413 0.4011709 0.4205614 0.4440802 0.5600413 0.4011709 0.5600413 0.4924527 0.5600413 0.4924527 0.5067649 0.5652574 0.4205614 0.4440802 0.7566195 0.568742 0.6815336 0.5923987 0.6815335 0.4443914 0.6815335 0.4443914 0.803026 0.4975872 0.7566195 0.568742 0.6815335 0.4443914 0.803026 0.4061133 0.803026 0.4975872 0.6815335 0.4443914 0.7566198 0.3292607 0.803026 0.4061133 0.6815335 0.4443914 0.6815336 0.2963836 0.7566198 0.3292607 0.6815335 0.4443914 0.6064471 0.320041 0.6815336 0.2963836 0.6815335 0.4443914 0.5600413 0.3911955 0.6064471 0.320041 0.6815335 0.4443914 0.5600413 0.4826694 0.5600413 0.3911955 0.6815335 0.4443914 0.6064472 0.5595222 0.5600413 0.4826694 0.6815335 0.4443914 0.6815336 0.5923987 0.6064472 0.5595222 0.6830942 0.1498032 0.8042167 0.2076415 0.7579518 0.2761408 0.6830942 0.1498032 0.8042167 0.1170498 0.8042167 0.2076415 0.6830942 0.1498032 0.7579519 0.03896868 0.8042167 0.1170498 0.6830942 0.1498032 0.6830942 0.003222763 0.7579519 0.03896868 0.6830942 0.1498032 0.608236 0.02346539 0.6830942 0.003222763 0.6830942 0.1498032 0.5619716 0.09196496 0.608236 0.02346539 0.6830942 0.1498032 0.5619712 0.1825567 0.5619716 0.09196496 0.6830942 0.1498032 0.6082361 0.2606379 0.5619712 0.1825567 0.6830942 0.1498032 0.6830945 0.2963836 0.6082361 0.2606379 0.6830945 0.2963836 0.6830942 0.1498032 0.7579518 0.2761408 0.1427519 0.5943003 0.1427518 0.445865 0.2282437 0.5671991 0.1427518 0.445865 0.1427519 0.5943003 0.05725973 0.5647043 0.1427518 0.445865 0.05725973 0.5647043 0.004422903 0.4897153 0.1427518 0.445865 0.004422903 0.4897153 0.004423201 0.3979772 0.1427518 0.445865 0.004423201 0.3979772 0.05725979 0.3245305 0.1427518 0.445865 0.05725979 0.3245305 0.142752 0.2974296 0.1427518 0.445865 0.142752 0.2974296 0.2282438 0.3270258 0.1427518 0.445865 0.2282438 0.3270258 0.281081 0.4020145 0.1427518 0.445865 0.281081 0.4020145 0.281081 0.4937525 0.1427518 0.445865 0.281081 0.4937525 0.2282437 0.5671991 0.1405401 0.1487144 0.05368173 0.02870708 0.140541 0 0.1405401 0.1487144 1.7103e-7 0.1032534 0.05368173 0.02870708 0.1405401 0.1487144 0 0.1951644 1.7103e-7 0.1032534 0.1405401 0.1487144 0.05368137 0.2693329 0 0.1951644 0.1405401 0.1487144 0.1405401 0.2974296 0.05368137 0.2693329 0.1405401 0.1487144 0.2273994 0.2687221 0.1405401 0.2974296 0.1405401 0.1487144 0.281081 0.1941758 0.2273994 0.2687221 0.1405401 0.1487144 0.281081 0.1022647 0.281081 0.1941758 0.1405401 0.1487144 0.2273996 0.02809625 0.281081 0.1022647 0.2273996 0.02809625 0.1405401 0.1487144 0.140541 0 0.6785296 0.7223559 0.7535441 0.8026742 0.6814169 0.8523131 0.6785296 0.7223559 0.7970179 0.7223563 0.7535441 0.8026742 0.6785296 0.7223559 0.7952336 0.642038 0.7970179 0.7223563 0.6785296 0.7223559 0.7488725 0.5923987 0.7952336 0.642038 0.6785296 0.7223559 0.6756423 0.5923987 0.7488725 0.5923987 0.6785296 0.7223559 0.6035155 0.6420377 0.6756423 0.5923987 0.6785296 0.7223559 0.5600413 0.7223555 0.6035155 0.6420377 0.6785296 0.7223559 0.5618255 0.8026738 0.5600413 0.7223555 0.6785296 0.7223559 0.6081871 0.8523131 0.5618255 0.8026738 0.6081871 0.8523131 0.6785296 0.7223559 0.6814169 0.8523131</float_array>
          <technique_common>
            <accessor source="#Back_Sonar-mesh-map-0-array" count="720" stride="2">
              <param name="S" type="float"/>
              <param name="T" type="float"/>
            </accessor>
          </technique_common>
        </source>
        <vertices id="Back_Sonar-mesh-vertices">
          <input semantic="POSITION" source="#Back_Sonar-mesh-positions"/>
        </vertices>
        <polylist material="PBRFULL_BackSonar-material" count="240">
          <input semantic="VERTEX" source="#Back_Sonar-mesh-vertices" offset="0"/>
          <input semantic="NORMAL" source="#Back_Sonar-mesh-normals" offset="1"/>
          <input semantic="TEXCOORD" source="#Back_Sonar-mesh-map-0" offset="2" set="0"/>
          <vcount>3 3 3 3 3 3 3 3 3 3 3 3 3 3 3 3 3 3 3 3 3 3 3 3 3 3 3 3 3 3 3 3 3 3 3 3 3 3 3 3 3 3 3 3 3 3 3 3 3 3 3 3 3 3 3 3 3 3 3 3 3 3 3 3 3 3 3 3 3 3 3 3 3 3 3 3 3 3 3 3 3 3 3 3 3 3 3 3 3 3 3 3 3 3 3 3 3 3 3 3 3 3 3 3 3 3 3 3 3 3 3 3 3 3 3 3 3 3 3 3 3 3 3 3 3 3 3 3 3 3 3 3 3 3 3 3 3 3 3 3 3 3 3 3 3 3 3 3 3 3 3 3 3 3 3 3 3 3 3 3 3 3 3 3 3 3 3 3 3 3 3 3 3 3 3 3 3 3 3 3 3 3 3 3 3 3 3 3 3 3 3 3 3 3 3 3 3 3 3 3 3 3 3 3 3 3 3 3 3 3 3 3 3 3 3 3 3 3 3 3 3 3 3 3 3 3 3 3 3 3 3 3 3 3 3 3 3 3 3 3 </vcount>
          <p>0 0 0 1 0 1 2 0 2 0 1 3 2 1 4 3 1 5 1 2 6 4 2 7 5 2 8 1 3 9 5 3 10 2 3 11 4 4 12 6 4 13 7 4 14 4 5 15 7 5 16 5 5 17 6 6 18 8 6 19 9 6 20 6 7 21 9 7 22 7 7 23 8 8 24 10 8 25 11 8 26 8 9 27 11 9 28 9 9 29 10 10 30 12 10 31 13 10 32 10 11 33 13 11 34 11 11 35 12 12 36 14 12 37 15 12 38 12 13 39 15 13 40 13 13 41 14 14 42 16 14 43 17 14 44 14 15 45 17 15 46 15 15 47 16 16 48 18 16 49 19 16 50 16 17 51 19 17 52 17 17 53 18 18 54 0 18 55 3 18 56 18 19 57 3 19 58 19 19 59 20 20 60 21 20 61 22 20 62 20 21 63 22 21 64 23 21 65 24 22 66 22 22 67 21 22 68 24 23 69 21 23 70 25 23 71 26 24 72 24 24 73 25 24 74 26 25 75 25 25 76 27 25 77 28 26 78 26 26 79 27 26 80 28 27 81 27 27 82 29 27 83 30 28 84 28 28 85 29 28 86 30 29 87 29 29 88 31 29 89 32 30 90 30 30 91 31 30 92 32 31 93 31 31 94 33 31 95 34 32 96 32 32 97 33 32 98 34 33 99 33 33 100 35 33 101 36 34 102 34 34 103 35 34 104 36 35 105 35 35 106 37 35 107 38 36 108 36 36 109 37 36 110 38 37 111 37 37 112 39 37 113 23 38 114 38 38 115 39 38 116 23 39 117 39 39 118 20 39 119 40 40 120 41 40 121 42 40 122 40 41 123 42 41 124 43 41 125 41 42 126 44 42 127 45 42 128 41 43 129 45 43 130 42 43 131 44 44 132 46 44 133 47 44 134 44 45 135 47 45 136 45 45 137 46 46 138 48 46 139 49 46 140 46 47 141 49 47 142 47 47 143 48 48 144 50 48 145 51 48 146 48 49 147 51 49 148 49 49 149 50 50 150 52 50 151 53 50 152 50 51 153 53 51 154 51 51 155 52 52 156 54 52 157 55 52 158 52 53 159 55 53 160 53 53 161 54 54 162 56 54 163 57 54 164 54 55 165 57 55 166 55 55 167 56 56 168 58 56 169 59 56 170 56 57 171 59 57 172 57 57 173 43 58 174 59 58 175 58 58 176 43 59 177 58 59 178 40 59 179 60 60 180 61 60 181 62 60 182 60 61 183 62 61 184 63 61 185 64 62 186 62 62 187 61 62 188 64 63 189 61 63 190 65 63 191 66 64 192 64 64 193 65 64 194 66 65 195 65 65 196 67 65 197 68 66 198 66 66 199 67 66 200 68 67 201 67 67 202 69 67 203 70 68 204 68 68 205 69 68 206 70 69 207 69 69 208 71 69 209 72 70 210 70 70 211 71 70 212 72 71 213 71 71 214 73 71 215 74 72 216 72 72 217 73 72 218 74 73 219 73 73 220 75 73 221 76 74 222 74 74 223 75 74 224 76 75 225 75 75 226 77 75 227 78 76 228 76 76 229 77 76 230 78 77 231 77 77 232 79 77 233 63 78 234 78 78 235 79 78 236 63 79 237 79 79 238 60 79 239 80 80 240 81 80 241 82 80 242 80 81 243 82 81 244 83 81 245 83 82 246 82 82 247 84 82 248 83 83 249 84 83 250 85 83 251 85 84 252 84 84 253 86 84 254 85 85 255 86 85 256 87 85 257 87 86 258 86 86 259 88 86 260 87 87 261 88 87 262 89 87 263 89 88 264 88 88 265 90 88 266 89 89 267 90 89 268 91 89 269 91 90 270 90 90 271 92 90 272 91 91 273 92 91 274 93 91 275 93 92 276 92 92 277 94 92 278 93 93 279 94 93 280 95 93 281 95 94 282 94 94 283 96 94 284 95 95 285 96 95 286 97 95 287 97 96 288 96 96 289 98 96 290 97 97 291 98 97 292 99 97 293 81 98 294 80 98 295 99 98 296 81 99 297 99 99 298 98 99 299 100 100 300 101 100 301 102 100 302 100 101 303 102 101 304 103 101 305 104 102 306 105 102 307 103 102 308 104 103 309 103 103 310 102 103 311 106 104 312 107 104 313 105 104 314 106 105 315 105 105 316 104 105 317 108 106 318 109 106 319 107 106 320 108 107 321 107 107 322 106 107 323 110 108 324 111 108 325 109 108 326 110 109 327 109 109 328 108 109 329 112 110 330 113 110 331 111 110 332 112 111 333 111 111 334 110 111 335 114 112 336 115 112 337 113 112 338 114 113 339 113 113 340 112 113 341 116 114 342 117 114 343 115 114 344 116 115 345 115 115 346 114 115 347 118 116 348 119 116 349 117 116 350 118 117 351 117 117 352 116 117 353 101 118 354 100 118 355 119 118 356 101 119 357 119 119 358 118 119 359 120 120 360 121 120 361 122 120 362 120 121 363 122 121 364 123 121 365 123 122 366 122 122 367 124 122 368 123 123 369 124 123 370 125 123 371 125 124 372 124 124 373 126 124 374 125 125 375 126 125 376 127 125 377 127 126 378 126 126 379 128 126 380 127 127 381 128 127 382 129 127 383 129 128 384 128 128 385 130 128 386 129 129 387 130 129 388 131 129 389 131 130 390 130 130 391 132 130 392 131 131 393 132 131 394 133 131 395 133 132 396 132 132 397 134 132 398 133 133 399 134 133 400 135 133 401 135 134 402 134 134 403 136 134 404 135 135 405 136 135 406 137 135 407 137 136 408 136 136 409 138 136 410 137 137 411 138 137 412 139 137 413 121 138 414 120 138 415 139 138 416 121 139 417 139 139 418 138 139 419 140 140 420 141 140 421 142 140 422 140 141 423 142 141 424 143 141 425 144 17 426 145 17 427 143 17 428 144 142 429 143 142 430 142 142 431 146 143 432 147 143 433 145 143 434 146 14 435 145 14 436 144 14 437 148 144 438 149 144 439 147 144 440 148 145 441 147 145 442 146 145 443 150 146 444 151 146 445 149 146 446 150 147 447 149 147 448 148 147 449 152 148 450 153 148 451 151 148 452 152 149 453 151 149 454 150 149 455 154 7 456 155 7 457 153 7 458 154 150 459 153 150 460 152 150 461 156 151 462 157 151 463 155 151 464 156 4 465 155 4 466 154 4 467 158 152 468 159 152 469 157 152 470 158 153 471 157 153 472 156 153 473 141 154 474 140 154 475 159 154 476 141 0 477 159 0 478 158 0 479 160 155 480 0 155 481 1 155 482 160 156 483 1 156 484 4 156 485 160 157 486 4 157 487 6 157 488 160 158 489 6 158 490 8 158 491 160 159 492 8 159 493 10 159 494 160 155 495 10 155 496 12 155 497 160 160 498 12 160 499 14 160 500 160 155 501 14 155 502 16 155 503 160 155 504 16 155 505 18 155 506 18 161 507 0 161 508 160 161 509 22 162 510 23 162 511 161 162 512 161 163 513 24 163 514 22 163 515 161 164 516 26 164 517 24 164 518 161 165 519 28 165 520 26 165 521 161 166 522 30 166 523 28 166 524 161 167 525 32 167 526 30 167 527 161 168 528 34 168 529 32 168 530 161 169 531 36 169 532 34 169 533 161 170 534 38 170 535 36 170 536 161 171 537 23 171 538 38 171 539 162 172 540 40 172 541 41 172 542 162 173 543 41 173 544 44 173 545 162 174 546 44 174 547 46 174 548 162 175 549 46 175 550 48 175 551 162 176 552 48 176 553 50 176 554 162 177 555 50 177 556 52 177 557 162 178 558 52 178 559 54 178 560 162 179 561 54 179 562 56 179 563 162 180 564 56 180 565 58 180 566 58 181 567 40 181 568 162 181 569 62 182 570 63 182 571 163 182 572 163 183 573 64 183 574 62 183 575 163 184 576 66 184 577 64 184 578 163 185 579 68 185 580 66 185 581 163 186 582 70 186 583 68 186 584 163 187 585 72 187 586 70 187 587 163 188 588 74 188 589 72 188 590 163 189 591 76 189 592 74 189 593 163 190 594 78 190 595 76 190 596 163 191 597 63 191 598 78 191 599 164 192 600 83 192 601 80 192 602 164 193 603 85 193 604 83 193 605 164 194 606 87 194 607 85 194 608 164 195 609 89 195 610 87 195 611 164 196 612 91 196 613 89 196 614 164 197 615 93 197 616 91 197 617 164 198 618 95 198 619 93 198 620 164 199 621 97 199 622 95 199 623 164 200 624 99 200 625 97 200 626 99 201 627 164 201 628 80 201 629 102 202 630 165 202 631 101 202 632 165 203 633 102 203 634 104 203 635 165 204 636 104 204 637 106 204 638 165 205 639 106 205 640 108 205 641 165 206 642 108 206 643 110 206 644 165 207 645 110 207 646 112 207 647 165 208 648 112 208 649 114 208 650 165 209 651 114 209 652 116 209 653 165 210 654 116 210 655 118 210 656 165 211 657 118 211 658 101 211 659 166 212 660 123 212 661 120 212 662 166 213 663 125 213 664 123 213 665 166 214 666 127 214 667 125 214 668 166 215 669 129 215 670 127 215 671 166 216 672 131 216 673 129 216 674 166 217 675 133 217 676 131 217 677 166 218 678 135 218 679 133 218 680 166 219 681 137 219 682 135 219 683 166 220 684 139 220 685 137 220 686 139 221 687 166 221 688 120 221 689 167 222 690 158 222 691 141 222 692 167 223 693 156 223 694 158 223 695 167 224 696 154 224 697 156 224 698 167 225 699 152 225 700 154 225 701 167 226 702 150 226 703 152 226 704 167 222 705 148 222 706 150 222 707 167 227 708 146 227 709 148 227 710 167 222 711 144 222 712 146 222 713 167 222 714 142 222 715 144 222 716 142 228 717 167 228 718 141 228 719</p>
        </polylist>
      </mesh>
    </geometry>
  </library_geometries>
  <library_controllers/>
  <library_visual_scenes>
    <visual_scene id="Scene" name="Scene">
      <node id="Back_Sonar" name="Back_Sonar" type="NODE">
        <matrix sid="transform">1 0 0 0 0 1 0 0 0 0 1 0 0 0 0 1</matrix>
        <instance_geometry url="#Back_Sonar-mesh" name="Back_Sonar">
          <bind_material>
            <technique_common>
              <instance_material symbol="PBRFULL_BackSonar-material" target="#PBRFULL_BackSonar-material"/>
            </technique_common>
          </bind_material>
        </instance_geometry>
      </node>
    </visual_scene>
  </library_visual_scenes>
  <scene>
    <instance_visual_scene url="#Scene"/>
  </scene>
</COLLADA>