<COLLADA xmlns="http://www.collada.org/2005/11/COLLADASchema" version="1.4.1">
  <asset>
    <created>2017-05-23T16:55:37.719004</created>
    <modified>2017-05-23T16:55:37.719013</modified>
    <up_axis>Z_UP</up_axis>
  </asset>
  <library_effects>
    <effect name="effect0" id="effect0">
      <profile_COMMON>
        <technique sid="common">
          <phong>
            <emission>
              <color>0.0 0.0 0.0 1.0</color>
            </emission>
            <ambient>
              <color>0.0 0.0 0.0 1.0</color>
            </ambient>
            <diffuse>
              <color>0.7 0.7 0.7 1.0</color>
            </diffuse>
            <specular>
              <color>1 1 1 1.0</color>
            </specular>
            <shininess>
              <float>0.0</float>
            </shininess>
            <reflective>
              <color>0.0 0.0 0.0 1.0</color>
            </reflective>
            <reflectivity>
              <float>0.0</float>
            </reflectivity>
            <transparent>
              <color>0.0 0.0 0.0 1.0</color>
            </transparent>
            <transparency>
              <float>1.0</float>
            </transparency>
          </phong>
        </technique>
        <extra>
          <technique profile="GOOGLEEARTH">
            <double_sided>0</double_sided>
          </technique>
        </extra>
      </profile_COMMON>
    </effect>
  </library_effects>
  <library_geometries>
    <geometry id="geometry0" name="Extrude">
      <mesh>
        <source id="cubenormals-array0">
          <float_array count="204" id="cubenormals-array0-array">0 -1 -0 0 -1 -0 -1 -0 -0 -1 -0 -0 0 -1 -0 0 -1 -0 0.7071068 -0.7071068 -0 0.7071068 -0.7071068 -0 1 -0 -0 1 -0 -0 0.7071068 0.7071068 0 0.7071068 0.7071068 0 -0 1 -0 -0 1 -0 -1 -0 -0 -1 -0 -0 -0 1 -0 -0 1 -0 1 -0 -0 1 -0 -0 -0 1 -0 -0 1 -0 -0.7071068 0.7071068 -0 -0.7071068 0.7071068 -0 -0.7071068 0.7071068 -0 -0.7071068 0.7071068 -0 -1 -0 -0 -1 -0 -0 -0.7071068 -0.7071068 -0 -0.7071068 -0.7071068 -0 -0.7071068 -0.7071068 -0 -0.7071068 -0.7071068 -0 0 -1 -0 0 -1 -0 1 -0 -0 1 -0 -0 -0 -0 -1 -0 -0 -1 -0 -0 -1 -0 -0 -1 -0 -0 -1 -0 -0 -1 -0 -0 -1 -0 -0 -1 -0 -0 -1 -0 -0 -1 -0 -0 -1 -0 -0 -1 -0 -0 -1 -0 -0 -1 -0 -0 -1 -0 -0 -1 0 0 1 0 0 1 0 0 1 0 0 1 0 0 1 0 0 1 0 0 1 0 0 1 0 0 1 0 0 1 0 0 1 0 0 1 0 0 1 0 0 1 0 0 1 0 0 1</float_array>
          <technique_common>
            <accessor count="68" source="#cubenormals-array0-array" stride="3">
              <param type="float" name="X"/>
              <param type="float" name="Y"/>
              <param type="float" name="Z"/>
            </accessor>
          </technique_common>
        </source>
        <source id="cubeverts-array0">
          <float_array count="108" id="cubeverts-array0-array">-18.35 -43 15 -18.35 -43 0 18.35 -43 0 18.35 -43 15 18.35 -46 0 18.35 -46 15 29 -46 0 29 -46 15 40 -35 0 40 -35 15 40 35 15 40 35 0 29 46 15 29 46 0 18.35 46 0 18.35 46 15 18.35 43 0 18.35 43 15 -18.35 43 0 -18.35 43 15 -18.35 46 0 -18.35 46 15 -30 46 15 -30 46 0 -42 34 0 -42 34 15 -50 26 0 -50 26 15 -50 -26 0 -50 -26 15 -42 -34 0 -42 -34 15 -30 -46 0 -30 -46 15 -18.35 -46 15 -18.35 -46 0</float_array>
          <technique_common>
            <accessor count="36" source="#cubeverts-array0-array" stride="3">
              <param type="float" name="X"/>
              <param type="float" name="Y"/>
              <param type="float" name="Z"/>
            </accessor>
          </technique_common>
        </source>
        <vertices id="cubeverts-array0-vertices">
          <input source="#cubeverts-array0" semantic="POSITION"/>
        </vertices>
        <triangles count="68" material="materialref">
          <input source="#cubenormals-array0" semantic="NORMAL" offset="1"/>
          <input source="#cubeverts-array0-vertices" semantic="VERTEX" offset="0"/>
          <p>0 0 1 0 2 0 3 1 0 1 2 1 3 2 2 2 4 2 5 3 3 3 4 3 5 4 4 4 6 4 7 5 5 5 6 5 7 6 6 6 8 6 9 7 7 7 8 7 9 8 8 8 10 8 10 9 8 9 11 9 10 10 11 10 12 10 12 11 11 11 13 11 12 12 13 12 14 12 15 13 12 13 14 13 15 14 14 14 16 14 17 15 15 15 16 15 17 16 16 16 18 16 19 17 17 17 18 17 19 18 18 18 20 18 21 19 19 19 20 19 22 20 21 20 20 20 22 21 20 21 23 21 22 22 23 22 24 22 25 23 22 23 24 23 25 24 24 24 26 24 27 25 25 25 26 25 27 26 26 26 28 26 29 27 27 27 28 27 29 28 28 28 30 28 31 29 29 29 30 29 31 30 30 30 32 30 33 31 31 31 32 31 34 32 33 32 32 32 34 33 32 33 35 33 34 34 35 34 1 34 0 35 34 35 1 35 32 36 30 36 1 36 35 37 32 37 1 37 30 38 28 38 26 38 4 39 2 39 6 39 30 40 26 40 24 40 6 41 2 41 8 41 24 42 23 42 18 42 30 43 24 43 18 43 1 44 30 44 18 44 18 45 23 45 20 45 2 46 1 46 16 46 1 47 18 47 16 47 8 48 2 48 11 48 2 49 16 49 11 49 16 50 14 50 13 50 11 51 16 51 13 51 0 52 31 52 33 52 0 53 33 53 34 53 27 54 29 54 31 54 7 55 3 55 5 55 25 56 27 56 31 56 9 57 3 57 7 57 19 58 22 58 25 58 19 59 25 59 31 59 19 60 31 60 0 60 21 61 22 61 19 61 17 62 0 62 3 62 17 63 19 63 0 63 10 64 3 64 9 64 10 65 17 65 3 65 12 66 15 66 17 66 12 67 17 67 10 67</p>
        </triangles>
      </mesh>
    </geometry>
  </library_geometries>
  <library_materials>
    <material name="mymaterial" id="material0">
      <instance_effect url="#effect0"/>
    </material>
  </library_materials>
  <library_visual_scenes>
    <visual_scene id="myscene">
      <node name="node0" id="node0">
        <instance_geometry url="#geometry0">
          <bind_material>
            <technique_common>
              <instance_material symbol="materialref" target="#material0"/>
            </technique_common>
          </bind_material>
        </instance_geometry>
      </node>
    </visual_scene>
  </library_visual_scenes>
  <scene>
    <instance_visual_scene url="#myscene"/>
  </scene>
</COLLADA>
