<COLLADA xmlns="http://www.collada.org/2005/11/COLLADASchema" version="1.4.1">
  <asset>
    <created>2017-05-23T16:58:08.743025</created>
    <modified>2017-05-23T16:58:08.743038</modified>
    <up_axis>Z_UP</up_axis>
  </asset>
  <library_effects>
    <effect name="effect0" id="effect0">
      <profile_COMMON>
        <technique sid="common">
          <phong>
            <emission>
              <color>0.0 0.0 0.0 1.0</color>
            </emission>
            <ambient>
              <color>0.0 0.0 0.0 1.0</color>
            </ambient>
            <diffuse>
              <color>0.7 0.7 0.7 1.0</color>
            </diffuse>
            <specular>
              <color>1 1 1 1.0</color>
            </specular>
            <shininess>
              <float>0.0</float>
            </shininess>
            <reflective>
              <color>0.0 0.0 0.0 1.0</color>
            </reflective>
            <reflectivity>
              <float>0.0</float>
            </reflectivity>
            <transparent>
              <color>0.0 0.0 0.0 1.0</color>
            </transparent>
            <transparency>
              <float>1.0</float>
            </transparency>
          </phong>
        </technique>
        <extra>
          <technique profile="GOOGLEEARTH">
            <double_sided>0</double_sided>
          </technique>
        </extra>
      </profile_COMMON>
    </effect>
  </library_effects>
  <library_geometries>
    <geometry id="geometry0" name="Extrude">
      <mesh>
        <source id="cubenormals-array0">
          <float_array count="36" id="cubenormals-array0-array">-1 -0 -0 -1 -0 -0 0 -1 -0 0 -1 -0 1 -0 -0 1 -0 -0 -0 1 -0 -0 1 -0 0 0 -1 0 0 -1 -0 -0 1 -0 -0 1</float_array>
          <technique_common>
            <accessor count="12" source="#cubenormals-array0-array" stride="3">
              <param type="float" name="X"/>
              <param type="float" name="Y"/>
              <param type="float" name="Z"/>
            </accessor>
          </technique_common>
        </source>
        <source id="cubeverts-array0">
          <float_array count="24" id="cubeverts-array0-array">-35.5 32 8 -35.5 32 0 -35.5 -32 8 -35.5 -32 0 35.5 -32 8 35.5 -32 0 35.5 32 8 35.5 32 0</float_array>
          <technique_common>
            <accessor count="8" source="#cubeverts-array0-array" stride="3">
              <param type="float" name="X"/>
              <param type="float" name="Y"/>
              <param type="float" name="Z"/>
            </accessor>
          </technique_common>
        </source>
        <vertices id="cubeverts-array0-vertices">
          <input source="#cubeverts-array0" semantic="POSITION"/>
        </vertices>
        <triangles count="12" material="materialref">
          <input source="#cubenormals-array0" semantic="NORMAL" offset="1"/>
          <input source="#cubeverts-array0-vertices" semantic="VERTEX" offset="0"/>
          <p>0 0 1 0 2 0 2 1 1 1 3 1 2 2 3 2 4 2 4 3 3 3 5 3 4 4 5 4 6 4 6 5 5 5 7 5 6 6 7 6 0 6 0 7 7 7 1 7 1 8 5 8 3 8 1 9 7 9 5 9 2 10 4 10 0 10 4 11 6 11 0 11</p>
        </triangles>
      </mesh>
    </geometry>
  </library_geometries>
  <library_materials>
    <material name="mymaterial" id="material0">
      <instance_effect url="#effect0"/>
    </material>
  </library_materials>
  <library_visual_scenes>
    <visual_scene id="myscene">
      <node name="node0" id="node0">
        <instance_geometry url="#geometry0">
          <bind_material>
            <technique_common>
              <instance_material symbol="materialref" target="#material0"/>
            </technique_common>
          </bind_material>
        </instance_geometry>
      </node>
    </visual_scene>
  </library_visual_scenes>
  <scene>
    <instance_visual_scene url="#myscene"/>
  </scene>
</COLLADA>
