<?xml version="1.0" encoding="utf-8"?>
<robot name="MMM">
	<joint name="BPSegment_joint" type="fixed">
		<origin rpy="0 -0 0" xyz="0 0 0.040"/>
		<parent link="root_link"/>
		<child link="BPSegment_link"/>
		<axis xyz="0 0 1"/>
		<calibration falling="0.0" reference_position="0.0" rising="0.0"/>
		<dynamics damping="1.0"/>
		<limit effort="1000.0" lower="0.0" upper="0.0" velocity="1.0"/>
	</joint>
	<joint name="BPx_joint" type="revolute">
		<origin rpy="0 -0 0" xyz="0 0 0"/>
		<parent link="BPSegment_link"/>
		<child link="BPx_link"/>
		<axis xyz="1 0 0"/>
		<calibration falling="0.0" reference_position="0.0" rising="0.0"/>
		<dynamics damping="1.0"/>
		<limit effort="1000.0" lower="-0.872665" upper="0.610865" velocity="1.0"/>
	</joint>
	<joint name="BPz_joint" type="revolute">
		<origin rpy="0 -0 0" xyz="0 0 0"/>
		<parent link="BPx_link"/>
		<child link="BPz_link"/>
		<axis xyz="0 0 1"/>
		<calibration falling="0.0" reference_position="0.0" rising="0.0"/>
		<dynamics damping="1.0"/>
		<limit effort="1000.0" lower="-0.785398" upper="0.785398" velocity="1.0"/>
	</joint>
	<joint name="BPy_joint" type="revolute">
		<origin rpy="0 -0 0" xyz="0 0 0"/>
		<parent link="BPz_link"/>
		<child link="BPy_link"/>
		<axis xyz="0 1 0"/>
		<calibration falling="0.0" reference_position="0.0" rising="0.0"/>
		<dynamics damping="1.0"/>
		<limit effort="1000.0" lower="-0.349066" upper="0.349066" velocity="1.0"/>
	</joint>
	<joint name="BTSegment_joint" type="fixed">
		<origin rpy="0 -0 0" xyz="0 0 0.060"/>
		<parent link="BPy_link"/>
		<child link="BTSegment_link"/>
		<axis xyz="0 0 1"/>
		<calibration falling="0.0" reference_position="0.0" rising="0.0"/>
		<dynamics damping="1.0"/>
		<limit effort="1000.0" lower="0.0" upper="60.0" velocity="1.0"/>
	</joint>
	<joint name="BTx_joint" type="revolute">
		<origin rpy="0 -0 0" xyz="0 0 0"/>
		<parent link="BTSegment_link"/>
		<child link="BTx_link"/>
		<axis xyz="1 0 0"/>
		<calibration falling="0.0" reference_position="0.0" rising="0.0"/>
		<dynamics damping="1.0"/>
		<limit effort="1000.0" lower="-0.610865" upper="0.471239" velocity="1.0"/>
	</joint>
	<joint name="BTz_joint" type="revolute">
		<origin rpy="0 -0 0" xyz="0 0 0"/>
		<parent link="BTx_link"/>
		<child link="BTz_link"/>
		<axis xyz="0 0 1"/>
		<calibration falling="0.0" reference_position="0.0" rising="0.0"/>
		<dynamics damping="1.0"/>
		<limit effort="1000.0" lower="-0.628319" upper="0.628319" velocity="1.0"/>
	</joint>
	<joint name="BTy_joint" type="revolute">
		<origin rpy="0 -0 0" xyz="0 0 0"/>
		<parent link="BTz_link"/>
		<child link="BTy_link"/>
		<axis xyz="0 1 0"/>
		<calibration falling="0.0" reference_position="0.0" rising="0.0"/>
		<dynamics damping="1.0"/>
		<limit effort="1000.0" lower="-0.349066" upper="0.349066" velocity="1.0"/>
	</joint>
	<joint name="collarSegment_joint" type="fixed">
		<origin rpy="0 -0 0" xyz="0 0 0.188"/>
		<parent link="BTy_link"/>
		<child link="collarSegment_link"/>
		<axis xyz="0 0 1"/>
		<calibration falling="0.0" reference_position="0.0" rising="0.0"/>
		<dynamics damping="1.0"/>
		<limit effort="1000.0" lower="0.0" upper="188.0" velocity="1.0"/>
	</joint>
	<joint name="BLNsegment_joint" type="fixed">
		<origin rpy="0 -0 0" xyz="0 0 0.022"/>
		<parent link="collarSegment_link"/>
		<child link="BLNsegment_link"/>
		<axis xyz="0 0 1"/>
		<calibration falling="0.0" reference_position="0.0" rising="0.0"/>
		<dynamics damping="1.0"/>
		<limit effort="1000.0" lower="0.0" upper="22.0" velocity="1.0"/>
	</joint>
	<joint name="BLNx_joint" type="fixed">
		<origin rpy="0 -0 0" xyz="0 0 0"/>
		<parent link="BLNsegment_link"/>
		<child link="BLNx_link"/>
		<axis xyz="1 0 0"/>
		<calibration falling="0.0" reference_position="0.0" rising="0.0"/>
		<dynamics damping="1.0"/>
		<limit effort="1000.0" lower="-0.785398" upper="0.261799" velocity="1.0"/>
	</joint>
	<joint name="BLNz_joint" type="fixed">
		<origin rpy="0 -0 0" xyz="0 0 0"/>
		<parent link="BLNx_link"/>
		<child link="BLNz_link"/>
		<axis xyz="0 0 1"/>
		<calibration falling="0.0" reference_position="0.0" rising="0.0"/>
		<dynamics damping="1.0"/>
		<limit effort="1000.0" lower="-0.261799" upper="0.261799" velocity="1.0"/>
	</joint>
	<joint name="BLNy_joint" type="fixed">
		<origin rpy="0 -0 0" xyz="0 0 0"/>
		<parent link="BLNz_link"/>
		<child link="BLNy_link"/>
		<axis xyz="0 1 0"/>
		<calibration falling="0.0" reference_position="0.0" rising="0.0"/>
		<dynamics damping="1.0"/>
		<limit effort="1000.0" lower="-0.349066" upper="0.349066" velocity="1.0"/>
	</joint>
	<joint name="BUNsegment_joint" type="fixed">
		<origin rpy="0 -0 0" xyz="0 0 0.030"/>
		<parent link="BLNy_link"/>
		<child link="BUNsegment_link"/>
		<axis xyz="0 0 1"/>
		<calibration falling="0.0" reference_position="0.0" rising="0.0"/>
		<dynamics damping="1.0"/>
		<limit effort="1000.0" lower="0.0" upper="30.0" velocity="1.0"/>
	</joint>
	<joint name="BUNx_joint" type="revolute">
		<origin rpy="0 -0 0" xyz="0 0 0"/>
		<parent link="BUNsegment_link"/>
		<child link="BUNx_link"/>
		<axis xyz="1 0 0"/>
		<calibration falling="0.0" reference_position="0.0" rising="0.0"/>
		<dynamics damping="1.0"/>
		<limit effort="1000.0" lower="-0.349066" upper="0.523599" velocity="1.0"/>
	</joint>
	<joint name="BUNz_joint" type="revolute">
		<origin rpy="0 -0 0" xyz="0 0 0"/>
		<parent link="BUNx_link"/>
		<child link="BUNz_link"/>
		<axis xyz="0 0 1"/>
		<calibration falling="0.0" reference_position="0.0" rising="0.0"/>
		<dynamics damping="1.0"/>
		<limit effort="1000.0" lower="-0.349066" upper="0.349066" velocity="1.0"/>
	</joint>
	<joint name="BUNy_joint" type="revolute">
		<origin rpy="0 -0 0" xyz="0 0 0"/>
		<parent link="BUNz_link"/>
		<child link="BUNy_link"/>
		<axis xyz="0 0 1"/>
		<calibration falling="0.0" reference_position="0.0" rising="0.0"/>
		<dynamics damping="1.0"/>
		<limit effort="1000.0" lower="-0.261799" upper="0.261799" velocity="1.0"/>
	</joint>
	<joint name="MidHeadSegment_joint" type="fixed">
		<origin rpy="0 -0 0" xyz="0 0 0.066"/>
		<parent link="BUNy_link"/>
		<child link="MidHeadSegment_link"/>
		<axis xyz="0 0 1"/>
		<calibration falling="0.0" reference_position="0.0" rising="0.0"/>
		<dynamics damping="1.0"/>
		<limit effort="1000.0" lower="0.0" upper="66.0" velocity="1.0"/>
	</joint>
	<joint name="LeftEyeSegmentX_joint" type="fixed">
		<origin rpy="0 -0 0" xyz="-0.015 0 0"/>
		<parent link="MidHeadSegment_link"/>
		<child link="LeftEyeSegmentX_link"/>
		<axis xyz="-1 -0 -0"/>
		<calibration falling="0.0" reference_position="0.0" rising="0.0"/>
		<dynamics damping="1.0"/>
		<limit effort="1000.0" lower="0.0" upper="15.0" velocity="1.0"/>
	</joint>
	<joint name="LeftEyeSegmentY_joint" type="fixed">
		<origin rpy="0 -0 0" xyz="0 0.030 0"/>
		<parent link="LeftEyeSegmentX_link"/>
		<child link="LeftEyeSegmentY_link"/>
		<axis xyz="0 1 0"/>
		<calibration falling="0.0" reference_position="0.0" rising="0.0"/>
		<dynamics damping="1.0"/>
		<limit effort="1000.0" lower="0.0" upper="30.0" velocity="1.0"/>
	</joint>
	<joint name="RightEyeSegmentX_joint" type="fixed">
		<origin rpy="0 -0 0" xyz="0.015 0 0"/>
		<parent link="MidHeadSegment_link"/>
		<child link="RightEyeSegmentX_link"/>
		<axis xyz="1 0 0"/>
		<calibration falling="0.0" reference_position="0.0" rising="0.0"/>
		<dynamics damping="1.0"/>
		<limit effort="1000.0" lower="0.0" upper="0.2617993877991494" velocity="1.0"/>
	</joint>
	<joint name="RightEyeSegmentY_joint" type="fixed">
		<origin rpy="0 -0 0" xyz="0 0.030 0"/>
		<parent link="RightEyeSegmentX_link"/>
		<child link="RightEyeSegmentY_link"/>
		<axis xyz="0 1 0"/>
		<calibration falling="0.0" reference_position="0.0" rising="0.0"/>
		<dynamics damping="1.0"/>
		<limit effort="1000.0" lower="0.0" upper="30.0" velocity="1.0"/>
	</joint>
	<joint name="HeadSegment_joint" type="fixed">
		<origin rpy="0 -0 0" xyz="0 0 0.130"/>
		<parent link="BUNy_link"/>
		<child link="HeadSegment_link"/>
		<axis xyz="0 0 1"/>
		<calibration falling="0.0" reference_position="0.0" rising="0.0"/>
		<dynamics damping="1.0"/>
		<limit effort="1000.0" lower="0.0" upper="130.0" velocity="1.0"/>
	</joint>
	<joint name="LSCsegment_joint" type="fixed">
		<origin rpy="0 -0 0" xyz="-0.087 0 0"/>
		<parent link="collarSegment_link"/>
		<child link="LSCsegment_link"/>
		<axis xyz="-1 0 0"/>
		<calibration falling="0.0" reference_position="0.0" rising="0.0"/>
		<dynamics damping="1.0"/>
		<limit effort="1000.0" lower="0.0" upper="87.0" velocity="1.0"/>
	</joint>
	<joint name="LSCx_joint" type="fixed">
		<origin rpy="0 -0 0" xyz="0 0 0"/>
		<parent link="LSCsegment_link"/>
		<child link="LSCx_link"/>
		<axis xyz="1 0 0"/>
		<calibration falling="0.0" reference_position="0.0" rising="0.0"/>
		<dynamics damping="1.0"/>
		<limit effort="1000.0" lower="-0.0" upper="0.0" velocity="1.0"/>
	</joint>
	<joint name="LSCz_joint" type="fixed">
		<origin rpy="0 -0 0" xyz="0 0 0"/>
		<parent link="LSCx_link"/>
		<child link="LSCz_link"/>
		<axis xyz="0 0 1"/>
		<calibration falling="0.0" reference_position="0.0" rising="0.0"/>
		<dynamics damping="1.0"/>
		<limit effort="1000.0" lower="-0.349066" upper="0.349066" velocity="1.0"/>
	</joint>
	<joint name="LSCy_joint" type="fixed">
		<origin rpy="0 -0 0" xyz="0 0 0"/>
		<parent link="LSCz_link"/>
		<child link="LSCy_link"/>
		<axis xyz="0 1 0"/>
		<calibration falling="0.0" reference_position="0.0" rising="0.0"/>
		<dynamics damping="1.0"/>
		<limit effort="1000.0" lower="-0.349066" upper="0.349066" velocity="1.0"/>
	</joint>
	<joint name="LSsegment_joint" type="fixed">
		<origin rpy="0 -0 0" xyz="-0.023 0 0"/>
		<parent link="LSCy_link"/>
		<child link="LSsegment_link"/>
		<axis xyz="-1 0 0"/>
		<calibration falling="0.0" reference_position="0.0" rising="0.0"/>
		<dynamics damping="1.0"/>
		<limit effort="1000.0" lower="0.0" upper="23.0" velocity="1.0"/>
	</joint>
	<joint name="LSx_joint" type="revolute">
		<origin rpy="0 -0 0" xyz="0 0 0"/>
		<parent link="LSsegment_link"/>
		<child link="LSx_link"/>
		<axis xyz="1 0 0"/>
		<calibration falling="0.0" reference_position="0.0" rising="0.0"/>
		<dynamics damping="1.0"/>
		<limit effort="1000.0" lower="-1.22173" upper="3.31613" velocity="1.0"/>
	</joint>
	<joint name="LSz_joint" type="revolute">
		<origin rpy="0 -0 0" xyz="0 0 0"/>
		<parent link="LSx_link"/>
		<child link="LSz_link"/>
		<axis xyz="0 0 1"/>
		<calibration falling="0.0" reference_position="0.0" rising="0.0"/>
		<dynamics damping="1.0"/>
		<limit effort="1000.0" lower="-1.22173" upper="1.0472" velocity="1.0"/>
	</joint>
	<joint name="LSy_joint" type="revolute">
		<origin rpy="0 -0 0" xyz="0 0 0"/>
		<parent link="LSz_link"/>
		<child link="LSy_link"/>
		<axis xyz="0 1 0"/>
		<calibration falling="0.0" reference_position="0.0" rising="0.0"/>
		<dynamics damping="1.0"/>
		<limit effort="1000.0" lower="0.0" upper="2.79253" velocity="1.0"/>
	</joint>
	<joint name="LEsegment_joint" type="fixed">
		<origin rpy="0 -0 0" xyz="0 0 -0.188"/>
		<parent link="LSy_link"/>
		<child link="LEsegment_link"/>
		<axis xyz="-0 -0 -1"/>
		<calibration falling="0.0" reference_position="0.0" rising="0.0"/>
		<dynamics damping="1.0"/>
		<limit effort="1000.0" lower="0.0" upper="188.0" velocity="1.0"/>
	</joint>
	<joint name="LEx_joint" type="revolute">
		<origin rpy="0 -0 0" xyz="0 0 0"/>
		<parent link="LEsegment_link"/>
		<child link="LEx_link"/>
		<axis xyz="1 0 0"/>
		<calibration falling="0.0" reference_position="0.0" rising="0.0"/>
		<dynamics damping="1.0"/>
		<limit effort="1000.0" lower="0.0" upper="2.79253" velocity="1.0"/>
	</joint>
	<joint name="LEz_joint" type="revolute">
		<origin rpy="0 -0 0" xyz="0 0 0"/>
		<parent link="LEx_link"/>
		<child link="LEz_link"/>
		<axis xyz="0 0 1"/>
		<calibration falling="0.0" reference_position="0.0" rising="0.0"/>
		<dynamics damping="1.0"/>
		<limit effort="1000.0" lower="-1.5708" upper="1.5708" velocity="1.0"/>
	</joint>
	<joint name="LWsegment_joint" type="fixed">
		<origin rpy="0 -0 0" xyz="0 0 -0.145"/>
		<parent link="LEz_link"/>
		<child link="LWsegment_link"/>
		<axis xyz="0 0 -1"/>
		<calibration falling="0.0" reference_position="0.0" rising="0.0"/>
		<dynamics damping="1.0"/>
		<limit effort="1000.0" lower="0.0" upper="145.0" velocity="1.0"/>
	</joint>
	<joint name="LWx_joint" type="revolute">
		<origin rpy="0 -0 0" xyz="0 0 0"/>
		<parent link="LWsegment_link"/>
		<child link="LWx_link"/>
		<axis xyz="1 0 0"/>
		<calibration falling="0.0" reference_position="0.0" rising="0.0"/>
		<dynamics damping="1.0"/>
		<limit effort="1000.0" lower="-0.523599" upper="0.349066" velocity="1.0"/>
	</joint>
	<joint name="LWy_joint" type="revolute">
		<origin rpy="0 -0 0" xyz="0 0 0"/>
		<parent link="LWx_link"/>
		<child link="LWy_link"/>
		<axis xyz="0 1 0"/>
		<calibration falling="0.0" reference_position="0.0" rising="0.0"/>
		<dynamics damping="1.0"/>
		<limit effort="1000.0" lower="-1.22173" upper="1.5708" velocity="1.0"/>
	</joint>
	<joint name="RSCsegment_joint" type="fixed">
		<origin rpy="0 -0 0" xyz="0.087 0 0"/>
		<parent link="collarSegment_link"/>
		<child link="RSCsegment_link"/>
		<axis xyz="1 0 0"/>
		<calibration falling="0.0" reference_position="0.0" rising="0.0"/>
		<dynamics damping="1.0"/>
		<limit effort="1000.0" lower="0.0" upper="87.0" velocity="1.0"/>
	</joint>
	<joint name="RSCx_joint" type="fixed">
		<origin rpy="0 -0 0" xyz="0 0 0"/>
		<parent link="RSCsegment_link"/>
		<child link="RSCx_link"/>
		<axis xyz="1 0 0"/>
		<calibration falling="0.0" reference_position="0.0" rising="0.0"/>
		<dynamics damping="1.0"/>
		<limit effort="1000.0" lower="0.0" upper="0.0" velocity="1.0"/>
	</joint>
	<joint name="RSCz_joint" type="fixed">
		<origin rpy="0 -0 0" xyz="0 0 0"/>
		<parent link="RSCx_link"/>
		<child link="RSCz_link"/>
		<axis xyz="0 0 1"/>
		<calibration falling="0.0" reference_position="0.0" rising="0.0"/>
		<dynamics damping="1.0"/>
		<limit effort="1000.0" lower="-0.349066" upper="0.349066" velocity="1.0"/>
	</joint>
	<joint name="RSCy_joint" type="fixed">
		<origin rpy="0 -0 0" xyz="0 0 0"/>
		<parent link="RSCz_link"/>
		<child link="RSCy_link"/>
		<axis xyz="0 1 0"/>
		<calibration falling="0.0" reference_position="0.0" rising="0.0"/>
		<dynamics damping="1.0"/>
		<limit effort="1000.0" lower="-0.349066" upper="0.349066" velocity="1.0"/>
	</joint>
	<joint name="RSsegment_joint" type="fixed">
		<origin rpy="0 -0 0" xyz="0.023 0 0"/>
		<parent link="RSCy_link"/>
		<child link="RSsegment_link"/>
		<axis xyz="1 0 0"/>
		<calibration falling="0.0" reference_position="0.0" rising="0.0"/>
		<dynamics damping="1.0"/>
		<limit effort="1000.0" lower="0.0" upper="23.0" velocity="1.0"/>
	</joint>
	<joint name="RSx_joint" type="revolute">
		<origin rpy="0 -0 0" xyz="0 0 0"/>
		<parent link="RSsegment_link"/>
		<child link="RSx_link"/>
		<axis xyz="1 0 0"/>
		<calibration falling="0.0" reference_position="0.0" rising="0.0"/>
		<dynamics damping="1.0"/>
		<limit effort="1000.0" lower="-1.22173" upper="3.31613" velocity="1.0"/>
	</joint>
	<joint name="RSz_joint" type="revolute">
		<origin rpy="0 -0 0" xyz="0 0 0"/>
		<parent link="RSx_link"/>
		<child link="RSz_link"/>
		<axis xyz="0 0 1"/>
		<calibration falling="0.0" reference_position="0.0" rising="0.0"/>
		<dynamics damping="1.0"/>
		<limit effort="1000.0" lower="-1.0472" upper="1.22173" velocity="1.0"/>
	</joint>
	<joint name="RSy_joint" type="revolute">
		<origin rpy="0 -0 0" xyz="0 0 0"/>
		<parent link="RSz_link"/>
		<child link="RSy_link"/>
		<axis xyz="0 1 0"/>
		<calibration falling="0.0" reference_position="0.0" rising="0.0"/>
		<dynamics damping="1.0"/>
		<limit effort="1000.0" lower="-2.79253" upper="0.0" velocity="1.0"/>
	</joint>
	<joint name="REsegment_joint" type="fixed">
		<origin rpy="0 -0 0" xyz="0 0 -0.188"/>
		<parent link="RSy_link"/>
		<child link="REsegment_link"/>
		<axis xyz="-0 -0 -1"/>
		<calibration falling="0.0" reference_position="0.0" rising="0.0"/>
		<dynamics damping="1.0"/>
		<limit effort="1000.0" lower="0.0" upper="188.0" velocity="1.0"/>
	</joint>
	<joint name="REx_joint" type="revolute">
		<origin rpy="0 -0 0" xyz="0 0 0"/>
		<parent link="REsegment_link"/>
		<child link="REx_link"/>
		<axis xyz="1 0 0"/>
		<calibration falling="0.0" reference_position="0.0" rising="0.0"/>
		<dynamics damping="1.0"/>
		<limit effort="1000.0" lower="0.0" upper="2.79253" velocity="1.0"/>
	</joint>
	<joint name="REz_joint" type="revolute">
		<origin rpy="0 -0 0" xyz="0 0 0"/>
		<parent link="REx_link"/>
		<child link="REz_link"/>
		<axis xyz="0 0 1"/>
		<calibration falling="0.0" reference_position="0.0" rising="0.0"/>
		<dynamics damping="1.0"/>
		<limit effort="1000.0" lower="-1.5708" upper="1.5708" velocity="1.0"/>
	</joint>
	<joint name="RWsegment_joint" type="fixed">
		<origin rpy="0 -0 0" xyz="0 0 -0.145"/>
		<parent link="REz_link"/>
		<child link="RWsegment_link"/>
		<axis xyz="0 0 -1"/>
		<calibration falling="0.0" reference_position="0.0" rising="0.0"/>
		<dynamics damping="1.0"/>
		<limit effort="1000.0" lower="0.0" upper="145.0" velocity="1.0"/>
	</joint>
	<joint name="RWx_joint" type="revolute">
		<origin rpy="0 -0 0" xyz="0 0 0"/>
		<parent link="RWsegment_link"/>
		<child link="RWx_link"/>
		<axis xyz="1 0 0"/>
		<calibration falling="0.0" reference_position="0.0" rising="0.0"/>
		<dynamics damping="1.0"/>
		<limit effort="1000.0" lower="-0.523599" upper="0.349066" velocity="1.0"/>
	</joint>
	<joint name="RWy_joint" type="revolute">
		<origin rpy="0 -0 0" xyz="0 0 0"/>
		<parent link="RWx_link"/>
		<child link="RWy_link"/>
		<axis xyz="0 1 0"/>
		<calibration falling="0.0" reference_position="0.0" rising="0.0"/>
		<dynamics damping="1.0"/>
		<limit effort="1000.0" lower="-1.5708" upper="1.22173" velocity="1.0"/>
	</joint>
	<joint name="LHsegment_joint" type="fixed">
		<origin rpy="0 -0 0" xyz="-0.052 0 0"/>
		<parent link="root_link"/>
		<child link="LHsegment_link"/>
		<axis xyz="-1 0 0"/>
		<calibration falling="0.0" reference_position="0.0" rising="0.0"/>
		<dynamics damping="1.0"/>
		<limit effort="1000.0" lower="0.0" upper="52.0" velocity="1.0"/>
	</joint>
	<joint name="LHx_joint" type="revolute">
		<origin rpy="0 -0 0" xyz="0 0 0"/>
		<parent link="LHsegment_link"/>
		<child link="LHx_link"/>
		<axis xyz="1 0 0"/>
		<calibration falling="0.0" reference_position="0.0" rising="0.0"/>
		<dynamics damping="1.0"/>
		<limit effort="1000.0" lower="-0.872665" upper="1.65806" velocity="1.0"/>
	</joint>
	<joint name="LHz_joint" type="revolute">
		<origin rpy="0 -0 0" xyz="0 0 0"/>
		<parent link="LHx_link"/>
		<child link="LHz_link"/>
		<axis xyz="0 0 1"/>
		<calibration falling="0.0" reference_position="0.0" rising="0.0"/>
		<dynamics damping="1.0"/>
		<limit effort="1000.0" lower="-0.785398" upper="0.785398" velocity="1.0"/>
	</joint>
	<joint name="LHy_joint" type="revolute">
		<origin rpy="0 -0 0" xyz="0 0 0"/>
		<parent link="LHz_link"/>
		<child link="LHy_link"/>
		<axis xyz="0 1 0"/>
		<calibration falling="0.0" reference_position="0.0" rising="0.0"/>
		<dynamics damping="1.0"/>
		<limit effort="1000.0" lower="-0.349066" upper="1.13446" velocity="1.0"/>
	</joint>
	<joint name="LKsegment_joint" type="fixed">
		<origin rpy="0 -0 0" xyz="0 0 -0.245"/>
		<parent link="LHy_link"/>
		<child link="LKsegment_link"/>
		<axis xyz="-0 -0 -1"/>
		<calibration falling="0.0" reference_position="0.0" rising="0.0"/>
		<dynamics damping="1.0"/>
		<limit effort="1000.0" lower="0.0" upper="245.0" velocity="1.0"/>
	</joint>
	<joint name="LKx_joint" type="revolute">
		<origin rpy="0 -0 0" xyz="0 0 0"/>
		<parent link="LKsegment_link"/>
		<child link="LKx_link"/>
		<axis xyz="1 0 0"/>
		<calibration falling="0.0" reference_position="0.0" rising="0.0"/>
		<dynamics damping="1.0"/>
		<limit effort="1000.0" lower="-2.26893" upper="0.0" velocity="1.0"/>
	</joint>
	<joint name="LAsegment_joint" type="fixed">
		<origin rpy="0 -0 0" xyz="0 0 -0.246"/>
		<parent link="LKx_link"/>
		<child link="LAsegment_link"/>
		<axis xyz="-0 -0 -1"/>
		<calibration falling="0.0" reference_position="0.0" rising="0.0"/>
		<dynamics damping="1.0"/>
		<limit effort="1000.0" lower="0.0" upper="246.0" velocity="1.0"/>
	</joint>
	<joint name="LAx_joint" type="revolute">
		<origin rpy="0 -0 0" xyz="0 0 0"/>
		<parent link="LAsegment_link"/>
		<child link="LAx_link"/>
		<axis xyz="1 0 0"/>
		<calibration falling="0.0" reference_position="0.0" rising="0.0"/>
		<dynamics damping="1.0"/>
		<limit effort="1000.0" lower="-0.698132" upper="0.523599" velocity="1.0"/>
	</joint>
	<joint name="LAz_joint" type="revolute">
		<origin rpy="0 -0 0" xyz="0 0 0"/>
		<parent link="LAx_link"/>
		<child link="LAz_link"/>
		<axis xyz="0 0 1"/>
		<calibration falling="0.0" reference_position="0.0" rising="0.0"/>
		<dynamics damping="1.0"/>
		<limit effort="1000.0" lower="-0.523599" upper="0.523599" velocity="1.0"/>
	</joint>
	<joint name="LAy_joint" type="revolute">
		<origin rpy="0 -0 0" xyz="0 0 0"/>
		<parent link="LAz_link"/>
		<child link="LAy_link"/>
		<axis xyz="0 1 0"/>
		<calibration falling="0.0" reference_position="0.0" rising="0.0"/>
		<dynamics damping="1.0"/>
		<limit effort="1000.0" lower="-0.349066" upper="0.349066" velocity="1.0"/>
	</joint>
	<joint name="LeftFootHeight_joint" type="fixed">
		<origin rpy="0 -0 0" xyz="0 0 -0.039"/>
		<parent link="LAy_link"/>
		<child link="LeftFootHeight_link"/>
		<axis xyz="-0 -0 -1"/>
		<calibration falling="0.0" reference_position="0.0" rising="0.0"/>
		<dynamics damping="1.0"/>
		<limit effort="1000.0" lower="0.0" upper="39.0" velocity="1.0"/>
	</joint>
	<joint name="LeftFootLength_joint" type="fixed">
		<origin rpy="0 -0 0" xyz="0 0.068 0"/>
		<parent link="LeftFootHeight_link"/>
		<child link="LeftFootLength_link"/>
		<axis xyz="0 1 0"/>
		<calibration falling="0.0" reference_position="0.0" rising="0.0"/>
		<dynamics damping="1.0"/>
		<limit effort="1000.0" lower="0.0" upper="68.0" velocity="1.0"/>
	</joint>
	<joint name="LMrot_joint" type="fixed">
		<origin rpy="0.2617993652820587 -0 -0.15707963705062866" xyz="0.0006000000238418579 0.023799999237060547 -0.018700000762939453"/>
		<parent link="LAy_link"/>
		<child link="LMrot_link"/>
		<axis xyz="0 1 0"/>
		<calibration falling="0.0" reference_position="0.0" rising="0.0"/>
		<dynamics damping="1.0"/>
		<limit effort="1000.0" lower="-0.261799" upper="0.261799" velocity="1.0"/>
	</joint>
	<joint name="LFx_joint" type="fixed">
		<origin rpy="-0.2617993652820587 -0 0.15707963705062866" xyz="-0.008800000190734863 0.05370000076293945 -0.014399999618530273"/>
		<parent link="LMrot_link"/>
		<child link="LFx_link"/>
		<axis xyz="1 0 0"/>
		<calibration falling="0.0" reference_position="0.0" rising="0.0"/>
		<dynamics damping="1.0"/>
		<limit effort="1000.0" lower="-0.785398" upper="1.5708" velocity="1.0"/>
	</joint>
	<joint name="RHsegment_joint" type="fixed">
		<origin rpy="0 -0 0" xyz="0.052 0 0"/>
		<parent link="root_link"/>
		<child link="RHsegment_link"/>
		<axis xyz="1 0 0"/>
		<calibration falling="0.0" reference_position="0.0" rising="0.0"/>
		<dynamics damping="1.0"/>
		<limit effort="1000.0" lower="0.0" upper="52.0" velocity="1.0"/>
	</joint>
	<joint name="RHx_joint" type="revolute">
		<origin rpy="0 -0 0" xyz="0 0 0"/>
		<parent link="RHsegment_link"/>
		<child link="RHx_link"/>
		<axis xyz="1 0 0"/>
		<calibration falling="0.0" reference_position="0.0" rising="0.0"/>
		<dynamics damping="1.0"/>
		<limit effort="1000.0" lower="-0.872665" upper="1.65806" velocity="1.0"/>
	</joint>
	<joint name="RHz_joint" type="revolute">
		<origin rpy="0 -0 0" xyz="0 0 0"/>
		<parent link="RHx_link"/>
		<child link="RHz_link"/>
		<axis xyz="0 0 1"/>
		<calibration falling="0.0" reference_position="0.0" rising="0.0"/>
		<dynamics damping="1.0"/>
		<limit effort="1000.0" lower="-0.785398" upper="0.785398" velocity="1.0"/>
	</joint>
	<joint name="RHy_joint" type="revolute">
		<origin rpy="0 -0 0" xyz="0 0 0"/>
		<parent link="RHz_link"/>
		<child link="RHy_link"/>
		<axis xyz="0 1 0"/>
		<calibration falling="0.0" reference_position="0.0" rising="0.0"/>
		<dynamics damping="1.0"/>
		<limit effort="1000.0" lower="-1.13446" upper="0.349066" velocity="1.0"/>
	</joint>
	<joint name="RKsegment_joint" type="fixed">
		<origin rpy="0 -0 0" xyz="0 0 -0.245"/>
		<parent link="RHy_link"/>
		<child link="RKsegment_link"/>
		<axis xyz="-0 -0 -1"/>
		<calibration falling="0.0" reference_position="0.0" rising="0.0"/>
		<dynamics damping="1.0"/>
		<limit effort="1000.0" lower="0.0" upper="245.0" velocity="1.0"/>
	</joint>
	<joint name="RKx_joint" type="revolute">
		<origin rpy="0 -0 0" xyz="0 0 0"/>
		<parent link="RKsegment_link"/>
		<child link="RKx_link"/>
		<axis xyz="1 0 0"/>
		<calibration falling="0.0" reference_position="0.0" rising="0.0"/>
		<dynamics damping="1.0"/>
		<limit effort="1000.0" lower="-2.26893" upper="0.0" velocity="1.0"/>
	</joint>
	<joint name="RAsegment_joint" type="fixed">
		<origin rpy="0 -0 0" xyz="0 0 -0.246"/>
		<parent link="RKx_link"/>
		<child link="RAsegment_link"/>
		<axis xyz="-0 -0 -1"/>
		<calibration falling="0.0" reference_position="0.0" rising="0.0"/>
		<dynamics damping="1.0"/>
		<limit effort="1000.0" lower="0.0" upper="246.0" velocity="1.0"/>
	</joint>
	<joint name="RAx_joint" type="revolute">
		<origin rpy="0 -0 0" xyz="0 0 0"/>
		<parent link="RAsegment_link"/>
		<child link="RAx_link"/>
		<axis xyz="1 0 0"/>
		<calibration falling="0.0" reference_position="0.0" rising="0.0"/>
		<dynamics damping="1.0"/>
		<limit effort="1000.0" lower="-0.698132" upper="0.523599" velocity="1.0"/>
	</joint>
	<joint name="RAz_joint" type="revolute">
		<origin rpy="0 -0 0" xyz="0 0 0"/>
		<parent link="RAx_link"/>
		<child link="RAz_link"/>
		<axis xyz="0 0 1"/>
		<calibration falling="0.0" reference_position="0.0" rising="0.0"/>
		<dynamics damping="1.0"/>
		<limit effort="1000.0" lower="-0.523599" upper="0.523599" velocity="1.0"/>
	</joint>
	<joint name="RAy_joint" type="revolute">
		<origin rpy="0 -0 0" xyz="0 0 0"/>
		<parent link="RAz_link"/>
		<child link="RAy_link"/>
		<axis xyz="0 1 0"/>
		<calibration falling="0.0" reference_position="0.0" rising="0.0"/>
		<dynamics damping="1.0"/>
		<limit effort="1000.0" lower="-0.349066" upper="0.349066" velocity="1.0"/>
	</joint>
	<joint name="RightFootHeight_joint" type="fixed">
		<origin rpy="0 -0 0" xyz="0 0 -0.039"/>
		<parent link="RAy_link"/>
		<child link="RightFootHeight_link"/>
		<axis xyz="-0 -0 -1"/>
		<calibration falling="0.0" reference_position="0.0" rising="0.0"/>
		<dynamics damping="1.0"/>
		<limit effort="1000.0" lower="0.0" upper="39.0" velocity="1.0"/>
	</joint>
	<joint name="RightFootLength_joint" type="fixed">
		<origin rpy="0 -0 0" xyz="0 0.068 0"/>
		<parent link="RightFootHeight_link"/>
		<child link="RightFootLength_link"/>
		<axis xyz="0 1 0"/>
		<calibration falling="0.0" reference_position="0.0" rising="0.0"/>
		<dynamics damping="1.0"/>
		<limit effort="1000.0" lower="0.0" upper="68.0" velocity="1.0"/>
	</joint>
	<joint name="RMrot_joint" type="fixed">
		<origin rpy="0.2617993652820587 -0 0.15707963705062866" xyz="0.0006000000238418579 0.023799999237060547 -0.018700000762939453"/>
		<parent link="RAy_link"/>
		<child link="RMrot_link"/>
		<axis xyz="0 1 0"/>
		<calibration falling="0.0" reference_position="0.0" rising="0.0"/>
		<dynamics damping="1.0"/>
		<limit effort="1000.0" lower="-0.261799" upper="0.261799" velocity="1.0"/>
	</joint>
	<joint name="RFx_joint" type="fixed">
		<origin rpy="-0.2617993652820587 -0 -0.15707963705062866" xyz="0.008800000190734863 0.05370000076293945 -0.014399999618530273"/>
		<parent link="RMrot_link"/>
		<child link="RFx_link"/>
		<axis xyz="1 0 0"/>
		<calibration falling="0.0" reference_position="0.0" rising="0.0"/>
		<dynamics damping="1.0"/>
		<limit effort="1000.0" lower="-0.785398" upper="1.5708" velocity="1.0"/>
	</joint>
	<link name="root_link">	</link>
	<link name="BPSegment_link">
		<inertial>
			<origin rpy="0 0 0" xyz="0 0 0"/>
			<mass value="0.1"/>
			<inertia ixx="0.166667" ixy="0.0" ixz="0.0" iyy="0.166667" iyz="0.0" izz="0.166667"/>
		</inertial>
	</link>
	<link name="BPx_link">
  		<inertial>
			<origin rpy="0 0 0" xyz="0 0 0"/>
			<mass value="0.1"/>
			<inertia ixx="0.166667" ixy="0.0" ixz="0.0" iyy="0.166667" iyz="0.0" izz="0.166667"/>
		</inertial>
	</link>
	<link name="BPz_link">
  		<inertial>
			<origin rpy="0 0 0" xyz="0 0 0"/>
			<mass value="0.1"/> k
			<inertia ixx="0.166667" ixy="0.0" ixz="0.0" iyy="0.166667" iyz="0.0" izz="0.166667"/>
		</inertial>
	</link>
	<link name="BPy_link">
  		<inertial>
			<origin rpy="0 0 0" xyz="0 0 0"/>
			<mass value="0.1"/>
			<inertia ixx="0.166667" ixy="0.0" ixz="0.0" iyy="0.166667" iyz="0.0" izz="0.166667"/>
		</inertial>
	</link>
	<link name="BTSegment_link">
		<inertial>
			<origin rpy="0 0 0" xyz="0 0 0"/>
			<mass value="0.1"/>
			<inertia ixx="0.166667" ixy="0.0" ixz="0.0" iyy="0.166667" iyz="0.0" izz="0.166667"/>
		</inertial>
		<visual>
			<origin rpy="-1.5707999467849731 -0 0" xyz="-1.851568185884389e-06 0 7.62939453125e-06"/>
			<geometry>
				<mesh filename="package://mmm_robot/meshes/VIZ_BTSegment_link_0.dae" scale="0.001 0.001 0.001"/>
			</geometry>
		</visual>
		<collision>
			<origin rpy="-1.5707999467849731 -0 0" xyz="-1.851568185884389e-06 0 7.62939453125e-06"/>
			<geometry>
				<mesh filename="package://mmm_robot/collisions/COL_VIZ_BTSegment_link_0.dae" scale="0.001 0.001 0.001"/>
			</geometry>
		</collision>
	</link>
	<link name="BTx_link">
  		<inertial>
			<origin rpy="0 0 0" xyz="0 0 0"/>
			<mass value="0.1"/>
			<inertia ixx="0.166667" ixy="0.0" ixz="0.0" iyy="0.166667" iyz="0.0" izz="0.166667"/>
		</inertial>
	</link>
	<link name="BTz_link">
  		<inertial>
			<origin rpy="0 0 0" xyz="0 0 0"/>
			<mass value="0.1"/>
			<inertia ixx="0.166667" ixy="0.0" ixz="0.0" iyy="0.166667" iyz="0.0" izz="0.166667"/>
		</inertial>
  		<inertial>
			<origin rpy="0 0 0" xyz="0 0 0"/>
			<mass value="0.1"/>
			<inertia ixx="0.166667" ixy="0.0" ixz="0.0" iyy="0.166667" iyz="0.0" izz="0.166667"/>
		</inertial>
	</link>
	<link name="BTy_link">
  		<inertial>
			<origin rpy="0 0 0" xyz="0 0 0"/>
			<mass value="0.1"/>
			<inertia ixx="0.166667" ixy="0.0" ixz="0.0" iyy="0.166667" iyz="0.0" izz="0.166667"/>
		</inertial>
		<visual>
			<origin rpy="-1.5707999467849731 -0 0" xyz="-3.703136371768778e-06 0 0"/>
			<geometry>
				<mesh filename="package://mmm_robot/meshes/VIZ_BTy_link_0.dae" scale="0.001 0.001 0.001"/>
			</geometry>
		</visual>
		<collision>
			<origin rpy="-1.5707999467849731 -0 0" xyz="-3.703136371768778e-06 0 0"/>
			<geometry>
				<mesh filename="package://mmm_robot/collisions/COL_VIZ_BTy_link_0.dae" scale="0.001 0.001 0.001"/>
			</geometry>
		</collision>
	</link>
	<link name="collarSegment_link">
		<inertial>
			<origin rpy="0 0 0" xyz="0 0 0"/>
			<mass value="0.1"/>
			<inertia ixx="0.166667" ixy="0.0" ixz="0.0" iyy="0.166667" iyz="0.0" izz="0.166667"/>
		</inertial>
	</link>
	<link name="BLNsegment_link">
  		<inertial>
			<origin rpy="0 0 0" xyz="0 0 0"/>
			<mass value="0.1"/>
			<inertia ixx="0.166667" ixy="0.0" ixz="0.0" iyy="0.166667" iyz="0.0" izz="0.166667"/>
		</inertial>
	</link>
	<link name="BLNx_link">
  		<inertial>
			<origin rpy="0 0 0" xyz="0 0 0"/>
			<mass value="0.1"/>
			<inertia ixx="0.166667" ixy="0.0" ixz="0.0" iyy="0.166667" iyz="0.0" izz="0.166667"/>
		</inertial>
	</link>
	<link name="BLNz_link">
  		<inertial>
			<origin rpy="0 0 0" xyz="0 0 0"/>
			<mass value="0.1"/>
			<inertia ixx="0.166667" ixy="0.0" ixz="0.0" iyy="0.166667" iyz="0.0" izz="0.166667"/>
		</inertial>
	</link>
	<link name="BLNy_link">
  		<inertial>
			<origin rpy="0 0 0" xyz="0 0 0"/>
			<mass value="0.1"/>
			<inertia ixx="0.166667" ixy="0.0" ixz="0.0" iyy="0.166667" iyz="0.0" izz="0.166667"/>
		</inertial>
	</link>
	<link name="BUNsegment_link">
		<inertial>
			<origin rpy="0 0 0" xyz="0 0 0"/>
			<mass value="0.1"/>
			<inertia ixx="0.166667" ixy="0.0" ixz="0.0" iyy="0.166667" iyz="0.0" izz="0.166667"/>
		</inertial>
		<visual>
			<origin rpy="-1.5707999467849731 -0 0" xyz="-1.024756784318015e-06 0 -3.0517578125e-05"/>
			<geometry>
				<mesh filename="package://mmm_robot/meshes/VIZ_BUNsegment_link_0.dae" scale="0.001 0.001 0.001"/>
			</geometry>
		</visual>
		<collision>
			<origin rpy="-1.5707999467849731 -0 0" xyz="-1.024756784318015e-06 0 -3.0517578125e-05"/>
			<geometry>
				<mesh filename="package://mmm_robot/collisions/COL_VIZ_BUNsegment_link_0.dae" scale="0.001 0.001 0.001"/>
			</geometry>
		</collision>
	</link>
	<link name="BUNx_link">
  		<inertial>
			<origin rpy="0 0 0" xyz="0 0 0"/>
			<mass value="0.1"/>
			<inertia ixx="0.166667" ixy="0.0" ixz="0.0" iyy="0.166667" iyz="0.0" izz="0.166667"/>
		</inertial>
	</link>
	<link name="BUNz_link">
  		<inertial>
			<origin rpy="0 0 0" xyz="0 0 0"/>
			<mass value="0.1"/>
			<inertia ixx="0.166667" ixy="0.0" ixz="0.0" iyy="0.166667" iyz="0.0" izz="0.166667"/>
		</inertial>
	</link>
	<link name="BUNy_link">
  		<inertial>
			<origin rpy="0 0 0" xyz="0 0 0"/>
			<mass value="0.1"/>
			<inertia ixx="0.166667" ixy="0.0" ixz="0.0" iyy="0.166667" iyz="0.0" izz="0.166667"/>
		</inertial>
	</link>
	<link name="MidHeadSegment_link">
  		<inertial>
			<origin rpy="0 0 0" xyz="0 0 0"/>
			<mass value="0.1"/>
			<inertia ixx="0.166667" ixy="0.0" ixz="0.0" iyy="0.166667" iyz="0.0" izz="0.166667"/>
		</inertial>
	</link>
	<link name="LeftEyeSegmentX_link">
  		<inertial>
			<origin rpy="0 0 0" xyz="0 0 0"/>
			<mass value="0.1"/>
			<inertia ixx="0.166667" ixy="0.0" ixz="0.0" iyy="0.166667" iyz="0.0" izz="0.166667"/>
		</inertial>
	</link>
	<link name="LeftEyeSegmentY_link">
  		<inertial>
			<origin rpy="0 0 0" xyz="0 0 0"/>
			<mass value="0.1"/>
			<inertia ixx="0.166667" ixy="0.0" ixz="0.0" iyy="0.166667" iyz="0.0" izz="0.166667"/>
		</inertial>
		<visual>
			<origin rpy="-1.5707999467849731 -0 0" xyz="9.5367431640625e-07 7.62939453125e-06 -3.0517578125e-05"/>
			<geometry>
				<mesh filename="package://mmm_robot/meshes/VIZ_LeftEyeSegmentY_link_0.dae" scale="0.001 0.001 0.001"/>
			</geometry>
		</visual>
		<collision>
			<origin rpy="-1.5707999467849731 -0 0" xyz="9.5367431640625e-07 7.62939453125e-06 -3.0517578125e-05"/>
			<geometry>
				<mesh filename="package://mmm_robot/collisions/COL_VIZ_LeftEyeSegmentY_link_0.dae" scale="0.001 0.001 0.001"/>
			</geometry>
		</collision>
	</link>
	<link name="RightEyeSegmentX_link">
  		<inertial>
			<origin rpy="0 0 0" xyz="0 0 0"/>
			<mass value="0.1"/>
			<inertia ixx="0.166667" ixy="0.0" ixz="0.0" iyy="0.166667" iyz="0.0" izz="0.166667"/>
		</inertial>
	</link>
	<link name="RightEyeSegmentY_link">
  		<inertial>
			<origin rpy="0 0 0" xyz="0 0 0"/>
			<mass value="0.1"/>
			<inertia ixx="0.166667" ixy="0.0" ixz="0.0" iyy="0.166667" iyz="0.0" izz="0.166667"/>
		</inertial>
		<visual>
			<origin rpy="-1.5707999467849731 -0 0" xyz="8.58306884765625e-06 9.5367431640625e-06 -3.0517578125e-05"/>
			<geometry>
				<mesh filename="package://mmm_robot/meshes/VIZ_RightEyeSegmentY_link_0.dae" scale="0.001 0.001 0.001"/>
			</geometry>
		</visual>
		<collision>
			<origin rpy="-1.5707999467849731 -0 0" xyz="8.58306884765625e-06 9.5367431640625e-06 -3.0517578125e-05"/>
			<geometry>
				<mesh filename="package://mmm_robot/collisions/COL_VIZ_RightEyeSegmentY_link_0.dae" scale="0.001 0.001 0.001"/>
			</geometry>
		</collision>
	</link>
	<link name="HeadSegment_link">
		<inertial>
			<origin rpy="0 0 0" xyz="0 0 0"/>
			<mass value="0.1"/>
			<inertia ixx="0.166667" ixy="0.0" ixz="0.0" iyy="0.166667" iyz="0.0" izz="0.166667"/>
		</inertial>
		<visual>
			<origin rpy="-1.5707999467849731 -0 0" xyz="7.931830623419955e-07 0 0.0001220703125"/>
			<geometry>
				<mesh filename="package://mmm_robot/meshes/VIZ_HeadSegment_link_0.dae" scale="0.001 0.001 0.001"/>
			</geometry>
		</visual>
		<collision>
			<origin rpy="-1.5707999467849731 -0 0" xyz="7.931830623419955e-07 0 0.0001220703125"/>
			<geometry>
				<mesh filename="package://mmm_robot/collisions/COL_VIZ_HeadSegment_link_0.dae" scale="0.001 0.001 0.001"/>
			</geometry>
		</collision>
	</link>
	<link name="LSCsegment_link">
  		<inertial>
			<origin rpy="0 0 0" xyz="0 0 0"/>
			<mass value="0.1"/>
			<inertia ixx="0.166667" ixy="0.0" ixz="0.0" iyy="0.166667" iyz="0.0" izz="0.166667"/>
		</inertial>
		<visual>
			<origin rpy="-1.5707999467849731 1.4210854715202004e-14 0" xyz="7.62939453125e-06 0 3.0517578125e-05"/>
			<geometry>
				<mesh filename="package://mmm_robot/meshes/VIZ_LSCsegment_link_0.dae" scale="0.001 0.001 0.001"/>
			</geometry>
		</visual>
		<collision>
			<origin rpy="-1.5707999467849731 1.4210854715202004e-14 0" xyz="7.62939453125e-06 0 3.0517578125e-05"/>
			<geometry>
				<mesh filename="package://mmm_robot/collisions/COL_VIZ_LSCsegment_link_0.dae" scale="0.001 0.001 0.001"/>
			</geometry>
		</collision>
	</link>
	<link name="LSCx_link">
  		<inertial>
			<origin rpy="0 0 0" xyz="0 0 0"/>
			<mass value="0.1"/>
			<inertia ixx="0.166667" ixy="0.0" ixz="0.0" iyy="0.166667" iyz="0.0" izz="0.166667"/>
		</inertial>
	</link>
	<link name="LSCz_link">
  		<inertial>
			<origin rpy="0 0 0" xyz="0 0 0"/>
			<mass value="0.1"/>
			<inertia ixx="0.166667" ixy="0.0" ixz="0.0" iyy="0.166667" iyz="0.0" izz="0.166667"/>
		</inertial>
	</link>
	<link name="LSCy_link">
  		<inertial>
			<origin rpy="0 0 0" xyz="0 0 0"/>
			<mass value="0.1"/>
			<inertia ixx="0.166667" ixy="0.0" ixz="0.0" iyy="0.166667" iyz="0.0" izz="0.166667"/>
		</inertial>
	</link>
	<link name="LSsegment_link">
		<inertial>
			<origin rpy="0 0 0" xyz="0 0 0"/>
			<mass value="0.1"/>
			<inertia ixx="0.166667" ixy="0.0" ixz="0.0" iyy="0.166667" iyz="0.0" izz="0.166667"/>
		</inertial>
		<visual>
			<origin rpy="-1.5707999467849731 -0 0" xyz="-7.62939453125e-06 0 -3.0517578125e-05"/>
			<geometry>
				<mesh filename="package://mmm_robot/meshes/VIZ_LSsegment_link_0.dae" scale="0.001 0.001 0.001"/>
			</geometry>
		</visual>
		<collision>
			<origin rpy="-1.5707999467849731 -0 0" xyz="-7.62939453125e-06 0 -3.0517578125e-05"/>
			<geometry>
				<mesh filename="package://mmm_robot/collisions/COL_VIZ_LSsegment_link_0.dae" scale="0.001 0.001 0.001"/>
			</geometry>
		</collision>
	</link>
	<link name="LSx_link">
  		<inertial>
			<origin rpy="0 0 0" xyz="0 0 0"/>
			<mass value="0.1"/>
			<inertia ixx="0.166667" ixy="0.0" ixz="0.0" iyy="0.166667" iyz="0.0" izz="0.166667"/>
		</inertial>
	</link>
	<link name="LSz_link">
  		<inertial>
			<origin rpy="0 0 0" xyz="0 0 0"/>
			<mass value="0.1"/>
			<inertia ixx="0.166667" ixy="0.0" ixz="0.0" iyy="0.166667" iyz="0.0" izz="0.166667"/>
		</inertial>
	</link>
	<link name="LSy_link">
  		<inertial>
			<origin rpy="0 0 0" xyz="0 0 0"/>
			<mass value="0.1"/>
			<inertia ixx="0.166667" ixy="0.0" ixz="0.0" iyy="0.166667" iyz="0.0" izz="0.166667"/>
		</inertial>
	</link>
	<link name="LEsegment_link">
		<inertial>
			<origin rpy="0 0 0" xyz="0 0 0"/>
			<mass value="0.1"/>
			<inertia ixx="0.166667" ixy="0.0" ixz="0.0" iyy="0.166667" iyz="0.0" izz="0.166667"/>
		</inertial>
		<visual>
			<origin rpy="-1.5707999467849731 1.2665985593685036e-07 4.7102692433314067e-14" xyz="1.1563281077542342e-05 0 6.616088285227306e-06"/>
			<geometry>
				<mesh filename="package://mmm_robot/meshes/VIZ_LEsegment_link_0.dae" scale="0.001 0.001 0.001"/>
			</geometry>
		</visual>
		<collision>
			<origin rpy="-1.5707999467849731 1.2665985593685036e-07 4.7102692433314067e-14" xyz="1.1563281077542342e-05 0 6.616088285227306e-06"/>
			<geometry>
				<mesh filename="package://mmm_robot/collisions/COL_VIZ_LEsegment_link_0.dae" scale="0.001 0.001 0.001"/>
			</geometry>
		</collision>
	</link>
	<link name="LEx_link">
  		<inertial>
			<origin rpy="0 0 0" xyz="0 0 0"/>
			<mass value="0.1"/>
			<inertia ixx="0.166667" ixy="0.0" ixz="0.0" iyy="0.166667" iyz="0.0" izz="0.166667"/>
		</inertial>
	</link>
	<link name="LEz_link">
  		<inertial>
			<origin rpy="0 0 0" xyz="0 0 0"/>
			<mass value="0.1"/>
			<inertia ixx="0.166667" ixy="0.0" ixz="0.0" iyy="0.166667" iyz="0.0" izz="0.166667"/>
		</inertial>
	</link>
	<link name="LWsegment_link">
		<inertial>
			<origin rpy="0 0 0" xyz="0 0 0"/>
			<mass value="0.1"/>
			<inertia ixx="0.166667" ixy="0.0" ixz="0.0" iyy="0.166667" iyz="0.0" izz="0.166667"/>
		</inertial>
		<visual>
			<origin rpy="-1.5707999467849731 -1.1722495685262402e-07 2.1253204545660515e-13" xyz="-2.732873872446362e-05 0 -8.64269895828329e-06"/>
			<geometry>
				<mesh filename="package://mmm_robot/meshes/VIZ_LWsegment_link_0.dae" scale="0.001 0.001 0.001"/>
			</geometry>
		</visual>
		<collision>
			<origin rpy="-1.5707999467849731 -1.1722495685262402e-07 2.1253204545660515e-13" xyz="-2.732873872446362e-05 0 -8.64269895828329e-06"/>
			<geometry>
				<mesh filename="package://mmm_robot/collisions/COL_VIZ_LWsegment_link_0.dae" scale="0.001 0.001 0.001"/>
			</geometry>
		</collision>
	</link>
	<link name="LWx_link">
  		<inertial>
			<origin rpy="0 0 0" xyz="0 0 0"/>
			<mass value="0.1"/>
			<inertia ixx="0.166667" ixy="0.0" ixz="0.0" iyy="0.166667" iyz="0.0" izz="0.166667"/>
		</inertial>
	</link>
	<link name="LWy_link">
  		<inertial>
			<origin rpy="0 0 0" xyz="0 0 0"/>
			<mass value="0.1"/>
			<inertia ixx="0.166667" ixy="0.0" ixz="0.0" iyy="0.166667" iyz="0.0" izz="0.166667"/>
		</inertial>
		<visual>
			<origin rpy="-1.5707999467849731 -8.742262025407399e-08 1.6731333386896946e-13" xyz="-2.5987632398027927e-05 0 -4.291559889679775e-06"/>
			<geometry>
				<mesh filename="package://mmm_robot/meshes/VIZ_LWy_link_0.dae" scale="0.001 0.001 0.001"/>
			</geometry>
		</visual>
		<collision>
			<origin rpy="-1.5707999467849731 -8.742262025407399e-08 1.6731333386896946e-13" xyz="-2.5987632398027927e-05 0 -4.291559889679775e-06"/>
			<geometry>
				<mesh filename="package://mmm_robot/collisions/COL_VIZ_LWy_link_0.dae" scale="0.001 0.001 0.001"/>
			</geometry>
		</collision>
	</link>
	<link name="RSCsegment_link">
  		<inertial>
			<origin rpy="0 0 0" xyz="0 0 0"/>
			<mass value="0.1"/>
			<inertia ixx="0.166667" ixy="0.0" ixz="0.0" iyy="0.166667" iyz="0.0" izz="0.166667"/>
		</inertial>
		<visual>
			<origin rpy="-1.5707999467849731 -0 0" xyz="0 0 -3.0517578125e-05"/>
			<geometry>
				<mesh filename="package://mmm_robot/meshes/VIZ_RSCsegment_link_0.dae" scale="0.001 0.001 0.001"/>
			</geometry>
		</visual>
		<collision>
			<origin rpy="-1.5707999467849731 -0 0" xyz="0 0 -3.0517578125e-05"/>
			<geometry>
				<mesh filename="package://mmm_robot/collisions/COL_VIZ_RSCsegment_link_0.dae" scale="0.001 0.001 0.001"/>
			</geometry>
		</collision>
	</link>
	<link name="RSCx_link">
  		<inertial>
			<origin rpy="0 0 0" xyz="0 0 0"/>
			<mass value="0.1"/>
			<inertia ixx="0.166667" ixy="0.0" ixz="0.0" iyy="0.166667" iyz="0.0" izz="0.166667"/>
		</inertial>
	</link>
	<link name="RSCz_link">
  		<inertial>
			<origin rpy="0 0 0" xyz="0 0 0"/>
			<mass value="0.1"/>
			<inertia ixx="0.166667" ixy="0.0" ixz="0.0" iyy="0.166667" iyz="0.0" izz="0.166667"/>
		</inertial>
	</link>
	<link name="RSCy_link">
  		<inertial>
			<origin rpy="0 0 0" xyz="0 0 0"/>
			<mass value="0.1"/>
			<inertia ixx="0.166667" ixy="0.0" ixz="0.0" iyy="0.166667" iyz="0.0" izz="0.166667"/>
		</inertial>
	</link>
	<link name="RSsegment_link">
		<inertial>
			<origin rpy="0 0 0" xyz="0 0 0"/>
			<mass value="0.1"/>
			<inertia ixx="0.166667" ixy="0.0" ixz="0.0" iyy="0.166667" iyz="0.0" izz="0.166667"/>
		</inertial>
		<visual>
			<origin rpy="-1.5707999467849731 -0 0" xyz="0 0 -3.0517578125e-05"/>
			<geometry>
				<mesh filename="package://mmm_robot/meshes/VIZ_RSsegment_link_0.dae" scale="0.001 0.001 0.001"/>
			</geometry>
		</visual>
		<collision>
			<origin rpy="-1.5707999467849731 -0 0" xyz="0 0 -3.0517578125e-05"/>
			<geometry>
				<mesh filename="package://mmm_robot/collisions/COL_VIZ_RSsegment_link_0.dae" scale="0.001 0.001 0.001"/>
			</geometry>
		</collision>
	</link>
	<link name="RSx_link">
  		<inertial>
			<origin rpy="0 0 0" xyz="0 0 0"/>
			<mass value="0.1"/>
			<inertia ixx="0.166667" ixy="0.0" ixz="0.0" iyy="0.166667" iyz="0.0" izz="0.166667"/>
		</inertial>
	</link>
	<link name="RSz_link">
  		<inertial>
			<origin rpy="0 0 0" xyz="0 0 0"/>
			<mass value="0.1"/>
			<inertia ixx="0.166667" ixy="0.0" ixz="0.0" iyy="0.166667" iyz="0.0" izz="0.166667"/>
		</inertial>
	</link>
	<link name="RSy_link">
  		<inertial>
			<origin rpy="0 0 0" xyz="0 0 0"/>
			<mass value="0.1"/>
			<inertia ixx="0.166667" ixy="0.0" ixz="0.0" iyy="0.166667" iyz="0.0" izz="0.166667"/>
		</inertial>
	</link>
	<link name="REsegment_link">
		<inertial>
			<origin rpy="0 0 0" xyz="0 0 0"/>
			<mass value="0.1"/>
			<inertia ixx="0.166667" ixy="0.0" ixz="0.0" iyy="0.166667" iyz="0.0" izz="0.166667"/>
		</inertial>
		<visual>
			<origin rpy="-1.5707999467849731 8.940688189795765e-08 -2.68799549675916e-13" xyz="-1.919267378980294e-05 0 -1.0133080650120974e-06"/>
			<geometry>
				<mesh filename="package://mmm_robot/meshes/VIZ_REsegment_link_0.dae" scale="0.001 0.001 0.001"/>
			</geometry>
		</visual>
		<collision>
			<origin rpy="-1.5707999467849731 8.940688189795765e-08 -2.68799549675916e-13" xyz="-1.919267378980294e-05 0 -1.0133080650120974e-06"/>
			<geometry>
				<mesh filename="package://mmm_robot/collisions/COL_VIZ_REsegment_link_0.dae" scale="0.001 0.001 0.001"/>
			</geometry>
		</collision>
	</link>
	<link name="REx_link">
  		<inertial>
			<origin rpy="0 0 0" xyz="0 0 0"/>
			<mass value="0.1"/>
			<inertia ixx="0.166667" ixy="0.0" ixz="0.0" iyy="0.166667" iyz="0.0" izz="0.166667"/>
		</inertial>
	</link>
	<link name="REz_link">
  		<inertial>
			<origin rpy="0 0 0" xyz="0 0 0"/>
			<mass value="0.1"/>
			<inertia ixx="0.166667" ixy="0.0" ixz="0.0" iyy="0.166667" iyz="0.0" izz="0.166667"/>
		</inertial>
	</link>
	<link name="RWsegment_link">
		<inertial>
			<origin rpy="0 0 0" xyz="0 0 0"/>
			<mass value="0.1"/>
			<inertia ixx="0.166667" ixy="0.0" ixz="0.0" iyy="0.166667" iyz="0.0" izz="0.166667"/>
		</inertial>
		<visual>
			<origin rpy="-1.5707999467849731 -1.2119343750782718e-07 -2.326294538945728e-13" xyz="4.440553311724216e-06 0 -1.013309884001501e-06"/>
			<geometry>
				<mesh filename="package://mmm_robot/meshes/VIZ_RWsegment_link_0.dae" scale="0.001 0.001 0.001"/>
			</geometry>
		</visual>
		<collision>
			<origin rpy="-1.5707999467849731 -1.2119343750782718e-07 -2.326294538945728e-13" xyz="4.440553311724216e-06 0 -1.013309884001501e-06"/>
			<geometry>
				<mesh filename="package://mmm_robot/collisions/COL_VIZ_RWsegment_link_0.dae" scale="0.001 0.001 0.001"/>
			</geometry>
		</collision>
	</link>
	<link name="RWx_link">
  		<inertial>
			<origin rpy="0 0 0" xyz="0 0 0"/>
			<mass value="0.1"/>
			<inertia ixx="0.166667" ixy="0.0" ixz="0.0" iyy="0.166667" iyz="0.0" izz="0.166667"/>
		</inertial>
	</link>
	<link name="RWy_link">
  		<inertial>
			<origin rpy="0 0 0" xyz="0 0 0"/>
			<mass value="0.1"/>
			<inertia ixx="0.166667" ixy="0.0" ixz="0.0" iyy="0.166667" iyz="0.0" izz="0.166667"/>
		</inertial>
		<visual>
			<origin rpy="-1.5707999467849731 8.742267709749285e-08 -2.4770219512679215e-13" xyz="3.099447894783225e-06 0 -4.768680810229853e-07"/>
			<geometry>
				<mesh filename="package://mmm_robot/meshes/VIZ_RWy_link_0.dae" scale="0.001 0.001 0.001"/>
			</geometry>
		</visual>
		<collision>
			<origin rpy="-1.5707999467849731 8.742267709749285e-08 -2.4770219512679215e-13" xyz="3.099447894783225e-06 0 -4.768680810229853e-07"/>
			<geometry>
				<mesh filename="package://mmm_robot/collisions/COL_VIZ_RWy_link_0.dae" scale="0.001 0.001 0.001"/>
			</geometry>
		</collision>
	</link>
	<link name="LHsegment_link">
  		<inertial>
			<origin rpy="0 0 0" xyz="0 0 0"/>
			<mass value="0.1"/>
			<inertia ixx="0.166667" ixy="0.0" ixz="0.0" iyy="0.166667" iyz="0.0" izz="0.166667"/>
		</inertial>
		<visual>
			<origin rpy="-1.5707999467849731 -0 0" xyz="-3.814697265625e-06 0 -3.505838321871124e-07"/>
			<geometry>
				<mesh filename="package://mmm_robot/meshes/VIZ_LHsegment_link_0.dae" scale="0.001 0.001 0.001"/>
			</geometry>
		</visual>
		<collision>
			<origin rpy="-1.5707999467849731 -0 0" xyz="-3.814697265625e-06 0 -3.505838321871124e-07"/>
			<geometry>
				<mesh filename="package://mmm_robot/collisions/COL_VIZ_LHsegment_link_0.dae" scale="0.001 0.001 0.001"/>
			</geometry>
		</collision>
	</link>
	<link name="LHx_link">
  		<inertial>
			<origin rpy="0 0 0" xyz="0 0 0"/>
			<mass value="0.1"/>
			<inertia ixx="0.166667" ixy="0.0" ixz="0.0" iyy="0.166667" iyz="0.0" izz="0.166667"/>
		</inertial>
	</link>
	<link name="LHz_link">
  		<inertial>
			<origin rpy="0 0 0" xyz="0 0 0"/>
			<mass value="0.1"/>
			<inertia ixx="0.166667" ixy="0.0" ixz="0.0" iyy="0.166667" iyz="0.0" izz="0.166667"/>
		</inertial>
	</link>
	<link name="LHy_link">
  		<inertial>
			<origin rpy="0 0 0" xyz="0 0 0"/>
			<mass value="0.1"/>
			<inertia ixx="0.166667" ixy="0.0" ixz="0.0" iyy="0.166667" iyz="0.0" izz="0.166667"/>
		</inertial>
	</link>
	<link name="LKsegment_link">
		<inertial>
			<origin rpy="0 0 0" xyz="0 0 0"/>
			<mass value="0.1"/>
			<inertia ixx="0.166667" ixy="0.0" ixz="0.0" iyy="0.166667" iyz="0.0" izz="0.166667"/>
		</inertial>
		<visual>
			<origin rpy="-1.5707999467849731 -0 0" xyz="3.814697265625e-06 0 0.00018310546875"/>
			<geometry>
				<mesh filename="package://mmm_robot/meshes/VIZ_LKsegment_link_0.dae" scale="0.001 0.001 0.001"/>
			</geometry>
		</visual>
		<collision>
			<origin rpy="-1.5707999467849731 -0 0" xyz="3.814697265625e-06 0 0.00018310546875"/>
			<geometry>
				<mesh filename="package://mmm_robot/collisions/COL_VIZ_LKsegment_link_0.dae" scale="0.001 0.001 0.001"/>
			</geometry>
		</collision>
	</link>
	<link name="LKx_link">
  		<inertial>
			<origin rpy="0 0 0" xyz="0 0 0"/>
			<mass value="0.1"/>
			<inertia ixx="0.166667" ixy="0.0" ixz="0.0" iyy="0.166667" iyz="0.0" izz="0.166667"/>
		</inertial>
	</link>
	<link name="LAsegment_link">
		<inertial>
			<origin rpy="0 0 0" xyz="0 0 0"/>
			<mass value="0.1"/>
			<inertia ixx="0.166667" ixy="0.0" ixz="0.0" iyy="0.166667" iyz="0.0" izz="0.166667"/>
		</inertial>
		<visual>
			<origin rpy="-1.5707999467849731 -0 0" xyz="7.62939453125e-06 0 -3.0517578125e-05"/>
			<geometry>
				<mesh filename="package://mmm_robot/meshes/VIZ_LAsegment_link_0.dae" scale="0.001 0.001 0.001"/>
			</geometry>
		</visual>
		<collision>
			<origin rpy="-1.5707999467849731 -0 0" xyz="7.62939453125e-06 0 -3.0517578125e-05"/>
			<geometry>
				<mesh filename="package://mmm_robot/collisions/COL_VIZ_LAsegment_link_0.dae" scale="0.001 0.001 0.001"/>
			</geometry>
		</collision>
	</link>
	<link name="LAx_link">
  		<inertial>
			<origin rpy="0 0 0" xyz="0 0 0"/>
			<mass value="0.1"/>
			<inertia ixx="0.166667" ixy="0.0" ixz="0.0" iyy="0.166667" iyz="0.0" izz="0.166667"/>
		</inertial>
	</link>
	<link name="LAz_link">
  		<inertial>
			<origin rpy="0 0 0" xyz="0 0 0"/>
			<mass value="0.1"/>
			<inertia ixx="0.166667" ixy="0.0" ixz="0.0" iyy="0.166667" iyz="0.0" izz="0.166667"/>
		</inertial>
	</link>
	<link name="LAy_link">
  		<inertial>
			<origin rpy="0 0 0" xyz="0 0 0"/>
			<mass value="0.1"/>
			<inertia ixx="0.166667" ixy="0.0" ixz="0.0" iyy="0.166667" iyz="0.0" izz="0.166667"/>
		</inertial>
		<visual>
			<origin rpy="-1.5707999467849731 -0 0" xyz="7.62939453125e-06 0 0"/>
			<geometry>
				<mesh filename="package://mmm_robot/meshes/VIZ_LAy_link_0.dae" scale="0.001 0.001 0.001"/>
			</geometry>
		</visual>
		<collision>
			<origin rpy="-1.5707999467849731 -0 0" xyz="7.62939453125e-06 0 0"/>
			<geometry>
				<mesh filename="package://mmm_robot/collisions/COL_VIZ_LAy_link_0.dae" scale="0.001 0.001 0.001"/>
			</geometry>
		</collision>
	</link>
	<link name="LeftFootHeight_link">
		<inertial>
			<origin rpy="0 0 0" xyz="0 0 0"/>
			<mass value="0.1"/>
			<inertia ixx="0.166667" ixy="0.0" ixz="0.0" iyy="0.166667" iyz="0.0" izz="0.166667"/>
		</inertial>
	</link>
	<link name="LeftFootLength_link">
  		<inertial>
			<origin rpy="0 0 0" xyz="0 0 0"/>
			<mass value="0.1"/>
			<inertia ixx="0.166667" ixy="0.0" ixz="0.0" iyy="0.166667" iyz="0.0" izz="0.166667"/>
		</inertial>
	</link>
	<link name="LMrot_link">
  		<inertial>
			<origin rpy="0 0 0" xyz="0 0 0"/>
			<mass value="0.1"/>
			<inertia ixx="0.166667" ixy="0.0" ixz="0.0" iyy="0.166667" iyz="0.0" izz="0.166667"/>
		</inertial>
		<visual>
			<origin rpy="-1.5708001852035522 -9.079885785467923e-07 2.432954318010161e-07" xyz="5.262344529910479e-06 9.5367431640625e-07 -7.605552673339844e-05"/>
			<geometry>
				<mesh filename="package://mmm_robot/meshes/VIZ_LMrot_link_0.dae" scale="0.001 0.001 0.001"/>
			</geometry>
		</visual>
		<collision>
			<origin rpy="-1.5708001852035522 -9.079885785467923e-07 2.432954318010161e-07" xyz="5.262344529910479e-06 9.5367431640625e-07 -7.605552673339844e-05"/>
			<geometry>
				<mesh filename="package://mmm_robot/collisions/COL_VIZ_LMrot_link_0.dae" scale="0.001 0.001 0.001"/>
			</geometry>
		</collision>
	</link>
	<link name="LFx_link">
  		<inertial>
			<origin rpy="0 0 0" xyz="0 0 0"/>
			<mass value="0.1"/>
			<inertia ixx="0.166667" ixy="0.0" ixz="0.0" iyy="0.166667" iyz="0.0" izz="0.166667"/>
		</inertial>
		<visual>
			<origin rpy="-1.5707999467849731 -0 0" xyz="0 0 0"/>
			<geometry>
				<mesh filename="package://mmm_robot/meshes/VIZ_LFx_link_0.dae" scale="0.001 0.001 0.001"/>
			</geometry>
		</visual>
		<collision>
			<origin rpy="-1.5707999467849731 -0 0" xyz="0 0 0"/>
			<geometry>
				<mesh filename="package://mmm_robot/collisions/COL_VIZ_LFx_link_0.dae" scale="0.001 0.001 0.001"/>
			</geometry>
		</collision>
	</link>
	<link name="RHsegment_link">
  		<inertial>
			<origin rpy="0 0 0" xyz="0 0 0"/>
			<mass value="0.1"/>
			<inertia ixx="0.166667" ixy="0.0" ixz="0.0" iyy="0.166667" iyz="0.0" izz="0.166667"/>
		</inertial>
		<visual>
			<origin rpy="-1.5707999467849731 -0 0" xyz="2.6702880859375e-05 0 -7.082114734657807e-07"/>
			<geometry>
				<mesh filename="package://mmm_robot/meshes/VIZ_RHsegment_link_0.dae" scale="0.001 0.001 0.001"/>
			</geometry>
		</visual>
		<collision>
			<origin rpy="-1.5707999467849731 -0 0" xyz="2.6702880859375e-05 0 -7.082114734657807e-07"/>
			<geometry>
				<mesh filename="package://mmm_robot/collisions/COL_VIZ_RHsegment_link_0.dae" scale="0.001 0.001 0.001"/>
			</geometry>
		</collision>
	</link>
	<link name="RHx_link">
  		<inertial>
			<origin rpy="0 0 0" xyz="0 0 0"/>
			<mass value="0.1"/>
			<inertia ixx="0.166667" ixy="0.0" ixz="0.0" iyy="0.166667" iyz="0.0" izz="0.166667"/>
		</inertial>
	</link>
	<link name="RHz_link">
  		<inertial>
			<origin rpy="0 0 0" xyz="0 0 0"/>
			<mass value="0.1"/>
			<inertia ixx="0.166667" ixy="0.0" ixz="0.0" iyy="0.166667" iyz="0.0" izz="0.166667"/>
		</inertial>
	</link>
	<link name="RHy_link">
  		<inertial>
			<origin rpy="0 0 0" xyz="0 0 0"/>
			<mass value="0.1"/>
			<inertia ixx="0.166667" ixy="0.0" ixz="0.0" iyy="0.166667" iyz="0.0" izz="0.166667"/>
		</inertial>
	</link>
	<link name="RKsegment_link">
		<inertial>
			<origin rpy="0 0 0" xyz="0 0 0"/>
			<mass value="0.1"/>
			<inertia ixx="0.166667" ixy="0.0" ixz="0.0" iyy="0.166667" iyz="0.0" izz="0.166667"/>
		</inertial>
		<visual>
			<origin rpy="-1.5707999467849731 -0 0" xyz="3.814697265625e-06 0 0.0001983642578125"/>
			<geometry>
				<mesh filename="package://mmm_robot/meshes/VIZ_RKsegment_link_0.dae" scale="0.001 0.001 0.001"/>
			</geometry>
		</visual>
		<collision>
			<origin rpy="-1.5707999467849731 -0 0" xyz="3.814697265625e-06 0 0.0001983642578125"/>
			<geometry>
				<mesh filename="package://mmm_robot/collisions/COL_VIZ_RKsegment_link_0.dae" scale="0.001 0.001 0.001"/>
			</geometry>
		</collision>
	</link>
	<link name="RKx_link">
  		<inertial>
			<origin rpy="0 0 0" xyz="0 0 0"/>
			<mass value="0.1"/>
			<inertia ixx="0.166667" ixy="0.0" ixz="0.0" iyy="0.166667" iyz="0.0" izz="0.166667"/>
		</inertial>
	</link>
	<link name="RAsegment_link">
		<inertial>
			<origin rpy="0 0 0" xyz="0 0 0"/>
			<mass value="0.1"/>
			<inertia ixx="0.166667" ixy="0.0" ixz="0.0" iyy="0.166667" iyz="0.0" izz="0.166667"/>
		</inertial>
		<visual>
			<origin rpy="-1.5707999467849731 -0 0" xyz="0 0 0"/>
			<geometry>
				<mesh filename="package://mmm_robot/meshes/VIZ_RAsegment_link_0.dae" scale="0.001 0.001 0.001"/>
			</geometry>
		</visual>
		<collision>
			<origin rpy="-1.5707999467849731 -0 0" xyz="0 0 0"/>
			<geometry>
				<mesh filename="package://mmm_robot/collisions/COL_VIZ_RAsegment_link_0.dae" scale="0.001 0.001 0.001"/>
			</geometry>
		</collision>
	</link>
	<link name="RAx_link">
  		<inertial>
			<origin rpy="0 0 0" xyz="0 0 0"/>
			<mass value="0.1"/>
			<inertia ixx="0.166667" ixy="0.0" ixz="0.0" iyy="0.166667" iyz="0.0" izz="0.166667"/>
		</inertial>
	</link>
	<link name="RAz_link">
  		<inertial>
			<origin rpy="0 0 0" xyz="0 0 0"/>
			<mass value="0.1"/>
			<inertia ixx="0.166667" ixy="0.0" ixz="0.0" iyy="0.166667" iyz="0.0" izz="0.166667"/>
		</inertial>
	</link>
	<link name="RAy_link">
  		<inertial>
			<origin rpy="0 0 0" xyz="0 0 0"/>
			<mass value="0.1"/>
			<inertia ixx="0.166667" ixy="0.0" ixz="0.0" iyy="0.166667" iyz="0.0" izz="0.166667"/>
		</inertial>
		<visual>
			<origin rpy="-1.5707999467849731 -0 0" xyz="3.814697265625e-06 0 -3.0517578125e-05"/>
			<geometry>
				<mesh filename="package://mmm_robot/meshes/VIZ_RAy_link_0.dae" scale="0.001 0.001 0.001"/>
			</geometry>
		</visual>
		<collision>
			<origin rpy="-1.5707999467849731 -0 0" xyz="3.814697265625e-06 0 -3.0517578125e-05"/>
			<geometry>
				<mesh filename="package://mmm_robot/collisions/COL_VIZ_RAy_link_0.dae" scale="0.001 0.001 0.001"/>
			</geometry>
		</collision>
	</link>
	<link name="RightFootHeight_link">
		<inertial>
			<origin rpy="0 0 0" xyz="0 0 0"/>
			<mass value="0.1"/>
			<inertia ixx="0.166667" ixy="0.0" ixz="0.0" iyy="0.166667" iyz="0.0" izz="0.166667"/>
		</inertial>
	</link>
	<link name="RightFootLength_link">
  		<inertial>
			<origin rpy="0 0 0" xyz="0 0 0"/>
			<mass value="0.1"/>
			<inertia ixx="0.166667" ixy="0.0" ixz="0.0" iyy="0.166667" iyz="0.0" izz="0.166667"/>
		</inertial>
	</link>
	<link name="RMrot_link">
  		<inertial>
			<origin rpy="0 0 0" xyz="0 0 0"/>
			<mass value="0.1"/>
			<inertia ixx="0.166667" ixy="0.0" ixz="0.0" iyy="0.166667" iyz="0.0" izz="0.166667"/>
		</inertial>
		<visual>
			<origin rpy="-1.5708001852035522 2.475958922332211e-07 -3.946384552477866e-08" xyz="1.1265651664871257e-05 -2.956390380859375e-05 -7.295608520507812e-05"/>
			<geometry>
				<mesh filename="package://mmm_robot/meshes/VIZ_RMrot_link_0.dae" scale="0.001 0.001 0.0009999999403953552"/>
			</geometry>
		</visual>
		<collision>
			<origin rpy="-1.5708001852035522 2.475958922332211e-07 -3.946384552477866e-08" xyz="1.1265651664871257e-05 -2.956390380859375e-05 -7.295608520507812e-05"/>
			<geometry>
				<mesh filename="package://mmm_robot/collisions/COL_VIZ_RMrot_link_0.dae" scale="0.001 0.001 0.0009999999403953552"/>
			</geometry>
		</collision>
	</link>
	<link name="RFx_link">
  		<inertial>
			<origin rpy="0 0 0" xyz="0 0 0"/>
			<mass value="0.1"/>
			<inertia ixx="0.166667" ixy="0.0" ixz="0.0" iyy="0.166667" iyz="0.0" izz="0.166667"/>
		</inertial>
		<visual>
			<origin rpy="-1.5707999467849731 -0 0" xyz="0 0 0"/>
			<geometry>
				<mesh filename="package://mmm_robot/meshes/VIZ_RFx_link_0.dae" scale="0.001 0.001 0.001"/>
			</geometry>
		</visual>
		<collision>
			<origin rpy="-1.5707999467849731 -0 0" xyz="0 0 0"/>
			<geometry>
				<mesh filename="package://mmm_robot/collisions/COL_VIZ_RFx_link_0.dae" scale="0.001 0.001 0.001"/>
			</geometry>
		</collision>
	</link>
	<gazebo>
		<plugin filename="libgeneric_controller_plugin.so" name="generic_controller">
			<controller joint_name="BPx_joint">
				<type>position</type>
				<pid> 200 1 100</pid>
			</controller>
			<controller joint_name="BPz_joint">
				<type>position</type>
				<pid> 200 1 100</pid>
			</controller>
			<controller joint_name="BPy_joint">
				<type>position</type>
				<pid> 200 1 100</pid>
			</controller>
			<controller joint_name="BTx_joint">
				<type>position</type>
				<pid> 200 1 100</pid>
			</controller>
			<controller joint_name="BTz_joint">
				<type>position</type>
				<pid> 200 1 100</pid>
			</controller>
			<controller joint_name="BTy_joint">
				<type>position</type>
				<pid> 200 1 100</pid>
			</controller>
			<controller joint_name="BLNx_joint">
				<type>position</type>
				<pid> 200 1 100</pid>
			</controller>
			<controller joint_name="BLNz_joint">
				<type>position</type>
				<pid> 200 1 100</pid>
			</controller>
			<controller joint_name="BLNy_joint">
				<type>position</type>
				<pid> 200 1 100</pid>
			</controller>
			<controller joint_name="BUNx_joint">
				<type>position</type>
				<pid> 200 1 100</pid>
			</controller>
			<controller joint_name="BUNz_joint">
				<type>position</type>
				<pid> 200 1 100</pid>
			</controller>
			<controller joint_name="BUNy_joint">
				<type>position</type>
				<pid> 200 1 100</pid>
			</controller>
			<controller joint_name="LSCx_joint">
				<type>position</type>
				<pid> 200 1 100</pid>
			</controller>
			<controller joint_name="LSCz_joint">
				<type>position</type>
				<pid> 200 1 100</pid>
			</controller>
			<controller joint_name="LSCy_joint">
				<type>position</type>
				<pid> 200 1 100</pid>
			</controller>
			<controller joint_name="LSx_joint">
				<type>position</type>
				<pid> 200 1 100</pid>
			</controller>
			<controller joint_name="LSz_joint">
				<type>position</type>
				<pid> 200 1 100</pid>
			</controller>
			<controller joint_name="LSy_joint">
				<type>position</type>
				<pid> 200 1 100</pid>
			</controller>
			<controller joint_name="LEx_joint">
				<type>position</type>
				<pid> 200 1 100</pid>
			</controller>
			<controller joint_name="LEz_joint">
				<type>position</type>
				<pid> 200 1 100</pid>
			</controller>
			<controller joint_name="LWx_joint">
				<type>position</type>
				<pid> 200 1 100</pid>
			</controller>
			<controller joint_name="LWy_joint">
				<type>position</type>
				<pid> 200 1 100</pid>
			</controller>
			<controller joint_name="RSCx_joint">
				<type>position</type>
				<pid> 200 1 100</pid>
			</controller>
			<controller joint_name="RSCz_joint">
				<type>position</type>
				<pid> 200 1 100</pid>
			</controller>
			<controller joint_name="RSCy_joint">
				<type>position</type>
				<pid> 200 1 100</pid>
			</controller>
			<controller joint_name="RSx_joint">
				<type>position</type>
				<pid> 200 1 100</pid>
			</controller>
			<controller joint_name="RSz_joint">
				<type>position</type>
				<pid> 200 1 100</pid>
			</controller>
			<controller joint_name="RSy_joint">
				<type>position</type>
				<pid> 200 1 100</pid>
			</controller>
			<controller joint_name="REx_joint">
				<type>position</type>
				<pid> 200 1 100</pid>
			</controller>
			<controller joint_name="REz_joint">
				<type>position</type>
				<pid> 200 1 100</pid>
			</controller>
			<controller joint_name="RWx_joint">
				<type>position</type>
				<pid> 200 1 100</pid>
			</controller>
			<controller joint_name="RWy_joint">
				<type>position</type>
				<pid> 200 1 100</pid>
			</controller>
			<controller joint_name="LHx_joint">
				<type>position</type>
				<pid> 200 1 100</pid>
			</controller>
			<controller joint_name="LHz_joint">
				<type>position</type>
				<pid> 200 1 100</pid>
			</controller>
			<controller joint_name="LHy_joint">
				<type>position</type>
				<pid> 200 1 100</pid>
			</controller>
			<controller joint_name="LKx_joint">
				<type>position</type>
				<pid> 200 1 100</pid>
			</controller>
			<controller joint_name="LAx_joint">
				<type>position</type>
				<pid> 200 1 100</pid>
			</controller>
			<controller joint_name="LAz_joint">
				<type>position</type>
				<pid> 200 1 100</pid>
			</controller>
			<controller joint_name="LAy_joint">
				<type>position</type>
				<pid> 200 1 100</pid>
			</controller>
			<controller joint_name="LMrot_joint">
				<type>position</type>
				<pid> 200 1 100</pid>
			</controller>
			<controller joint_name="LFx_joint">
				<type>position</type>
				<pid> 200 1 100</pid>
			</controller>
			<controller joint_name="RHx_joint">
				<type>position</type>
				<pid> 200 1 100</pid>
			</controller>
			<controller joint_name="RHz_joint">
				<type>position</type>
				<pid> 200 1 100</pid>
			</controller>
			<controller joint_name="RHy_joint">
				<type>position</type>
				<pid> 200 1 100</pid>
			</controller>
			<controller joint_name="RKx_joint">
				<type>position</type>
				<pid> 200 1 100</pid>
			</controller>
			<controller joint_name="RAx_joint">
				<type>position</type>
				<pid> 200 1 100</pid>
			</controller>
			<controller joint_name="RAz_joint">
				<type>position</type>
				<pid> 200 1 100</pid>
			</controller>
			<controller joint_name="RAy_joint">
				<type>position</type>
				<pid> 200 1 100</pid>
			</controller>
			<controller joint_name="RMrot_joint">
				<type>position</type>
				<pid> 200 1 100</pid>
			</controller>
			<controller joint_name="RFx_joint">
				<type>position</type>
				<pid> 200 1 100</pid>
			</controller>
		</plugin>
	</gazebo>
</robot>
