<?xml version="1.0" encoding="utf-8"?>
<COLLADA xmlns="http://www.collada.org/2005/11/COLLADASchema" version="1.4.1">
  <asset>
    <contributor>
      <author>Blender User</author>
      <authoring_tool>Blender 2.77.0 commit date:2016-04-05, commit time:18:12, hash:abf6f08</authoring_tool>
    </contributor>
    <created>2017-08-14T15:44:05</created>
    <modified>2017-08-14T15:44:05</modified>
    <unit name="meter" meter="1"/>
    <up_axis>Z_UP</up_axis>
  </asset>
  <library_images>
    <image id="PBRFULL_PingPongTableTop-material_Base_Color_jpg" name="PBRFULL_PingPongTableTop-material_Base_Color_jpg">
      <init_from>PBRFULL_PingPongTableTop-material_Base_Color.jpg</init_from>
    </image>
    <image id="PBRFULL_PingPongTable-material_Base_Color_jpg" name="PBRFULL_PingPongTable-material_Base_Color_jpg">
      <init_from>PBRFULL_PingPongTable-material_Base_Color.jpg</init_from>
    </image>
  </library_images>
  <library_effects>
    <effect id="PBRFULL_PingPongTableTop-effect">
      <profile_COMMON>
        <newparam sid="PBRFULL_PingPongTableTop-material_Base_Color_jpg-surface">
          <surface type="2D">
            <init_from>PBRFULL_PingPongTableTop-material_Base_Color_jpg</init_from>
          </surface>
        </newparam>
        <newparam sid="PBRFULL_PingPongTableTop-material_Base_Color_jpg-sampler">
          <sampler2D>
            <source>PBRFULL_PingPongTableTop-material_Base_Color_jpg-surface</source>
          </sampler2D>
        </newparam>
        <technique sid="common">
          <phong>
            <emission>
              <color sid="emission">0 0 0 1</color>
            </emission>
            <ambient>
              <color sid="ambient">0 0 0 1</color>
            </ambient>
            <diffuse>
              <texture texture="PBRFULL_PingPongTableTop-material_Base_Color_jpg-sampler"/>
            </diffuse>
            <specular>
              <color sid="specular">0.5 0.5 0.5 1</color>
            </specular>
            <shininess>
              <float sid="shininess">50</float>
            </shininess>
            <index_of_refraction>
              <float sid="index_of_refraction">1</float>
            </index_of_refraction>
          </phong>
        </technique>
      </profile_COMMON>
    </effect>
    <effect id="PBRFULL_PingPongTable-effect">
      <profile_COMMON>
        <newparam sid="PBRFULL_PingPongTable-material_Base_Color_jpg-surface">
          <surface type="2D">
            <init_from>PBRFULL_PingPongTable-material_Base_Color_jpg</init_from>
          </surface>
        </newparam>
        <newparam sid="PBRFULL_PingPongTable-material_Base_Color_jpg-sampler">
          <sampler2D>
            <source>PBRFULL_PingPongTable-material_Base_Color_jpg-surface</source>
          </sampler2D>
        </newparam>
        <technique sid="common">
          <phong>
            <emission>
              <color sid="emission">0 0 0 1</color>
            </emission>
            <ambient>
              <color sid="ambient">0 0 0 1</color>
            </ambient>
            <diffuse>
              <texture texture="PBRFULL_PingPongTable-material_Base_Color_jpg-sampler"/>
            </diffuse>
            <specular>
              <color sid="specular">0.5 0.5 0.5 1</color>
            </specular>
            <shininess>
              <float sid="shininess">50</float>
            </shininess>
            <index_of_refraction>
              <float sid="index_of_refraction">1</float>
            </index_of_refraction>
          </phong>
        </technique>
      </profile_COMMON>
    </effect>
  </library_effects>
  <library_materials>
    <material id="PBRFULL_PingPongTableTop-material" name="PBRFULL_PingPongTableTop">
      <instance_effect url="#PBRFULL_PingPongTableTop-effect"/>
    </material>
    <material id="PBRFULL_PingPongTable-material" name="PBRFULL_PingPongTable">
      <instance_effect url="#PBRFULL_PingPongTable-effect"/>
    </material>
  </library_materials>
  <library_geometries>
    <geometry id="Cube_006-mesh" name="Cube.006">
      <mesh>
        <source id="Cube_006-mesh-positions">
          <float_array id="Cube_006-mesh-positions-array" count="12">-0.7625 -1.37 0.81 -0.7625 1.37 0.81 0.7625 -1.37 0.81 0.7625 1.37 0.81</float_array>
          <technique_common>
            <accessor source="#Cube_006-mesh-positions-array" count="4" stride="3">
              <param name="X" type="float"/>
              <param name="Y" type="float"/>
              <param name="Z" type="float"/>
            </accessor>
          </technique_common>
        </source>
        <source id="Cube_006-mesh-normals">
          <float_array id="Cube_006-mesh-normals-array" count="3">0 0 1</float_array>
          <technique_common>
            <accessor source="#Cube_006-mesh-normals-array" count="1" stride="3">
              <param name="X" type="float"/>
              <param name="Y" type="float"/>
              <param name="Z" type="float"/>
            </accessor>
          </technique_common>
        </source>
        <source id="Cube_006-mesh-map-0">
          <float_array id="Cube_006-mesh-map-0-array" count="12">1 1 0 0 1 0 1 1 0 1 0 0</float_array>
          <technique_common>
            <accessor source="#Cube_006-mesh-map-0-array" count="6" stride="2">
              <param name="S" type="float"/>
              <param name="T" type="float"/>
            </accessor>
          </technique_common>
        </source>
        <vertices id="Cube_006-mesh-vertices">
          <input semantic="POSITION" source="#Cube_006-mesh-positions"/>
        </vertices>
        <polylist material="PBRFULL_PingPongTableTop-material" count="2">
          <input semantic="VERTEX" source="#Cube_006-mesh-vertices" offset="0"/>
          <input semantic="NORMAL" source="#Cube_006-mesh-normals" offset="1"/>
          <input semantic="TEXCOORD" source="#Cube_006-mesh-map-0" offset="2" set="0"/>
          <vcount>3 3 </vcount>
          <p>3 0 0 0 0 1 2 0 2 3 0 3 1 0 4 0 0 5</p>
        </polylist>
      </mesh>
    </geometry>
    <geometry id="Cube_007-mesh" name="Cube.007">
      <mesh>
        <source id="Cube_007-mesh-positions">
          <float_array id="Cube_007-mesh-positions-array" count="708">-0.8188763 0.01012784 0.7413976 -0.8144319 0.01766955 0.9875818 -0.8188763 -0.01004189 0.7413976 -0.8144319 -0.01768046 0.9875818 -0.8384733 0.01012784 0.7413976 -0.8424307 0.01766955 0.9875818 -0.8384733 -0.01004189 0.7413976 -0.8424307 -0.01768046 0.9875818 -0.8188763 0.01012784 0.7563309 -0.8188763 -0.01004189 0.7563309 -0.8384733 -0.01004189 0.7563309 -0.8384733 0.01012784 0.7563309 -0.8384733 -0.01004189 0.8172364 -0.8188763 0.01012784 0.8172364 -0.8188763 -0.01004189 0.8172364 -0.8384733 0.01012784 0.8172364 -0.8384733 -0.01004189 0.8116658 -0.8188763 -0.01004189 0.8116658 -0.8384733 0.01012784 0.8116658 -0.8188763 0.01012784 0.8116658 -0.740644 0.01012784 0.8116658 -0.740644 0.01012784 0.8172364 -0.740644 -0.01004189 0.8172364 -0.740644 -0.01004189 0.8116658 -0.723722 -0.01004189 0.7563309 -0.723722 -0.01004189 0.7413976 -0.723722 0.01012784 0.7413976 -0.723722 0.01012784 0.7563309 -0.8407827 2.36129e-4 0.7563309 -0.7369072 2.36102e-4 0.8172364 -0.8407827 2.36117e-4 0.8172364 -0.8199746 2.36126e-4 0.7563309 -0.8457304 3.3299e-4 0.9875818 -0.816001 3.32986e-4 0.9875818 -0.7189394 2.36113e-4 0.7413976 -0.7369072 2.36102e-4 0.8116658 -0.8407827 2.36117e-4 0.8116658 -0.8199746 2.36114e-4 0.8172364 -0.8407827 2.36129e-4 0.7413976 -0.8199746 2.36128e-4 0.7413976 -0.7189394 2.36111e-4 0.7563309 -0.8199746 2.36114e-4 0.8116658 -0.8144319 -0.01768046 0.9693068 -0.8457304 3.32993e-4 0.9693068 -0.8424307 -0.01768046 0.9693068 -0.8144319 0.01766955 0.9693068 -0.8424307 0.01766955 0.9693068 -0.816001 3.32989e-4 0.9693068 -0.8188763 -0.01004189 0.9575416 -0.8188763 0.01012784 0.9575416 -0.8407827 2.36105e-4 0.9575416 -0.8384733 -0.01004189 0.9575416 -0.8384733 0.01012784 0.9575416 -0.8199746 2.36102e-4 0.9575416 0.8145003 -0.0101279 0.7413976 0.8100559 -0.01766955 0.9875818 0.8145003 0.01004183 0.7413976 0.8100559 0.01768046 0.9875818 0.8340973 -0.0101279 0.7413976 0.8380547 -0.01766955 0.9875818 0.8340973 0.01004183 0.7413976 0.8380547 0.01768046 0.9875818 0.8145003 -0.0101279 0.7563309 0.8145003 0.01004183 0.7563309 0.8340973 0.01004183 0.7563309 0.8340973 -0.0101279 0.7563309 0.8340973 0.01004183 0.8172364 0.8145003 -0.0101279 0.8172364 0.8145003 0.01004183 0.8172364 0.8340973 -0.0101279 0.8172364 0.8340973 0.01004183 0.8116658 0.8145003 0.01004183 0.8116658 0.8340973 -0.0101279 0.8116658 0.8145003 -0.0101279 0.8116658 0.736268 -0.0101279 0.8116658 0.736268 -0.0101279 0.8172364 0.736268 0.01004183 0.8172364 0.736268 0.01004183 0.8116658 0.7193461 0.01004183 0.7563309 0.7193461 0.01004183 0.7413976 0.7193461 -0.0101279 0.7413976 0.7193461 -0.0101279 0.7563309 0.8364067 -2.36132e-4 0.7563309 0.7325312 -2.36121e-4 0.8172364 0.8364067 -2.36121e-4 0.8172364 0.8155986 -2.36132e-4 0.7563309 0.8413544 -3.32993e-4 0.9875818 0.811625 -3.32993e-4 0.9875818 0.7145634 -2.36134e-4 0.7413976 0.7325312 -2.36121e-4 0.8116658 0.8364067 -2.36121e-4 0.8116658 0.8155986 -2.36121e-4 0.8172364 0.8364067 -2.36132e-4 0.7413976 0.8155986 -2.36134e-4 0.7413976 0.7145634 -2.36132e-4 0.7563309 0.8155986 -2.36121e-4 0.8116658 0.8100559 0.01768046 0.9693068 0.8413544 -3.32996e-4 0.9693068 0.8380547 0.01768046 0.9693068 0.8100559 -0.01766955 0.9693068 0.8380547 -0.01766955 0.9693068 0.811625 -3.32996e-4 0.9693068 0.8145003 0.01004183 0.9575416 0.8145003 -0.0101279 0.9575416 0.8364067 -2.36108e-4 0.9575416 0.8340973 0.01004183 0.9575416 0.8340973 -0.0101279 0.9575416 0.8155986 -2.36108e-4 0.9575416 -0.8175288 -0.00694555 0.8140366 -0.8175288 -0.00694555 0.9665366 -0.8175288 0.00694555 0.8140366 -0.8175288 0.00694555 0.9665366 0.8175288 -0.00694555 0.8140366 0.8175288 -0.00694555 0.9665366 0.8175288 0.00694555 0.8140366 0.8175288 0.00694555 0.9665366 0.6017074 1.155869 0 0.6017074 1.155869 0.7721023 0.6017074 1.205869 0 0.6017074 1.205869 0.7721023 0.6517074 1.155869 0 0.6517074 1.155869 0.7721023 0.6517074 1.205869 0 0.6517074 1.205869 0.7721023 0.6017074 0.5764066 0 0.6017074 0.5764066 0.7721023 0.6017074 0.6264066 0 0.6017074 0.6264066 0.7721023 0.6517074 0.5764066 0 0.6517074 0.5764066 0.7721023 0.6517074 0.6264066 0 0.6517074 0.6264066 0.7721023 0.6071517 1.168934 0.3664954 0.6071517 0.6131305 0.3664954 0.6071517 1.168934 0.4056069 0.6071517 0.6131305 0.4056069 0.6462631 1.168934 0.3664954 0.6462631 0.6131305 0.3664954 0.6462631 1.168934 0.4056069 0.6462631 0.6131305 0.4056069 -0.6631014 1.155869 0 -0.6631014 1.155869 0.7721023 -0.6631014 1.205869 0 -0.6631014 1.205869 0.7721023 -0.6131014 1.155869 0 -0.6131014 1.155869 0.7721023 -0.6131014 1.205869 0 -0.6131014 1.205869 0.7721023 -0.6631014 0.5764066 0 -0.6631014 0.5764066 0.7721023 -0.6631014 0.6264066 0 -0.6631014 0.6264066 0.7721023 -0.6131014 0.5764066 0 -0.6131014 0.5764066 0.7721023 -0.6131014 0.6264066 0 -0.6131014 0.6264066 0.7721023 -0.6576571 1.168934 0.3664954 -0.6576571 0.6131305 0.3664954 -0.6576571 1.168934 0.4056069 -0.6576571 0.6131305 0.4056069 -0.6185457 1.168934 0.3664954 -0.6185457 0.6131305 0.3664954 -0.6185457 1.168934 0.4056069 -0.6185457 0.6131305 0.4056069 0.6017074 -0.7282119 0 0.6017074 -0.7282119 0.7721023 0.6017074 -0.6782119 0 0.6017074 -0.6782119 0.7721023 0.6517074 -0.7282119 0 0.6517074 -0.7282119 0.7721023 0.6517074 -0.6782119 0 0.6517074 -0.6782119 0.7721023 0.6017074 -1.307675 0 0.6017074 -1.307675 0.7721023 0.6017074 -1.257675 0 0.6017074 -1.257675 0.7721023 0.6517074 -1.307675 0 0.6517074 -1.307675 0.7721023 0.6517074 -1.257675 0 0.6517074 -1.257675 0.7721023 0.6071517 -0.7151468 0.3664954 0.6071517 -1.270951 0.3664954 0.6071517 -0.7151468 0.4056069 0.6071517 -1.270951 0.4056069 0.6462631 -0.7151468 0.3664954 0.6462631 -1.270951 0.3664954 0.6462631 -0.7151468 0.4056069 0.6462631 -1.270951 0.4056069 -0.6631014 -0.7282119 0 -0.6631014 -0.7282119 0.7721023 -0.6631014 -0.6782119 0 -0.6631014 -0.6782119 0.7721023 -0.6131014 -0.7282119 0 -0.6131014 -0.7282119 0.7721023 -0.6131014 -0.6782119 0 -0.6131014 -0.6782119 0.7721023 -0.6631014 -1.307675 0 -0.6631014 -1.307675 0.7721023 -0.6631014 -1.257675 0 -0.6631014 -1.257675 0.7721023 -0.6131014 -1.307675 0 -0.6131014 -1.307675 0.7721023 -0.6131014 -1.257675 0 -0.6131014 -1.257675 0.7721023 -0.7625 -1.37 0.7600001 -0.7625 -1.37 0.81 -0.7625 1.37 0.7600001 -0.7625 1.37 0.81 0.7625 -1.37 0.7600001 0.7625 -1.37 0.81 0.7625 1.37 0.7600001 0.7625 1.37 0.81 -0.8175288 -0.001421988 0.8140366 -0.8175288 -0.001421988 0.9665366 -0.8175288 0.001421988 0.8140366 -0.8175288 0.001421988 0.9665366 0.8175288 -0.001421988 0.8140366 0.8175288 -0.001421988 0.9665366 0.8175288 0.001421988 0.8140366 0.8175288 0.001421988 0.9665366 -0.6631014 -1.307675 0 -0.6631014 -1.307675 0.7721023 -0.6631014 -1.257675 0 -0.6631014 -1.257675 0.7721023 -0.6576571 -0.7151468 0.3664954 -0.6576571 -1.270951 0.3664954 -0.6576571 -0.7151468 0.4056069 -0.6576571 -1.270951 0.4056069 -0.6185457 -0.7151468 0.3664954 -0.6185457 -1.270951 0.3664954 -0.6185457 -0.7151468 0.4056069 -0.6185457 -1.270951 0.4056069 -0.7625 -1.37 0.7600001 -0.7625 1.37 0.7600001 0.7625 -1.37 0.7600001 0.7625 1.37 0.7600001</float_array>
          <technique_common>
            <accessor source="#Cube_007-mesh-positions-array" count="236" stride="3">
              <param name="X" type="float"/>
              <param name="Y" type="float"/>
              <param name="Z" type="float"/>
            </accessor>
          </technique_common>
        </source>
        <source id="Cube_007-mesh-normals">
          <float_array id="Cube_007-mesh-normals-array" count="483">0.9959291 -0.09014028 0 -1.33052e-7 -1 0 -0.9836328 -0.1801846 0 1.33051e-7 1 0 -7.45456e-6 0 -1 0 0 1 0.9354752 0.3533923 0 -1.4257e-7 -1 0 -0.9756712 -0.2192392 0 1.4257e-7 1 0 -1.18266e-6 0 -1 -1.42571e-7 -1 0 -0.9756747 -0.2192236 0 1.42571e-7 1 0 -1.50212e-6 0 1 -1.42572e-7 -1 0 -0.9756731 -0.2192305 0 1.42572e-7 1 0 0.9938924 -0.1103537 0 1.54761e-7 1 0 -1.27792e-6 0 -1 -1.54761e-7 -1 0 0.9002934 0.4352836 0 1.46813e-7 1 0 3.06805e-7 0 1 -1.46812e-7 -1 0 -1.83447e-7 0 1 0.9943393 0.1062514 0 -0.9738118 0.2273563 0 -4.3547e-6 0 -1 0.9398127 -0.3416903 0 -0.9738127 0.2273519 0 0 0 -1 -0.97381 0.2273638 0 2.18168e-6 0 1 -0.9738118 0.2273563 0 0.9943392 0.1062524 0 0.9066508 -0.421882 0 -8.96847e-7 5.79924e-6 1 -0.9823639 0.1869791 0 0 -0.8387317 -0.5445449 -0.8977154 -0.1644518 -0.4087332 8.66326e-7 0.8418806 -0.5396639 0.9962276 0.0867787 0 0.9489753 -0.08588874 -0.3034289 -0.8957434 0.1704927 -0.4105801 -1.42572e-7 -1 0 0.9938928 -0.1103503 0 -0.9756731 -0.2192305 0 0.9488321 0.08264958 -0.3047733 1.42571e-7 1 0 -0.9959286 0.09014612 0 0 1 0 0.9836348 0.1801738 0 0 -1 0 -0.9354752 -0.3533923 0 0.9756712 0.2192392 0 0.9756747 0.2192236 0 0.9756731 0.2192305 0 -0.9938939 0.1103404 0 -0.9002934 -0.4352836 0 -0.9943393 -0.1062514 0 0.9738118 -0.2273563 0 -0.9398127 0.3416903 0 0.9738127 -0.2273519 0 0.97381 -0.2273638 0 0.9738118 -0.227356 0 -0.9943392 -0.1062533 0 -0.9066456 0.4218931 0 0 -5.79924e-6 1 0.982366 -0.186968 0 0 0.8387303 -0.5445471 0.8977196 0.1644418 -0.4087279 0 -0.8418845 -0.5396578 -0.9962272 -0.0867843 0 -0.9489745 0.08588945 -0.3034314 0.8957414 -0.1704873 -0.4105867 -0.9938928 0.1103503 0 0.9756731 0.2192305 0 -0.9488321 -0.08264958 -0.3047733 -1 0 0 1 0 0 -1 1.7137e-7 0 0 0 1 1 0 0 0 0 -1 1 0 0 -1 1.7137e-7 0 0.9959287 -0.09014552 0 -1.33052e-7 -1 0 -0.9836348 -0.1801738 0 1.33052e-7 1 0 4.52474e-6 0 -1 -4.50753e-6 0 1 0.9354792 0.3533818 0 -1.42573e-7 -1 0 -0.9756743 -0.2192254 0 1.42572e-7 1 0 -0.9756712 -0.2192387 0 -0.9756731 -0.2192305 0 1.42572e-7 1 0 0.9938924 -0.1103535 0 0.900292 0.4352867 0 1.46813e-7 1 0 9.31866e-7 0 1 -1.46813e-7 -1 0 6.95628e-6 0 1 0.9943393 0.1062514 0 -0.9738119 0.2273557 0 7.17441e-6 0 -1 -0.9738097 0.2273648 0 1.22884e-6 0 -1 -0.9738135 0.2273482 0 -8.7084e-7 0 1 -0.9738118 0.227356 0 0.994339 0.1062543 0 -1.07915e-6 0 -1 0.9066498 -0.4218841 0 -2.95274e-7 5.79923e-6 1 -0.982366 0.186968 0 -8.63082e-7 -0.8387282 -0.5445503 -0.9032199 -0.2029462 -0.3781622 0 0.841884 -0.5396586 0.9962272 0.08678483 0 0.9424834 -0.1046399 -0.3174517 -0.9005817 0.2102537 -0.3804551 -1.42571e-7 -1 0 0.9938927 -0.1103506 0 -0.9756731 -0.2192305 0 0.9423555 0.1006954 -0.3191029 1.42572e-7 1 0 -0.9959291 0.09013974 0 0.9836325 0.1801866 0 0.975674 0.2192266 0 0.9756712 0.2192387 0 0.9756733 0.2192298 0 -0.9938924 0.1103535 0 -0.9002885 -0.4352937 0 -0.9943393 -0.1062514 0 0.9738119 -0.2273557 0 0.9738097 -0.2273648 0 0.9738135 -0.2273482 0 0.9738116 -0.2273567 0 -0.9943404 -0.1062415 0 -0.9066498 0.4218841 0 0.9823643 -0.186977 0 0 0.8387324 -0.544544 0.9032173 0.2029488 -0.378167 0 -0.8418827 -0.5396606 -0.9962276 -0.08677923 0 -0.9424851 0.1046384 -0.3174472 0.9005851 -0.2102503 -0.380449 -0.9938927 0.1103506 0 0.9756731 0.2192305 0 -0.9423544 -0.1006962 -0.3191056 -1 0 0 0 0 1 0 0 -1 -1 0 0 0 0 1 0 0 -1</float_array>
          <technique_common>
            <accessor source="#Cube_007-mesh-normals-array" count="161" stride="3">
              <param name="X" type="float"/>
              <param name="Y" type="float"/>
              <param name="Z" type="float"/>
            </accessor>
          </technique_common>
        </source>
        <source id="Cube_007-mesh-map-0">
          <float_array id="Cube_007-mesh-map-0-array" count="2052">0.5827171 0.817268 0.5769098 0.8110585 0.5827171 0.8110785 0.7232348 0.7953215 0.7139642 0.8016737 0.7138581 0.7954862 0.5266507 0.9160969 0.5326831 0.9098646 0.5326831 0.916054 0.7817773 0.8922244 0.7912601 0.8862015 0.791154 0.8923891 0.7015924 0.920505 0.6982792 0.9267748 0.6982792 0.9201328 0.6859297 0.9463176 0.6947822 0.9404416 0.6953078 0.9463176 0.5405849 0.8497235 0.542497 0.853075 0.5406326 0.8530749 0.7232543 0.8737511 0.716778 0.8789225 0.7166913 0.8738663 0.5266815 0.8377113 0.5301234 0.8326237 0.5301234 0.8376814 0.7846105 0.8138456 0.7912601 0.8089047 0.7911734 0.8139608 0.7015924 0.920505 0.705035 0.8878818 0.705035 0.9201328 0.7229006 0.8531297 0.71637 0.855131 0.7163376 0.8532449 0.5266815 0.8583393 0.5301234 0.8564226 0.5301234 0.8583093 0.7842568 0.834467 0.7908521 0.8326961 0.7908198 0.8345822 0.52937 0.95103 0.5326831 0.9241421 0.5326831 0.9506577 0.7229329 0.8550158 0.7166913 0.8738663 0.71637 0.855131 0.5266815 0.8564525 0.5301234 0.8376814 0.5301234 0.8564226 0.7842892 0.8325809 0.7911734 0.8139608 0.7908521 0.8326961 0.6014007 0.9423169 0.5980872 0.9235616 0.6014007 0.9235757 0.7842568 0.834467 0.7580894 0.8321208 0.7842892 0.8325809 0.5845034 0.951716 0.587946 0.9248281 0.587946 0.9513437 0.71637 0.855131 0.6901379 0.8537051 0.7163376 0.8532449 0.01516902 0.9456818 0.02010601 0.9423307 0.02016723 0.9456818 0.7846105 0.8138456 0.7528303 0.8082298 0.7846972 0.8087894 0.6163935 0.9252965 0.6197067 0.8926733 0.6197067 0.9249243 0.716778 0.8789225 0.6848245 0.874426 0.7166913 0.8738663 0.6947822 0.9404416 0.6859297 0.9343363 0.6953078 0.9343363 0.5768761 0.8070223 0.5734338 0.7595171 0.5768761 0.7595028 0.5266816 0.9058588 0.5233675 0.8583095 0.5266815 0.8583393 0.7015924 0.920505 0.705035 0.9267748 0.7015924 0.9275575 0.5405849 0.8497235 0.542497 0.8462387 0.5424493 0.8497235 0.5266815 0.8377113 0.5233675 0.8326239 0.5266815 0.8326537 0.7015924 0.920505 0.6982792 0.8878818 0.7015924 0.8862608 0.5266815 0.8583393 0.5233675 0.8564228 0.5266815 0.8564525 0.52937 0.95103 0.5259273 0.9241421 0.52937 0.9228757 0.5266815 0.8377113 0.5233675 0.8564228 0.5233675 0.8376816 0.5980871 0.9423028 0.5946449 0.9235759 0.5980872 0.9235616 0.5845034 0.951716 0.5811902 0.9248281 0.5845034 0.9235616 0.01510781 0.9423307 0.02016699 0.9388456 0.02010601 0.9423307 0.6163935 0.9252965 0.6129509 0.8926733 0.6163935 0.8910523 0.5266507 0.9099074 0.5208427 0.9160545 0.5208427 0.909865 0.723341 0.8015091 0.7155229 0.8057403 0.7139642 0.8016737 0.5266507 0.9099074 0.5301234 0.9058288 0.5326831 0.9098646 0.7912601 0.8862015 0.783442 0.8819716 0.790005 0.8820869 0.5708767 0.811079 0.5769098 0.8172479 0.5708767 0.8172684 0.5769098 0.8110585 0.5801896 0.8070364 0.5827171 0.8110785 0.5233675 0.905829 0.5266507 0.9099074 0.5208427 0.909865 0.7220858 0.805625 0.7163376 0.8532449 0.7155229 0.8057403 0.5768761 0.8070223 0.5801896 0.7595169 0.5801896 0.8070364 0.5266816 0.9058588 0.5301234 0.8583093 0.5301234 0.9058288 0.5734338 0.8070366 0.5769098 0.8110585 0.5708767 0.811079 0.783442 0.8819716 0.7908198 0.8345822 0.790005 0.8820869 0.6950174 0.7799658 0.6892101 0.7737562 0.6950174 0.7737763 0.8614929 0.8081867 0.8522224 0.8145388 0.8521162 0.8083513 0.555004 0.916097 0.5610364 0.9098646 0.5610364 0.9160541 0.5967691 0.9166182 0.606252 0.9105954 0.6061458 0.9167829 0.6882671 0.8933134 0.6915802 0.8870435 0.6915802 0.8936856 0.6186015 0.9320752 0.609749 0.9379511 0.6092234 0.9320752 0.5405849 0.8361085 0.5424971 0.83946 0.5406326 0.83946 0.8615124 0.8866162 0.8550361 0.8917876 0.8549494 0.8867315 0.5550348 0.8377114 0.5584766 0.8326237 0.5584766 0.8376814 0.5996023 0.8382395 0.606252 0.8332986 0.6061652 0.8383548 0.6882671 0.8933134 0.6848245 0.9259365 0.6848245 0.8936856 0.8611587 0.8659948 0.8546281 0.8679962 0.8545957 0.8661101 0.5550348 0.8583393 0.5584766 0.8564226 0.5584766 0.8583093 0.5992486 0.8588609 0.6058439 0.8570901 0.6058115 0.8589761 0.7795031 0.9228931 0.7761899 0.9497809 0.7761899 0.9232653 0.861191 0.867881 0.8549494 0.8867315 0.8546281 0.8679962 0.5550348 0.8564526 0.5584766 0.8376814 0.5584766 0.8564226 0.599281 0.8569748 0.6061652 0.8383548 0.6058439 0.8570901 0.7117339 0.927284 0.7150475 0.9460392 0.7117339 0.9460251 0.5992486 0.8588609 0.5730811 0.8565147 0.599281 0.8569748 0.571178 0.9235616 0.5677354 0.9504494 0.5677354 0.9239339 0.8546281 0.8679962 0.828396 0.8665702 0.8545957 0.8661101 0.003410696 0.9456818 0.00834763 0.9423307 0.008408904 0.9456818 0.5996023 0.8382395 0.5678221 0.8326237 0.599689 0.8331834 0.7150471 0.8862608 0.7117339 0.918884 0.7117339 0.886633 0.8550361 0.8917876 0.8230826 0.8872911 0.8549494 0.8867315 0.609749 0.9379511 0.6186015 0.9440565 0.6092234 0.9440565 0.6891763 0.7697201 0.6857341 0.7222149 0.6891763 0.7222006 0.5550348 0.9058588 0.5517209 0.8583096 0.5550348 0.8583393 0.6882671 0.8933134 0.6848245 0.8870435 0.6882671 0.8862608 0.5405849 0.8361085 0.5424971 0.8326238 0.5424494 0.8361086 0.5550348 0.8377114 0.5517209 0.832624 0.5550348 0.8326537 0.6882671 0.8933134 0.6915803 0.9259365 0.6882671 0.9275575 0.5550348 0.8583393 0.5517209 0.8564229 0.5550348 0.8564526 0.7795031 0.9228931 0.7829457 0.9497809 0.7795031 0.9510474 0.5550348 0.8377114 0.5517209 0.8564229 0.5517209 0.8376817 0.7150475 0.927298 0.7184897 0.9460248 0.7150475 0.9460392 0.571178 0.9235616 0.5744912 0.9504494 0.571178 0.951716 0.003349423 0.9423307 0.008408606 0.9388456 0.00834763 0.9423307 0.7150471 0.8862608 0.7184897 0.918884 0.7150471 0.920505 0.555004 0.9099075 0.5491961 0.9160546 0.5491961 0.9098651 0.8615991 0.8143742 0.8537811 0.8186054 0.8522224 0.8145388 0.555004 0.9099075 0.5584766 0.9058288 0.5610364 0.9098646 0.606252 0.9105954 0.5984339 0.9063655 0.6049968 0.9064808 0.683177 0.7737767 0.6892101 0.7799457 0.683177 0.7799662 0.6892101 0.7737562 0.6924899 0.7697342 0.6950174 0.7737763 0.5517209 0.9058291 0.555004 0.9099075 0.5491961 0.9098651 0.8603439 0.8184902 0.8545957 0.8661101 0.8537811 0.8186054 0.6891763 0.7697201 0.6924899 0.7222146 0.6924899 0.7697342 0.5550348 0.9058588 0.5584766 0.8583093 0.5584766 0.9058288 0.6857341 0.7697345 0.6892101 0.7737562 0.683177 0.7737767 0.5984339 0.9063655 0.6058115 0.8589761 0.6049968 0.9064808 0.624957 0.8842737 0.6296098 0.8326237 0.6296098 0.8842735 0.6129509 0.8842736 0.6176037 0.8326237 0.6176037 0.8842735 0.7527436 0.8014512 0.769491 0.5399497 0.769491 0.8014505 0.8632763 0.003389298 0.846529 0.2648476 0.846529 0.003389298 0.7065936 0.7885429 0.7233409 0.5270414 0.723341 0.7885423 0.9570616 0.003389298 0.9403143 0.2648476 0.9403143 0.003389298 0.8465288 0.9228513 0.8632762 0.939798 0.8465288 0.939798 0.589416 0.8258451 0.6061634 0.5643436 0.6061634 0.8258445 0.8398299 0.5399497 0.8230827 0.801408 0.8230826 0.5399497 0.8230827 0.2648908 0.83983 0.003389298 0.8398301 0.2648901 0.9570615 0.5398634 0.9403142 0.8013216 0.9403142 0.5398634 0.7527436 0.9228931 0.769491 0.9398397 0.7527436 0.9398397 0.812727 0.9966107 0.7996363 0.8082298 0.812727 0.8082302 0.6962773 0.5270414 0.683177 0.7154219 0.683177 0.5270414 0.9065124 0.8081008 0.8934217 0.9964807 0.8934217 0.8081003 0.9637606 0.386929 0.9768608 0.1985485 0.9768608 0.386929 0.7527436 0.2648909 0.769491 0.003389298 0.7694911 0.2648901 0.8867226 0.2716263 0.8699753 0.5330847 0.8699753 0.2716263 0.7527436 0.5331709 0.769491 0.2716695 0.769491 0.5331704 0.9336153 0.2716264 0.9168679 0.5330847 0.9168679 0.2716264 0.8230826 0.9228513 0.8398299 0.939798 0.8230826 0.939798 0.7761901 0.2648909 0.7929374 0.003389298 0.7929374 0.2648902 0.8632763 0.2716695 0.846529 0.5331278 0.846529 0.2716695 0.7996363 0.8014511 0.8163837 0.5399497 0.8163837 0.8014504 0.9336153 0.003389298 0.916868 0.2648476 0.916868 0.003389298 0.5393821 0.9228757 0.5561295 0.9398223 0.5393821 0.9398223 0.8699753 0.8081434 0.883066 0.9965245 0.8699753 0.9965239 0.7431402 0.7595028 0.73004 0.9478834 0.7300399 0.7595028 0.9299587 0.8081008 0.9168679 0.9964808 0.9168679 0.8081004 0.9637606 0.1917698 0.9768608 0.003389298 0.9768608 0.1917698 0.6128624 0.8258451 0.6296097 0.5643436 0.6296097 0.8258445 0.8867226 0.003389298 0.8699753 0.2648476 0.8699753 0.003389298 0.7996364 0.5331709 0.8163837 0.2716695 0.8163837 0.5331704 0.9570615 0.2716264 0.9403142 0.5330846 0.9403142 0.2716264 0.8465288 0.8991259 0.8632762 0.9160726 0.8465288 0.9160726 0.7761901 0.533171 0.7929373 0.2716695 0.7929374 0.5331704 0.8867226 0.5399065 0.8699753 0.8013648 0.8699753 0.5399065 0.5375902 0.5643436 0.5208428 0.825845 0.5208427 0.5643442 0.910169 0.003389298 0.8934217 0.2648476 0.8934217 0.003389298 0.7761899 0.8991677 0.7929372 0.9161144 0.7761899 0.9161144 0.9835599 0.003389298 0.9966505 0.1917702 0.9835598 0.1917697 0.9768608 0.588867 0.9637606 0.7772474 0.9637606 0.588867 0.9403142 0.9964807 0.953405 0.8081008 0.953405 0.9964812 0.73004 0.7527242 0.7431402 0.5643436 0.7431402 0.7527242 0.5442891 0.825845 0.5610364 0.5643436 0.5610364 0.8258444 0.8632763 0.5399497 0.846529 0.801408 0.846529 0.5399497 0.7996364 0.2648908 0.8163837 0.003389298 0.8163837 0.2648901 0.910169 0.5398634 0.8934217 0.8013216 0.8934217 0.5398634 0.8230826 0.8991259 0.8398299 0.9160726 0.8230826 0.9160726 0.910169 0.2716264 0.8934217 0.5330847 0.8934217 0.2716264 0.8230826 0.5331709 0.83983 0.2716695 0.83983 0.5331703 0.9336153 0.5398634 0.9168679 0.8013217 0.9168679 0.5398634 0.7527436 0.8991677 0.769491 0.9161144 0.7527436 0.9161144 0.6764781 0.932067 0.6597428 0.003389298 0.676478 0.003389954 0.7233409 0.5202628 0.7066085 0.003389298 0.7233409 0.003389298 0.6363087 0.003389298 0.6530439 0.932067 0.6363087 0.9320663 0.6999095 0.5202627 0.683177 0.003389298 0.6999095 0.003389298 0.5785757 0.003389298 0.6296097 0.557565 0.5785757 0.557565 0.5718768 0.5575649 0.5208427 0.003389298 0.5718768 0.003389298 0.7413918 0.5575649 0.7460445 0.003389298 0.7460446 0.5575649 0.7346927 0.003389298 0.73004 0.5575649 0.7300399 0.003389298 0.77619 0.8014511 0.7929373 0.5399497 0.7929373 0.8014504 0.996641 0.9724071 0.9835503 0.7840262 0.996641 0.7840266 0.5827171 0.5643436 0.5696169 0.7527242 0.5696169 0.5643436 0.9637606 0.9724066 0.9768513 0.7840266 0.9768513 0.9724071 0.9637606 0.5820882 0.9768608 0.3937077 0.9768608 0.5820882 0.003349483 0.003389298 0.5141438 0.9320669 0.003349423 0.9320668 0.5827171 0.817268 0.5769098 0.8172479 0.5769098 0.8110585 0.7232348 0.7953215 0.723341 0.8015091 0.7139642 0.8016737 0.5266507 0.9160969 0.5266507 0.9099074 0.5326831 0.9098646 0.7817773 0.8922244 0.7818834 0.8860368 0.7912601 0.8862015 0.7015924 0.920505 0.7015924 0.9275575 0.6982792 0.9267748 0.6859297 0.9463176 0.6848245 0.9404416 0.6947822 0.9404416 0.5405849 0.8497235 0.5424493 0.8497235 0.542497 0.853075 0.7232543 0.8737511 0.7233409 0.8788072 0.716778 0.8789225 0.5266815 0.8377113 0.5266815 0.8326537 0.5301234 0.8326237 0.7846105 0.8138456 0.7846972 0.8087894 0.7912601 0.8089047 0.7015924 0.920505 0.7015924 0.8862608 0.705035 0.8878818 0.7229006 0.8531297 0.7229329 0.8550158 0.71637 0.855131 0.5266815 0.8583393 0.5266815 0.8564525 0.5301234 0.8564226 0.7842568 0.834467 0.7842892 0.8325809 0.7908521 0.8326961 0.52937 0.95103 0.52937 0.9228757 0.5326831 0.9241421 0.7229329 0.8550158 0.7232543 0.8737511 0.7166913 0.8738663 0.5266815 0.8564525 0.5266815 0.8377113 0.5301234 0.8376814 0.7842892 0.8325809 0.7846105 0.8138456 0.7911734 0.8139608 0.6014007 0.9423169 0.5980871 0.9423028 0.5980872 0.9235616 0.7842568 0.834467 0.7580571 0.8340069 0.7580894 0.8321208 0.5845034 0.951716 0.5845034 0.9235616 0.587946 0.9248281 0.71637 0.855131 0.6901702 0.8555912 0.6901379 0.8537051 0.01516902 0.9456818 0.01510781 0.9423307 0.02010601 0.9423307 0.7846105 0.8138456 0.7527436 0.813286 0.7528303 0.8082298 0.6163935 0.9252965 0.6163935 0.8910523 0.6197067 0.8926733 0.716778 0.8789225 0.6849111 0.8794821 0.6848245 0.874426 0.6947822 0.9404416 0.6848245 0.9404416 0.6859297 0.9343363 0.5768761 0.8070223 0.5734338 0.8070366 0.5734338 0.7595171 0.5266816 0.9058588 0.5233675 0.905829 0.5233675 0.8583095 0.7015924 0.920505 0.705035 0.9201328 0.705035 0.9267748 0.5405849 0.8497235 0.5406326 0.8462387 0.542497 0.8462387 0.5266815 0.8377113 0.5233675 0.8376816 0.5233675 0.8326239 0.7015924 0.920505 0.6982792 0.9201328 0.6982792 0.8878818 0.5266815 0.8583393 0.5233675 0.8583095 0.5233675 0.8564228 0.52937 0.95103 0.5259274 0.9506577 0.5259273 0.9241421 0.5266815 0.8377113 0.5266815 0.8564525 0.5233675 0.8564228 0.5980871 0.9423028 0.5946449 0.9423171 0.5946449 0.9235759 0.5845034 0.951716 0.5811902 0.9513437 0.5811902 0.9248281 0.01510781 0.9423307 0.01516878 0.9388456 0.02016699 0.9388456 0.6163935 0.9252965 0.6129509 0.9249243 0.6129509 0.8926733 0.5266507 0.9099074 0.5266507 0.9160969 0.5208427 0.9160545 0.723341 0.8015091 0.7220858 0.805625 0.7155229 0.8057403 0.5266507 0.9099074 0.5266816 0.9058588 0.5301234 0.9058288 0.7912601 0.8862015 0.7818834 0.8860368 0.783442 0.8819716 0.5708767 0.811079 0.5769098 0.8110585 0.5769098 0.8172479 0.5769098 0.8110585 0.5768761 0.8070223 0.5801896 0.8070364 0.5233675 0.905829 0.5266816 0.9058588 0.5266507 0.9099074 0.7220858 0.805625 0.7229006 0.8531297 0.7163376 0.8532449 0.5768761 0.8070223 0.5768761 0.7595028 0.5801896 0.7595169 0.5266816 0.9058588 0.5266815 0.8583393 0.5301234 0.8583093 0.5734338 0.8070366 0.5768761 0.8070223 0.5769098 0.8110585 0.783442 0.8819716 0.7842568 0.834467 0.7908198 0.8345822 0.6950174 0.7799658 0.6892101 0.7799457 0.6892101 0.7737562 0.8614929 0.8081867 0.8615991 0.8143742 0.8522224 0.8145388 0.555004 0.916097 0.555004 0.9099075 0.5610364 0.9098646 0.5967691 0.9166182 0.5968753 0.9104307 0.606252 0.9105954 0.6882671 0.8933134 0.6882671 0.8862608 0.6915802 0.8870435 0.6186015 0.9320752 0.6197068 0.9379511 0.609749 0.9379511 0.5405849 0.8361085 0.5424494 0.8361086 0.5424971 0.83946 0.8615124 0.8866162 0.8615991 0.8916723 0.8550361 0.8917876 0.5550348 0.8377114 0.5550348 0.8326537 0.5584766 0.8326237 0.5996023 0.8382395 0.599689 0.8331834 0.606252 0.8332986 0.6882671 0.8933134 0.6882671 0.9275575 0.6848245 0.9259365 0.8611587 0.8659948 0.861191 0.867881 0.8546281 0.8679962 0.5550348 0.8583393 0.5550348 0.8564526 0.5584766 0.8564226 0.5992486 0.8588609 0.599281 0.8569748 0.6058439 0.8570901 0.7795031 0.9228931 0.7795031 0.9510474 0.7761899 0.9497809 0.861191 0.867881 0.8615124 0.8866162 0.8549494 0.8867315 0.5550348 0.8564526 0.5550348 0.8377114 0.5584766 0.8376814 0.599281 0.8569748 0.5996023 0.8382395 0.6061652 0.8383548 0.7117339 0.927284 0.7150475 0.927298 0.7150475 0.9460392 0.5992486 0.8588609 0.5730488 0.8584008 0.5730811 0.8565147 0.571178 0.9235616 0.571178 0.951716 0.5677354 0.9504494 0.8546281 0.8679962 0.8284283 0.8684563 0.828396 0.8665702 0.003410696 0.9456818 0.003349423 0.9423307 0.00834763 0.9423307 0.5996023 0.8382395 0.5677354 0.8376799 0.5678221 0.8326237 0.7150471 0.8862608 0.7150471 0.920505 0.7117339 0.918884 0.8550361 0.8917876 0.8231693 0.8923472 0.8230826 0.8872911 0.609749 0.9379511 0.6197068 0.9379511 0.6186015 0.9440565 0.6891763 0.7697201 0.6857341 0.7697345 0.6857341 0.7222149 0.5550348 0.9058588 0.5517209 0.9058291 0.5517209 0.8583096 0.6882671 0.8933134 0.6848245 0.8936856 0.6848245 0.8870435 0.5405849 0.8361085 0.5406326 0.8326237 0.5424971 0.8326238 0.5550348 0.8377114 0.5517209 0.8376817 0.5517209 0.832624 0.6882671 0.8933134 0.6915802 0.8936856 0.6915803 0.9259365 0.5550348 0.8583393 0.5517209 0.8583096 0.5517209 0.8564229 0.7795031 0.9228931 0.7829457 0.9232653 0.7829457 0.9497809 0.5550348 0.8377114 0.5550348 0.8564526 0.5517209 0.8564229 0.7150475 0.927298 0.7184897 0.9272837 0.7184897 0.9460248 0.571178 0.9235616 0.5744912 0.9239339 0.5744912 0.9504494 0.003349423 0.9423307 0.003410398 0.9388456 0.008408606 0.9388456 0.7150471 0.8862608 0.7184897 0.886633 0.7184897 0.918884 0.555004 0.9099075 0.555004 0.916097 0.5491961 0.9160546 0.8615991 0.8143742 0.8603439 0.8184902 0.8537811 0.8186054 0.555004 0.9099075 0.5550348 0.9058588 0.5584766 0.9058288 0.606252 0.9105954 0.5968753 0.9104307 0.5984339 0.9063655 0.683177 0.7737767 0.6892101 0.7737562 0.6892101 0.7799457 0.6892101 0.7737562 0.6891763 0.7697201 0.6924899 0.7697342 0.5517209 0.9058291 0.5550348 0.9058588 0.555004 0.9099075 0.8603439 0.8184902 0.8611587 0.8659948 0.8545957 0.8661101 0.6891763 0.7697201 0.6891763 0.7222006 0.6924899 0.7222146 0.5550348 0.9058588 0.5550348 0.8583393 0.5584766 0.8583093 0.6857341 0.7697345 0.6891763 0.7697201 0.6892101 0.7737562 0.5984339 0.9063655 0.5992486 0.8588609 0.6058115 0.8589761 0.624957 0.8842737 0.624957 0.8326239 0.6296098 0.8326237 0.6129509 0.8842736 0.6129509 0.8326239 0.6176037 0.8326237 0.7527436 0.8014512 0.7527436 0.5399503 0.769491 0.5399497 0.8632763 0.003389298 0.8632764 0.2648476 0.846529 0.2648476 0.7065936 0.7885429 0.7065936 0.527042 0.7233409 0.5270414 0.9570616 0.003389298 0.9570617 0.2648476 0.9403143 0.2648476 0.8465288 0.9228513 0.8632762 0.9228513 0.8632762 0.939798 0.589416 0.8258451 0.589416 0.5643442 0.6061634 0.5643436 0.8398299 0.5399497 0.83983 0.801408 0.8230827 0.801408 0.8230827 0.2648908 0.8230826 0.003389894 0.83983 0.003389298 0.9570615 0.5398634 0.9570615 0.8013216 0.9403142 0.8013216 0.7527436 0.9228931 0.769491 0.9228931 0.769491 0.9398397 0.812727 0.9966107 0.7996363 0.9966102 0.7996363 0.8082298 0.6962773 0.5270414 0.6962773 0.7154219 0.683177 0.7154219 0.9065124 0.8081008 0.9065124 0.9964812 0.8934217 0.9964807 0.9637606 0.386929 0.9637606 0.1985485 0.9768608 0.1985485 0.7527436 0.2648909 0.7527436 0.003389894 0.769491 0.003389298 0.8867226 0.2716263 0.8867227 0.5330847 0.8699753 0.5330847 0.7527436 0.5331709 0.7527436 0.2716701 0.769491 0.2716695 0.9336153 0.2716264 0.9336153 0.5330847 0.9168679 0.5330847 0.8230826 0.9228513 0.8398299 0.9228513 0.8398299 0.939798 0.7761901 0.2648909 0.7761901 0.003389894 0.7929374 0.003389298 0.8632763 0.2716695 0.8632763 0.5331278 0.846529 0.5331278 0.7996363 0.8014511 0.7996363 0.5399503 0.8163837 0.5399497 0.9336153 0.003389298 0.9336153 0.2648476 0.916868 0.2648476 0.5393821 0.9228757 0.5561295 0.9228757 0.5561295 0.9398223 0.8699753 0.8081434 0.883066 0.8081439 0.883066 0.9965245 0.7431402 0.7595028 0.7431402 0.9478834 0.73004 0.9478834 0.9299587 0.8081008 0.9299587 0.9964813 0.9168679 0.9964808 0.9637606 0.1917698 0.9637606 0.003389298 0.9768608 0.003389298 0.6128624 0.8258451 0.6128624 0.5643442 0.6296097 0.5643436 0.8867226 0.003389298 0.8867227 0.2648476 0.8699753 0.2648476 0.7996364 0.5331709 0.7996364 0.2716701 0.8163837 0.2716695 0.9570615 0.2716264 0.9570615 0.5330846 0.9403142 0.5330846 0.8465288 0.8991259 0.8632762 0.8991259 0.8632762 0.9160726 0.7761901 0.533171 0.7761901 0.2716701 0.7929373 0.2716695 0.8867226 0.5399065 0.8867227 0.8013648 0.8699753 0.8013648 0.5375902 0.5643436 0.5375902 0.8258444 0.5208428 0.825845 0.910169 0.003389298 0.910169 0.2648476 0.8934217 0.2648476 0.7761899 0.8991677 0.7929372 0.8991677 0.7929372 0.9161144 0.9835599 0.003389298 0.9966505 0.003389775 0.9966505 0.1917702 0.9768608 0.588867 0.9768608 0.7772474 0.9637606 0.7772474 0.9403142 0.9964807 0.9403142 0.8081003 0.953405 0.8081008 0.73004 0.7527242 0.7300399 0.5643436 0.7431402 0.5643436 0.5442891 0.825845 0.5442891 0.5643442 0.5610364 0.5643436 0.8632763 0.5399497 0.8632763 0.8014079 0.846529 0.801408 0.7996364 0.2648908 0.7996364 0.003389954 0.8163837 0.003389298 0.910169 0.5398634 0.910169 0.8013216 0.8934217 0.8013216 0.8230826 0.8991259 0.8398299 0.8991259 0.8398299 0.9160726 0.910169 0.2716264 0.910169 0.5330847 0.8934217 0.5330847 0.8230826 0.5331709 0.8230826 0.2716701 0.83983 0.2716695 0.9336153 0.5398634 0.9336153 0.8013217 0.9168679 0.8013217 0.7527436 0.8991677 0.769491 0.8991677 0.769491 0.9161144 0.6764781 0.932067 0.6597429 0.9320664 0.6597428 0.003389298 0.7233409 0.5202628 0.7066085 0.5202628 0.7066085 0.003389298 0.6363087 0.003389298 0.6530439 0.003390014 0.6530439 0.932067 0.6999095 0.5202627 0.6831771 0.5202627 0.683177 0.003389298 0.5785757 0.003389298 0.6296098 0.003389298 0.6296097 0.557565 0.5718768 0.5575649 0.5208428 0.5575649 0.5208427 0.003389298 0.7413918 0.5575649 0.7413918 0.003389298 0.7460445 0.003389298 0.7346927 0.003389298 0.7346928 0.5575649 0.73004 0.5575649 0.77619 0.8014511 0.7761899 0.5399503 0.7929373 0.5399497 0.996641 0.9724071 0.9835502 0.9724066 0.9835503 0.7840262 0.5827171 0.5643436 0.5827171 0.7527242 0.5696169 0.7527242 0.9637606 0.9724066 0.9637606 0.7840262 0.9768513 0.7840266 0.9637606 0.5820882 0.9637606 0.3937077 0.9768608 0.3937077 0.003349483 0.003389298 0.5141438 0.003389358 0.5141438 0.9320669</float_array>
          <technique_common>
            <accessor source="#Cube_007-mesh-map-0-array" count="1026" stride="2">
              <param name="S" type="float"/>
              <param name="T" type="float"/>
            </accessor>
          </technique_common>
        </source>
        <vertices id="Cube_007-mesh-vertices">
          <input semantic="POSITION" source="#Cube_007-mesh-positions"/>
        </vertices>
        <polylist material="PBRFULL_PingPongTable-material" count="342">
          <input semantic="VERTEX" source="#Cube_007-mesh-vertices" offset="0"/>
          <input semantic="NORMAL" source="#Cube_007-mesh-normals" offset="1"/>
          <input semantic="TEXCOORD" source="#Cube_007-mesh-map-0" offset="2" set="0"/>
          <vcount>3 3 3 3 3 3 3 3 3 3 3 3 3 3 3 3 3 3 3 3 3 3 3 3 3 3 3 3 3 3 3 3 3 3 3 3 3 3 3 3 3 3 3 3 3 3 3 3 3 3 3 3 3 3 3 3 3 3 3 3 3 3 3 3 3 3 3 3 3 3 3 3 3 3 3 3 3 3 3 3 3 3 3 3 3 3 3 3 3 3 3 3 3 3 3 3 3 3 3 3 3 3 3 3 3 3 3 3 3 3 3 3 3 3 3 3 3 3 3 3 3 3 3 3 3 3 3 3 3 3 3 3 3 3 3 3 3 3 3 3 3 3 3 3 3 3 3 3 3 3 3 3 3 3 3 3 3 3 3 3 3 3 3 3 3 3 3 3 3 3 3 3 3 3 3 3 3 3 3 3 3 3 3 3 3 3 3 3 3 3 3 3 3 3 3 3 3 3 3 3 3 3 3 3 3 3 3 3 3 3 3 3 3 3 3 3 3 3 3 3 3 3 3 3 3 3 3 3 3 3 3 3 3 3 3 3 3 3 3 3 3 3 3 3 3 3 3 3 3 3 3 3 3 3 3 3 3 3 3 3 3 3 3 3 3 3 3 3 3 3 3 3 3 3 3 3 3 3 3 3 3 3 3 3 3 3 3 3 3 3 3 3 3 3 3 3 3 3 3 3 3 3 3 3 3 3 3 3 3 3 3 3 3 3 3 3 3 3 3 3 3 3 3 3 3 3 3 3 3 3 3 3 3 3 3 3 3 3 3 3 3 3 </vcount>
          <p>1 0 0 47 0 1 45 0 2 7 1 3 42 1 4 3 1 5 32 2 6 44 2 7 7 2 8 1 3 9 46 3 10 5 3 11 39 4 12 4 4 13 0 4 14 5 5 15 33 5 16 1 5 17 29 6 18 20 6 19 21 6 20 10 7 21 2 7 22 9 7 23 28 8 24 6 8 25 10 8 26 8 9 27 4 9 28 11 9 29 39 10 30 25 10 31 2 10 32 12 11 33 17 11 34 14 11 35 30 12 36 16 12 37 12 12 38 13 13 39 18 13 40 15 13 41 37 14 42 21 14 43 13 14 44 16 15 45 9 15 46 17 15 47 36 16 48 10 16 49 16 16 50 19 17 51 11 17 52 18 17 53 19 18 54 31 18 55 8 18 56 13 19 57 20 19 58 19 19 59 41 20 60 23 20 61 17 20 62 17 21 63 22 21 64 14 21 65 27 22 66 34 22 67 26 22 68 8 23 69 26 23 70 0 23 71 31 24 72 27 24 73 8 24 74 2 25 75 24 25 76 9 25 77 33 26 78 7 26 79 3 26 80 53 27 81 14 27 82 37 27 83 50 28 84 15 28 85 30 28 86 39 29 87 6 29 88 38 29 89 29 30 90 23 30 91 35 30 92 28 31 93 4 31 94 38 31 95 39 32 96 26 32 97 34 32 98 30 33 99 18 33 100 36 33 101 37 34 102 22 34 103 29 34 104 28 35 105 18 35 106 11 35 107 41 36 108 9 36 109 31 36 110 41 32 111 20 32 112 35 32 113 40 37 114 25 37 115 34 37 116 31 38 117 24 38 118 40 38 119 43 39 120 5 39 121 46 39 122 44 40 123 48 40 124 42 40 125 43 41 126 51 41 127 44 41 128 46 42 129 49 42 130 52 42 131 42 43 132 33 43 133 3 43 134 47 44 135 49 44 136 45 44 137 52 45 138 43 45 139 46 45 140 51 46 141 14 46 142 48 46 143 53 47 144 13 47 145 49 47 146 50 48 147 12 48 148 51 48 149 48 49 150 47 49 151 42 49 152 49 50 153 15 50 154 52 50 155 55 51 156 101 51 157 99 51 158 61 52 159 96 52 160 57 52 161 86 53 162 98 53 163 61 53 164 55 54 165 100 54 166 59 54 167 93 32 168 58 32 169 54 32 170 59 5 171 87 5 172 55 5 173 83 55 174 74 55 175 75 55 176 64 52 177 56 52 178 63 52 179 82 56 180 60 56 181 64 56 182 62 54 183 58 54 184 65 54 185 93 32 186 79 32 187 56 32 188 66 52 189 71 52 190 68 52 191 84 57 192 70 57 193 66 57 194 67 54 195 72 54 196 69 54 197 91 5 198 75 5 199 67 5 200 70 52 201 63 52 202 71 52 203 90 58 204 64 58 205 70 58 206 73 54 207 65 54 208 72 54 209 73 59 210 85 59 211 62 59 212 67 54 213 74 54 214 73 54 215 95 32 216 77 32 217 71 32 218 71 52 219 76 52 220 68 52 221 81 60 222 88 60 223 80 60 224 62 54 225 80 54 226 54 54 227 85 5 228 81 5 229 62 5 230 56 52 231 78 52 232 63 52 233 87 5 234 61 5 235 57 5 236 107 61 237 68 61 238 91 61 239 104 62 240 69 62 241 84 62 242 93 32 243 60 32 244 92 32 245 83 63 246 77 63 247 89 63 248 82 64 249 58 64 250 92 64 251 93 32 252 80 32 253 88 32 254 84 65 255 72 65 256 90 65 257 91 5 258 76 5 259 83 5 260 82 66 261 72 66 262 65 66 263 95 67 264 63 67 265 85 67 266 95 32 267 74 32 268 89 32 269 94 68 270 79 68 271 88 68 272 85 69 273 78 69 274 94 69 275 97 70 276 59 70 277 100 70 278 98 71 279 102 71 280 96 71 281 97 72 282 105 72 283 98 72 284 100 73 285 103 73 286 106 73 287 96 74 288 87 74 289 57 74 290 101 75 291 103 75 292 99 75 293 106 76 294 97 76 295 100 76 296 105 52 297 68 52 298 102 52 299 107 77 300 67 77 301 103 77 302 104 78 303 66 78 304 105 78 305 102 79 306 101 79 307 96 79 308 103 54 309 69 54 310 106 54 311 111 80 312 108 80 313 109 80 314 113 81 315 114 81 316 115 81 317 119 80 318 116 80 319 117 80 320 123 52 321 118 52 322 119 52 323 121 81 324 122 81 325 123 81 326 117 54 327 120 54 328 121 54 329 118 32 330 120 32 331 116 32 332 127 80 333 124 80 334 125 80 335 131 52 336 126 52 337 127 52 338 129 81 339 130 81 340 131 81 341 125 54 342 128 54 343 129 54 344 126 32 345 128 32 346 124 32 347 133 82 348 134 82 349 132 82 350 139 83 351 134 83 352 135 83 353 137 84 354 138 84 355 139 84 356 133 85 357 136 85 358 137 85 359 143 80 360 140 80 361 141 80 362 147 52 363 142 52 364 143 52 365 145 81 366 146 81 367 147 81 368 141 54 369 144 54 370 145 54 371 142 32 372 144 32 373 140 32 374 151 80 375 148 80 376 149 80 377 155 52 378 150 52 379 151 52 380 153 81 381 154 81 382 155 81 383 149 54 384 152 54 385 153 54 386 150 32 387 152 32 388 148 32 389 157 80 390 158 80 391 156 80 392 163 83 393 158 83 394 159 83 395 161 86 396 162 86 397 163 86 398 157 85 399 160 85 400 161 85 401 167 80 402 164 80 403 165 80 404 171 52 405 166 52 406 167 52 407 169 81 408 170 81 409 171 81 410 165 54 411 168 54 412 169 54 413 166 32 414 168 32 415 164 32 416 175 80 417 172 80 418 173 80 419 179 52 420 174 52 421 175 52 422 177 81 423 178 81 424 179 81 425 173 54 426 176 54 427 177 54 428 174 32 429 176 32 430 172 32 431 181 87 432 182 87 433 180 87 434 187 83 435 182 83 436 183 83 437 185 84 438 186 84 439 187 84 440 181 85 441 184 85 442 185 85 443 191 80 444 188 80 445 189 80 446 195 52 447 190 52 448 191 52 449 193 81 450 194 81 451 195 81 452 189 54 453 192 54 454 193 54 455 190 32 456 192 32 457 188 32 458 203 52 459 198 52 460 199 52 461 201 81 462 202 81 463 203 81 464 197 54 465 200 54 466 201 54 467 198 32 468 200 32 469 196 32 470 207 80 471 204 80 472 205 80 473 211 52 474 206 52 475 207 52 476 209 81 477 210 81 478 211 81 479 205 54 480 208 54 481 209 54 482 219 52 483 214 52 484 215 52 485 213 54 486 216 54 487 217 54 488 214 32 489 216 32 490 212 32 491 219 5 492 213 5 493 217 5 494 223 80 495 220 80 496 221 80 497 225 80 498 226 80 499 224 80 500 231 83 501 226 83 502 227 83 503 229 86 504 230 86 505 231 86 506 225 85 507 228 85 508 229 85 509 233 32 510 234 32 511 232 32 512 1 88 513 33 88 514 47 88 515 7 89 516 44 89 517 42 89 518 32 90 519 43 90 520 44 90 521 1 91 522 45 91 523 46 91 524 39 92 525 38 92 526 4 92 527 5 93 528 32 93 529 33 93 530 29 94 531 35 94 532 20 94 533 10 95 534 6 95 535 2 95 536 28 96 537 38 96 538 6 96 539 8 97 540 0 97 541 4 97 542 39 32 543 34 32 544 25 32 545 12 11 546 16 11 547 17 11 548 30 98 549 36 98 550 16 98 551 13 13 552 19 13 553 18 13 554 37 5 555 29 5 556 21 5 557 16 15 558 10 15 559 9 15 560 36 99 561 28 99 562 10 99 563 19 100 564 8 100 565 11 100 566 19 101 567 41 101 568 31 101 569 13 19 570 21 19 571 20 19 572 41 32 573 35 32 574 23 32 575 17 21 576 23 21 577 22 21 578 27 102 579 40 102 580 34 102 581 8 103 582 27 103 583 26 103 584 31 104 585 40 104 586 27 104 587 2 105 588 25 105 589 24 105 590 33 106 591 32 106 592 7 106 593 53 107 594 48 107 595 14 107 596 50 108 597 52 108 598 15 108 599 39 109 600 2 109 601 6 109 602 29 30 603 22 30 604 23 30 605 28 110 606 11 110 607 4 110 608 39 111 609 0 111 610 26 111 611 30 112 612 15 112 613 18 112 614 37 113 615 14 113 616 22 113 617 28 114 618 36 114 619 18 114 620 41 115 621 17 115 622 9 115 623 41 116 624 19 116 625 20 116 626 40 117 627 24 117 628 25 117 629 31 118 630 9 118 631 24 118 632 43 119 633 32 119 634 5 119 635 44 120 636 51 120 637 48 120 638 43 121 639 50 121 640 51 121 641 46 122 642 45 122 643 49 122 644 42 123 645 47 123 646 33 123 647 47 124 648 53 124 649 49 124 650 52 125 651 50 125 652 43 125 653 51 126 654 12 126 655 14 126 656 53 127 657 37 127 658 13 127 659 50 128 660 30 128 661 12 128 662 48 129 663 53 129 664 47 129 665 49 130 666 13 130 667 15 130 668 55 131 669 87 131 670 101 131 671 61 52 672 98 52 673 96 52 674 86 132 675 97 132 676 98 132 677 55 54 678 99 54 679 100 54 680 93 32 681 92 32 682 58 32 683 59 5 684 86 5 685 87 5 686 83 55 687 89 55 688 74 55 689 64 52 690 60 52 691 56 52 692 82 133 693 92 133 694 60 133 695 62 54 696 54 54 697 58 54 698 93 32 699 88 32 700 79 32 701 66 52 702 70 52 703 71 52 704 84 134 705 90 134 706 70 134 707 67 54 708 73 54 709 72 54 710 91 5 711 83 5 712 75 5 713 70 52 714 64 52 715 63 52 716 90 135 717 82 135 718 64 135 719 73 54 720 62 54 721 65 54 722 73 136 723 95 136 724 85 136 725 67 54 726 75 54 727 74 54 728 95 32 729 89 32 730 77 32 731 71 52 732 77 52 733 76 52 734 81 137 735 94 137 736 88 137 737 62 54 738 81 54 739 80 54 740 85 5 741 94 5 742 81 5 743 56 52 744 79 52 745 78 52 746 87 5 747 86 5 748 61 5 749 107 138 750 102 138 751 68 138 752 104 139 753 106 139 754 69 139 755 93 32 756 56 32 757 60 32 758 83 63 759 76 63 760 77 63 761 82 140 762 65 140 763 58 140 764 93 32 765 54 32 766 80 32 767 84 141 768 69 141 769 72 141 770 91 5 771 68 5 772 76 5 773 82 142 774 90 142 775 72 142 776 95 143 777 71 143 778 63 143 779 95 32 780 73 32 781 74 32 782 94 144 783 78 144 784 79 144 785 85 69 786 63 69 787 78 69 788 97 145 789 86 145 790 59 145 791 98 146 792 105 146 793 102 146 794 97 147 795 104 147 796 105 147 797 100 148 798 99 148 799 103 148 800 96 149 801 101 149 802 87 149 803 101 150 804 107 150 805 103 150 806 106 151 807 104 151 808 97 151 809 105 52 810 66 52 811 68 52 812 107 152 813 91 152 814 67 152 815 104 153 816 84 153 817 66 153 818 102 154 819 107 154 820 101 154 821 103 54 822 67 54 823 69 54 824 111 80 825 110 80 826 108 80 827 113 81 828 112 81 829 114 81 830 119 80 831 118 80 832 116 80 833 123 52 834 122 52 835 118 52 836 121 81 837 120 81 838 122 81 839 117 54 840 116 54 841 120 54 842 118 32 843 122 32 844 120 32 845 127 80 846 126 80 847 124 80 848 131 52 849 130 52 850 126 52 851 129 81 852 128 81 853 130 81 854 125 54 855 124 54 856 128 54 857 126 32 858 130 32 859 128 32 860 133 155 861 135 155 862 134 155 863 139 156 864 138 156 865 134 156 866 137 81 867 136 81 868 138 81 869 133 157 870 132 157 871 136 157 872 143 80 873 142 80 874 140 80 875 147 52 876 146 52 877 142 52 878 145 81 879 144 81 880 146 81 881 141 54 882 140 54 883 144 54 884 142 32 885 146 32 886 144 32 887 151 80 888 150 80 889 148 80 890 155 52 891 154 52 892 150 52 893 153 81 894 152 81 895 154 81 896 149 54 897 148 54 898 152 54 899 150 32 900 154 32 901 152 32 902 157 158 903 159 158 904 158 158 905 163 156 906 162 156 907 158 156 908 161 81 909 160 81 910 162 81 911 157 157 912 156 157 913 160 157 914 167 80 915 166 80 916 164 80 917 171 52 918 170 52 919 166 52 920 169 81 921 168 81 922 170 81 923 165 54 924 164 54 925 168 54 926 166 32 927 170 32 928 168 32 929 175 80 930 174 80 931 172 80 932 179 52 933 178 52 934 174 52 935 177 81 936 176 81 937 178 81 938 173 54 939 172 54 940 176 54 941 174 32 942 178 32 943 176 32 944 181 155 945 183 155 946 182 155 947 187 159 948 186 159 949 182 159 950 185 81 951 184 81 952 186 81 953 181 160 954 180 160 955 184 160 956 191 80 957 190 80 958 188 80 959 195 52 960 194 52 961 190 52 962 193 81 963 192 81 964 194 81 965 189 54 966 188 54 967 192 54 968 190 32 969 194 32 970 192 32 971 203 52 972 202 52 973 198 52 974 201 81 975 200 81 976 202 81 977 197 54 978 196 54 979 200 54 980 198 32 981 202 32 982 200 32 983 207 80 984 206 80 985 204 80 986 211 52 987 210 52 988 206 52 989 209 81 990 208 81 991 210 81 992 205 54 993 204 54 994 208 54 995 219 52 996 218 52 997 214 52 998 213 54 999 212 54 1000 216 54 1001 214 32 1002 218 32 1003 216 32 1004 219 5 1005 215 5 1006 213 5 1007 223 80 1008 222 80 1009 220 80 1010 225 158 1011 227 158 1012 226 158 1013 231 159 1014 230 159 1015 226 159 1016 229 81 1017 228 81 1018 230 81 1019 225 160 1020 224 160 1021 228 160 1022 233 32 1023 235 32 1024 234 32 1025</p>
        </polylist>
      </mesh>
    </geometry>
  </library_geometries>
  <library_controllers/>
  <library_visual_scenes>
    <visual_scene id="Scene" name="Scene">
      <node id="Table_001" name="Table_001" type="NODE">
        <matrix sid="transform">1 0 0 0 0 1 0 0 0 0 1 0 0 0 0 1</matrix>
        <instance_geometry url="#Cube_007-mesh" name="Table_001">
          <bind_material>
            <technique_common>
              <instance_material symbol="PBRFULL_PingPongTable-material" target="#PBRFULL_PingPongTable-material"/>
            </technique_common>
          </bind_material>
        </instance_geometry>
        <node id="tabletop" name="tabletop" type="NODE">
          <matrix sid="transform">1 0 0 0 0 1 0 0 0 0 1 0 0 0 0 1</matrix>
          <instance_geometry url="#Cube_006-mesh" name="tabletop">
            <bind_material>
              <technique_common>
                <instance_material symbol="PBRFULL_PingPongTableTop-material" target="#PBRFULL_PingPongTableTop-material"/>
              </technique_common>
            </bind_material>
          </instance_geometry>
        </node>
      </node>
    </visual_scene>
  </library_visual_scenes>
  <scene>
    <instance_visual_scene url="#Scene"/>
  </scene>
</COLLADA>