<?xml version="1.0" encoding="utf-8"?>
<COLLADA xmlns="http://www.collada.org/2005/11/COLLADASchema" version="1.4.1">
  <asset>
    <contributor>
      <author>Blender User</author>
      <authoring_tool>Blender 2.76.0 commit date:2015-11-03, commit time:10:56, hash:f337fea</authoring_tool>
    </contributor>
    <created>2017-01-25T08:36:06</created>
    <modified>2017-01-25T08:36:06</modified>
    <unit name="meter" meter="1"/>
    <up_axis>Z_UP</up_axis>
  </asset>
  <library_images/>
  <library_geometries>
    <geometry id="Cube_039-mesh" name="Cube.039">
      <mesh>
        <source id="Cube_039-mesh-positions">
          <float_array id="Cube_039-mesh-positions-array" count="294">-11.19208 -1.54972e-6 3.8147e-6 -10.02544 -0.7549029 5.3373 -10.91569 2.905605 -1.158536 -9.811223 -2.309556 -5.222312 -10.94955 -2.905606 3.44072e-6 -7.127104 -7.054154 3.803496 -7.133304 4.172917 6.835288 -7.133305 4.172927 -6.835279 -7.133305 -4.172918 -6.83528 9.53673e-7 11.19206 5.43398e-6 1.12703e-6 10.05029 5.249441 3.604356 10.70106 -0.8387296 8.38046e-7 10.70106 -3.69989 -3.604354 10.70106 -0.8387306 -4.616491 8.527811 4.616497 4.616493 8.527811 4.616497 3.803493 7.352239 -6.829019 -3.803492 7.352239 -6.829019 11.19208 0 3.8147e-6 9.811224 2.309555 5.22232 10.94955 -2.905606 3.44072e-6 10.02544 -0.7548958 -5.337292 10.94955 2.905604 4.18869e-6 7.133307 4.172917 6.835288 7.127047 -7.054154 3.803496 7.133306 -4.172918 -6.83528 7.133306 4.172927 -6.835279 9.53676e-7 -11.19208 2.19542e-6 -0.8387358 -10.70106 3.604357 -3.699894 -10.70106 2.27493e-6 7.80321e-7 -10.05029 -5.249493 3.604356 -10.70106 -0.8387338 3.803494 -7.35218 6.829086 -3.803491 -7.35218 6.829026 -4.616491 -8.527812 -4.61649 4.616493 -8.527812 -4.61649 5.90182e-7 -2.309553 -10.94955 -5.222315 -2.309554 -9.811221 1.15854 2.905612 -10.91569 5.337296 -0.7548918 -10.02544 6.09269e-7 -4.470939 -10.43719 -2.796232 -4.172916 -9.556536 -3.803492 7.054216 -7.127042 4.924293 2.607588 -9.215174 4.305603 -5.679537 -8.062474 1.31717e-6 2.309551 10.94956 5.337297 0.7548897 10.02545 1.29808e-6 4.470938 10.4372 -5.222314 2.309552 9.811228 1.31717e-6 -2.905613 10.94956 3.803494 -7.054158 7.127109 4.924293 2.607575 9.215182 -6.274871 5.679537 6.572901 -4.924291 -2.607589 9.215182 -7.127104 -7.352172 -3.80349 -7.127104 -7.352172 -3.505467 -7.127104 -7.352177 3.803496 -7.133304 -4.172928 7.13331 -7.133304 -3.874905 7.13331 -7.133304 4.172917 7.133311 -7.127104 7.352231 3.803498 -7.127104 7.352231 3.505475 -7.127104 7.352236 -3.803488 -7.133305 4.172927 -7.133303 -7.133305 3.874904 -7.133303 -7.133305 -4.172918 -7.133304 -3.803491 7.352229 7.127051 -3.505468 7.352229 7.127051 3.803494 7.352229 7.127111 7.127047 7.352231 3.803498 7.127047 7.352231 3.505475 7.127106 7.352236 -3.803488 3.803493 7.352239 -7.127042 3.50547 7.352239 -7.127042 -3.803492 7.352239 -7.127042 7.133307 4.172917 7.133311 7.133307 3.874894 7.133311 7.133307 -4.172928 7.13331 7.127047 -7.352177 3.803496 7.127047 -7.352177 3.505473 7.127106 -7.352172 -3.80349 7.133306 -4.172918 -7.133304 7.133306 -3.874895 -7.133304 7.133306 4.172927 -7.133303 3.803494 -7.35218 7.127109 3.505471 -7.35218 7.127109 -3.803491 -7.35218 7.127049 -3.803492 -7.35217 -7.127104 -3.505469 -7.35217 -7.127104 3.803493 -7.35217 -7.127104 -7.723149 -7.948216 -4.697559 -4.69756 -7.948225 7.723094 -7.168941 6.573614 -7.168937 -7.723149 7.948276 4.697566 7.723151 -7.948216 -4.697559 4.697563 -7.948225 7.723154 7.729351 5.066995 -7.729348 7.723092 7.948276 4.697566</float_array>
          <technique_common>
            <accessor source="#Cube_039-mesh-positions-array" count="98" stride="3">
              <param name="X" type="float"/>
              <param name="Y" type="float"/>
              <param name="Z" type="float"/>
            </accessor>
          </technique_common>
        </source>
        <source id="Cube_039-mesh-normals">
          <float_array id="Cube_039-mesh-normals-array" count="570">-0.8252933 -0.4596125 0.3280966 -0.9999983 0 -0.00186187 -0.7583203 -0.6518821 -5.34052e-7 -0.7902953 -0.4439006 0.4223572 -0.8524367 0.3968082 0.3404337 -0.9999981 0.001948058 0 -0.5275515 0 0.8495231 -0.9880141 -0.154364 0 -0.8339026 0.2183648 -0.506876 -1 0 0 -0.7611826 0.6485378 4.46717e-7 -0.9998013 -0.01270473 0.01536822 -0.6439126 -0.7316171 -0.2238593 -0.9999981 -0.001952111 0 -0.5808746 0 -0.8139931 -0.9880138 0.1543666 0 -0.2023582 0.9221066 0.3298041 0 0.9056312 0.4240663 -0.4240569 0.9056356 0 -0.159602 0.7689675 -0.6190447 0.3315231 0.9218927 0.2005151 0.4240651 0.9056317 0 -6.82747e-6 0.5712143 0.820801 0.1513435 0.8754786 0.458947 0.3549676 0.8209968 -0.4471713 0 1 0 0.6889914 0.7247695 6.25413e-6 0.3825756 0.822807 -0.4202672 -0.3549674 0.8209969 -0.4471713 -0.3982443 0.806234 -0.4374795 0 0.715233 -0.6988862 -0.2254042 0.9742653 0 0.6439127 0.7316171 0.2238591 1 0 0 0.9999981 0.001968681 0 0.8714185 -0.3376306 -0.3558588 0.8178896 -0.3080859 0.4859421 0.5808746 0 0.8139931 0.7903026 -0.4439008 0.4223434 0.7857998 -0.514424 -0.3433461 0.7583178 -0.6518852 5.76377e-6 0.8714173 0.3376439 0.3558491 0.838486 0.3706924 -0.3994102 0.8359555 0.3795877 -0.396348 0.5275517 1.29951e-7 -0.849523 0.8320527 -0.5546968 0 0.3647013 -0.85673 0.3647008 0 -1 0 -4.52253e-7 -1 0 -0.2873029 -0.9043533 -0.3155983 -0.4793806 -0.7908145 0.3805348 -0.3684964 -0.8368673 0.4048007 -5.58375e-6 -0.7247628 0.6889985 0.5546995 -0.8320509 0 -0.336301 -0.8760376 -0.3456295 0 -0.905627 -0.4240754 -0.4240748 -0.9056271 0 -0.1596156 -0.7689604 0.6190502 0.3360478 -0.8525024 -0.4003895 0.4862829 -0.8073749 -0.334178 0 -0.5711994 -0.8208114 0.1513547 -0.8754668 -0.4589661 -0.3142625 -0.2189726 -0.9237371 -0.3893858 -0.6022318 -0.6969187 0 -0.6071723 -0.7945703 -0.4223544 -0.4438968 -0.7902989 -0.4011097 0.3080675 -0.8626736 0 0 -1 0.001879751 0 -0.9999983 0.01453429 -0.01462453 -0.9997875 0.4143738 0.2609962 -0.8718804 0.5591922 0.2585001 -0.7877067 0 0.4028168 -0.9152807 0.1072809 0.4216136 -0.9004071 0.2692029 -0.4047379 -0.8739091 0.2895724 -0.5319223 -0.7957428 0.3121746 0 -0.9500249 0.4223544 -0.4438966 -0.790299 0.4085662 -0.3870428 0.8266025 0.3313714 -0.3848171 0.8614575 0 0 1 -0.5546988 0 0.8320512 0.2753601 0.4360793 0.8567449 0.3709263 0.4460787 0.8145105 0.6858531 0 0.7277401 0.4223601 0.4438946 0.7902972 -0.3343714 0.596615 0.7295522 -0.4707248 0.5304468 0.7050138 0 -0.3144839 0.9492629 -0.4428203 0.3861858 0.809179 -0.2111598 -0.1302267 0.9687376 -0.3214484 -0.4440268 0.8363679 -0.6858547 0 0.7277386 0.341992 0.3564754 0.8694635 -0.9760287 -0.08146846 0.2018194 -0.7707155 -0.4615689 0.4392629 -0.7053469 0 0.7088624 -0.9999983 0 -0.00186187 -0.954425 0.1843652 0.2346965 -0.861783 0.3676952 0.3494717 -0.8624369 0.5061647 0 -0.8714178 -0.33764 -0.3558516 -0.9676605 -0.008479237 -0.2521139 -0.905785 0.299628 -0.2996275 -0.7961876 0.4183683 -0.4370964 -0.9998899 -0.0148428 0 -0.9718712 -0.0811215 -0.2211012 -0.8276979 -0.406649 -0.3867207 -0.5711603 -0.8208387 0 -0.8714171 0.3376446 0.3558492 -0.3315231 0.9218927 0.200515 -0.3312361 0.7897108 0.5163716 -0.4967676 0.8340148 0.2400862 -0.1513398 0.875475 0.4589551 0.2023581 0.9221065 0.3298042 0.4967761 0.8340106 0.240083 0.333092 0.8078988 0.4861577 0.1596048 0.7689656 -0.6190463 0.1038626 0.985948 -0.130841 0.3988667 0.8257195 -0.3988645 0.3982442 0.806234 -0.4374795 0.5030743 0.8642432 0 -0.1038626 0.985948 -0.130841 -0.6889889 0.724772 6.44281e-7 -0.6608226 0.7505423 0 -0.1989496 0.9553298 -0.2185499 0.9718712 0.0811215 0.2211012 0.6762297 0.5209182 0.5209201 0.827696 0.4066545 0.3867188 0.9880164 -0.1543493 0 0.9544322 -0.07966536 0.2875981 0.8270021 -0.3975345 0.3975347 0.9171276 -0.3022712 0.2598254 0.9999983 0 -0.001880049 0.9760286 -0.08146893 -0.2018194 0.7687259 -0.4522508 -0.4522496 0.8359538 -0.3795928 -0.3963466 0.9880142 0.1543633 0 0.971265 0.08107084 -0.2237675 0.7583221 0.6518801 6.67557e-6 0.8624374 0.5061638 0 0.9044751 -0.2934283 0.3095555 0.1721988 -0.9698945 0.1721982 0.364702 -0.85673 0.3647003 0.3647074 -0.8567278 0.3646999 -0.5546988 -0.8320512 0 -0.1308463 -0.9859468 0.103866 -0.6988867 -0.7152324 -3.26762e-7 -0.748744 -0.6628593 0 0.2872973 -0.9043532 -0.3156037 -0.1286026 -0.9690393 -0.2107709 -0.3312416 -0.7897042 -0.5163781 -0.5065664 -0.814486 -0.2828482 -0.1513547 -0.8754668 -0.4589661 0.08336853 -0.9737517 -0.2117956 0.6889979 -0.7247634 5.04684e-6 0.3330968 -0.8078875 -0.486173 0.1596156 -0.7689604 0.6190502 -0.196996 -0.3800132 -0.9037603 -0.8139932 1.44081e-7 -0.5808744 -0.305208 -0.5342816 -0.7882837 -0.4340601 -0.4561312 -0.7768759 -0.2126672 0.0535773 -0.9756547 -0.02676689 0.6564597 -0.7538861 -0.2885372 0.3039838 -0.9079319 0.01244741 0 -0.9999226 0.1800029 -0.03360521 -0.9830919 0.8495233 1.39232e-7 -0.5275514 0.3944481 0.4664072 -0.7917544 0.711251 -0.6509836 -0.2652214 0.4267846 -0.2085969 -0.8799672 0 -0.7542787 -0.6565544 0.5095787 -0.4085849 -0.7572239 0.5063638 -0.5316686 -0.6789141 0.1706032 0 0.9853398 0.8495231 0 0.5275515 0.397532 -0.3975313 0.8270049 -0.2805155 0.3222439 0.9041404 0.3123071 0.2191215 0.9243647 -5.47077e-6 0.7542749 0.6565588 0.4694949 0.439557 0.7657442 0.4251782 0.4468396 0.7871199 -0.2074806 0.2256395 0.9518607 -0.8139933 0 0.5808743 -0.4155334 0.4208369 0.8063675 -0.3087567 0.4811138 0.8204869 -0.3322046 0 0.9432074 -6.05257e-6 -0.6518851 0.7583178 -0.6392665 -0.1306061 0.7578129 -0.4251685 -0.4468526 0.7871178</float_array>
          <technique_common>
            <accessor source="#Cube_039-mesh-normals-array" count="190" stride="3">
              <param name="X" type="float"/>
              <param name="Y" type="float"/>
              <param name="Z" type="float"/>
            </accessor>
          </technique_common>
        </source>
        <vertices id="Cube_039-mesh-vertices">
          <input semantic="POSITION" source="#Cube_039-mesh-positions"/>
        </vertices>
        <polylist count="192">
          <input semantic="VERTEX" source="#Cube_039-mesh-vertices" offset="0"/>
          <input semantic="NORMAL" source="#Cube_039-mesh-normals" offset="1"/>
          <vcount>3 3 3 3 3 3 3 3 3 3 3 3 3 3 3 3 3 3 3 3 3 3 3 3 3 3 3 3 3 3 3 3 3 3 3 3 3 3 3 3 3 3 3 3 3 3 3 3 3 3 3 3 3 3 3 3 3 3 3 3 3 3 3 3 3 3 3 3 3 3 3 3 3 3 3 3 3 3 3 3 3 3 3 3 3 3 3 3 3 3 3 3 3 3 3 3 3 3 3 3 3 3 3 3 3 3 3 3 3 3 3 3 3 3 3 3 3 3 3 3 3 3 3 3 3 3 3 3 3 3 3 3 3 3 3 3 3 3 3 3 3 3 3 3 3 3 3 3 3 3 3 3 3 3 3 3 3 3 3 3 3 3 3 3 3 3 3 3 3 3 3 3 3 3 3 3 3 3 3 3 3 3 3 3 3 3 3 3 3 3 3 3 </vcount>
          <p>4 0 5 0 1 0 5 1 57 1 58 1 4 2 55 2 56 2 56 3 91 3 57 3 1 4 6 4 2 4 6 5 60 5 61 5 1 6 58 6 59 6 6 7 59 7 93 7 2 8 7 8 3 8 7 9 63 9 64 9 2 10 61 10 62 10 7 11 62 11 92 11 3 12 8 12 4 12 8 13 54 13 55 13 3 14 64 14 65 14 8 15 65 15 90 15 9 16 13 16 14 16 14 17 66 17 67 17 61 18 60 18 14 18 14 19 60 19 93 19 9 20 10 20 15 20 15 21 69 21 70 21 10 22 67 22 68 22 15 23 68 23 97 23 11 24 16 24 12 24 16 25 72 25 73 25 11 26 70 26 71 26 16 27 71 27 96 27 12 28 17 28 13 28 13 29 17 29 62 29 12 30 73 30 74 30 17 31 74 31 92 31 22 32 23 32 19 32 23 33 75 33 76 33 70 34 69 34 23 34 23 35 69 35 97 35 19 36 24 36 20 36 24 33 78 33 79 33 19 37 76 37 77 37 77 38 95 38 78 38 20 39 25 39 21 39 25 33 81 33 82 33 20 40 79 40 80 40 25 41 80 41 94 41 21 42 26 42 22 42 22 43 26 43 71 43 21 44 82 44 83 44 26 45 83 45 96 45 31 46 32 46 28 46 32 47 84 47 85 47 79 48 78 48 32 48 32 49 78 49 95 49 28 50 33 50 29 50 29 51 33 51 56 51 28 52 85 52 86 52 33 53 86 53 91 53 29 54 34 54 30 54 34 55 87 55 88 55 55 56 54 56 34 56 34 57 54 57 90 57 30 58 35 58 31 58 31 59 35 59 80 59 30 60 88 60 89 60 35 61 89 61 94 61 36 62 40 62 41 62 37 63 41 63 65 63 88 64 87 64 41 64 87 65 90 65 65 65 37 66 42 66 38 66 42 67 74 67 73 67 64 68 63 68 42 68 42 69 63 69 92 69 38 70 43 70 39 70 39 71 43 71 83 71 73 72 72 72 43 72 43 73 72 73 96 73 36 74 39 74 44 74 40 75 44 75 89 75 82 76 81 76 44 76 81 77 94 77 89 77 49 78 50 78 46 78 46 79 50 79 77 79 85 80 84 80 50 80 50 81 84 81 95 81 45 82 46 82 51 82 47 83 51 83 68 83 76 84 75 84 51 84 75 85 97 85 68 85 47 86 52 86 48 86 48 87 52 87 59 87 67 88 66 88 52 88 52 89 66 89 93 89 45 90 48 90 53 90 49 91 53 91 86 91 58 92 57 92 53 92 57 93 91 93 86 93 0 94 4 94 1 94 1 95 5 95 58 95 5 96 4 96 56 96 5 97 56 97 57 97 0 98 1 98 2 98 2 99 6 99 61 99 6 100 1 100 59 100 60 101 6 101 93 101 0 102 2 102 3 102 3 103 7 103 64 103 7 104 2 104 62 104 63 105 7 105 92 105 0 106 3 106 4 106 4 107 8 107 55 107 8 108 3 108 65 108 54 109 8 109 90 109 10 110 9 110 14 110 10 111 14 111 67 111 13 112 61 112 14 112 66 113 14 113 93 113 11 114 9 114 15 114 11 115 15 115 70 115 15 116 10 116 68 116 69 117 15 117 97 117 9 118 11 118 12 118 12 119 16 119 73 119 16 120 11 120 71 120 72 121 16 121 96 121 9 122 12 122 13 122 61 123 13 123 62 123 17 124 12 124 74 124 62 125 17 125 92 125 18 126 22 126 19 126 19 127 23 127 76 127 22 128 70 128 23 128 75 129 23 129 97 129 18 130 19 130 20 130 20 131 24 131 79 131 24 132 19 132 77 132 24 133 77 133 78 133 18 134 20 134 21 134 21 135 25 135 82 135 25 136 20 136 80 136 81 137 25 137 94 137 18 138 21 138 22 138 70 139 22 139 71 139 26 140 21 140 83 140 71 141 26 141 96 141 27 142 31 142 28 142 28 143 32 143 85 143 31 144 79 144 32 144 84 145 32 145 95 145 27 146 28 146 29 146 55 147 29 147 56 147 33 148 28 148 86 148 56 149 33 149 91 149 27 150 29 150 30 150 30 151 34 151 88 151 29 152 55 152 34 152 87 153 34 153 90 153 27 154 30 154 31 154 79 155 31 155 80 155 35 156 30 156 89 156 80 157 35 157 94 157 37 158 36 158 41 158 64 159 37 159 65 159 40 160 88 160 41 160 41 161 87 161 65 161 36 162 37 162 38 162 38 163 42 163 73 163 37 164 64 164 42 164 74 165 42 165 92 165 36 166 38 166 39 166 82 167 39 167 83 167 38 168 73 168 43 168 83 169 43 169 96 169 40 170 36 170 44 170 88 171 40 171 89 171 39 172 82 172 44 172 44 173 81 173 89 173 45 174 49 174 46 174 76 175 46 175 77 175 49 176 85 176 50 176 77 177 50 177 95 177 47 178 45 178 51 178 67 179 47 179 68 179 46 180 76 180 51 180 51 181 75 181 68 181 45 182 47 182 48 182 58 183 48 183 59 183 47 184 67 184 52 184 59 185 52 185 93 185 49 186 45 186 53 186 85 187 49 187 86 187 48 188 58 188 53 188 53 189 57 189 86 189</p>
        </polylist>
      </mesh>
    </geometry>
  </library_geometries>
  <library_controllers/>
  <library_visual_scenes>
    <visual_scene id="Scene" name="Scene">
      <node id="COL_VIZ_RightEyeSegmentY_link_0" name="COL_VIZ_RightEyeSegmentY_link_0" type="NODE">
        <instance_geometry url="#Cube_039-mesh" name="COL_VIZ_RightEyeSegmentY_link_0"/>
      </node>
    </visual_scene>
  </library_visual_scenes>
  <scene>
    <instance_visual_scene url="#Scene"/>
  </scene>
</COLLADA>