<?xml version="1.0" encoding="utf-8"?>
<COLLADA xmlns="http://www.collada.org/2005/11/COLLADASchema" version="1.4.1">
  <asset>
    <contributor>
      <author>Blender User</author>
      <authoring_tool>Blender 2.76.0 commit date:2015-11-03, commit time:10:56, hash:f337fea</authoring_tool>
    </contributor>
    <created>2017-01-25T08:36:06</created>
    <modified>2017-01-25T08:36:06</modified>
    <unit name="meter" meter="1"/>
    <up_axis>Z_UP</up_axis>
  </asset>
  <library_images/>
  <library_geometries>
    <geometry id="Cube_004-mesh" name="Cube.004">
      <mesh>
        <source id="Cube_004-mesh-positions">
          <float_array id="Cube_004-mesh-positions-array" count="294">-39.1177 26.50163 0.1062223 -33.1208 31.09923 23.40861 -23.6961 129.321 0.06436407 -33.2475 31.09923 -23.2283 -31.5989 13.68073 0.08580553 -26.1913 13.68073 18.511 -27.0829 123.29 11.87732 -26.0054 126.605 -11.23668 -22.4075 13.68073 -23.4216 -0.7759394 130 -0.5963931 -5.06139 128.303 27.19012 23.6961 129.321 -0.06432193 -0.0753082 128.303 -27.73508 -23.6961 129.321 0.06436407 -19.8563 126.605 20.98182 19.9699 126.605 20.87372 18.6075 128.303 -19.66228 -18.7141 128.303 -19.56098 39.1177 26.50163 -0.1062107 33.2475 31.09923 23.22831 31.5989 13.68073 -0.08579844 33.1208 31.09923 -23.4086 23.6961 129.321 -0.06432193 26.0054 126.605 11.23672 26.2914 13.68073 18.3685 22.28 13.68073 -23.543 27.0829 123.29 -11.87728 0 3.79682e-5 0 0.0366615 1.852548 13.5015 -19.1272 4.503649 -3.956969 -0.03665858 1.852552 -13.5015 19.4654 4.496128 -0.05285406 16.1194 10.97023 25.1853 -15.9824 10.97023 25.2725 -16.1194 10.97023 -25.1853 15.9824 10.97023 -25.2725 -0.114583 37.86674 -42.19939 -15.3716 31.09923 -38.69289 -0.08389008 123.29 -30.89568 15.1612 31.09923 -38.7758 -0.0824899 10.97023 -30.3798 -17.6206 13.68073 -27.5308 -14.7161 128.303 -22.99278 8.99071 129.321 -22.99428 17.4708 13.68073 -27.6261 0.114583 37.86671 42.1994 15.3716 31.09922 38.6929 0.08389079 123.29 30.89572 -15.1612 31.09922 38.77581 0.0824905 10.97022 30.3798 16.1194 10.97023 25.1853 15.7037 126.605 24.53602 -15.5703 126.605 24.62082 -17.4708 13.68072 27.6261 -26.2914 13.68073 -18.3685 -31.5989 13.68073 0.08580553 -31.5989 13.68073 0.08580553 -22.28 13.68073 23.543 -32.4234 26.50163 22.91571 -19.8563 126.605 20.98182 -23.3421 126.605 16.49732 -23.3421 126.605 16.49732 -23.4313 126.605 -16.37028 -23.4313 126.605 -16.37028 -32.5474 26.50163 -22.7392 -32.5474 26.50163 -22.7392 -15.5703 126.605 24.62082 -15.5703 126.605 24.62082 19.9699 126.605 20.87372 23.4313 126.605 16.37032 23.4313 126.605 16.37032 23.3421 126.605 -16.49728 23.3421 126.605 -16.49728 -0.0753082 128.303 -27.73508 -14.7161 128.303 -22.99278 19.9699 126.605 20.87372 32.5474 26.50163 22.73921 32.5474 26.50163 22.73921 26.2914 13.68073 18.3685 31.5989 13.68073 -0.08579844 31.5989 13.68073 -0.08579844 22.28 13.68073 -23.543 32.4234 26.50163 -22.9157 18.6075 128.303 -19.66228 12.1555 13.68072 30.5976 12.1555 13.68072 30.5976 -11.9892 13.68072 30.6631 -12.1555 13.68073 -30.5976 -12.1555 13.68073 -30.5976 11.9892 13.68073 -30.6631 -22.4075 13.68073 -23.4216 -22.28 13.68073 23.543 -18.7141 128.303 -19.56098 -19.8563 126.605 20.98182 22.28 13.68073 -23.543 22.4075 13.68073 23.4216 18.6075 128.303 -19.66228 19.9699 126.605 20.87372</float_array>
          <technique_common>
            <accessor source="#Cube_004-mesh-positions-array" count="98" stride="3">
              <param name="X" type="float"/>
              <param name="Y" type="float"/>
              <param name="Z" type="float"/>
            </accessor>
          </technique_common>
        </source>
        <source id="Cube_004-mesh-normals">
          <float_array id="Cube_004-mesh-normals-array" count="411">-0.8360648 -0.4906998 0.2453762 -0.6786283 -0.5110965 0.5274885 0 0 1 0 -1 0 -0.968553 0.09233266 0.2310409 0.4149517 -0.0345292 0.909188 -0.9808137 0.05074006 0.1882289 -0.887117 0.1231204 -0.44482 0.9935702 0.1131864 -0.002696394 -0.8071896 -0.4988332 -0.3156113 0 1 1.70089e-7 -0.02550685 0.9907443 0.1333238 0.0860576 0.9935419 0.073951 0.04415631 -0.9070009 0.4188073 0.02897584 0.9978163 -0.05935555 0.3393657 -0.5176694 -0.7853976 0.99357 -0.1131877 -0.002696394 -0.02767097 0.9976238 -0.06309616 -0.4253329 0.8917986 -0.1542316 0.9808137 0.05074018 -0.1882289 0.8403388 0.1298024 0.5262909 0.8546741 -0.4246469 0.298676 0.6814813 -0.5110963 0.5237977 0.8054656 -0.4988307 -0.3199894 0.968553 0.09233272 -0.2310408 0.7401017 0.6607474 -0.1251499 0.7087969 0.1184178 -0.6954022 0.31531 -0.9083284 0.2748076 0.5949414 -0.7853454 0.1711065 0.4516462 -0.8218927 0.3471427 -0.34249 -0.9088955 0.237928 -0.5246603 -0.8175634 0.2373218 0.001541376 -0.8228731 0.5682234 -0.4448943 -0.623382 0.6430118 -0.283707 -0.9053524 -0.3159866 -0.6200191 -0.7640542 -0.1783189 -0.4516462 -0.8218927 -0.3471427 0.3138126 -0.9083286 -0.2765154 0.5794857 -0.766534 -0.2768068 -0.001541376 -0.8228729 -0.5682235 0.4448943 -0.6233814 -0.6430122 -0.2140088 -0.5073045 -0.8347709 0 -1 3.92422e-6 -0.2859517 0.154672 -0.9456787 -0.6919735 0.108426 -0.7137343 -0.6081225 0.3581669 -0.7084515 0.5833036 0.1644483 -0.7954331 0.3386354 0.1699662 -0.9254392 -0.435533 -0.2041402 0.8767199 0.2094715 -0.507304 -0.8359213 -0.1968405 0.9137976 0.3552857 0.5846695 -0.4288744 -0.6886424 0.2610793 -0.5311865 0.8060265 -0.4483829 0.6233844 -0.6405816 0.2802746 0.1397978 0.9496856 -0.3431426 0.8499807 -0.3997324 0.6914015 0.1002047 0.715488 -0.3467081 0.1229227 0.9298836 -0.6433296 0.1095454 0.7577117 -0.2094718 -0.5073044 0.835921 0.1968405 0.9137979 -0.3552846 -0.5846702 -0.4288749 0.6886416 -0.8530407 -0.4246436 0.303314 -0.577174 -1.26431e-6 -0.8166212 -0.9682569 0.1451433 -0.2034997 -0.7401016 0.6607474 0.1251499 -0.7988355 0.1258946 0.5882282 -0.7890344 0.03562557 0.6133154 -0.9659389 0.1447912 -0.2144703 0.5727081 1.34027e-6 -0.8197594 -0.3182178 0.9344933 -0.1595612 -0.8225718 -0.4819151 -0.3018838 0.2401263 0.1387736 0.9607712 -0.1306245 0.9906104 0.04035294 -0.2141403 0.9436805 0.2522125 -0.2107549 0.9637144 0.16382 0.02460175 0.9908236 0.1329038 0.2116436 0.963714 0.1626733 0.02666068 0.9977387 -0.0617007 0.4244766 0.8918046 -0.156538 -0.03127813 0.9977266 -0.05969351 -0.9935702 -0.1131864 0.002696394 0 1 7.80387e-6 0.965939 0.1447911 0.2144704 -0.4099937 -0.03452819 0.9114347 0.3182181 0.9344931 0.1595613 0 -1 9.88064e-6 0.8373847 -0.4906994 0.2408338 0.5727239 -4.58317e-6 -0.8197484 0.8209198 -0.4819149 -0.3063473 -0.2348986 0.1387726 0.9620628 0.9682569 0.1451432 0.2034997 -0.9935701 0.113187 0.002696394 -0.7299485 0.03755736 -0.6824696 0.1895759 -0.7185848 -0.6691015 0.2234268 -0.9657548 0.1319023 0.1130512 -0.8527877 0.5098749 0.4165474 -0.8657852 0.2773163 0.4483829 -0.6233842 0.6405817 -0.2530052 -0.9583921 0.1321858 -0.1102755 -0.8527863 0.510485 -0.4286518 -0.8872758 0.1702916 -0.2010864 -0.9705544 -0.1326218 -0.1130501 -0.8527874 -0.5098757 -0.4373636 -0.8411117 -0.3181889 -0.4483828 -0.6233835 -0.6405825 0.2227072 -0.9657548 -0.1331139 0.1102746 -0.8527859 -0.5104858 0.4286519 -0.8872758 -0.1702916 -0.03192126 -0.4021413 -0.915021 -0.5681223 -0.3907613 -0.7242532 0.1987664 0.9138 0.3542055 -0.5884066 -0.4288803 -0.6854483 -0.4403198 0.1179363 -0.8900615 -0.2641967 0.5147027 -0.8156478 -0.6158069 0.1296764 -0.7771525 0.2698603 0.1262201 -0.954591 0.6885982 0.1163269 -0.7157518 0.3573914 0.4976689 -0.7903145 -0.1295782 0.7799522 0.6122778 0.02695214 -0.4021415 -0.9151809 0.002701461 0.09204488 0.9957513 0.5641782 -0.3907617 -0.7273296 0 -1 -1.9622e-6 0.03192186 -0.4021419 0.9150207 0.5369787 -0.4562218 0.7095884 -0.1750286 0.823027 -0.5403624 0.3540405 -0.231783 0.906053 0.351748 0.1229229 0.927989 0.04065084 0.9217852 0.385564 0.6474412 0.1095443 0.7542017 -0.2751144 0.1397987 0.9511933 -0.6875037 0.1002048 0.7192341 -0.0269519 -0.4021418 0.9151806 -0.002701461 0.09204483 -0.9957513 -0.5641781 -0.3907622 0.7273295 3.72451e-6 -1 -5.8866e-6</float_array>
          <technique_common>
            <accessor source="#Cube_004-mesh-normals-array" count="137" stride="3">
              <param name="X" type="float"/>
              <param name="Y" type="float"/>
              <param name="Z" type="float"/>
            </accessor>
          </technique_common>
        </source>
        <vertices id="Cube_004-mesh-vertices">
          <input semantic="POSITION" source="#Cube_004-mesh-positions"/>
        </vertices>
        <polylist count="192">
          <input semantic="VERTEX" source="#Cube_004-mesh-vertices" offset="0"/>
          <input semantic="NORMAL" source="#Cube_004-mesh-normals" offset="1"/>
          <vcount>3 3 3 3 3 3 3 3 3 3 3 3 3 3 3 3 3 3 3 3 3 3 3 3 3 3 3 3 3 3 3 3 3 3 3 3 3 3 3 3 3 3 3 3 3 3 3 3 3 3 3 3 3 3 3 3 3 3 3 3 3 3 3 3 3 3 3 3 3 3 3 3 3 3 3 3 3 3 3 3 3 3 3 3 3 3 3 3 3 3 3 3 3 3 3 3 3 3 3 3 3 3 3 3 3 3 3 3 3 3 3 3 3 3 3 3 3 3 3 3 3 3 3 3 3 3 3 3 3 3 3 3 3 3 3 3 3 3 3 3 3 3 3 3 3 3 3 3 3 3 3 3 3 3 3 3 3 3 3 3 3 3 3 3 3 3 3 3 3 3 3 3 3 3 3 3 3 3 3 3 3 3 3 3 3 3 3 3 3 3 3 3 </vcount>
          <p>0 0 4 0 5 0 5 1 57 1 58 1 4 2 55 2 56 2 5 3 56 3 91 3 0 4 1 4 6 4 6 2 60 2 61 2 1 5 58 5 59 5 59 2 93 2 60 2 2 6 7 6 3 6 3 7 7 7 63 7 2 8 61 8 62 8 62 2 92 2 63 2 3 9 8 9 4 9 4 10 8 10 54 10 3 2 64 2 65 2 8 2 65 2 90 2 9 11 13 11 14 11 14 2 66 2 67 2 61 2 60 2 14 2 14 2 60 2 93 2 9 12 10 12 15 12 15 2 69 2 70 2 10 13 67 13 68 13 15 2 68 2 97 2 9 14 11 14 16 14 16 15 72 15 73 15 11 16 70 16 71 16 71 2 96 2 72 2 9 17 12 17 17 17 13 18 17 18 62 18 12 2 73 2 74 2 17 2 74 2 92 2 22 19 23 19 19 19 19 20 23 20 75 20 70 2 69 2 23 2 69 2 97 2 75 2 18 21 19 21 24 21 24 2 78 2 79 2 19 2 76 2 77 2 24 22 77 22 95 22 20 23 25 23 21 23 25 2 81 2 82 2 20 2 79 2 80 2 25 2 80 2 94 2 18 24 21 24 26 24 22 25 26 25 71 25 82 26 83 26 26 26 83 2 96 2 71 2 31 27 32 27 28 27 32 2 84 2 85 2 31 28 79 28 78 28 32 29 78 29 95 29 28 30 33 30 29 30 29 31 33 31 56 31 28 32 85 32 86 32 33 33 86 33 91 33 29 34 34 34 30 34 34 2 87 2 88 2 29 35 55 35 54 35 34 36 54 36 90 36 30 37 35 37 31 37 31 38 35 38 80 38 30 39 88 39 89 39 35 40 89 40 94 40 40 41 41 41 37 41 41 2 65 2 64 2 88 2 87 2 41 2 41 42 87 42 90 42 36 43 37 43 42 43 42 2 74 2 73 2 37 44 64 44 63 44 42 45 63 45 92 45 38 46 43 46 39 46 39 47 43 47 83 47 73 48 72 48 43 48 72 2 96 2 83 2 39 49 44 49 40 49 40 50 44 50 89 50 82 51 81 51 44 51 44 2 81 2 94 2 49 52 50 52 46 52 50 2 77 2 76 2 85 2 84 2 50 2 50 53 84 53 95 53 45 54 46 54 51 54 47 55 51 55 68 55 46 56 76 56 75 56 75 2 97 2 68 2 45 57 47 57 52 57 48 58 52 58 59 58 67 2 66 2 52 2 66 2 93 2 59 2 48 59 53 59 49 59 49 60 53 60 86 60 58 61 57 61 53 61 53 2 57 2 91 2 1 62 0 62 5 62 1 63 5 63 58 63 5 2 4 2 56 2 57 2 5 2 91 2 2 64 0 64 6 64 2 65 6 65 61 65 6 66 1 66 59 66 6 67 59 67 60 67 0 68 2 68 3 68 64 69 3 69 63 69 7 70 2 70 62 70 7 2 62 2 63 2 0 71 3 71 4 71 55 2 4 2 54 2 8 72 3 72 65 72 54 2 8 2 90 2 10 73 9 73 14 73 10 74 14 74 67 74 13 75 61 75 14 75 66 2 14 2 93 2 11 76 9 76 15 76 11 77 15 77 70 77 15 2 10 2 68 2 69 2 15 2 97 2 12 78 9 78 16 78 12 2 16 2 73 2 16 79 11 79 71 79 16 2 71 2 72 2 13 80 9 80 17 80 61 81 13 81 62 81 17 82 12 82 74 82 62 2 17 2 92 2 18 83 22 83 19 83 76 84 19 84 75 84 22 85 70 85 23 85 23 86 69 86 75 86 20 87 18 87 24 87 20 2 24 2 79 2 24 88 19 88 77 88 78 2 24 2 95 2 18 89 20 89 21 89 21 90 25 90 82 90 25 2 20 2 80 2 81 2 25 2 94 2 22 91 18 91 26 91 70 92 22 92 71 92 21 93 82 93 26 93 26 94 83 94 71 94 27 95 31 95 28 95 28 96 32 96 85 96 32 97 31 97 78 97 84 98 32 98 95 98 27 99 28 99 29 99 55 2 29 2 56 2 33 100 28 100 86 100 56 101 33 101 91 101 27 102 29 102 30 102 30 103 34 103 88 103 34 104 29 104 54 104 87 105 34 105 90 105 27 106 30 106 31 106 79 2 31 2 80 2 35 107 30 107 89 107 80 108 35 108 94 108 36 109 40 109 37 109 37 110 41 110 64 110 40 111 88 111 41 111 65 112 41 112 90 112 38 113 36 113 42 113 38 114 42 114 73 114 42 115 37 115 63 115 74 2 42 2 92 2 36 116 38 116 39 116 82 117 39 117 83 117 38 118 73 118 43 118 43 119 72 119 83 119 36 120 39 120 40 120 88 121 40 121 89 121 39 122 82 122 44 122 89 123 44 123 94 123 45 124 49 124 46 124 46 125 50 125 76 125 49 126 85 126 50 126 77 127 50 127 95 127 47 128 45 128 51 128 67 129 47 129 68 129 51 130 46 130 75 130 51 2 75 2 68 2 48 131 45 131 52 131 58 132 48 132 59 132 47 2 67 2 52 2 52 2 66 2 59 2 45 133 48 133 49 133 85 134 49 134 86 134 48 135 58 135 53 135 86 136 53 136 91 136</p>
        </polylist>
      </mesh>
    </geometry>
  </library_geometries>
  <library_controllers/>
  <library_visual_scenes>
    <visual_scene id="Scene" name="Scene">
      <node id="COL_VIZ_HeadSegment_link_0" name="COL_VIZ_HeadSegment_link_0" type="NODE">
        <instance_geometry url="#Cube_004-mesh" name="COL_VIZ_HeadSegment_link_0"/>
      </node>
    </visual_scene>
  </library_visual_scenes>
  <scene>
    <instance_visual_scene url="#Scene"/>
  </scene>
</COLLADA>