<?xml version="1.0" encoding="utf-8"?>
<COLLADA xmlns="http://www.collada.org/2005/11/COLLADASchema" version="1.4.1">
  <asset>
    <contributor>
      <author>Blender User</author>
      <authoring_tool>Blender 2.76.0 commit date:2015-11-03, commit time:10:56, hash:f337fea</authoring_tool>
    </contributor>
    <created>2017-01-25T08:36:10</created>
    <modified>2017-01-25T08:36:10</modified>
    <unit name="meter" meter="1"/>
    <up_axis>Z_UP</up_axis>
  </asset>
  <library_images/>
  <library_geometries>
    <geometry id="Cube_005-mesh" name="Cube.005">
      <mesh>
        <source id="Cube_005-mesh-positions">
          <float_array id="Cube_005-mesh-positions-array" count="294">-24.8469 -179.316 -4.580049 -19.0191 -157.435 12.79157 -9.515394 12.82347 0.02584189 -19.08829 -157.435 -12.68813 -19.15219 -234.007 0.05196547 -19.15219 -234.007 0.05196547 -9.611062 10.52417 6.464062 -9.646055 10.52417 -6.411788 -17.6849 -234.007 -7.269178 -0.8801056 16.31887 -1.698515 -1.826226 12.82347 9.328722 8.350731 13.78667 -0.0226733 -0.02584093 12.82347 -9.515398 -8.350724 13.78667 0.02267783 -8.350724 13.78667 0.02267783 6.746648 12.82347 6.710112 6.746648 12.82347 6.710112 -6.746641 12.82347 -6.710108 24.82171 -179.316 -4.707068 19.0883 -157.435 12.68807 19.1522 -234.007 -0.05204159 19.0191 -157.435 -12.79163 9.515401 12.82347 -0.0258376 9.515401 12.82347 -0.0258376 17.6849 -234.007 7.269102 17.6452 -234.007 -7.365088 5.938709 14.60257 -3.986238 -0.0520001 -234.007 -19.15224 0.05200469 -234.007 19.15216 -19.15219 -234.007 0.05196547 -0.0520001 -234.007 -19.15224 19.1522 -234.007 -0.05204159 14.9774 -230.943 14.89626 -13.97879 -233.272 14.05496 -14.055 -233.272 -13.97884 14.4447 -232.322 -14.52334 -0.06479698 -179.316 -23.86403 -13.51715 -157.435 -20.47024 -0.01607745 15.26497 -5.920047 13.41366 -157.435 -20.53944 -0.0520001 -234.007 -19.15224 -0.0520001 -234.007 -19.15224 -1.418646 14.60257 -7.010457 1.380564 14.60257 -7.018028 15.8762 -234.007 -10.67784 -4.580136 -179.316 23.39577 13.51716 -157.435 20.47019 0.01939827 14.60547 7.142302 -13.41365 -157.435 20.53938 0.05200469 -234.007 19.15216 0.05200469 -234.007 19.15216 1.418654 14.60257 7.010462 -1.380556 14.60257 7.018033 -13.50589 -234.007 13.57936 -14.055 -233.272 -13.97884 -14.055 -233.272 -13.97884 -13.97879 -233.272 14.05496 -13.50589 -234.007 13.57936 -13.197 -179.316 19.85397 -9.611062 10.52417 6.464062 -1.826226 12.82347 9.328722 -1.826226 12.82347 9.328722 -1.876886 12.82347 -9.31865 -9.646055 10.52417 -6.411788 -13.30459 -179.316 -19.78193 -13.5794 -234.007 -13.50594 -6.710101 12.82347 6.746652 0.022677 13.78667 8.350732 0.022677 13.78667 8.350732 1.876894 12.82347 9.318655 1.876894 12.82347 9.318655 3.611513 12.82347 -8.786438 3.611513 12.82347 -8.786438 3.611513 12.82347 -8.786438 3.611513 12.82347 -8.786438 9.646062 10.52417 6.411792 13.3046 -179.316 19.78197 10.6778 -234.007 15.87616 10.6778 -234.007 15.87616 10.6778 -234.007 15.87616 14.4447 -232.322 -14.52334 17.5106 -230.943 -11.77704 13.197 -179.316 -19.85383 5.036648 14.60547 -5.064067 14.9774 -230.943 14.89626 14.9774 -230.943 14.89626 -13.97879 -233.272 14.05496 -14.055 -233.272 -13.97884 -14.055 -233.272 -13.97884 14.4447 -232.322 -14.52334 -14.055 -233.272 -13.97884 -13.97879 -233.272 14.05496 -5.305043 12.82347 -7.887718 -1.826226 12.82347 9.328722 14.4447 -232.322 -14.52334 14.9774 -230.943 14.89626 5.262079 12.82347 -7.916448 1.649624 13.78587 8.181992</float_array>
          <technique_common>
            <accessor source="#Cube_005-mesh-positions-array" count="98" stride="3">
              <param name="X" type="float"/>
              <param name="Y" type="float"/>
              <param name="Z" type="float"/>
            </accessor>
          </technique_common>
        </source>
        <source id="Cube_005-mesh-normals">
          <float_array id="Cube_005-mesh-normals-array" count="378">0 0 1 -0.9221371 -0.03895038 0.3848977 0.1416794 -0.9899125 -3.86112e-4 -0.9984104 0.05612093 0.005206882 -0.661375 0.06519591 0.7472167 -0.9984241 0.05612057 2.20033e-4 0 1 0 0.3817399 -0.1336576 0.9145548 -0.7275922 -0.06168705 -0.6832309 -0.8338265 -0.058797 -0.5488866 -0.08548444 0.9831321 0.1616898 0.09412533 0.94667 0.3081501 -0.06644278 -0.7680103 -0.6369816 -0.2273261 -0.9549488 -0.1907764 0 1 1.41073e-7 0 -1 0 -0.1743798 0.8916603 -0.4177722 0.08636122 -0.9831321 0.1612231 0 1 0 0.998424 0.05612063 -2.20001e-4 -0.417805 -0.732869 -0.536975 0.9317164 -0.04260146 0.3606796 0.7728869 -0.08205765 0.6292158 0.9725919 -0.1178821 -0.2004218 0.9956464 0.08799785 0.03073716 -0.1342337 -0.9883729 -0.07141709 0.7590125 0.09070837 -0.6447263 -0.7637197 -0.3896611 0.5146809 0.6223437 0.08552855 -0.7780573 0.2616581 0.8277074 -0.4964228 0.2656766 -0.9271425 0.2642402 -0.08196902 -0.9932218 0.08241075 -0.08516567 0.9259395 0.3679442 -0.08241528 -0.9932215 -0.08196872 -0.03689742 0.9706209 -0.2377685 -0.3831247 -0.1034061 -0.9178904 0.6079471 0.01934647 -0.7937418 -0.07706856 -0.8050493 0.5881804 -0.9618331 -7.35588e-4 0.2736359 0.4346193 -0.8934291 -0.1135369 -0.6122499 0.01930081 -0.7904287 0.4688398 0.1017528 -0.8774027 -0.2629961 -0.8257548 0.4989612 0.3952559 -0.1048173 -0.9125711 -0.2471867 0.8503198 0.464602 -0.3069252 -0.1720843 -0.9360469 0.2936269 -0.08211845 0.9523865 0.09364485 0.08419984 0.9920389 -0.05447745 -0.8266984 -0.5600019 0.9618305 -7.36376e-4 -0.2736453 -0.4207381 -0.7810149 -0.4615141 -0.08827918 0.08418291 0.9925321 -0.1090065 0.08546209 0.9903605 0.2608697 -0.676406 -0.6887829 -0.2898114 0.784554 0.5481647 -0.4783176 -0.07892364 0.8746334 0.2906575 0.6445888 -0.7071235 -0.9196126 -0.06291413 0.3877559 -0.8744472 -0.07813775 0.4787868 0.7055705 0.6445429 -0.2945077 -0.9693777 0.07172 0.2348683 -0.371807 0.8759675 0.307312 -0.9037547 0.08218401 -0.4200874 -0.6654145 0.06519573 -0.7436216 -0.3734685 0.8759689 -0.3052862 -0.9736618 -0.1179099 -0.1951407 0.3056119 -0.9501839 0.06125324 -0.8476377 -0.05289673 -0.5279322 0.6226244 0.6666035 0.409852 -0.251899 0.9285336 0.272713 0.2274873 -0.8735605 -0.4302808 0.08548444 -0.9831322 -0.1616897 0.227326 0.9549488 0.1907764 -0.08636128 -0.9831321 -0.1612232 -0.2702627 -0.3795989 -0.8847953 0.22982 0.8735603 0.4290397 0.6248143 0.7359298 -0.2607961 0.08636128 0.9831321 0.1612232 -0.3576032 0.9087395 -0.215204 -0.1466012 -0.9891957 3.98293e-4 0 -1 0 0.970617 0.07172554 0.2296917 0.6654208 0.06519556 0.7436159 0.3734685 0.875969 0.3052862 0.9769854 -0.08461254 0.1958068 0.8476406 -0.05289655 0.5279276 0.7242827 -0.06166374 -0.6867403 0.8447573 -0.05289667 -0.5325289 -0.6915483 -0.708133 0.1425083 0.6651883 -0.603628 -0.4394973 0.9015917 0.0821706 -0.4247121 0.7638191 0.09078127 -0.6390142 -0.6218741 -0.5865435 0.5188828 0 -1 -1.33116e-6 -0.597227 0.7364491 -0.3177463 0 -1 1.33116e-6 -0.1416794 0.9899125 3.86112e-4 0.1663623 -0.9717743 -0.1672675 0.1342337 0.9883729 0.07141709 -0.3642443 -0.08002299 -0.927859 -0.08538258 -0.03215515 -0.9958293 0.2945077 0.6445534 0.7055609 -0.1012862 0.09138178 -0.9906516 -0.1143926 0.08548021 -0.9897512 0.08178251 -0.5787456 0.811397 0.096134 0.09137976 -0.9911649 0.9004195 0.004714429 0.4349972 0.6132861 -0.01591598 0.7897005 -0.2643613 -0.8271753 0.4958772 0.4683482 -0.07573014 -0.8802926 0.03689742 -0.9706208 0.2377684 -0.9179241 0.02150219 0.396173 -0.6830692 0.5405562 0.4911372 0.2254003 -0.05637836 0.9726336 0.08535397 -0.03215086 0.9958319 -0.292926 0.1071959 -0.950107 0.06177341 0.08190727 0.9947238 0.1143926 0.08547991 0.9897513 -0.05880272 -0.8243215 -0.5630598 -0.1082764 0.08558076 0.9904304 -0.9622965 -0.001007854 -0.2720011 0.05144691 -0.826698 -0.560289 0.4101954 -0.7591564 -0.5053923 -0.3781362 -0.1034085 0.9199565 0.08516567 -0.9259395 -0.3679442 0.9829435 0.01547271 -0.183256</float_array>
          <technique_common>
            <accessor source="#Cube_005-mesh-normals-array" count="126" stride="3">
              <param name="X" type="float"/>
              <param name="Y" type="float"/>
              <param name="Z" type="float"/>
            </accessor>
          </technique_common>
        </source>
        <vertices id="Cube_005-mesh-vertices">
          <input semantic="POSITION" source="#Cube_005-mesh-positions"/>
        </vertices>
        <polylist count="192">
          <input semantic="VERTEX" source="#Cube_005-mesh-vertices" offset="0"/>
          <input semantic="NORMAL" source="#Cube_005-mesh-normals" offset="1"/>
          <vcount>3 3 3 3 3 3 3 3 3 3 3 3 3 3 3 3 3 3 3 3 3 3 3 3 3 3 3 3 3 3 3 3 3 3 3 3 3 3 3 3 3 3 3 3 3 3 3 3 3 3 3 3 3 3 3 3 3 3 3 3 3 3 3 3 3 3 3 3 3 3 3 3 3 3 3 3 3 3 3 3 3 3 3 3 3 3 3 3 3 3 3 3 3 3 3 3 3 3 3 3 3 3 3 3 3 3 3 3 3 3 3 3 3 3 3 3 3 3 3 3 3 3 3 3 3 3 3 3 3 3 3 3 3 3 3 3 3 3 3 3 3 3 3 3 3 3 3 3 3 3 3 3 3 3 3 3 3 3 3 3 3 3 3 3 3 3 3 3 3 3 3 3 3 3 3 3 3 3 3 3 3 3 3 3 3 3 3 3 3 3 3 3 </vcount>
          <p>0 0 4 0 5 0 5 1 57 1 58 1 55 2 56 2 5 2 56 0 91 0 57 0 1 3 6 3 2 3 6 0 60 0 61 0 1 4 58 4 59 4 59 0 93 0 60 0 2 5 7 5 3 5 3 0 7 0 63 0 2 6 61 6 62 6 7 7 62 7 92 7 0 8 3 8 8 8 8 0 54 0 55 0 64 9 65 9 8 9 65 0 90 0 54 0 9 0 13 0 14 0 10 10 14 10 66 10 61 0 60 0 14 0 60 0 93 0 66 0 9 11 10 11 15 11 15 0 69 0 70 0 10 0 67 0 68 0 68 12 97 12 69 12 9 13 11 13 16 13 12 14 16 14 72 14 70 15 71 15 16 15 71 0 96 0 72 0 9 16 12 16 17 16 13 17 17 17 62 17 12 0 73 0 74 0 17 18 74 18 92 18 22 0 23 0 19 0 19 19 23 19 75 19 70 0 69 0 23 0 69 20 97 20 75 20 18 21 19 21 24 21 24 0 78 0 79 0 76 22 77 22 24 22 77 0 95 0 78 0 18 23 20 23 25 23 25 24 81 24 82 24 20 25 79 25 80 25 80 0 94 0 81 0 21 26 26 26 22 26 22 27 26 27 71 27 21 28 82 28 83 28 83 29 96 29 71 29 31 30 32 30 28 30 32 0 84 0 85 0 79 0 78 0 32 0 32 0 78 0 95 0 28 31 33 31 29 31 29 0 33 0 56 0 28 32 85 32 86 32 86 0 91 0 56 0 27 33 29 33 34 33 34 0 87 0 88 0 55 0 54 0 34 0 54 0 90 0 87 0 27 0 30 0 35 0 31 0 35 0 80 0 30 34 88 34 89 34 89 0 94 0 80 0 36 0 40 0 41 0 41 35 65 35 64 35 88 0 87 0 41 0 87 0 90 0 65 0 37 36 42 36 38 36 38 37 42 37 74 37 37 38 64 38 63 38 42 39 63 39 92 39 38 40 43 40 39 40 39 41 43 41 83 41 73 0 72 0 43 0 43 42 72 42 96 42 36 43 39 43 44 43 40 44 44 44 89 44 82 45 81 45 44 45 81 0 94 0 89 0 45 0 49 0 50 0 50 46 77 46 76 46 85 0 84 0 50 0 84 0 95 0 77 0 46 47 51 47 47 47 47 48 51 48 68 48 46 49 76 49 75 49 51 50 75 50 97 50 47 51 52 51 48 51 48 52 52 52 59 52 67 53 66 53 52 53 52 54 66 54 93 54 45 55 48 55 53 55 49 56 53 56 86 56 58 0 57 0 53 0 57 0 91 0 86 0 1 57 0 57 5 57 1 58 5 58 58 58 4 0 55 0 5 0 5 59 56 59 57 59 0 60 1 60 2 60 2 61 6 61 61 61 6 0 1 0 59 0 6 0 59 0 60 0 0 62 2 62 3 62 64 63 3 63 63 63 7 64 2 64 62 64 63 0 7 0 92 0 4 65 0 65 8 65 4 66 8 66 55 66 3 67 64 67 8 67 8 68 65 68 54 68 10 69 9 69 14 69 67 70 10 70 66 70 13 0 61 0 14 0 14 71 60 71 66 71 11 72 9 72 15 72 11 73 15 73 70 73 15 74 10 74 68 74 15 75 68 75 69 75 12 76 9 76 16 76 73 0 12 0 72 0 11 77 70 77 16 77 16 0 71 0 72 0 13 78 9 78 17 78 61 79 13 79 62 79 17 80 12 80 74 80 62 80 17 80 92 80 18 81 22 81 19 81 76 82 19 82 75 82 22 0 70 0 23 0 23 83 69 83 75 83 20 84 18 84 24 84 20 80 24 80 79 80 19 85 76 85 24 85 24 0 77 0 78 0 21 86 18 86 25 86 21 87 25 87 82 87 25 88 20 88 80 88 25 89 80 89 81 89 18 90 21 90 22 90 70 18 22 18 71 18 26 91 21 91 83 91 26 92 83 92 71 92 27 93 31 93 28 93 28 0 32 0 85 0 31 94 79 94 32 94 84 0 32 0 95 0 27 95 28 95 29 95 55 96 29 96 56 96 33 0 28 0 86 0 33 0 86 0 56 0 30 0 27 0 34 0 30 0 34 0 88 0 29 0 55 0 34 0 34 0 54 0 87 0 31 97 27 97 35 97 79 98 31 98 80 98 35 0 30 0 89 0 35 0 89 0 80 0 37 99 36 99 41 99 37 100 41 100 64 100 40 0 88 0 41 0 41 101 87 101 65 101 36 102 37 102 38 102 73 0 38 0 74 0 42 103 37 103 63 103 74 104 42 104 92 104 36 105 38 105 39 105 82 106 39 106 83 106 38 107 73 107 43 107 83 108 43 108 96 108 40 109 36 109 44 109 88 110 40 110 89 110 39 111 82 111 44 111 44 112 81 112 89 112 46 113 45 113 50 113 46 114 50 114 76 114 49 0 85 0 50 0 50 115 84 115 77 115 45 116 46 116 47 116 67 0 47 0 68 0 51 117 46 117 75 117 68 118 51 118 97 118 45 119 47 119 48 119 58 120 48 120 59 120 47 121 67 121 52 121 59 122 52 122 93 122 49 123 45 123 53 123 85 124 49 124 86 124 48 125 58 125 53 125 53 0 57 0 86 0</p>
        </polylist>
      </mesh>
    </geometry>
  </library_geometries>
  <library_controllers/>
  <library_visual_scenes>
    <visual_scene id="Scene" name="Scene">
      <node id="COL_VIZ_LAsegment_link_0" name="COL_VIZ_LAsegment_link_0" type="NODE">
        <instance_geometry url="#Cube_005-mesh" name="COL_VIZ_LAsegment_link_0"/>
      </node>
    </visual_scene>
  </library_visual_scenes>
  <scene>
    <instance_visual_scene url="#Scene"/>
  </scene>
</COLLADA>