<?xml version="1.0" encoding="utf-8"?>
<COLLADA xmlns="http://www.collada.org/2005/11/COLLADASchema" version="1.4.1">
  <asset>
    <contributor>
      <author>Blender User</author>
      <authoring_tool>Blender 2.76.0 commit date:2015-11-03, commit time:10:56, hash:f337fea</authoring_tool>
    </contributor>
    <created>2017-01-25T08:36:08</created>
    <modified>2017-01-25T08:36:08</modified>
    <unit name="meter" meter="1"/>
    <up_axis>Z_UP</up_axis>
  </asset>
  <library_images/>
  <library_geometries>
    <geometry id="Cube_040-mesh" name="Cube.040">
      <mesh>
        <source id="Cube_040-mesh-positions">
          <float_array id="Cube_040-mesh-positions-array" count="294">-5.390243 -1.844416 0.02852338 -4.66995 -2.259267 4.271905 -4.528158 1.271653 0.02856838 -4.824163 -4.825876 -4.369163 -3.093964 -24.88316 -1.114946 -2.788655 -25.12316 1.372067 -4.232459 0.5630769 3.963199 -4.232459 0.5630732 -3.906146 -1.827727 -25.58416 -1.46314 -2.200277 1.84201 0.02852338 -2.200277 1.84201 0.1572703 2.24846 1.84197 0.02856338 2.119714 1.84197 -0.1001834 -2.329023 1.84201 0.02852338 -2.329023 1.84201 0.1572703 2.190551 1.634615 2.259421 2.19055 1.63457 -2.202341 -2.271134 1.634611 -2.20238 5.309678 -1.844457 0.02856248 4.589288 -2.259268 4.271904 2.995674 -25.08886 0.6266136 4.743576 -4.825877 -4.369165 4.447495 1.271652 0.02856475 4.447495 1.271652 0.2860586 1.809907 -25.07446 2.481846 2.776194 -24.69447 -2.19047 4.151786 0.5630274 -3.906107 1.60837 -25.47837 -1.147237 1.60837 -25.47837 -1.01849 -1.486901 -25.47347 -1.473286 -1.358155 -25.47347 -1.602033 2.073986 -25.44747 -0.586562 2.073986 -25.44747 -0.4578151 -0.4182145 -25.50517 2.05918 -2.714927 -24.65977 -1.719663 1.378257 -25.42267 -1.781313 -0.04028832 -1.844416 -5.321418 -4.283714 -2.259176 -4.601103 -0.04028791 1.271687 -4.459311 4.357338 -4.825877 -4.755405 0.6445022 -25.53426 -2.274984 0.3870104 -25.53426 -2.274984 -3.974968 0.5630732 -4.16364 3.894294 0.5630274 -4.163601 1.949162 -25.07936 -2.439324 -0.04038357 -1.844457 5.378508 4.20305 -2.259268 4.658144 -0.04038327 1.271645 4.516402 -4.283712 -2.259267 4.658146 -0.009583353 -24.53677 3.661789 2.383102 -25.07296 2.00383 3.894296 0.562986 4.220691 -3.974967 0.5630769 4.220693 -0.8254229 -25.14016 2.95837 -1.620855 -25.31197 -1.945943 -1.620855 -25.31197 -1.817196 -1.399526 -25.56757 1.54429 -1.657018 -25.56756 1.930531 -4.66995 -2.259267 4.658146 -4.232458 0.5630769 4.220693 -3.974967 0.5630769 3.834452 -3.974967 0.5630769 3.705705 -3.974968 0.5630732 -3.777399 -4.23246 0.5630732 -4.16364 -4.669951 -2.259176 -4.601103 -2.392665 -24.71637 -2.811563 -2.271223 1.634615 2.388169 -2.142477 1.634615 2.388169 3.76555 0.562986 3.963197 3.894296 0.5629861 3.83445 3.894296 0.562986 3.705703 2.319296 1.63457 -2.202341 2.19055 1.63457 -2.331088 2.061804 1.63457 -2.331088 -3.846222 0.5630733 -3.906146 4.151788 0.562986 4.220691 4.589287 -2.259268 4.658145 2.640594 -25.07296 2.00383 1.646193 -25.39447 1.736159 1.646193 -25.39447 1.607412 2.202732 -25.44747 -0.715309 2.369424 -24.61027 -2.933684 4.589286 -2.259216 -4.601065 4.151786 0.5630274 -4.163601 1.517447 -25.39447 1.864906 1.388701 -25.39447 1.864906 -0.4182145 -25.50517 2.187927 -1.492109 -25.31197 -2.07469 -1.363363 -25.31197 -2.07469 0.7998601 -25.46897 -2.13488 -2.843673 -24.65977 -1.84841 -0.5469604 -25.50517 2.187927 -2.399879 1.634611 -2.331127 -2.399969 1.634615 2.388169 1.507003 -25.42267 -1.91006 2.991563 -24.35087 2.048836 2.319296 1.63457 -2.331088 2.319297 1.634615 2.388168</float_array>
          <technique_common>
            <accessor source="#Cube_040-mesh-positions-array" count="98" stride="3">
              <param name="X" type="float"/>
              <param name="Y" type="float"/>
              <param name="Z" type="float"/>
            </accessor>
          </technique_common>
        </source>
        <source id="Cube_040-mesh-normals">
          <float_array id="Cube_040-mesh-normals-array" count="564">-0.9890757 -0.09561306 0.1121938 -0.4874518 -0.1633842 0.8577275 -0.3020867 -0.9518345 -0.05248588 0.0486021 -0.9982923 0.03241008 -0.9686784 0.1699569 0.1810439 -4.62963e-7 1 0 -0.9881983 0.1531804 0 -0.751779 0.4285394 -0.5011811 -0.9568791 0.2647298 -0.1195843 -0.9881974 0.153186 1.78314e-6 0.7882325 0.6153776 -4.51648e-7 -0.7517552 0.4285979 0.5011668 -0.3519412 -0.1794096 -0.9186673 0.7961588 -0.6050878 0 -0.06573706 -0.0858854 -0.9941341 0.4742497 0.8635596 0.1713248 0 1 0 0 0.9957066 0.09256565 -0.61357 0.7896403 0 -0.5215206 0.8509449 0.06252288 0.002688586 0.9956981 0.09261846 0.5324243 0.8464778 0 0.01551145 0.8527816 0.5220373 -0.7045701 0.08465814 0.7045665 0.0945875 0.991013 -0.09458661 0.6761426 0.7352774 -0.04688751 -0.002745926 0.9957107 -0.09248048 -0.4663915 0.8795832 -0.09387397 -0.01549798 0.8527953 -0.5220154 0.3170166 -0.8938697 0.3170133 0.963789 0.2666664 0 0.9827992 0.1541957 0.1016345 -0.7882681 0.6153321 0 0.7517884 0.4285128 -0.5011895 0.8333833 -0.1434029 0.5337678 0.8902596 -0.4554535 0 0.9963718 -0.08510792 1.29404e-6 -0.2824894 0.07771009 0.9561176 0.9898466 -0.1081309 -0.09225779 0.8620095 -0.1388143 -0.4875143 0.2811967 -0.9554976 0.08917897 0.4335129 -0.8596581 -0.2702861 0.9699051 0.1244919 -0.2092508 0.3566579 0.9144006 -0.1914858 0.988197 0.1531888 -1.86487e-6 0.5047802 0.863248 -8.72361e-7 0.06621581 -0.9978054 0 0 -0.9997397 0.02281862 0.1229515 0.9924127 0 0.4701467 -0.7469574 0.4701242 -2.76781e-4 -0.9999605 -0.008891284 0.08087342 -0.9961645 -0.03340601 0.06114923 -0.9981287 -6.52259e-6 0 -1 0 -0.435061 -0.7883211 -0.435054 -0.4988719 -0.8535508 -0.1502597 -0.7696939 -0.6384133 0 -0.4482487 -0.773397 -0.4482525 0.01245725 -0.9956831 -0.09197771 -0.01311582 -0.9998278 -0.01313173 -0.07743942 -0.9437073 -0.3215895 0.04955697 -0.9975421 0.04953789 2.48104e-6 -0.1275463 -0.9918326 0.1709764 -0.06395035 -0.9831976 0 -0.669409 0.7428941 -0.4505569 -0.8784103 -0.1593542 -0.1810434 0.169956 -0.9686786 -0.1703938 0.9816861 0.08519607 0 0.1531758 -0.988199 0.5011907 0.4285212 -0.751783 0.1195963 0.2647315 -0.9568772 0 0.1531759 -0.9881989 0 0.8632503 -0.5047761 -1.74472e-6 0.8632498 -0.5047771 -0.08898222 -0.1027138 -0.9907231 0.3358729 -0.9396293 0.06546986 0.993408 -0.09374129 0.06597959 0.7788993 -0.03811025 0.6259901 0.5426387 -0.1396563 0.828275 0 -0.1155676 0.9932997 -2.64368e-6 -0.3966486 0.9179705 0.1949651 -0.1034931 -0.9753347 0.1810557 0.1699537 0.9686768 0.1704037 0.981684 -0.0852012 0 0.1531724 0.9881995 -0.5011886 0.4285319 0.7517783 -0.1195902 0.2647314 0.9568781 0 0.1531682 0.9882002 0 0.8632524 0.5047727 -1.74471e-6 0.8632531 0.5047715 -0.5811386 -0.1472925 0.8003644 0.1919324 -0.8437826 0.5011916 -0.7297168 -0.1717749 0.6618208 -0.04498821 -0.9089925 0.4143776 -0.9820333 -0.1056404 0.1563673 -0.996632 -0.0820055 0 -0.2979997 -0.9529584 -0.05537819 -0.2784545 -0.9423406 -0.1856274 -0.9568798 0.2647268 0.1195861 0.1629894 0.9730721 0.1629885 -0.9881981 0.1531812 1.78308e-6 -2.31481e-7 1 0 -0.9699105 0.1244732 -0.2092369 -0.9592075 0.08207678 0.2705263 0.08519303 0.9816881 -0.1703841 2.31483e-7 1 0 -0.9934048 -0.0958929 -0.0628615 0.4855126 0.5326746 0.6932066 -0.9377034 -0.08831506 0.3360252 -0.0803157 -0.8531671 -0.5154176 0 0.9957066 0.09256589 -0.6135713 0.7896394 0 -2.06632e-7 0.9957066 0.09256577 9.11071e-6 1 0 0.4718492 0.8766825 0.09373468 0.00274837 0.9957094 0.09249478 0.7045723 0.08463501 -0.7045671 9.11079e-6 1 -6.76432e-6 0.09458714 0.991013 -0.09458643 0 0.9957064 -0.09256738 0 0.9957066 -0.09256696 -0.6135687 0.7896413 -2.59849e-7 -0.002738058 0.9957093 -0.09249651 -0.2966542 0.9077416 -0.2966507 0.9508702 0.2477515 0.1856479 0.9881971 0.1531885 1.18876e-6 -0.7882661 0.6153345 0 -0.2330747 0.9599649 0.1553823 0.9830191 -0.09380263 0.1577169 0.3847799 -0.8877076 0.2528236 -0.49485 0.1277221 -0.8595409 -0.2021409 0.9152872 -0.3484084 0.9931493 -0.1004069 -0.05977374 0.09797269 -0.08370804 -0.9916625 0.6141218 -0.7736092 -0.1561521 0.4159651 -0.8497294 -0.3239337 0.9568716 0.2647526 -0.1195946 -0.02672332 0.9823196 0.1852944 0.9592242 0.08209854 0.2704606 0.5047816 0.8632471 1.74472e-6 0.06621593 -0.9978054 0 0.02866619 -0.9991004 0.03125262 0.1229504 0.9924129 0 0.02998119 -0.9991008 0.02997916 -0.001583039 -0.9999988 0 -0.7723578 -0.6351826 0.002556264 0.06475031 -0.9973238 0.03395295 0.0416339 -0.9982657 0.04162073 -0.00143218 -0.999998 -0.001409411 0 -0.9462856 -0.3233323 0.5279488 0.8381902 0.1367749 0.5149986 0.6852438 0.5149927 0.2872434 -0.9394742 -0.1867603 0.02998137 -0.9991008 0.02997934 0.0244078 -0.9956036 0.09043121 -0.01311582 -0.999828 -0.01311802 -0.1537159 -0.1287574 -0.9796903 0 -0.07943493 -0.9968401 -1.54716e-6 -0.6693634 0.7429352 -0.1541203 -0.8520163 -0.5003151 -0.1195812 0.2647321 -0.9568789 -0.181411 0.98334 0.01151424 0 0.1531763 -0.9881989 0 1 -4.4949e-7 0.2092382 0.1244931 -0.9699077 -0.2703517 0.08211439 -0.9592534 0.1914329 0.9186052 -0.345714 0 0.8632498 -0.504777 0.04197734 -0.1262401 -0.9911112 -0.05102086 -0.8823456 0.4678283 -0.7704694 0.01874351 -0.6372016 0.1907701 -0.8886408 -0.4170425 0.1598437 -0.07425075 0.984346 -1.72009e-6 -0.1155678 0.9932996 0.18989 -0.8203874 0.5393574 0 0.06220626 -0.9980634 0.1195939 0.2647312 0.9568776 0.1814259 0.9833375 -0.01148945 0 0.1531724 0.9881995 0 1 4.4949e-7 -0.1810593 0.1699482 0.968677 0 0.1531679 0.9882002 -0.1914126 0.9186035 0.3457294 0 0.8632526 0.5047723 -0.1598007 -0.07468265 0.9843202 0.1438699 -0.8448843 0.5152397 0 -0.0740838 0.9972521 0 -0.9037172 0.4281301</float_array>
          <technique_common>
            <accessor source="#Cube_040-mesh-normals-array" count="188" stride="3">
              <param name="X" type="float"/>
              <param name="Y" type="float"/>
              <param name="Z" type="float"/>
            </accessor>
          </technique_common>
        </source>
        <vertices id="Cube_040-mesh-vertices">
          <input semantic="POSITION" source="#Cube_040-mesh-positions"/>
        </vertices>
        <polylist count="192">
          <input semantic="VERTEX" source="#Cube_040-mesh-vertices" offset="0"/>
          <input semantic="NORMAL" source="#Cube_040-mesh-normals" offset="1"/>
          <vcount>3 3 3 3 3 3 3 3 3 3 3 3 3 3 3 3 3 3 3 3 3 3 3 3 3 3 3 3 3 3 3 3 3 3 3 3 3 3 3 3 3 3 3 3 3 3 3 3 3 3 3 3 3 3 3 3 3 3 3 3 3 3 3 3 3 3 3 3 3 3 3 3 3 3 3 3 3 3 3 3 3 3 3 3 3 3 3 3 3 3 3 3 3 3 3 3 3 3 3 3 3 3 3 3 3 3 3 3 3 3 3 3 3 3 3 3 3 3 3 3 3 3 3 3 3 3 3 3 3 3 3 3 3 3 3 3 3 3 3 3 3 3 3 3 3 3 3 3 3 3 3 3 3 3 3 3 3 3 3 3 3 3 3 3 3 3 3 3 3 3 3 3 3 3 3 3 3 3 3 3 3 3 3 3 3 3 3 3 3 3 3 3 </vcount>
          <p>4 0 5 0 1 0 5 1 57 1 58 1 4 2 55 2 56 2 56 3 91 3 57 3 0 4 1 4 6 4 6 5 60 5 61 5 1 6 58 6 59 6 59 7 93 7 60 7 0 8 2 8 7 8 7 9 63 9 64 9 2 10 61 10 62 10 62 11 92 11 63 11 3 12 8 12 4 12 8 13 54 13 55 13 3 14 64 14 65 14 65 15 90 15 54 15 13 16 14 16 10 16 10 17 14 17 66 17 61 18 60 18 14 18 14 19 60 19 93 19 10 20 15 20 11 20 15 21 69 21 70 21 67 22 68 22 15 22 15 23 68 23 97 23 11 24 16 24 12 24 16 16 72 16 73 16 11 25 70 25 71 25 71 16 96 16 72 16 9 26 12 26 17 26 13 27 17 27 62 27 73 28 74 28 17 28 74 29 92 29 62 29 18 30 22 30 23 30 19 31 23 31 75 31 70 32 69 32 23 32 69 33 97 33 75 33 19 34 24 34 20 34 24 35 78 35 79 35 19 36 76 36 77 36 77 37 95 37 78 37 20 38 25 38 21 38 21 39 25 39 81 39 20 40 79 40 80 40 25 41 80 41 94 41 18 42 21 42 26 42 22 43 26 43 71 43 82 44 83 44 26 44 26 45 83 45 96 45 31 46 32 46 28 46 32 47 84 47 85 47 79 48 78 48 32 48 78 49 95 49 84 49 28 50 33 50 29 50 29 51 33 51 56 51 85 52 86 52 33 52 33 53 86 53 91 53 29 54 34 54 30 54 30 55 34 55 87 55 29 56 55 56 54 56 54 57 90 57 87 57 27 58 30 58 35 58 31 59 35 59 80 59 30 60 88 60 89 60 35 61 89 61 94 61 36 62 40 62 41 62 37 63 41 63 65 63 88 64 87 64 41 64 87 65 90 65 65 65 36 66 37 66 42 66 38 67 42 67 74 67 37 68 64 68 63 68 63 69 92 69 74 69 36 70 38 70 43 70 43 71 83 71 82 71 73 72 72 72 43 72 43 73 72 73 96 73 39 74 44 74 40 74 40 75 44 75 89 75 39 76 82 76 81 76 44 77 81 77 94 77 49 78 50 78 46 78 46 79 50 79 77 79 85 80 84 80 50 80 50 81 84 81 95 81 45 82 46 82 51 82 47 83 51 83 68 83 46 84 76 84 75 84 75 85 97 85 68 85 45 86 47 86 52 86 48 87 52 87 59 87 67 88 66 88 52 88 52 89 66 89 93 89 48 90 53 90 49 90 49 91 53 91 86 91 58 92 57 92 53 92 53 93 57 93 91 93 0 94 4 94 1 94 1 95 5 95 58 95 5 96 4 96 56 96 5 97 56 97 57 97 2 98 0 98 6 98 2 99 6 99 61 99 6 100 1 100 59 100 6 101 59 101 60 101 3 102 0 102 7 102 3 103 7 103 64 103 7 104 2 104 62 104 7 105 62 105 63 105 0 106 3 106 4 106 4 107 8 107 55 107 8 108 3 108 65 108 8 109 65 109 54 109 9 16 13 16 10 16 67 110 10 110 66 110 13 111 61 111 14 111 66 112 14 112 93 112 9 113 10 113 11 113 11 114 15 114 70 114 10 115 67 115 15 115 69 116 15 116 97 116 9 117 11 117 12 117 12 118 16 118 73 118 16 119 11 119 71 119 16 16 71 16 72 16 13 120 9 120 17 120 61 121 13 121 62 121 12 122 73 122 17 122 17 123 74 123 62 123 19 124 18 124 23 124 76 125 19 125 75 125 22 126 70 126 23 126 23 127 69 127 75 127 18 128 19 128 20 128 20 129 24 129 79 129 24 130 19 130 77 130 24 131 77 131 78 131 18 132 20 132 21 132 82 133 21 133 81 133 25 134 20 134 80 134 81 135 25 135 94 135 22 136 18 136 26 136 70 137 22 137 71 137 21 138 82 138 26 138 71 139 26 139 96 139 27 140 31 140 28 140 28 141 32 141 85 141 31 142 79 142 32 142 32 143 78 143 84 143 27 144 28 144 29 144 55 145 29 145 56 145 28 146 85 146 33 146 56 147 33 147 91 147 27 148 29 148 30 148 88 149 30 149 87 149 34 150 29 150 54 150 34 151 54 151 87 151 31 152 27 152 35 152 79 153 31 153 80 153 35 154 30 154 89 154 80 155 35 155 94 155 37 156 36 156 41 156 64 157 37 157 65 157 40 158 88 158 41 158 41 159 87 159 65 159 38 160 36 160 42 160 73 161 38 161 74 161 42 162 37 162 63 162 42 163 63 163 74 163 39 164 36 164 43 164 39 165 43 165 82 165 38 166 73 166 43 166 83 167 43 167 96 167 36 168 39 168 40 168 88 169 40 169 89 169 44 170 39 170 81 170 89 171 44 171 94 171 45 172 49 172 46 172 76 173 46 173 77 173 49 174 85 174 50 174 77 175 50 175 95 175 47 176 45 176 51 176 67 177 47 177 68 177 51 178 46 178 75 178 51 179 75 179 68 179 48 180 45 180 52 180 58 181 48 181 59 181 47 182 67 182 52 182 59 183 52 183 93 183 45 184 48 184 49 184 85 185 49 185 86 185 48 186 58 186 53 186 86 187 53 187 91 187</p>
        </polylist>
      </mesh>
    </geometry>
  </library_geometries>
  <library_controllers/>
  <library_visual_scenes>
    <visual_scene id="Scene" name="Scene">
      <node id="COL_VIZ_RightFingerJoint11y_link_0" name="COL_VIZ_RightFingerJoint11y_link_0" type="NODE">
        <instance_geometry url="#Cube_040-mesh" name="COL_VIZ_RightFingerJoint11y_link_0"/>
      </node>
    </visual_scene>
  </library_visual_scenes>
  <scene>
    <instance_visual_scene url="#Scene"/>
  </scene>
</COLLADA>