<?xml version="1.0" encoding="utf-8"?>
<COLLADA xmlns="http://www.collada.org/2005/11/COLLADASchema" version="1.4.1">
  <asset>
    <contributor>
      <author>Blender User</author>
      <authoring_tool>Blender 2.76.0 commit date:2015-11-03, commit time:10:56, hash:f337fea</authoring_tool>
    </contributor>
    <created>2017-01-25T08:36:08</created>
    <modified>2017-01-25T08:36:08</modified>
    <unit name="meter" meter="1"/>
    <up_axis>Z_UP</up_axis>
  </asset>
  <library_images/>
  <library_geometries>
    <geometry id="Cube_041-mesh" name="Cube.041">
      <mesh>
        <source id="Cube_041-mesh-positions">
          <float_array id="Cube_041-mesh-positions-array" count="294">-5.350033 -3.965916 4.117181 -5.092542 -3.965917 4.504363 -4.454254 0.07545137 3.754513 -4.160848 -5.364055 -4.387357 -3.031078 -20.78667 -0.7405603 -3.403697 -19.93927 2.034501 -4.454254 0.07545131 4.012634 -4.304354 -1.014047 -0.4635661 -3.101148 -20.40997 -1.84509 -2.097772 0.7988183 1.941013 -7.55141e-5 1.541864 4.375353 2.417412 1.541826 4.117181 -2.097772 0.7988182 1.682892 -2.355263 0.7988184 1.941013 -2.417563 1.541827 4.375303 2.417412 1.541826 4.375302 2.280411 0.07469272 -0.4777571 -2.355263 0.7988183 1.682892 5.349882 -3.965878 4.117139 5.09239 -3.965879 4.504321 3.453179 -20.47427 0.2091714 4.175991 -5.364016 -4.387398 4.454102 0.0754497 3.754511 4.454102 0.0754497 4.012632 2.65236 -20.45707 2.35089 2.629059 -20.38907 -2.4158 4.306401 -1.014049 -0.4635676 1.27696 -22.15176 -0.4211671 1.05568 -21.90416 1.87528 -2.128027 -21.87496 -0.6624234 -1.870535 -21.87496 -0.9205445 2.170868 -21.90206 0.1802165 1.646219 -21.78156 1.86948 -2.106447 -21.87666 0.9776092 -1.615631 -21.86046 -1.72745 1.50703 -21.80976 -1.90674 9.20448e-4 -5.207785 -5.56573 -3.77461 -5.364055 -4.774539 0.002120256 -1.898287 -4.756149 3.789754 -5.364016 -4.774579 0.1986056 -20.99257 -2.854801 -2.135147 -20.46657 -2.808861 -3.453764 -2.313896 -4.362037 3.479909 -2.313898 -4.362038 0.4560973 -20.99257 -2.854801 -4.320067 -3.965916 5.149666 4.325356 -0.5614316 4.528874 -7.55141e-5 0.9049831 4.633474 -4.706305 -3.965917 4.891545 -0.5679063 -20.89037 2.963582 1.171692 -20.96487 2.751162 2.417412 0.9049445 4.633424 -2.417563 0.9049455 4.633424 -2.063497 -20.52107 2.798292 -1.61563 -21.22357 -1.598389 -2.128027 -21.23807 -0.6624234 -3.342216 -20.25627 0.884214 -3.403697 -19.93927 2.292623 -5.092542 -3.965917 4.891544 -4.454254 0.07545137 4.270755 -2.417563 0.9049456 4.246243 -2.417563 0.9049456 4.117182 -2.355263 0.1619369 1.811953 -3.711256 -2.313896 -4.362037 -4.160848 -5.364055 -4.774538 -2.392639 -20.46657 -2.808861 -2.288817 0.9049456 4.375303 -2.160071 0.9049456 4.375303 2.288666 0.9049446 4.375302 2.417412 0.9049446 4.246242 2.417412 0.9049446 4.117181 2.355011 0.161899 1.811912 2.226265 0.161899 1.682851 2.09752 0.161899 1.682851 -2.150718 -0.5622276 -0.4778004 4.454102 0.0754497 4.270753 5.09239 -3.965879 4.891503 2.65236 -20.45707 2.609011 1.64622 -21.14467 1.74042 2.170868 -21.26517 0.1802165 2.585338 -20.50227 -1.88625 2.842829 -20.50227 -2.273432 4.175992 -5.364016 -4.77458 3.737401 -2.313898 -4.362038 2.266122 -20.45707 2.35089 0.6182997 -21.39857 1.820271 -1.934751 -20.52107 2.540171 -0.8158566 -21.23927 -2.10373 -0.6871109 -21.23927 -2.10373 0.799881 -21.21917 -2.13155 -1.615631 -21.22357 -1.72745 -2.063497 -20.52107 2.540171 -3.453764 -2.313896 -4.103916 -2.417563 0.9049455 4.375303 1.50703 -21.17288 -1.90674 1.64622 -21.14467 1.86948 3.479909 -2.313898 -4.103917 2.417412 0.9049445 4.375302</float_array>
          <technique_common>
            <accessor source="#Cube_041-mesh-positions-array" count="98" stride="3">
              <param name="X" type="float"/>
              <param name="Y" type="float"/>
              <param name="Z" type="float"/>
            </accessor>
          </technique_common>
        </source>
        <source id="Cube_041-mesh-normals">
          <float_array id="Cube_041-mesh-normals-array" count="576">-0.9891647 -0.1074907 -0.09999561 -0.9944572 -0.1051428 0 -0.4519286 -0.8699298 0.1974405 -0.419641 -0.8892897 0.1818391 -0.8166783 0.1950695 0.5431246 -0.3771921 0.9261351 -6.80333e-7 -0.9877563 0.1560052 0 -0.3771921 0.9261351 4.20017e-7 -0.9741331 0.2079915 -0.08834081 -0.969931 0.1445928 -0.1957725 -0.3138024 0.9011977 -0.2989495 -0.1351885 0.922695 -0.3610514 -0.9971302 -0.0631814 0.0417087 -0.428379 -0.863185 -0.267214 -0.9932158 -0.1162859 0 -0.6978251 -0.7162683 8.89538e-6 0 0.9564395 -0.291931 0 0 1 -1 0 -1.84734e-6 -4.62965e-7 1 8.96797e-7 1.59275e-5 1 0 1 -3.62576e-7 0 2.52633e-7 -7.85878e-5 1 4.62965e-7 1 8.96797e-7 -0.01031184 0.9526578 -0.3038698 -2.53249e-7 -0.9991865 0.04032897 0.9996339 1.29865e-6 -0.02705895 0.3154509 0.8952463 -0.3146822 2.31481e-7 1 -4.48397e-7 -1 -3.62575e-7 0 0.1271943 0.8378442 -0.5308849 -0.3311554 0.8907483 -0.3112934 0.9763044 0.2164024 -1.85247e-6 0.9877561 0.1560063 0 0.3771923 0.926135 0 0.3771935 0.9261345 8.40033e-7 0.8172019 -0.1918804 0.5434733 0.4559367 -0.8624124 0.2199243 0.9892305 -0.1463662 0 0.5642296 -0.825618 0 0.9438592 -0.1366431 -0.3007634 -0.4754889 0.1840066 0.8602628 0.517329 -0.8313249 -0.2031495 0.4942489 -0.8047823 0.3286996 0.9821206 0.1090043 -0.1534833 0.2693651 0.9301108 -0.2496729 0.9898193 0.1423301 1.39882e-6 -0.2696082 0.9246495 -0.2689512 0.2027341 -0.9702717 0.1321813 -0.1482294 -0.2758166 0.9497122 0.9478448 0 0.3187322 1 -3.62574e-7 0 -0.03802478 -0.9939027 0.103497 -0.7688442 -0.5992164 -0.2232003 -0.07202661 -0.7494699 0.6581088 0 -0.7553637 0.655306 -0.02634668 -0.9993074 -0.02627962 0 -0.5180969 -0.855322 -0.8771595 0 -0.4801992 -1 0 9.23672e-7 -0.04876291 -0.9716731 -0.2312437 0.7696484 -0.6334983 -0.07950675 -0.01240646 -0.3686688 -0.9294781 0.3029702 -2.52252e-7 -0.9530001 -0.05761152 -0.1696847 -0.983813 0 -0.1290669 -0.991636 0 -0.9500562 -0.3120789 -0.2407116 -0.8456696 -0.4763413 -0.2087469 0.1525981 -0.965991 -0.1519876 0.9191112 -0.3635029 0 0.1340197 -0.9909787 -9.25923e-7 1 0 0.1371597 0.2353246 -0.96219 0 0.1340338 -0.9909768 0 0.9253916 -0.3790126 0.892145 0.4517492 -9.98526e-7 0.1954048 -0.160526 -0.967496 0 -0.9542587 -0.298982 1.28739e-6 -0.1630101 -0.9866244 0.2867311 -0.8314125 -0.4759607 0.1162803 -0.1018354 0.9879821 0.1475906 -0.1569929 0.9765092 0.4577441 -0.8784426 0.1371465 -0.5538179 -0.08090686 0.8286978 1.95489e-5 -0.0710923 0.9974699 1.59274e-5 1 -7.52208e-6 0.5599294 0.211484 0.8010952 0.3771923 0.926135 4.20015e-7 -2.18354e-5 0.1054039 0.9944295 -0.236539 0.1619153 0.958036 0 1 4.484e-7 -4.62963e-7 1 0 -0.5454862 -0.1902844 0.8162333 -0.2264117 -0.967463 -0.1129295 -1.22058e-6 -0.1605914 0.987021 -0.3982102 -0.9172942 0 -0.8203954 -0.171102 0.5455965 -0.9944572 -0.1051427 0 0.3361576 0.9124069 -0.2334776 -0.981708 -0.1903928 0 -0.9763047 0.2164008 0 -0.3771926 0.9261348 0 -0.9877564 0.1560044 0 -0.3771929 0.9261348 0 -0.9820635 0.1073938 -0.1549769 -0.9893107 0.1458237 0 -0.2695031 0.9300369 -0.249799 0.2683671 0.9253696 -0.2677134 -0.987439 -0.1010541 -0.1214599 -0.4170143 -0.8761267 -0.2418704 -0.800367 -0.1542575 -0.5793249 -0.4290432 -0.8636327 -0.2646895 -8.83476e-6 0.9564394 -0.2919312 -2.04404e-5 -8.29356e-6 1 -0.9995039 0.01183056 -0.02919065 -0.7008308 -0.1416723 0.6991176 -0.02872228 0.9626853 -0.2690952 1 7.25146e-7 0 2.07501e-5 -4.22654e-6 1 0.700828 -0.141672 0.6991203 0.1631772 0.9865968 -2.08143e-7 -0.1500419 -0.9883058 0.02718919 0.9994091 0.00982958 -0.03293633 -0.03940796 -0.9984497 0.03931176 2.31482e-7 1 -8.96795e-7 -0.9995652 0.005857765 -0.0289011 0 0.8461249 -0.5329849 -0.9963515 -0.01694995 -0.08364421 0.8166789 0.1950659 0.5431252 0.9877562 0.156006 0 0.3771924 0.926135 -4.20017e-7 0.3771923 0.9261351 -2.10008e-7 0.9195734 -0.1874053 0.3453466 0.5113317 -0.8362842 0.1979113 0.9892306 -0.1463656 0 0.5642291 -0.8256184 0 0.9888464 -0.08459275 -0.1225845 0.9947419 -0.102415 1.30458e-6 0.4106184 -0.898003 -0.1580608 0.3358266 0.9150635 0.2233368 0.9741661 0.208046 -0.08784836 0.3137969 0.9011926 -0.2989709 0.9717671 0.1413056 -0.188949 0.1359034 0.9228541 -0.3603758 0.189194 -0.9741724 0.1232639 -0.01076918 0.098948 0.9950344 0.9545145 0.05921763 0.2922248 0.6133565 -2.38478e-7 -0.7898062 -0.08102762 -0.996712 3.27121e-5 -0.9999135 0 0.01315718 -0.2717817 -0.1313898 0.9533476 -0.7150027 -0.5182434 0.4692494 -0.07549321 -0.9942994 -0.07529711 0.5952948 -0.7844504 0.1739595 -0.8981521 0.08732378 -0.4309263 -0.42572 0 -0.904855 0.3615025 -0.919288 -0.1556462 0.9529511 -3.41875e-7 -0.3031244 -0.1549333 -0.7973161 -0.5833375 0.01899868 -3.5307e-7 -0.9998195 -0.1970044 -0.1475377 -0.9692378 0 -0.1290672 -0.9916359 -0.1958238 -0.822142 -0.5345426 7.01438e-7 -0.8192241 -0.5734736 -0.1380212 0.2353903 -0.9620507 -0.008823931 0.9532296 -0.3021184 0 0.1340191 -0.9909788 -0.8023459 0.5968593 -6.88692e-7 0.208028 0.1518242 -0.966268 -1.60444e-6 0.1340337 -0.9909769 0.1498382 0.9264925 -0.345196 0 1 4.58425e-7 0 -0.169265 -0.9855707 0.007180154 -0.9525174 -0.3043996 0.266549 -0.1733201 -0.9481096 0.1773386 -0.9119421 -0.3700173 0.1116775 -0.1033747 0.9883531 -0.4541484 -0.007426321 0.8908951 0.01191955 -0.9090799 0.4164515 0.2638958 -0.8800159 -0.3948813 0.04606837 0.06478136 0.9968356 2.143e-7 1 -1.478e-4 0.2873889 0.3092979 0.9065001 4.62963e-7 1 0 -0.5314469 0.2918592 0.7952249 -4.83107e-6 0.1518278 0.988407 -1.55327e-5 1 -1.4662e-5 -0.3771914 0.9261353 0 -0.1470903 -0.1587167 0.976306 -0.2928844 -0.9488522 0.1178908 -0.4143814 -0.1789779 0.8923312 0 -1 0</float_array>
          <technique_common>
            <accessor source="#Cube_041-mesh-normals-array" count="192" stride="3">
              <param name="X" type="float"/>
              <param name="Y" type="float"/>
              <param name="Z" type="float"/>
            </accessor>
          </technique_common>
        </source>
        <vertices id="Cube_041-mesh-vertices">
          <input semantic="POSITION" source="#Cube_041-mesh-positions"/>
        </vertices>
        <polylist count="192">
          <input semantic="VERTEX" source="#Cube_041-mesh-vertices" offset="0"/>
          <input semantic="NORMAL" source="#Cube_041-mesh-normals" offset="1"/>
          <vcount>3 3 3 3 3 3 3 3 3 3 3 3 3 3 3 3 3 3 3 3 3 3 3 3 3 3 3 3 3 3 3 3 3 3 3 3 3 3 3 3 3 3 3 3 3 3 3 3 3 3 3 3 3 3 3 3 3 3 3 3 3 3 3 3 3 3 3 3 3 3 3 3 3 3 3 3 3 3 3 3 3 3 3 3 3 3 3 3 3 3 3 3 3 3 3 3 3 3 3 3 3 3 3 3 3 3 3 3 3 3 3 3 3 3 3 3 3 3 3 3 3 3 3 3 3 3 3 3 3 3 3 3 3 3 3 3 3 3 3 3 3 3 3 3 3 3 3 3 3 3 3 3 3 3 3 3 3 3 3 3 3 3 3 3 3 3 3 3 3 3 3 3 3 3 3 3 3 3 3 3 3 3 3 3 3 3 3 3 3 3 3 3 </vcount>
          <p>0 0 4 0 5 0 1 1 5 1 57 1 4 2 55 2 56 2 56 3 91 3 57 3 0 4 1 4 6 4 6 5 60 5 61 5 1 6 58 6 59 6 59 7 93 7 60 7 0 8 2 8 7 8 3 9 7 9 63 9 2 10 61 10 62 10 7 11 62 11 92 11 3 12 8 12 4 12 4 13 8 13 54 13 3 14 64 14 65 14 65 15 90 15 54 15 9 16 13 16 14 16 14 17 66 17 67 17 61 18 60 18 14 18 60 19 93 19 66 19 10 20 15 20 11 20 11 21 15 21 69 21 10 22 67 22 68 22 68 23 97 23 69 23 9 24 11 24 16 24 16 25 72 25 73 25 11 26 70 26 71 26 71 27 96 27 72 27 9 28 12 28 17 28 13 29 17 29 62 29 12 30 73 30 74 30 74 31 92 31 62 31 18 32 22 32 23 32 19 33 23 33 75 33 70 34 69 34 23 34 69 35 97 35 75 35 18 36 19 36 24 36 24 37 78 37 79 37 19 38 76 38 77 38 24 39 77 39 95 39 20 40 25 40 21 40 25 41 81 41 82 41 20 42 79 42 80 42 80 43 94 43 81 43 18 44 21 44 26 44 22 45 26 45 71 45 21 46 82 46 83 46 26 47 83 47 96 47 31 48 32 48 28 48 32 49 84 49 85 49 31 50 79 50 78 50 32 51 78 51 95 51 27 52 28 52 33 52 33 53 56 53 55 53 85 54 86 54 33 54 33 55 86 55 91 55 29 56 34 56 30 56 34 57 87 57 88 57 29 58 55 58 54 58 34 59 54 59 90 59 27 60 30 60 35 60 35 61 80 61 79 61 88 62 89 62 35 62 35 63 89 63 94 63 36 64 40 64 41 64 37 65 41 65 65 65 40 66 88 66 87 66 41 67 87 67 90 67 36 68 37 68 42 68 38 69 42 69 74 69 37 70 64 70 63 70 42 71 63 71 92 71 36 72 38 72 43 72 39 73 43 73 83 73 73 74 72 74 43 74 43 75 72 75 96 75 36 76 39 76 44 76 40 77 44 77 89 77 39 78 82 78 81 78 44 79 81 79 94 79 45 80 49 80 50 80 50 81 77 81 76 81 85 82 84 82 50 82 84 83 95 83 77 83 46 84 51 84 47 84 47 85 51 85 68 85 46 86 76 86 75 86 51 87 75 87 97 87 45 88 47 88 52 88 48 89 52 89 59 89 67 90 66 90 52 90 52 91 66 91 93 91 45 92 48 92 53 92 49 93 53 93 86 93 48 94 58 94 57 94 53 95 57 95 91 95 1 96 0 96 5 96 58 97 1 97 57 97 5 98 4 98 56 98 5 99 56 99 57 99 2 100 0 100 6 100 2 101 6 101 61 101 6 102 1 102 59 102 6 103 59 103 60 103 3 104 0 104 7 104 64 105 3 105 63 105 7 106 2 106 62 106 63 107 7 107 92 107 0 108 3 108 4 108 55 109 4 109 54 109 8 110 3 110 65 110 8 111 65 111 54 111 10 112 9 112 14 112 10 113 14 113 67 113 13 114 61 114 14 114 14 115 60 115 66 115 9 116 10 116 11 116 70 117 11 117 69 117 15 118 10 118 68 118 15 119 68 119 69 119 12 120 9 120 16 120 12 121 16 121 73 121 16 122 11 122 71 122 16 123 71 123 72 123 13 124 9 124 17 124 61 125 13 125 62 125 17 126 12 126 74 126 17 127 74 127 62 127 19 128 18 128 23 128 76 129 19 129 75 129 22 130 70 130 23 130 23 131 69 131 75 131 20 132 18 132 24 132 20 133 24 133 79 133 24 134 19 134 77 134 78 135 24 135 95 135 18 136 20 136 21 136 21 137 25 137 82 137 25 138 20 138 80 138 25 139 80 139 81 139 22 140 18 140 26 140 70 141 22 141 71 141 26 142 21 142 83 142 71 143 26 143 96 143 27 144 31 144 28 144 28 145 32 145 85 145 32 146 31 146 78 146 84 147 32 147 95 147 29 148 27 148 33 148 29 149 33 149 55 149 28 150 85 150 33 150 56 151 33 151 91 151 27 152 29 152 30 152 30 153 34 153 88 153 34 154 29 154 54 154 87 155 34 155 90 155 31 156 27 156 35 156 31 157 35 157 79 157 30 158 88 158 35 158 80 159 35 159 94 159 37 160 36 160 41 160 64 161 37 161 65 161 41 162 40 162 87 162 65 163 41 163 90 163 38 164 36 164 42 164 73 165 38 165 74 165 42 166 37 166 63 166 74 167 42 167 92 167 39 168 36 168 43 168 82 169 39 169 83 169 38 170 73 170 43 170 83 171 43 171 96 171 40 172 36 172 44 172 88 173 40 173 89 173 44 174 39 174 81 174 89 175 44 175 94 175 46 176 45 176 50 176 46 177 50 177 76 177 49 178 85 178 50 178 50 179 84 179 77 179 45 180 46 180 47 180 67 181 47 181 68 181 51 182 46 182 75 182 68 183 51 183 97 183 48 184 45 184 52 184 58 185 48 185 59 185 47 186 67 186 52 186 59 187 52 187 93 187 49 188 45 188 53 188 85 189 49 189 86 189 53 190 48 190 57 190 86 191 53 191 91 191</p>
        </polylist>
      </mesh>
    </geometry>
  </library_geometries>
  <library_controllers/>
  <library_visual_scenes>
    <visual_scene id="Scene" name="Scene">
      <node id="COL_VIZ_RightFingerJoint12y_link_0" name="COL_VIZ_RightFingerJoint12y_link_0" type="NODE">
        <instance_geometry url="#Cube_041-mesh" name="COL_VIZ_RightFingerJoint12y_link_0"/>
      </node>
    </visual_scene>
  </library_visual_scenes>
  <scene>
    <instance_visual_scene url="#Scene"/>
  </scene>
</COLLADA>