<?xml version="1.0" encoding="utf-8"?>
<COLLADA xmlns="http://www.collada.org/2005/11/COLLADASchema" version="1.4.1">
  <asset>
    <contributor>
      <author>Blender User</author>
      <authoring_tool>Blender 2.77.0 commit date:2016-04-05, commit time:18:12, hash:abf6f08</authoring_tool>
    </contributor>
    <created>2017-02-28T10:34:12</created>
    <modified>2017-02-28T10:34:12</modified>
    <unit name="meter" meter="1"/>
    <up_axis>Z_UP</up_axis>
  </asset>
  <library_images>
    <image id="PBRFULL_Ceiling-material_Base_Color_jpg" name="PBRFULL_Ceiling-material_Base_Color_jpg">
      <init_from>PBRFULL_Ceiling-material_Base_Color.jpg</init_from>
    </image>
  </library_images>
  <library_effects>
    <effect id="PBRFULL_Ceiling-effect">
      <profile_COMMON>
        <newparam sid="PBRFULL_Ceiling-material_Base_Color_jpg-surface">
          <surface type="2D">
            <init_from>PBRFULL_Ceiling-material_Base_Color_jpg</init_from>
          </surface>
        </newparam>
        <newparam sid="PBRFULL_Ceiling-material_Base_Color_jpg-sampler">
          <sampler2D>
            <source>PBRFULL_Ceiling-material_Base_Color_jpg-surface</source>
          </sampler2D>
        </newparam>
        <technique sid="common">
          <phong>
            <emission>
              <color sid="emission">0 0 0 1</color>
            </emission>
            <ambient>
              <color sid="ambient">0 0 0 1</color>
            </ambient>
            <diffuse>
              <texture texture="PBRFULL_Ceiling-material_Base_Color_jpg-sampler"/>
            </diffuse>
            <specular>
              <color sid="specular">0.25 0.25 0.25 1</color>
            </specular>
            <shininess>
              <float sid="shininess">50</float>
            </shininess>
            <index_of_refraction>
              <float sid="index_of_refraction">1</float>
            </index_of_refraction>
          </phong>
        </technique>
      </profile_COMMON>
    </effect>
  </library_effects>
  <library_materials>
    <material id="PBRFULL_Ceiling-material" name="PBRFULL_Ceiling">
      <instance_effect url="#PBRFULL_Ceiling-effect"/>
    </material>
  </library_materials>
  <library_geometries>
    <geometry id="Cube_002-mesh" name="Cube.002">
      <mesh>
        <source id="Cube_002-mesh-positions">
          <float_array id="Cube_002-mesh-positions-array" count="324">1.000001 0.9999997 0 0.9999995 -1 0 -1 -0.9999994 0 -0.9999999 1 0 1 0.7499997 0 1 0.4999997 0 1 0.2499996 0 1 -3.57628e-7 0 1 -0.2500004 0 0.9999998 -0.5000004 0 0.9999997 -0.7500004 0 -1 -0.7499995 0 -1 -0.4999995 0 -1 -0.2499995 0 -1 4.32134e-7 0 -1 0.2500004 0 -1 0.5000004 0 -0.9999999 0.7500003 0 0.8181824 0.9999997 0 0.6363641 0.9999998 0 0.4545459 0.9999998 0 0.2727277 0.9999999 0 0.09090942 1 0 -0.09090876 1 0 -0.272727 1 0 -0.4545452 1 0 -0.6363635 1 0 -0.8181816 1 0 0.8181813 -1 0 0.6363632 -1 0 0.454545 -1 0 0.2727268 -1 0 0.09090864 -0.9999999 0 -0.09090948 -0.9999998 0 -0.2727276 -0.9999998 0 -0.4545458 -0.9999997 0 -0.636364 -0.9999996 0 -0.8181821 -0.9999995 0 0.8181822 0.7499997 0 0.636364 0.7499998 0 0.4545458 0.7499998 0 0.2727276 0.7499999 0 0.09090936 0.75 0 -0.09090882 0.75 0 -0.2727271 0.7500001 0 -0.4545453 0.7500001 0 -0.6363635 0.7500002 0 -0.8181817 0.7500002 0 0.8181822 0.4999997 0 0.636364 0.4999998 0 0.4545457 0.4999998 0 0.2727276 0.4999999 0 0.0909093 0.5 0 -0.09090888 0.5 0 -0.2727271 0.5000001 0 -0.4545453 0.5000001 0 -0.6363635 0.5000002 0 -0.8181818 0.5000002 0 0.8181821 0.2499997 0 0.6363639 0.2499998 0 0.4545457 0.2499998 0 0.2727274 0.2499999 0 0.09090924 0.25 0 -0.09090894 0.2500001 0 -0.2727272 0.2500001 0 -0.4545454 0.2500002 0 -0.6363636 0.2500002 0 -0.8181818 0.2500003 0 0.8181819 -2.85831e-7 0 0.6363638 -2.14035e-7 0 0.4545456 -1.42238e-7 0 0.2727273 0 0 0.09090912 0 0 -0.09090906 0 0 -0.2727273 1.44948e-7 0 -0.4545455 2.16744e-7 0 -0.6363638 2.88541e-7 0 -0.8181819 3.60337e-7 0 0.8181818 -0.2500002 0 0.6363636 -0.2500002 0 0.4545454 -0.2500001 0 0.2727272 -0.2500001 0 0.09090894 -0.25 0 -0.09090924 -0.2499999 0 -0.2727274 -0.2499998 0 -0.4545456 -0.2499997 0 -0.6363639 -0.2499997 0 -0.8181821 -0.2499996 0 0.8181816 -0.5000003 0 0.6363634 -0.5000002 0 0.4545452 -0.5000002 0 0.272727 -0.5000001 0 0.09090882 -0.5 0 -0.0909093 -0.4999999 0 -0.2727275 -0.4999998 0 -0.4545457 -0.4999997 0 -0.6363639 -0.4999997 0 -0.8181821 -0.4999996 0 0.8181815 -0.7500003 0 0.6363633 -0.7500002 0 0.4545451 -0.7500002 0 0.2727269 -0.7500001 0 0.0909087 -0.75 0 -0.09090942 -0.7499999 0 -0.2727276 -0.7499998 0 -0.4545457 -0.7499998 0 -0.6363639 -0.7499997 0 -0.8181821 -0.7499995 0</float_array>
          <technique_common>
            <accessor source="#Cube_002-mesh-positions-array" count="108" stride="3">
              <param name="X" type="float"/>
              <param name="Y" type="float"/>
              <param name="Z" type="float"/>
            </accessor>
          </technique_common>
        </source>
        <source id="Cube_002-mesh-normals">
          <float_array id="Cube_002-mesh-normals-array" count="3">0 0 -1</float_array>
          <technique_common>
            <accessor source="#Cube_002-mesh-normals-array" count="1" stride="3">
              <param name="X" type="float"/>
              <param name="Y" type="float"/>
              <param name="Z" type="float"/>
            </accessor>
          </technique_common>
        </source>
        <source id="Cube_002-mesh-map-0">
          <float_array id="Cube_002-mesh-map-0-array" count="1056">0.1250754 0.09099072 1.00516e-4 0.09099072 1.00636e-4 1.0004e-4 0.9998998 0.09099096 0.874925 0.09099096 0.874925 1.00099e-4 0.874925 0.09099096 0.74995 0.0909909 0.7499501 1.0004e-4 0.74995 0.0909909 0.6249752 0.0909909 0.6249752 1.0004e-4 0.5000002 0.09099084 0.5000002 1.0004e-4 0.6249752 1.0004e-4 0.3750253 0.09099072 0.3750254 9.998e-5 0.5000002 1.0004e-4 0.3750253 0.09099072 0.2500504 0.09099072 0.2500504 9.998e-5 0.2500504 0.09099072 0.1250754 0.09099072 0.1250754 1.0004e-4 0.1250748 0.9998997 0.1250748 0.9090088 0.2500499 0.9090088 0.1250748 0.9090088 0.1250749 0.8181178 0.25005 0.8181179 0.1250749 0.8181178 0.1250749 0.7272269 0.25005 0.7272269 0.1250749 0.7272269 0.125075 0.636336 0.25005 0.6363361 0.25005 0.6363361 0.125075 0.636336 0.1250751 0.545445 0.25005 0.5454451 0.1250751 0.545445 0.1250752 0.4545542 0.2500501 0.4545543 0.1250752 0.4545542 0.1250752 0.3636633 0.2500503 0.3636634 0.1250752 0.3636633 0.1250752 0.2727724 0.2500503 0.2727725 0.1250752 0.2727724 0.1250753 0.1818816 0.2500503 0.1818816 0.1250753 0.1818816 0.1250754 0.09099072 0.2500499 0.9998998 0.2500499 0.9090088 0.375025 0.9090089 0.2500499 0.9090088 0.25005 0.8181179 0.375025 0.818118 0.25005 0.8181179 0.25005 0.7272269 0.375025 0.727227 0.25005 0.7272269 0.25005 0.6363361 0.375025 0.6363362 0.25005 0.6363361 0.25005 0.5454451 0.375025 0.5454452 0.25005 0.5454451 0.2500501 0.4545543 0.3750251 0.4545543 0.3750251 0.4545543 0.2500501 0.4545543 0.2500503 0.3636634 0.3750252 0.3636634 0.2500503 0.3636634 0.2500503 0.2727725 0.3750252 0.2727726 0.2500503 0.2727725 0.2500503 0.1818816 0.3750252 0.1818816 0.2500503 0.1818816 0.2500504 0.09099072 0.375025 0.9998998 0.375025 0.9090089 0.5 0.9090089 0.375025 0.9090089 0.375025 0.818118 0.5 0.818118 0.375025 0.818118 0.375025 0.727227 0.5 0.7272272 0.375025 0.727227 0.375025 0.6363362 0.5 0.6363362 0.375025 0.6363362 0.375025 0.5454452 0.5000001 0.5454453 0.375025 0.5454452 0.3750251 0.4545543 0.5 0.4545544 0.3750251 0.4545543 0.3750252 0.3636634 0.5000001 0.3636634 0.3750252 0.3636634 0.3750252 0.2727726 0.5000001 0.2727726 0.3750252 0.2727726 0.3750252 0.1818816 0.5000002 0.1818817 0.3750252 0.1818816 0.3750253 0.09099072 0.5000002 0.09099084 0.5 0.9998998 0.5 0.9090089 0.624975 0.909009 0.5 0.9090089 0.5 0.818118 0.624975 0.818118 0.5 0.818118 0.5 0.7272272 0.624975 0.7272271 0.5 0.7272272 0.5 0.6363362 0.624975 0.6363363 0.5 0.6363362 0.5000001 0.5454453 0.624975 0.5454454 0.5000001 0.5454453 0.5 0.4545544 0.6249751 0.4545544 0.5 0.4545544 0.5000001 0.3636634 0.624975 0.3636635 0.5000001 0.3636634 0.5000001 0.2727726 0.6249751 0.2727727 0.5000001 0.2727726 0.5000002 0.1818817 0.6249751 0.1818817 0.5000002 0.1818817 0.5000002 0.09099084 0.6249752 0.0909909 0.624975 0.9998997 0.624975 0.909009 0.7499499 0.9090089 0.624975 0.909009 0.624975 0.818118 0.7499499 0.818118 0.624975 0.818118 0.624975 0.7272271 0.7499499 0.7272272 0.624975 0.7272271 0.624975 0.6363363 0.7499499 0.6363363 0.624975 0.6363363 0.624975 0.5454454 0.7499499 0.5454453 0.624975 0.5454454 0.6249751 0.4545544 0.7499499 0.4545544 0.6249751 0.4545544 0.624975 0.3636635 0.74995 0.3636636 0.74995 0.3636636 0.624975 0.3636635 0.6249751 0.2727727 0.6249751 0.2727727 0.6249751 0.1818817 0.74995 0.1818819 0.6249751 0.1818817 0.6249752 0.0909909 0.74995 0.0909909 0.7499499 0.9998997 0.7499499 0.9090089 0.8749248 0.9090089 0.8749248 0.9090089 0.7499499 0.9090089 0.7499499 0.818118 0.8749249 0.818118 0.7499499 0.818118 0.7499499 0.7272272 0.8749248 0.7272272 0.7499499 0.7272272 0.7499499 0.6363363 0.8749249 0.6363363 0.7499499 0.6363363 0.7499499 0.5454453 0.8749249 0.5454453 0.7499499 0.5454453 0.7499499 0.4545544 0.8749249 0.4545544 0.7499499 0.4545544 0.74995 0.3636636 0.874925 0.3636636 0.74995 0.3636636 0.74995 0.2727727 0.874925 0.2727727 0.74995 0.2727727 0.74995 0.1818819 0.874925 0.1818818 0.74995 0.1818819 0.74995 0.0909909 0.874925 0.9998996 0.8749248 0.9090089 0.9998998 0.9090089 0.8749248 0.9090089 0.8749249 0.818118 0.9998998 0.818118 0.8749249 0.818118 0.8749248 0.7272272 0.9998998 0.7272272 0.8749248 0.7272272 0.8749249 0.6363363 0.9998998 0.6363363 0.8749249 0.6363363 0.8749249 0.5454453 0.9998998 0.5454453 0.8749249 0.5454453 0.8749249 0.4545544 0.9998998 0.4545544 0.8749249 0.4545544 0.874925 0.3636636 0.9998998 0.3636636 0.874925 0.3636636 0.874925 0.2727727 0.9998998 0.2727727 0.9998998 0.2727727 0.874925 0.2727727 0.874925 0.1818818 0.9998998 0.1818818 0.874925 0.1818818 0.874925 0.09099096 9.998e-5 0.9998997 9.998e-5 0.9090086 0.1250748 0.9090088 9.998e-5 0.9090086 1.0004e-4 0.8181177 0.1250749 0.8181178 0.1250749 0.8181178 1.0004e-4 0.8181177 1.00099e-4 0.7272269 1.00099e-4 0.7272269 1.00159e-4 0.6363359 0.125075 0.636336 0.125075 0.636336 1.00159e-4 0.6363359 1.00159e-4 0.545445 0.1250751 0.545445 1.00159e-4 0.545445 1.00218e-4 0.4545542 0.1250752 0.4545542 1.00218e-4 0.4545542 1.00397e-4 0.3636633 0.1250752 0.3636633 1.00397e-4 0.3636633 1.00397e-4 0.2727724 0.1250752 0.2727724 1.00397e-4 0.2727724 1.00457e-4 0.1818816 0.1250753 0.1818816 1.00457e-4 0.1818816 1.00516e-4 0.09099072 0.1250754 1.0004e-4 0.1250754 0.09099072 1.00636e-4 1.0004e-4 0.9998998 1.0004e-4 0.9998998 0.09099096 0.874925 1.00099e-4 0.874925 1.00099e-4 0.874925 0.09099096 0.7499501 1.0004e-4 0.7499501 1.0004e-4 0.74995 0.0909909 0.6249752 1.0004e-4 0.6249752 0.0909909 0.5000002 0.09099084 0.6249752 1.0004e-4 0.5000002 0.09099084 0.3750253 0.09099072 0.5000002 1.0004e-4 0.3750254 9.998e-5 0.3750253 0.09099072 0.2500504 9.998e-5 0.2500504 9.998e-5 0.2500504 0.09099072 0.1250754 1.0004e-4 0.2500499 0.9998998 0.1250748 0.9998997 0.2500499 0.9090088 0.2500499 0.9090088 0.1250748 0.9090088 0.25005 0.8181179 0.25005 0.8181179 0.1250749 0.8181178 0.25005 0.7272269 0.25005 0.7272269 0.1250749 0.7272269 0.25005 0.6363361 0.25005 0.5454451 0.25005 0.6363361 0.1250751 0.545445 0.2500501 0.4545543 0.25005 0.5454451 0.1250752 0.4545542 0.2500503 0.3636634 0.2500501 0.4545543 0.1250752 0.3636633 0.2500503 0.2727725 0.2500503 0.3636634 0.1250752 0.2727724 0.2500503 0.1818816 0.2500503 0.2727725 0.1250753 0.1818816 0.2500504 0.09099072 0.2500503 0.1818816 0.1250754 0.09099072 0.375025 0.9998998 0.2500499 0.9998998 0.375025 0.9090089 0.375025 0.9090089 0.2500499 0.9090088 0.375025 0.818118 0.375025 0.818118 0.25005 0.8181179 0.375025 0.727227 0.375025 0.727227 0.25005 0.7272269 0.375025 0.6363362 0.375025 0.6363362 0.25005 0.6363361 0.375025 0.5454452 0.375025 0.5454452 0.25005 0.5454451 0.3750251 0.4545543 0.3750252 0.3636634 0.3750251 0.4545543 0.2500503 0.3636634 0.3750252 0.2727726 0.3750252 0.3636634 0.2500503 0.2727725 0.3750252 0.1818816 0.3750252 0.2727726 0.2500503 0.1818816 0.3750253 0.09099072 0.3750252 0.1818816 0.2500504 0.09099072 0.5 0.9998998 0.375025 0.9998998 0.5 0.9090089 0.5 0.9090089 0.375025 0.9090089 0.5 0.818118 0.5 0.818118 0.375025 0.818118 0.5 0.7272272 0.5 0.7272272 0.375025 0.727227 0.5 0.6363362 0.5 0.6363362 0.375025 0.6363362 0.5000001 0.5454453 0.5000001 0.5454453 0.375025 0.5454452 0.5 0.4545544 0.5 0.4545544 0.3750251 0.4545543 0.5000001 0.3636634 0.5000001 0.3636634 0.3750252 0.3636634 0.5000001 0.2727726 0.5000001 0.2727726 0.3750252 0.2727726 0.5000002 0.1818817 0.5000002 0.1818817 0.3750252 0.1818816 0.5000002 0.09099084 0.624975 0.9998997 0.5 0.9998998 0.624975 0.909009 0.624975 0.909009 0.5 0.9090089 0.624975 0.818118 0.624975 0.818118 0.5 0.818118 0.624975 0.7272271 0.624975 0.7272271 0.5 0.7272272 0.624975 0.6363363 0.624975 0.6363363 0.5 0.6363362 0.624975 0.5454454 0.624975 0.5454454 0.5000001 0.5454453 0.6249751 0.4545544 0.6249751 0.4545544 0.5 0.4545544 0.624975 0.3636635 0.624975 0.3636635 0.5000001 0.3636634 0.6249751 0.2727727 0.6249751 0.2727727 0.5000001 0.2727726 0.6249751 0.1818817 0.6249751 0.1818817 0.5000002 0.1818817 0.6249752 0.0909909 0.7499499 0.9998997 0.624975 0.9998997 0.7499499 0.9090089 0.7499499 0.9090089 0.624975 0.909009 0.7499499 0.818118 0.7499499 0.818118 0.624975 0.818118 0.7499499 0.7272272 0.7499499 0.7272272 0.624975 0.7272271 0.7499499 0.6363363 0.7499499 0.6363363 0.624975 0.6363363 0.7499499 0.5454453 0.7499499 0.5454453 0.624975 0.5454454 0.7499499 0.4545544 0.7499499 0.4545544 0.6249751 0.4545544 0.74995 0.3636636 0.74995 0.2727727 0.74995 0.3636636 0.6249751 0.2727727 0.74995 0.2727727 0.6249751 0.2727727 0.74995 0.1818819 0.74995 0.1818819 0.6249751 0.1818817 0.74995 0.0909909 0.874925 0.9998996 0.7499499 0.9998997 0.8749248 0.9090089 0.8749249 0.818118 0.8749248 0.9090089 0.7499499 0.818118 0.8749248 0.7272272 0.8749249 0.818118 0.7499499 0.7272272 0.8749249 0.6363363 0.8749248 0.7272272 0.7499499 0.6363363 0.8749249 0.5454453 0.8749249 0.6363363 0.7499499 0.5454453 0.8749249 0.4545544 0.8749249 0.5454453 0.7499499 0.4545544 0.874925 0.3636636 0.8749249 0.4545544 0.74995 0.3636636 0.874925 0.2727727 0.874925 0.3636636 0.74995 0.2727727 0.874925 0.1818818 0.874925 0.2727727 0.74995 0.1818819 0.874925 0.09099096 0.874925 0.1818818 0.74995 0.0909909 0.9998998 0.9999001 0.874925 0.9998996 0.9998998 0.9090089 0.9998998 0.9090089 0.8749248 0.9090089 0.9998998 0.818118 0.9998998 0.818118 0.8749249 0.818118 0.9998998 0.7272272 0.9998998 0.7272272 0.8749248 0.7272272 0.9998998 0.6363363 0.9998998 0.6363363 0.8749249 0.6363363 0.9998998 0.5454453 0.9998998 0.5454453 0.8749249 0.5454453 0.9998998 0.4545544 0.9998998 0.4545544 0.8749249 0.4545544 0.9998998 0.3636636 0.9998998 0.3636636 0.874925 0.3636636 0.9998998 0.2727727 0.9998998 0.1818818 0.9998998 0.2727727 0.874925 0.1818818 0.9998998 0.09099096 0.9998998 0.1818818 0.874925 0.09099096 0.1250748 0.9998997 9.998e-5 0.9998997 0.1250748 0.9090088 0.1250748 0.9090088 9.998e-5 0.9090086 0.1250749 0.8181178 0.1250749 0.7272269 0.1250749 0.8181178 1.00099e-4 0.7272269 0.1250749 0.7272269 1.00099e-4 0.7272269 0.125075 0.636336 0.1250751 0.545445 0.125075 0.636336 1.00159e-4 0.545445 0.1250752 0.4545542 0.1250751 0.545445 1.00218e-4 0.4545542 0.1250752 0.3636633 0.1250752 0.4545542 1.00397e-4 0.3636633 0.1250752 0.2727724 0.1250752 0.3636633 1.00397e-4 0.2727724 0.1250753 0.1818816 0.1250752 0.2727724 1.00457e-4 0.1818816 0.1250754 0.09099072 0.1250753 0.1818816 1.00516e-4 0.09099072</float_array>
          <technique_common>
            <accessor source="#Cube_002-mesh-map-0-array" count="528" stride="2">
              <param name="S" type="float"/>
              <param name="T" type="float"/>
            </accessor>
          </technique_common>
        </source>
        <vertices id="Cube_002-mesh-vertices">
          <input semantic="POSITION" source="#Cube_002-mesh-positions"/>
        </vertices>
        <polylist material="PBRFULL_Ceiling-material" count="176">
          <input semantic="VERTEX" source="#Cube_002-mesh-vertices" offset="0"/>
          <input semantic="NORMAL" source="#Cube_002-mesh-normals" offset="1"/>
          <input semantic="TEXCOORD" source="#Cube_002-mesh-map-0" offset="2" set="0"/>
          <vcount>3 3 3 3 3 3 3 3 3 3 3 3 3 3 3 3 3 3 3 3 3 3 3 3 3 3 3 3 3 3 3 3 3 3 3 3 3 3 3 3 3 3 3 3 3 3 3 3 3 3 3 3 3 3 3 3 3 3 3 3 3 3 3 3 3 3 3 3 3 3 3 3 3 3 3 3 3 3 3 3 3 3 3 3 3 3 3 3 3 3 3 3 3 3 3 3 3 3 3 3 3 3 3 3 3 3 3 3 3 3 3 3 3 3 3 3 3 3 3 3 3 3 3 3 3 3 3 3 3 3 3 3 3 3 3 3 3 3 3 3 3 3 3 3 3 3 3 3 3 3 3 3 3 3 3 3 3 3 3 3 3 3 3 3 3 3 3 3 3 3 3 3 3 3 3 3 </vcount>
          <p>107 0 0 37 0 1 2 0 2 27 0 3 47 0 4 17 0 5 47 0 6 57 0 7 16 0 8 57 0 9 67 0 10 15 0 11 77 0 12 14 0 13 15 0 14 87 0 15 13 0 16 14 0 17 87 0 18 97 0 19 12 0 20 97 0 21 107 0 22 11 0 23 10 0 24 98 0 25 88 0 26 98 0 27 99 0 28 89 0 29 99 0 30 100 0 31 90 0 32 100 0 33 101 0 34 91 0 35 91 0 36 101 0 37 102 0 38 92 0 39 102 0 40 103 0 41 93 0 42 103 0 43 104 0 44 94 0 45 104 0 46 105 0 47 95 0 48 105 0 49 106 0 50 96 0 51 106 0 52 107 0 53 9 0 54 88 0 55 78 0 56 88 0 57 89 0 58 79 0 59 89 0 60 90 0 61 80 0 62 90 0 63 91 0 64 81 0 65 91 0 66 92 0 67 82 0 68 92 0 69 93 0 70 83 0 71 83 0 72 93 0 73 94 0 74 84 0 75 94 0 76 95 0 77 85 0 78 95 0 79 96 0 80 86 0 81 96 0 82 97 0 83 8 0 84 78 0 85 68 0 86 78 0 87 79 0 88 69 0 89 79 0 90 80 0 91 70 0 92 80 0 93 81 0 94 71 0 95 81 0 96 82 0 97 72 0 98 82 0 99 83 0 100 73 0 101 83 0 102 84 0 103 74 0 104 84 0 105 85 0 106 75 0 107 85 0 108 86 0 109 76 0 110 86 0 111 87 0 112 77 0 113 7 0 114 68 0 115 58 0 116 68 0 117 69 0 118 59 0 119 69 0 120 70 0 121 60 0 122 70 0 123 71 0 124 61 0 125 71 0 126 72 0 127 62 0 128 72 0 129 73 0 130 63 0 131 73 0 132 74 0 133 64 0 134 74 0 135 75 0 136 65 0 137 75 0 138 76 0 139 66 0 140 76 0 141 77 0 142 67 0 143 6 0 144 58 0 145 48 0 146 58 0 147 59 0 148 49 0 149 59 0 150 60 0 151 50 0 152 60 0 153 61 0 154 51 0 155 61 0 156 62 0 157 52 0 158 62 0 159 63 0 160 53 0 161 63 0 162 64 0 163 54 0 164 54 0 165 64 0 166 65 0 167 65 0 168 66 0 169 56 0 170 66 0 171 67 0 172 57 0 173 5 0 174 48 0 175 38 0 176 38 0 177 48 0 178 49 0 179 39 0 180 49 0 181 50 0 182 40 0 183 50 0 184 51 0 185 41 0 186 51 0 187 52 0 188 42 0 189 52 0 190 53 0 191 43 0 192 53 0 193 54 0 194 44 0 195 54 0 196 55 0 197 45 0 198 55 0 199 56 0 200 46 0 201 56 0 202 57 0 203 4 0 204 38 0 205 18 0 206 38 0 207 39 0 208 19 0 209 39 0 210 40 0 211 20 0 212 40 0 213 41 0 214 21 0 215 41 0 216 42 0 217 22 0 218 42 0 219 43 0 220 23 0 221 43 0 222 44 0 223 24 0 224 44 0 225 45 0 226 25 0 227 25 0 228 45 0 229 46 0 230 26 0 231 46 0 232 47 0 233 1 0 234 28 0 235 98 0 236 28 0 237 29 0 238 99 0 239 99 0 240 29 0 241 30 0 242 30 0 243 31 0 244 101 0 245 101 0 246 31 0 247 32 0 248 102 0 249 32 0 250 33 0 251 103 0 252 33 0 253 34 0 254 104 0 255 34 0 256 35 0 257 105 0 258 35 0 259 36 0 260 106 0 261 36 0 262 37 0 263 11 0 264 107 0 265 2 0 266 3 0 267 27 0 268 17 0 269 17 0 270 47 0 271 16 0 272 16 0 273 57 0 274 15 0 275 67 0 276 77 0 277 15 0 278 77 0 279 87 0 280 14 0 281 13 0 282 87 0 283 12 0 284 12 0 285 97 0 286 11 0 287 9 0 288 10 0 289 88 0 290 88 0 291 98 0 292 89 0 293 89 0 294 99 0 295 90 0 296 90 0 297 100 0 298 91 0 299 92 0 300 91 0 301 102 0 302 93 0 303 92 0 304 103 0 305 94 0 306 93 0 307 104 0 308 95 0 309 94 0 310 105 0 311 96 0 312 95 0 313 106 0 314 97 0 315 96 0 316 107 0 317 8 0 318 9 0 319 78 0 320 78 0 321 88 0 322 79 0 323 79 0 324 89 0 325 80 0 326 80 0 327 90 0 328 81 0 329 81 0 330 91 0 331 82 0 332 82 0 333 92 0 334 83 0 335 84 0 336 83 0 337 94 0 338 85 0 339 84 0 340 95 0 341 86 0 342 85 0 343 96 0 344 87 0 345 86 0 346 97 0 347 7 0 348 8 0 349 68 0 350 68 0 351 78 0 352 69 0 353 69 0 354 79 0 355 70 0 356 70 0 357 80 0 358 71 0 359 71 0 360 81 0 361 72 0 362 72 0 363 82 0 364 73 0 365 73 0 366 83 0 367 74 0 368 74 0 369 84 0 370 75 0 371 75 0 372 85 0 373 76 0 374 76 0 375 86 0 376 77 0 377 6 0 378 7 0 379 58 0 380 58 0 381 68 0 382 59 0 383 59 0 384 69 0 385 60 0 386 60 0 387 70 0 388 61 0 389 61 0 390 71 0 391 62 0 392 62 0 393 72 0 394 63 0 395 63 0 396 73 0 397 64 0 398 64 0 399 74 0 400 65 0 401 65 0 402 75 0 403 66 0 404 66 0 405 76 0 406 67 0 407 5 0 408 6 0 409 48 0 410 48 0 411 58 0 412 49 0 413 49 0 414 59 0 415 50 0 416 50 0 417 60 0 418 51 0 419 51 0 420 61 0 421 52 0 422 52 0 423 62 0 424 53 0 425 53 0 426 63 0 427 54 0 428 55 0 429 54 0 430 65 0 431 55 0 432 65 0 433 56 0 434 56 0 435 66 0 436 57 0 437 4 0 438 5 0 439 38 0 440 39 0 441 38 0 442 49 0 443 40 0 444 39 0 445 50 0 446 41 0 447 40 0 448 51 0 449 42 0 450 41 0 451 52 0 452 43 0 453 42 0 454 53 0 455 44 0 456 43 0 457 54 0 458 45 0 459 44 0 460 55 0 461 46 0 462 45 0 463 56 0 464 47 0 465 46 0 466 57 0 467 0 0 468 4 0 469 18 0 470 18 0 471 38 0 472 19 0 473 19 0 474 39 0 475 20 0 476 20 0 477 40 0 478 21 0 479 21 0 480 41 0 481 22 0 482 22 0 483 42 0 484 23 0 485 23 0 486 43 0 487 24 0 488 24 0 489 44 0 490 25 0 491 26 0 492 25 0 493 46 0 494 27 0 495 26 0 496 47 0 497 10 0 498 1 0 499 98 0 500 98 0 501 28 0 502 99 0 503 100 0 504 99 0 505 30 0 506 100 0 507 30 0 508 101 0 509 102 0 510 101 0 511 32 0 512 103 0 513 102 0 514 33 0 515 104 0 516 103 0 517 34 0 518 105 0 519 104 0 520 35 0 521 106 0 522 105 0 523 36 0 524 107 0 525 106 0 526 37 0 527</p>
        </polylist>
      </mesh>
    </geometry>
  </library_geometries>
  <library_controllers/>
  <library_visual_scenes>
    <visual_scene id="Scene" name="Scene">
      <node id="Decke" name="Decke" type="NODE">
        <matrix sid="transform">2.523499 0 0 2.38419e-7 0 1.9665 0 1.19209e-7 0 0 1.290582 0 0 0 0 1</matrix>
        <instance_geometry url="#Cube_002-mesh" name="Decke">
          <bind_material>
            <technique_common>
              <instance_material symbol="PBRFULL_Ceiling-material" target="#PBRFULL_Ceiling-material"/>
            </technique_common>
          </bind_material>
        </instance_geometry>
      </node>
    </visual_scene>
  </library_visual_scenes>
  <scene>
    <instance_visual_scene url="#Scene"/>
  </scene>
</COLLADA>