<?xml version="1.0" encoding="utf-8"?>
<COLLADA xmlns="http://www.collada.org/2005/11/COLLADASchema" version="1.4.1">
  <asset>
    <contributor>
      <author>Blender User</author>
      <authoring_tool>Blender 2.76.0 commit date:2015-10-09, commit time:12:01, hash:a3cf9c5</authoring_tool>
    </contributor>
    <created>2015-10-22T15:02:51</created>
    <modified>2015-10-22T15:02:51</modified>
    <unit name="meter" meter="1"/>
    <up_axis>Z_UP</up_axis>
  </asset>
  <library_images>
    <image id="leinwand_512_jpg" name="leinwand_512_jpg">
      <init_from>leinwand_512.jpg</init_from>
    </image>
    <image id="wandverkleidung_512_jpg" name="wandverkleidung_512_jpg">
      <init_from>wandverkleidung_512.jpg</init_from>
    </image>
    <image id="PVC_BODEN_jpg" name="PVC_BODEN_jpg">
      <init_from>PVC%20BODEN.jpg</init_from>
    </image>
  </library_images>
  <library_effects>
    <effect id="Decke-effect">
      <profile_COMMON>
        <technique sid="common">
          <phong>
            <emission>
              <color sid="emission">0 0 0 1</color>
            </emission>
            <ambient>
              <color sid="ambient">0 0 0 1</color>
            </ambient>
            <diffuse>
              <color sid="diffuse">0.64 0.64 0.64 1</color>
            </diffuse>
            <specular>
              <color sid="specular">0.5 0.5 0.5 1</color>
            </specular>
            <shininess>
              <float sid="shininess">50</float>
            </shininess>
            <index_of_refraction>
              <float sid="index_of_refraction">1</float>
            </index_of_refraction>
          </phong>
        </technique>
      </profile_COMMON>
    </effect>
    <effect id="Wand-effect">
      <profile_COMMON>
        <newparam sid="wandverkleidung_512_jpg-surface">
          <surface type="2D">
            <init_from>wandverkleidung_512_jpg</init_from>
          </surface>
        </newparam>
        <newparam sid="wandverkleidung_512_jpg-sampler">
          <sampler2D>
            <source>wandverkleidung_512_jpg-surface</source>
          </sampler2D>
        </newparam>
        <technique sid="common">
          <lambert>
            <emission>
              <color sid="emission">0 0 0 1</color>
            </emission>
            <ambient>
              <color sid="ambient">0 0 0 1</color>
            </ambient>
            <diffuse>
              <texture texture="wandverkleidung_512_jpg-sampler"/>
            </diffuse>
            <index_of_refraction>
              <float sid="index_of_refraction">1</float>
            </index_of_refraction>
          </lambert>
        </technique>
      </profile_COMMON>
    </effect>
    <effect id="Boden-effect">
      <profile_COMMON>
        <newparam sid="PVC_BODEN_jpg-surface">
          <surface type="2D">
            <init_from>PVC_BODEN_jpg</init_from>
          </surface>
        </newparam>
        <newparam sid="PVC_BODEN_jpg-sampler">
          <sampler2D>
            <source>PVC_BODEN_jpg-surface</source>
          </sampler2D>
        </newparam>
        <technique sid="common">
          <phong>
            <emission>
              <color sid="emission">0 0 0 1</color>
            </emission>
            <ambient>
              <color sid="ambient">0 0 0 1</color>
            </ambient>
            <diffuse>
              <texture texture="PVC_BODEN_jpg-sampler"/>
            </diffuse>
            <specular>
              <color sid="specular">0.07894737 0.07894737 0.07894737 1</color>
            </specular>
            <shininess>
              <float sid="shininess">50</float>
            </shininess>
            <index_of_refraction>
              <float sid="index_of_refraction">1</float>
            </index_of_refraction>
          </phong>
        </technique>
      </profile_COMMON>
    </effect>
  </library_effects>
  <library_materials>
    <material id="Decke-material" name="Decke">
      <instance_effect url="#Decke-effect"/>
    </material>
    <material id="Wand-material" name="Wand">
      <instance_effect url="#Wand-effect"/>
    </material>
    <material id="Boden-material" name="Boden">
      <instance_effect url="#Boden-effect"/>
    </material>
  </library_materials>
  <library_geometries>
    <geometry id="Cube-mesh" name="Cube">
      <mesh>
        <source id="Cube-mesh-positions">
          <float_array id="Cube-mesh-positions-array" count="12">1 1 -1 1 -1 -1 -1 -0.9999998 -1 -0.9999997 1 -1</float_array>
          <technique_common>
            <accessor source="#Cube-mesh-positions-array" count="4" stride="3">
              <param name="X" type="float"/>
              <param name="Y" type="float"/>
              <param name="Z" type="float"/>
            </accessor>
          </technique_common>
        </source>
        <source id="Cube-mesh-normals">
          <float_array id="Cube-mesh-normals-array" count="3">0 0 -1</float_array>
          <technique_common>
            <accessor source="#Cube-mesh-normals-array" count="1" stride="3">
              <param name="X" type="float"/>
              <param name="Y" type="float"/>
              <param name="Z" type="float"/>
            </accessor>
          </technique_common>
        </source>
        <vertices id="Cube-mesh-vertices">
          <input semantic="POSITION" source="#Cube-mesh-positions"/>
        </vertices>
        <polylist material="Boden-material" count="1">
          <input semantic="VERTEX" source="#Cube-mesh-vertices" offset="0"/>
          <input semantic="NORMAL" source="#Cube-mesh-normals" offset="1"/>
          <vcount>4 </vcount>
          <p>0 0 1 0 2 0 3 0</p>
        </polylist>
      </mesh>
    </geometry>
  </library_geometries>
  <library_controllers/>
  <library_visual_scenes>
    <visual_scene id="Scene" name="Scene">
      <node id="Boden" name="Boden" type="NODE">
        <matrix sid="transform">8.863317 0 0 -1.734824 0 6.905429 0 -1.831858 0 0 4.512693 4.715188 0 0 0 1</matrix>
        <instance_geometry url="#Cube-mesh" name="Boden">
          <bind_material>
            <technique_common>
              <instance_material symbol="Decke-material" target="#Decke-material"/>
              <instance_material symbol="Wand-material" target="#Wand-material"/>
              <instance_material symbol="Boden-material" target="#Boden-material"/>
            </technique_common>
          </bind_material>
        </instance_geometry>
      </node>
    </visual_scene>
  </library_visual_scenes>
  <scene>
    <instance_visual_scene url="#Scene"/>
  </scene>
</COLLADA>