<?xml version="1.0" encoding="utf-8"?>
<COLLADA xmlns="http://www.collada.org/2005/11/COLLADASchema" version="1.4.1">
  <asset>
    <contributor>
      <author>Blender User</author>
      <authoring_tool>Blender 2.76.0 commit date:2015-10-09, commit time:12:01, hash:a3cf9c5</authoring_tool>
    </contributor>
    <created>2015-10-29T11:01:25</created>
    <modified>2015-10-29T11:01:25</modified>
    <unit name="meter" meter="1"/>
    <up_axis>Z_UP</up_axis>
  </asset>
  <library_images/>
  <library_effects>
    <effect id="SchrankFarbe1-effect">
      <profile_COMMON>
        <technique sid="common">
          <phong>
            <emission>
              <color sid="emission">0 0 0 1</color>
            </emission>
            <ambient>
              <color sid="ambient">0 0 0 1</color>
            </ambient>
            <diffuse>
              <color sid="diffuse">1 1 1 1</color>
            </diffuse>
            <specular>
              <color sid="specular">0.4791667 0.4791667 0.4791667 1</color>
            </specular>
            <shininess>
              <float sid="shininess">1</float>
            </shininess>
            <transparency>
              <float sid="transparency">1</float>
            </transparency>
            <index_of_refraction>
              <float sid="index_of_refraction">1</float>
            </index_of_refraction>
          </phong>
        </technique>
      </profile_COMMON>
    </effect>
    <effect id="SchrankFarbe2-effect">
      <profile_COMMON>
        <technique sid="common">
          <lambert>
            <emission>
              <color sid="emission">0 0 0 1</color>
            </emission>
            <ambient>
              <color sid="ambient">0 0 0 1</color>
            </ambient>
            <diffuse>
              <color sid="diffuse">0.2242085 0.2242085 0.2242085 1</color>
            </diffuse>
            <index_of_refraction>
              <float sid="index_of_refraction">1</float>
            </index_of_refraction>
          </lambert>
        </technique>
      </profile_COMMON>
    </effect>
    <effect id="SchrankInnenFarbe-effect">
      <profile_COMMON>
        <technique sid="common">
          <lambert>
            <emission>
              <color sid="emission">0 0 0 1</color>
            </emission>
            <ambient>
              <color sid="ambient">0 0 0 1</color>
            </ambient>
            <diffuse>
              <color sid="diffuse">0.3074997 0.3074997 0.3074997 1</color>
            </diffuse>
            <index_of_refraction>
              <float sid="index_of_refraction">1</float>
            </index_of_refraction>
          </lambert>
        </technique>
      </profile_COMMON>
    </effect>
    <effect id="SchrankGlasFarbe-effect">
      <profile_COMMON>
        <technique sid="common">
          <phong>
            <emission>
              <color sid="emission">0 0 0 1</color>
            </emission>
            <ambient>
              <color sid="ambient">0 0 0 1</color>
            </ambient>
            <diffuse>
              <color sid="diffuse">0.09282804 0.4230673 0.64 1</color>
            </diffuse>
            <specular>
              <color sid="specular">0.9105263 0.9105263 0.9105263 1</color>
            </specular>
            <shininess>
              <float sid="shininess">8</float>
            </shininess>
            <reflective>
              <color>1 1 1 1</color>
            </reflective>
            <reflectivity>
              <float>0.2604167</float>
            </reflectivity>
            <transparency>
              <float sid="transparency">1</float>
            </transparency>
            <index_of_refraction>
              <float sid="index_of_refraction">1</float>
            </index_of_refraction>
          </phong>
        </technique>
      </profile_COMMON>
    </effect>
  </library_effects>
  <library_materials>
    <material id="SchrankFarbe1-material" name="SchrankFarbe1">
      <instance_effect url="#SchrankFarbe1-effect"/>
    </material>
    <material id="SchrankFarbe2-material" name="SchrankFarbe2">
      <instance_effect url="#SchrankFarbe2-effect"/>
    </material>
    <material id="SchrankInnenFarbe-material" name="SchrankInnenFarbe">
      <instance_effect url="#SchrankInnenFarbe-effect"/>
    </material>
    <material id="SchrankGlasFarbe-material" name="SchrankGlasFarbe">
      <instance_effect url="#SchrankGlasFarbe-effect"/>
    </material>
  </library_materials>
  <library_geometries>
    <geometry id="Cube_003-mesh" name="Cube.003">
      <mesh>
        <source id="Cube_003-mesh-positions">
          <float_array id="Cube_003-mesh-positions-array" count="24">0.8698941 2.924659 0.1012709 0.8698943 2.924658 4.149275 0.8698934 -2.928751 0.09541249 0.8698932 -2.928752 4.155133 0.8698938 -0.1894206 4.155133 0.8698938 -0.1894199 0.09541249 0.8698939 0.1893831 4.149275 0.8698938 0.1893838 0.1012709</float_array>
          <technique_common>
            <accessor source="#Cube_003-mesh-positions-array" count="8" stride="3">
              <param name="X" type="float"/>
              <param name="Y" type="float"/>
              <param name="Z" type="float"/>
            </accessor>
          </technique_common>
        </source>
        <source id="Cube_003-mesh-normals">
          <float_array id="Cube_003-mesh-normals-array" count="6">1 -1.7151e-7 0 1 -1.50729e-7 0</float_array>
          <technique_common>
            <accessor source="#Cube_003-mesh-normals-array" count="2" stride="3">
              <param name="X" type="float"/>
              <param name="Y" type="float"/>
              <param name="Z" type="float"/>
            </accessor>
          </technique_common>
        </source>
        <vertices id="Cube_003-mesh-vertices">
          <input semantic="POSITION" source="#Cube_003-mesh-positions"/>
        </vertices>
        <polylist material="SchrankGlasFarbe-material" count="2">
          <input semantic="VERTEX" source="#Cube_003-mesh-vertices" offset="0"/>
          <input semantic="NORMAL" source="#Cube_003-mesh-normals" offset="1"/>
          <vcount>4 4 </vcount>
          <p>5 0 4 0 3 0 2 0 0 1 1 1 6 1 7 1</p>
        </polylist>
      </mesh>
    </geometry>
  </library_geometries>
  <library_controllers/>
  <library_visual_scenes>
    <visual_scene id="Scene" name="Scene">
      <node id="LaborschrankGläser" name="LaborschrankGläser" type="NODE">
        <matrix sid="transform">0.9334499 0 0 -9.571761 0 0.9334499 0 1.754428 0 0 0.9750938 4.509951 0 0 0 1</matrix>
        <instance_geometry url="#Cube_003-mesh" name="LaborschrankGläser">
          <bind_material>
            <technique_common>
              <instance_material symbol="SchrankFarbe1-material" target="#SchrankFarbe1-material"/>
              <instance_material symbol="SchrankFarbe2-material" target="#SchrankFarbe2-material"/>
              <instance_material symbol="SchrankInnenFarbe-material" target="#SchrankInnenFarbe-material"/>
              <instance_material symbol="SchrankGlasFarbe-material" target="#SchrankGlasFarbe-material"/>
            </technique_common>
          </bind_material>
        </instance_geometry>
      </node>
    </visual_scene>
  </library_visual_scenes>
  <scene>
    <instance_visual_scene url="#Scene"/>
  </scene>
</COLLADA>