<?xml version="1.0" encoding="utf-8"?>
<COLLADA xmlns="http://www.collada.org/2005/11/COLLADASchema" version="1.4.1">
  <asset>
    <contributor>
      <author>Blender User</author>
      <authoring_tool>Blender 2.77.0 commit date:2016-04-05, commit time:18:12, hash:abf6f08</authoring_tool>
    </contributor>
    <created>2017-03-02T13:30:57</created>
    <modified>2017-03-02T13:30:57</modified>
    <unit name="meter" meter="1"/>
    <up_axis>Z_UP</up_axis>
  </asset>
  <library_cameras>
    <camera id="Camera-camera" name="Camera">
      <optics>
        <technique_common>
          <perspective>
            <xfov sid="xfov">49.13434</xfov>
            <aspect_ratio>1.777778</aspect_ratio>
            <znear sid="znear">0.1</znear>
            <zfar sid="zfar">100</zfar>
          </perspective>
        </technique_common>
      </optics>
      <extra>
        <technique profile="blender">
          <YF_dofdist>0</YF_dofdist>
          <shiftx>0</shiftx>
          <shifty>0</shifty>
        </technique>
      </extra>
    </camera>
  </library_cameras>
  <library_lights>
    <light id="Lamp-light" name="Lamp">
      <technique_common>
        <point>
          <color sid="color">1 1 1</color>
          <constant_attenuation>1</constant_attenuation>
          <linear_attenuation>0</linear_attenuation>
          <quadratic_attenuation>0.00111109</quadratic_attenuation>
        </point>
      </technique_common>
      <extra>
        <technique profile="blender">
          <adapt_thresh>0.000999987</adapt_thresh>
          <area_shape>1</area_shape>
          <area_size>0.1</area_size>
          <area_sizey>0.1</area_sizey>
          <area_sizez>1</area_sizez>
          <atm_distance_factor>1</atm_distance_factor>
          <atm_extinction_factor>1</atm_extinction_factor>
          <atm_turbidity>2</atm_turbidity>
          <att1>0</att1>
          <att2>1</att2>
          <backscattered_light>1</backscattered_light>
          <bias>1</bias>
          <blue>1</blue>
          <buffers>1</buffers>
          <bufflag>0</bufflag>
          <bufsize>2880</bufsize>
          <buftype>2</buftype>
          <clipend>30.002</clipend>
          <clipsta>1.000799</clipsta>
          <compressthresh>0.04999995</compressthresh>
          <dist sid="blender_dist">29.99998</dist>
          <energy sid="blender_energy">1</energy>
          <falloff_type>2</falloff_type>
          <filtertype>0</filtertype>
          <flag>0</flag>
          <gamma sid="blender_gamma">1</gamma>
          <green>1</green>
          <halo_intensity sid="blnder_halo_intensity">1</halo_intensity>
          <horizon_brightness>1</horizon_brightness>
          <mode>8192</mode>
          <ray_samp>1</ray_samp>
          <ray_samp_method>1</ray_samp_method>
          <ray_samp_type>0</ray_samp_type>
          <ray_sampy>1</ray_sampy>
          <ray_sampz>1</ray_sampz>
          <red>1</red>
          <samp>3</samp>
          <shadhalostep>0</shadhalostep>
          <shadow_b sid="blender_shadow_b">0</shadow_b>
          <shadow_g sid="blender_shadow_g">0</shadow_g>
          <shadow_r sid="blender_shadow_r">0</shadow_r>
          <sky_colorspace>0</sky_colorspace>
          <sky_exposure>1</sky_exposure>
          <skyblendfac>1</skyblendfac>
          <skyblendtype>1</skyblendtype>
          <soft>3</soft>
          <spotblend>0.15</spotblend>
          <spotsize>75</spotsize>
          <spread>1</spread>
          <sun_brightness>1</sun_brightness>
          <sun_effect_type>0</sun_effect_type>
          <sun_intensity>1</sun_intensity>
          <sun_size>1</sun_size>
          <type>0</type>
        </technique>
      </extra>
    </light>
  </library_lights>
  <library_images/>
  <library_effects>
    <effect id="PBRFULL_Schrank-effect">
      <profile_COMMON>
        <technique sid="common">
          <phong>
            <emission>
              <color sid="emission">0 0 0 1</color>
            </emission>
            <ambient>
              <color sid="ambient">0 0 0 1</color>
            </ambient>
            <diffuse>
              <color sid="diffuse">0.64 0.64 0.64 1</color>
            </diffuse>
            <specular>
              <color sid="specular">0.5 0.5 0.5 1</color>
            </specular>
            <shininess>
              <float sid="shininess">50</float>
            </shininess>
            <index_of_refraction>
              <float sid="index_of_refraction">1</float>
            </index_of_refraction>
          </phong>
        </technique>
      </profile_COMMON>
    </effect>
    <effect id="PBRFULL_SchrankGlas-effect">
      <profile_COMMON>
        <technique sid="common">
          <phong>
            <emission>
              <color sid="emission">0 0 0 1</color>
            </emission>
            <ambient>
              <color sid="ambient">0 0 0 1</color>
            </ambient>
            <diffuse>
              <color sid="diffuse">0.787921 0.7759485 0.8 1</color>
            </diffuse>
            <specular>
              <color sid="specular">0.4552631 0.4552631 0.4552631 1</color>
            </specular>
            <shininess>
              <float sid="shininess">8</float>
            </shininess>
            <index_of_refraction>
              <float sid="index_of_refraction">1</float>
            </index_of_refraction>
          </phong>
        </technique>
      </profile_COMMON>
    </effect>
  </library_effects>
  <library_materials>
    <material id="PBRFULL_Schrank-material" name="PBRFULL_Schrank">
      <instance_effect url="#PBRFULL_Schrank-effect"/>
    </material>
    <material id="PBRFULL_SchrankGlas-material" name="PBRFULL_SchrankGlas">
      <instance_effect url="#PBRFULL_SchrankGlas-effect"/>
    </material>
  </library_materials>
  <library_geometries>
    <geometry id="Cube_004-mesh" name="Cube.004">
      <mesh>
        <source id="Cube_004-mesh-positions">
          <float_array id="Cube_004-mesh-positions-array" count="402">1 3.275777 -4.422579 1 -3.275777 -4.422579 -1 -3.275776 -4.422579 -0.9999997 3.275778 -4.422579 1 3.275775 4.422579 0.9999994 -3.275779 4.422579 -1 -3.275775 4.422579 -1 3.275777 4.422579 1 2.952512 -4.236483 1 -2.952512 -4.236483 1 2.95251 4.236483 0.9999994 -2.952514 4.236483 1 3.275776 0 0.9999997 -3.275778 0 -1 -3.275776 0 -0.9999998 3.275778 0 1 2.952511 0 0.9999997 -2.952513 0 1 -0.09390914 -4.422579 -0.9999999 -0.09390795 -4.422579 0.9999999 -0.09391081 4.422579 -1 -0.09390842 4.422579 1 -0.09390914 -4.236483 1 -0.09391081 4.236483 1 -0.09391009 0 -1 -0.09390819 0 -0.9999999 0.1087121 -4.422579 -1 0.1087117 4.422579 -1 0.1087118 0 1 0.108711 -4.422579 1 0.1087093 4.422579 1 0.08987993 -4.236483 1 0.08987826 4.236483 1 0.08987897 0 1 3.275776 -0.2787687 0.9999997 -3.275778 -0.2787687 -1 -3.275776 -0.2787687 -0.9999998 3.275778 -0.2787687 1 2.952511 -0.2670385 0.9999997 -2.952513 -0.2670385 -1 -0.09390813 -0.2787687 1 -0.09391003 -0.2670385 1 0.08987903 -0.2670385 -1 0.1087118 -0.2787687 1 2.857364 0.1408108 1 2.857363 4.095672 0.9999997 -2.861361 0.1350872 0.9999994 -2.861362 4.101396 1 -0.185062 4.101396 1 -0.1850613 0.1350872 1 0.1850255 4.095672 1 0.1850261 0.1408108 0.8498782 2.857364 0.1408108 0.8498784 2.857363 4.095672 0.8498776 -2.861361 0.1350872 0.8498774 -2.861362 4.101396 0.8498779 -0.185062 4.101396 0.8498779 -0.1850613 0.1350872 0.849878 0.1850256 4.095672 0.8498779 0.1850262 0.1408108 1.055196 -0.09390914 -4.236483 1.055196 -2.952512 -4.236483 1.055196 -0.09391003 -0.2670385 1.055196 2.952512 -4.236483 1.055196 0.08987993 -4.236483 1.055196 0.08987903 -0.2670385 1.055196 2.952511 -0.2670385 1.055196 -2.952513 -0.2670385 1.03126 2.952511 0 1.03126 2.95251 4.236483 1.03126 -2.952513 0 1.03126 -2.952514 4.236483 1.03126 -0.09391081 4.236483 1.03126 -0.09391009 0 1.03126 0.08987826 4.236483 1.03126 0.08987897 0 1.03126 2.857364 0.1408108 1.03126 2.857363 4.095672 1.03126 -2.861361 0.1350872 1.03126 -2.861362 4.101396 1.03126 -0.185062 4.101396 1.03126 -0.1850613 0.1350872 1.03126 0.1850255 4.095672 1.03126 0.1850261 0.1408108 -0.8970101 2.952511 0 -0.8970107 -2.952513 0 -0.8970104 -0.09391009 0 -0.8970104 0.08987897 0 1 2.952511 4.381564 0.9999997 -2.952513 4.381564 -0.8970101 2.952511 4.381564 -0.8970107 -2.952513 4.381564 -0.8970104 -0.09391009 4.381564 -0.8970104 0.08987897 4.381564 -0.8970101 2.952511 1.342429 -0.8970104 0.08987897 1.342429 -0.8970104 -0.09391009 1.342429 1 2.952511 1.342429 -0.8970107 -2.952513 1.342429 0.9999997 -2.952513 1.342429 -0.8970104 0.08987897 2.861996 -0.8970104 -0.09391009 2.861996 -0.8970107 -2.952513 2.861996 0.9999997 -2.952513 2.861996 -0.8970101 2.952511 2.861996 1 2.952511 2.861996 -0.8970101 2.952511 1.185744 1 2.952511 1.185744 -0.8970104 0.08987897 1.185744 -0.8970104 -0.09391009 1.185744 -0.8970107 -2.952513 1.185744 0.9999997 -2.952513 1.185744 -0.8970101 2.952511 2.710484 1 2.952511 2.710484 -0.8970104 0.08987897 2.710484 -0.8970104 -0.09391009 2.710484 -0.8970107 -2.952513 2.710484 0.9999997 -2.952513 2.710484 0.7694195 0.08987885 1.185744 0.7694195 0.08987885 1.342429 0.7694195 -0.09391021 1.185744 0.7694195 -0.09391021 1.342429 0.7694192 -2.952513 1.185744 0.7694192 -2.952513 1.342429 0.7694198 2.952511 1.342429 0.7694195 0.08987885 2.710484 0.7694195 0.08987885 2.861996 0.7694195 -0.09391021 2.710484 0.7694195 -0.09391021 2.861996 0.7694192 -2.952513 2.710484 0.7694192 -2.952513 2.861996 0.7694198 2.952511 2.861996 0.7694198 2.952511 1.185744 0.7694198 2.952511 2.710484</float_array>
          <technique_common>
            <accessor source="#Cube_004-mesh-positions-array" count="134" stride="3">
              <param name="X" type="float"/>
              <param name="Y" type="float"/>
              <param name="Z" type="float"/>
            </accessor>
          </technique_common>
        </source>
        <source id="Cube_004-mesh-normals">
          <float_array id="Cube_004-mesh-normals-array" count="342">2.99722e-7 0 -1 2.38566e-7 0 1 1 0 0 -1.07288e-6 -1 -2.15638e-7 -1 0 0 1.07288e-6 1 3.45216e-7 1 -1.68067e-7 6.40582e-7 1 0 0 1 1.4592e-7 0 1 0 0 1.07288e-6 1 2.15638e-7 -1 0 0 -1.07288e-6 -1 0 -1 0 0 1 -7.90369e-7 0 -1.60035e-7 0 1 0 0 -1 3.01122e-7 0 -1 0 0 1 -1 0 0 -1 0 0 1 -3.55968e-7 0 -5.96046e-7 -1 -2.30144e-7 -1 0 0 1.07288e-6 1 0 1 0 0 0 -1 0 1 0 0 0 1 0 -0.07625663 0 -0.9970883 -0.07615858 0.05046898 -0.9958177 1 0 0 1 -1.40678e-7 0 1 0 0 1 -1.21931e-7 0 0 1 1.72294e-7 0 -1 -1.72764e-7 0 0 1 0 1 2.72046e-7 0 -1 -1.75181e-7 0 0 1 0 -1 -2.25032e-7 0 -1 -1.68778e-7 0 1 2.25037e-7 0 -1 -2.00787e-7 6.94823e-7 1 1.5059e-7 0 1 3.00311e-7 0 -1 -2.29539e-7 0 -1 -2.72045e-7 0 1 2.25288e-7 1 -5.17544e-7 0 1 7.7176e-7 0 1 -3.69674e-7 0 1 2.31526e-7 0 0 1 1.50664e-7 0 -1 -2.41062e-7 0 1 3.60545e-7 -1.63852e-7 0 -1 0 0 -1 1 -1.33076e-7 0 1 0 0 1 -1.37619e-7 0 1 0 0 0 0 1 0 0 -1 0 0 -1 0 0 1 -1.41402e-7 0 -1 -2.02656e-6 -1 2.15638e-7 4.76837e-7 1 0 1 -1.50991e-7 -2.60321e-7 1 3.55968e-7 0 1 0 0 1 -1.56165e-7 0 1.07288e-6 1 1.32446e-7 -1.07288e-6 -1 0 1 0 6.40581e-7 2.64385e-7 0 -1 -2.66913e-7 0 -1 -1 0 0 -1.07288e-6 -1 0 -1 0 0 1 0 0 1 0 0 -0.07625555 0 -0.9970884 -0.07615882 -0.05053997 -0.9958141 1 -1.4048e-7 0 1 0 0 1 -1.21759e-7 0 1 -1.21931e-7 0 0 1 1.68779e-7 0 -1 -1.80275e-7 0 1 2.72045e-7 0 -1 -1.75181e-7 0 -1 -2.25037e-7 0 -1 -1.68779e-7 0 1 2.25039e-7 0 -1 -2.86706e-7 6.94822e-7 1 1.51583e-7 2.62459e-6 0 -1 0 1 2.83476e-7 0 -1 -2.25288e-7 0 -1 -1.36023e-7 0 1 2.25288e-7 0 1 1.50665e-7 0 -1 -2.41063e-7 0 1 2.40362e-7 1.94614e-7 0 -1 0 0 1 1 0 0 1 -1.32888e-7 0 1 0 0 1 0 0 1.4304e-7 0 1</float_array>
          <technique_common>
            <accessor source="#Cube_004-mesh-normals-array" count="114" stride="3">
              <param name="X" type="float"/>
              <param name="Y" type="float"/>
              <param name="Z" type="float"/>
            </accessor>
          </technique_common>
        </source>
        <source id="Cube_004-mesh-map-0">
          <float_array id="Cube_004-mesh-map-0-array" count="1524">0.1002241 0.6286423 0.200446 0.4623289 0.200446 0.6286424 0 0.6384596 0.1002241 0.8047728 0 0.804773 0.3283118 0.2311644 0.3445113 0.00972706 0.3445113 0.2311644 0.7568476 0.4623287 0.6566236 0.2311643 0.7568476 0.2311643 0.1696036 0.2311644 0.3283117 0 0.3283118 0.2311644 0.8570717 0.4623287 0.7568477 0.2457354 0.8570717 0.2457354 0.48702 0.4623288 0.3445113 0.4526018 0.4879636 0.4526017 0.4971737 0 0.6404241 0.009727001 0.4971737 0.00972706 0.6566236 0.2457354 0.6404241 0.4526017 0.6404241 0.2451222 0.6566236 0.2311643 0.6404241 0.009727001 0.6566236 0 0.4971737 0.2311644 0.6404241 0.2451222 0.4971737 0.2451223 0.8570718 0.2311643 0.7568477 0 0.8570718 0 0.1696036 0.2311644 0.3283118 0.2457354 0.1696036 0.2457354 0.7568476 0.2311643 0.6566236 0.2165933 0.7568476 0.2165934 0.3283118 0.2311644 0.3445113 0.2451223 0.3283118 0.2457354 0 0.2457354 0.1594499 0.2311644 0.1594499 0.2457354 0.4879636 0.2311644 0.4971737 0.2451223 0.4879636 0.2451223 0.4971737 0 0.4879636 0.00972706 0.48702 0 0.4971737 0.4623288 0.6404241 0.4526017 0.6566236 0.4623287 0.4879636 0.00972706 0.4971737 0.2311644 0.4879636 0.2311644 0 0 0.1594499 0.2311644 0 0.2311645 0 0.6278688 0.1002241 0.6384594 0 0.6384596 0.1002241 0.6392331 0.200446 0.6286424 0.200446 0.6392332 0.1002241 0.8047729 0.200446 0.6392332 0.2004459 0.804773 0 0.462329 0.1002241 0.6278687 0 0.6278688 0.48702 0 0.3445113 0.00972706 0.3283118 0 0.3445113 0.2311644 0.4879636 0.2451223 0.3445113 0.2451223 0.1594499 0.2457354 0.1696036 0.2311644 0.1696036 0.2457354 0.4971737 0.4623288 0.4879636 0.4526017 0.4971737 0.4526017 0.1594498 0 0.1696036 0.2311644 0.1594499 0.2311644 0.1594499 0.2457354 0.1696036 0.4623288 0.1594499 0.4623288 0.4879636 0.2451223 0.4971737 0.4526017 0.4879636 0.4526017 0 0.4623289 0.1594499 0.2457354 0.1594499 0.4623288 0.3283118 0.2457354 0.3445113 0.4526018 0.3283118 0.4623289 0.7568476 0.2165934 0.6566236 0 0.7568477 0 0.1696036 0.4623288 0.3283118 0.2457354 0.3283118 0.4623287 0.6566236 0.2311643 0.6404241 0.2451222 0.6404241 0.2311643 0.8570717 0.2457354 0.7568477 0.2311643 0.8570718 0.2311643 0.3674588 0.9924167 0.4436074 0.8427894 0.4436075 0.9924167 0.3674587 0.8427894 0.4436074 0.8331829 0.4436074 0.8427894 0.7272287 0.7709794 0.8222917 0.8504059 0.7272287 0.8504059 0.3674587 0.8331829 0.4436073 0.6837662 0.4436074 0.8331829 0.4871488 0.7709794 0.5822119 0.8504059 0.4871488 0.8504059 0.8223379 0.6117456 0.7272287 0.621352 0.7272287 0.6117455 0.8223379 0.6117456 0.7272769 0.4623289 0.8223379 0.4623289 0.8223379 0.6213521 0.7272769 0.7709794 0.7272287 0.621352 0.4871488 0.9298324 0.5822119 0.9380221 0.4871488 0.9380222 0.007851779 0.804773 0 0.8918759 0 0.804773 0.7272287 0.9298324 0.8222917 0.9380221 0.7272287 0.9380222 0.02329617 0.804773 0.01570361 0.8918759 0.01570361 0.8047731 0.4871488 0.8504059 0.5822119 0.8583253 0.4871488 0.8583253 0.7272287 0.8504059 0.8222917 0.8583253 0.7272287 0.8583253 0.94058 0.3086506 1 0.1590232 1 0.3086505 0.94058 0.1590232 1 0.1494167 1 0.1590232 0.7272287 0.9380222 0.8222917 1 0.7272287 1 0.94058 0.1494167 1 0 1 0.1494167 0.4871488 0.9380222 0.5822119 1 0.4871489 1 0.9058461 0.7709794 0.9744021 0.6213521 0.9744021 0.7709794 0.9058461 0.6213521 0.9744021 0.6117456 0.9744021 0.6213521 0.7272287 0.8583253 0.8222917 0.9298323 0.7272287 0.9298324 0.9058461 0.6117456 0.974402 0.4623289 0.9744021 0.6117456 0.4871488 0.8583253 0.5822119 0.9298324 0.4871488 0.9298324 0.03088873 0.804773 0.02329617 0.8918759 0.02329617 0.8047731 0.01570361 0.804773 0.007851779 0.8918759 0.007851779 0.804773 0.8728923 0.7709794 0.8744587 0.9924167 0.8728922 0.9924167 0.4756643 0.6837662 0.4772309 0.8910818 0.4756644 0.8910818 0.8661612 0.3086505 0.8689272 0.4582778 0.8661612 0.4582778 0.8614611 0.7709794 0.8642271 0.9784588 0.8614611 0.9784588 0.4756644 0.8910818 0.4681414 0.6837662 0.4756643 0.6837662 0.8480394 0.9106602 0.8405165 0.7709794 0.8480394 0.7709794 0.8713257 0.9924167 0.8697592 0.7709794 0.8713257 0.7709794 0.8760252 0.9924167 0.8744587 0.7709794 0.8760252 0.7709794 0.8713257 0.7709794 0.8728923 0.9924167 0.8713257 0.9924167 0.8645946 0.3086505 0.8661612 0.4485384 0.8645947 0.4485384 0.5822098 0.6215627 0.5837763 0.7709794 0.5822098 0.7709794 0.83895 0.7709794 0.8405165 0.9108673 0.83895 0.9108673 0.83895 0.9108673 0.8314272 0.7709794 0.83895 0.7709794 0.8239043 0.7709794 0.8314272 0.9776965 0.8239043 0.9776965 0.4787973 0.6837662 0.4863203 0.8904834 0.4787974 0.8904834 0.8571286 0.7709794 0.8496059 0.9106602 0.8496059 0.7709794 0.8645947 0.4485384 0.8570717 0.3086505 0.8645946 0.3086505 0.4606184 0.6837662 0.4681414 0.8910817 0.4606185 0.8910817 0.5837763 0.4623289 0.7272287 0.6698083 0.5837763 0.6698084 0.7270267 0.8772879 0.5837764 0.6698084 0.7270268 0.6698084 0.8689272 0.3086505 0.8716931 0.4582778 0.8689272 0.4582778 0.8697592 0.9784588 0.8669931 0.7709794 0.8697592 0.7709794 0.8614611 0.9784588 0.8586951 0.7709794 0.8614611 0.7709794 0.8744592 0.3086505 0.8772251 0.4580672 0.8744592 0.4580672 0.8642271 0.7709794 0.8669931 0.9784588 0.8642271 0.9784588 0.8716931 0.3086505 0.8744592 0.4580672 0.8716931 0.4580672 0.3438984 0.4623289 0.205214 0.4696889 0.200446 0.4623289 0.3438983 0.6837663 0.3391304 0.469689 0.3438984 0.4623289 0.4871488 0.6837662 0.482581 0.4693897 0.4871488 0.4623289 0.4871488 0.4623289 0.3484662 0.4693897 0.3438984 0.4623289 0.200446 0.4623289 0.205214 0.6764062 0.200446 0.6837662 0.3438984 0.4623289 0.3484662 0.6767053 0.3438984 0.6837662 0.200446 0.6837662 0.3391303 0.6764062 0.3438983 0.6837663 0.4871488 0.6837662 0.3484662 0.6767053 0.482581 0.6767053 0.8571286 0.7709794 0.8586951 0.9106602 0.8571286 0.9106602 0.8803581 0.4580672 0.8787916 0.3086505 0.8803581 0.3086505 0.8480394 0.7709794 0.8496059 0.9106602 0.8480394 0.9106602 0.4787974 0.8904834 0.4772309 0.6837662 0.4787973 0.6837662 0.8772251 0.3086505 0.8787916 0.4582778 0.8772251 0.4582778 0.8239043 0.9776965 0.8223378 0.7709794 0.8239043 0.7709794 0.5822098 0.4623289 0.5837762 0.6119562 0.5822098 0.6119562 0.4606185 0.8910817 0.4590519 0.6837662 0.4606184 0.6837662 0.5822098 0.6119562 0.4871488 0.4623289 0.5822098 0.4623289 0.5822098 0.7709794 0.4871488 0.6215627 0.5822098 0.6215627 0.5822098 0.6119562 0.4871488 0.6215627 0.4871488 0.6119562 0.8570717 0.1494167 0.9405799 0 0.9405799 0.1494167 0.2839524 0.8333935 0.3674587 0.843 0.2839524 0.843 0.8223379 0.7709794 0.905846 0.6213521 0.905846 0.7709794 0.2839524 0.6837662 0.3674587 0.8333935 0.2839524 0.8333935 0.4514592 0.843 0.4436075 0.9924167 0.4436075 0.843 0.4514592 0.8333935 0.4436075 0.843 0.4436075 0.8333935 0.4514592 0.6837662 0.4436075 0.8333935 0.4436074 0.6837662 0.4514593 0.8331829 0.4590519 0.6837662 0.4590519 0.8331829 0.4514593 0.8427894 0.4590519 0.8331829 0.4590519 0.8427894 0.4514594 0.9924167 0.4590519 0.8427894 0.4590519 0.9924167 0.2839524 0.843 0.3674587 0.9924167 0.2839524 0.9924167 0.8570717 0.1494167 0.9405799 0.1590232 0.8570717 0.1590232 0.200446 0.6837662 0.2839524 0.8333935 0.200446 0.8333935 0.8570718 0.3086505 0.9405799 0.1590232 0.94058 0.3086505 0.200446 0.8333935 0.2839524 0.843 0.200446 0.843 0.8223378 0.6117456 0.905846 0.4623289 0.905846 0.6117456 0.200446 0.843 0.2839523 0.9924167 0.200446 0.9924167 0.8223378 0.6117456 0.905846 0.6213521 0.8223378 0.6213521 0.1002241 0.6286423 0.1002241 0.4623289 0.200446 0.4623289 0 0.6384596 0.1002241 0.6384594 0.1002241 0.8047728 0.3283118 0.2311644 0.3283118 0 0.3445113 0.00972706 0.7568476 0.4623287 0.6566236 0.4623288 0.6566236 0.2311643 0.1696036 0.2311644 0.1696035 0 0.3283117 0 0.8570717 0.4623287 0.7568476 0.4623287 0.7568477 0.2457354 0.48702 0.4623288 0.3283118 0.4623289 0.3445113 0.4526018 0.4971737 0 0.6566236 0 0.6404241 0.009727001 0.6566236 0.2457354 0.6566236 0.4623287 0.6404241 0.4526017 0.6566236 0.2311643 0.6404241 0.2311643 0.6404241 0.009727001 0.4971737 0.2311644 0.6404241 0.2311643 0.6404241 0.2451222 0.8570718 0.2311643 0.7568477 0.2311643 0.7568477 0 0.1696036 0.2311644 0.3283118 0.2311644 0.3283118 0.2457354 0.7568476 0.2311643 0.6566236 0.2311643 0.6566236 0.2165933 0.3283118 0.2311644 0.3445113 0.2311644 0.3445113 0.2451223 0 0.2457354 0 0.2311645 0.1594499 0.2311644 0.4879636 0.2311644 0.4971737 0.2311644 0.4971737 0.2451223 0.4971737 0 0.4971737 0.00972706 0.4879636 0.00972706 0.4971737 0.4623288 0.4971737 0.4526017 0.6404241 0.4526017 0.4879636 0.00972706 0.4971737 0.00972706 0.4971737 0.2311644 0 0 0.1594498 0 0.1594499 0.2311644 0 0.6278688 0.1002241 0.6278687 0.1002241 0.6384594 0.1002241 0.6392331 0.1002241 0.6286423 0.200446 0.6286424 0.1002241 0.8047729 0.1002241 0.6392331 0.200446 0.6392332 0 0.462329 0.100224 0.4623289 0.1002241 0.6278687 0.48702 0 0.4879636 0.00972706 0.3445113 0.00972706 0.3445113 0.2311644 0.4879636 0.2311644 0.4879636 0.2451223 0.1594499 0.2457354 0.1594499 0.2311644 0.1696036 0.2311644 0.4971737 0.4623288 0.48702 0.4623288 0.4879636 0.4526017 0.1594498 0 0.1696035 0 0.1696036 0.2311644 0.1594499 0.2457354 0.1696036 0.2457354 0.1696036 0.4623288 0.4879636 0.2451223 0.4971737 0.2451223 0.4971737 0.4526017 0 0.4623289 0 0.2457354 0.1594499 0.2457354 0.3283118 0.2457354 0.3445113 0.2451223 0.3445113 0.4526018 0.7568476 0.2165934 0.6566236 0.2165933 0.6566236 0 0.1696036 0.4623288 0.1696036 0.2457354 0.3283118 0.2457354 0.6566236 0.2311643 0.6566236 0.2457354 0.6404241 0.2451222 0.8570717 0.2457354 0.7568477 0.2457354 0.7568477 0.2311643 0.3674588 0.9924167 0.3674587 0.8427894 0.4436074 0.8427894 0.3674587 0.8427894 0.3674587 0.8331829 0.4436074 0.8331829 0.7272287 0.7709794 0.8222917 0.7709794 0.8222917 0.8504059 0.3674587 0.8331829 0.3674587 0.6837662 0.4436073 0.6837662 0.4871488 0.7709794 0.5822119 0.7709794 0.5822119 0.8504059 0.8223379 0.6117456 0.8223379 0.6213521 0.7272287 0.621352 0.8223379 0.6117456 0.7272287 0.6117455 0.7272769 0.4623289 0.8223379 0.6213521 0.8223379 0.7709794 0.7272769 0.7709794 0.4871488 0.9298324 0.5822119 0.9298324 0.5822119 0.9380221 0.007851779 0.804773 0.007851779 0.8918759 0 0.8918759 0.7272287 0.9298324 0.8222917 0.9298323 0.8222917 0.9380221 0.02329617 0.804773 0.02329617 0.8918759 0.01570361 0.8918759 0.4871488 0.8504059 0.5822119 0.8504059 0.5822119 0.8583253 0.7272287 0.8504059 0.8222917 0.8504059 0.8222917 0.8583253 0.94058 0.3086506 0.94058 0.1590232 1 0.1590232 0.94058 0.1590232 0.94058 0.1494167 1 0.1494167 0.7272287 0.9380222 0.8222917 0.9380221 0.8222917 1 0.94058 0.1494167 0.9405799 0 1 0 0.4871488 0.9380222 0.5822119 0.9380221 0.5822119 1 0.9058461 0.7709794 0.9058461 0.6213521 0.9744021 0.6213521 0.9058461 0.6213521 0.9058461 0.6117456 0.9744021 0.6117456 0.7272287 0.8583253 0.8222917 0.8583253 0.8222917 0.9298323 0.9058461 0.6117456 0.905846 0.4623289 0.974402 0.4623289 0.4871488 0.8583253 0.5822119 0.8583253 0.5822119 0.9298324 0.03088873 0.804773 0.03088873 0.8918759 0.02329617 0.8918759 0.01570361 0.804773 0.01570361 0.8918759 0.007851779 0.8918759 0.8728923 0.7709794 0.8744587 0.7709794 0.8744587 0.9924167 0.4756643 0.6837662 0.4772309 0.6837662 0.4772309 0.8910818 0.8661612 0.3086505 0.8689272 0.3086505 0.8689272 0.4582778 0.8614611 0.7709794 0.8642271 0.7709794 0.8642271 0.9784588 0.4756644 0.8910818 0.4681414 0.8910818 0.4681414 0.6837662 0.8480394 0.9106602 0.8405165 0.9106602 0.8405165 0.7709794 0.8713257 0.9924167 0.8697592 0.9924167 0.8697592 0.7709794 0.8760252 0.9924167 0.8744587 0.9924167 0.8744587 0.7709794 0.8713257 0.7709794 0.8728923 0.7709794 0.8728923 0.9924167 0.8645946 0.3086505 0.8661612 0.3086505 0.8661612 0.4485384 0.5822098 0.6215627 0.5837763 0.6215627 0.5837763 0.7709794 0.83895 0.7709794 0.8405165 0.7709794 0.8405165 0.9108673 0.83895 0.9108673 0.8314272 0.9108673 0.8314272 0.7709794 0.8239043 0.7709794 0.8314272 0.7709794 0.8314272 0.9776965 0.4787973 0.6837662 0.4863203 0.6837662 0.4863203 0.8904834 0.8571286 0.7709794 0.8571286 0.9106602 0.8496059 0.9106602 0.8645947 0.4485384 0.8570718 0.4485384 0.8570717 0.3086505 0.4606184 0.6837662 0.4681414 0.6837662 0.4681414 0.8910817 0.5837763 0.4623289 0.7272287 0.4623289 0.7272287 0.6698083 0.7270267 0.8772879 0.5837763 0.8772879 0.5837764 0.6698084 0.8689272 0.3086505 0.8716931 0.3086505 0.8716931 0.4582778 0.8697592 0.9784588 0.8669931 0.9784588 0.8669931 0.7709794 0.8614611 0.9784588 0.8586952 0.9784588 0.8586951 0.7709794 0.8744592 0.3086505 0.8772251 0.3086505 0.8772251 0.4580672 0.8642271 0.7709794 0.8669931 0.7709794 0.8669931 0.9784588 0.8716931 0.3086505 0.8744592 0.3086505 0.8744592 0.4580672 0.3438984 0.4623289 0.3391304 0.469689 0.205214 0.4696889 0.3438983 0.6837663 0.3391303 0.6764062 0.3391304 0.469689 0.4871488 0.6837662 0.482581 0.6767053 0.482581 0.4693897 0.4871488 0.4623289 0.482581 0.4693897 0.3484662 0.4693897 0.200446 0.4623289 0.205214 0.4696889 0.205214 0.6764062 0.3438984 0.4623289 0.3484662 0.4693897 0.3484662 0.6767053 0.200446 0.6837662 0.205214 0.6764062 0.3391303 0.6764062 0.4871488 0.6837662 0.3438984 0.6837662 0.3484662 0.6767053 0.8571286 0.7709794 0.8586951 0.7709794 0.8586951 0.9106602 0.8803581 0.4580672 0.8787916 0.4580672 0.8787916 0.3086505 0.8480394 0.7709794 0.8496059 0.7709794 0.8496059 0.9106602 0.4787974 0.8904834 0.4772309 0.8904834 0.4772309 0.6837662 0.8772251 0.3086505 0.8787916 0.3086505 0.8787916 0.4582778 0.8239043 0.9776965 0.8223378 0.9776965 0.8223378 0.7709794 0.5822098 0.4623289 0.5837762 0.4623289 0.5837762 0.6119562 0.4606185 0.8910817 0.459052 0.8910817 0.4590519 0.6837662 0.5822098 0.6119562 0.4871488 0.6119562 0.4871488 0.4623289 0.5822098 0.7709794 0.4871488 0.7709794 0.4871488 0.6215627 0.5822098 0.6119562 0.5822098 0.6215627 0.4871488 0.6215627 0.8570717 0.1494167 0.8570717 0 0.9405799 0 0.2839524 0.8333935 0.3674587 0.8333935 0.3674587 0.843 0.8223379 0.7709794 0.8223378 0.6213521 0.905846 0.6213521 0.2839524 0.6837662 0.3674587 0.6837662 0.3674587 0.8333935 0.4514592 0.843 0.4514593 0.9924167 0.4436075 0.9924167 0.4514592 0.8333935 0.4514592 0.843 0.4436075 0.843 0.4514592 0.6837662 0.4514592 0.8333935 0.4436075 0.8333935 0.4514593 0.8331829 0.4514592 0.6837662 0.4590519 0.6837662 0.4514593 0.8427894 0.4514593 0.8331829 0.4590519 0.8331829 0.4514594 0.9924167 0.4514593 0.8427894 0.4590519 0.8427894 0.2839524 0.843 0.3674587 0.843 0.3674587 0.9924167 0.8570717 0.1494167 0.9405799 0.1494167 0.9405799 0.1590232 0.200446 0.6837662 0.2839523 0.6837662 0.2839524 0.8333935 0.8570718 0.3086505 0.8570717 0.1590232 0.9405799 0.1590232 0.200446 0.8333935 0.2839524 0.8333935 0.2839524 0.843 0.8223378 0.6117456 0.8223378 0.4623289 0.905846 0.4623289 0.200446 0.843 0.2839524 0.843 0.2839523 0.9924167 0.8223378 0.6117456 0.905846 0.6117456 0.905846 0.6213521</float_array>
          <technique_common>
            <accessor source="#Cube_004-mesh-map-0-array" count="762" stride="2">
              <param name="S" type="float"/>
              <param name="T" type="float"/>
            </accessor>
          </technique_common>
        </source>
        <vertices id="Cube_004-mesh-vertices">
          <input semantic="POSITION" source="#Cube_004-mesh-positions"/>
        </vertices>
        <polylist material="PBRFULL_Schrank-material" count="254">
          <input semantic="VERTEX" source="#Cube_004-mesh-vertices" offset="0"/>
          <input semantic="NORMAL" source="#Cube_004-mesh-normals" offset="1"/>
          <input semantic="TEXCOORD" source="#Cube_004-mesh-map-0" offset="2" set="0"/>
          <vcount>3 3 3 3 3 3 3 3 3 3 3 3 3 3 3 3 3 3 3 3 3 3 3 3 3 3 3 3 3 3 3 3 3 3 3 3 3 3 3 3 3 3 3 3 3 3 3 3 3 3 3 3 3 3 3 3 3 3 3 3 3 3 3 3 3 3 3 3 3 3 3 3 3 3 3 3 3 3 3 3 3 3 3 3 3 3 3 3 3 3 3 3 3 3 3 3 3 3 3 3 3 3 3 3 3 3 3 3 3 3 3 3 3 3 3 3 3 3 3 3 3 3 3 3 3 3 3 3 3 3 3 3 3 3 3 3 3 3 3 3 3 3 3 3 3 3 3 3 3 3 3 3 3 3 3 3 3 3 3 3 3 3 3 3 3 3 3 3 3 3 3 3 3 3 3 3 3 3 3 3 3 3 3 3 3 3 3 3 3 3 3 3 3 3 3 3 3 3 3 3 3 3 3 3 3 3 3 3 3 3 3 3 3 3 3 3 3 3 3 3 3 3 3 3 3 3 3 3 3 3 3 3 3 3 3 3 3 3 3 3 3 3 3 3 3 3 3 3 3 3 3 3 3 3 </vcount>
          <p>18 0 0 2 0 1 19 0 2 20 1 3 6 1 4 5 1 5 12 2 6 10 2 7 16 2 8 5 3 9 14 3 10 13 3 11 28 4 12 7 4 13 15 4 14 0 5 15 37 5 16 34 5 17 29 2 18 8 2 19 31 2 20 20 6 21 11 6 22 23 6 23 35 7 24 9 7 25 39 7 26 13 8 27 11 8 28 5 8 29 24 9 30 39 9 31 41 9 32 12 10 33 7 10 34 4 10 35 28 11 36 37 11 37 43 11 38 13 12 39 36 12 40 35 12 41 12 2 42 38 2 43 34 2 44 36 13 45 25 13 46 40 13 47 33 2 48 41 2 49 42 2 50 20 14 51 32 14 52 30 14 53 18 2 54 9 2 55 1 2 56 32 2 57 24 2 58 33 2 59 6 13 60 25 13 61 14 13 62 30 15 63 21 15 64 20 15 65 29 16 66 19 16 67 26 16 68 0 17 69 26 17 70 3 17 71 4 18 72 27 18 73 30 18 74 30 2 75 10 2 76 4 2 77 16 2 78 42 2 79 38 2 80 40 13 81 28 13 82 43 13 83 18 2 84 31 2 85 22 2 86 21 13 87 28 13 88 25 13 89 40 19 90 26 19 91 19 19 92 42 2 93 22 2 94 31 2 95 2 20 96 40 20 97 19 20 98 34 21 99 8 21 100 0 21 101 35 22 102 2 22 103 1 22 104 26 23 105 37 23 106 3 23 107 13 2 108 39 2 109 17 2 110 34 24 111 15 24 112 12 24 113 90 25 114 100 25 115 104 25 116 93 2 117 101 2 118 100 2 119 88 26 120 104 26 121 105 26 122 92 27 123 102 27 124 101 27 125 91 28 126 103 28 127 102 28 128 92 29 129 32 29 130 23 29 131 92 16 132 89 16 133 91 16 134 93 30 135 88 30 136 32 30 137 98 28 138 111 28 139 110 28 140 110 26 141 123 26 142 98 26 143 97 26 144 106 26 145 107 26 146 104 28 147 133 28 148 112 28 149 102 28 150 117 28 151 116 28 152 105 26 153 112 26 154 113 26 155 106 31 156 87 31 157 84 31 158 108 2 159 86 2 160 87 2 161 107 26 162 84 26 163 16 26 164 109 32 165 85 32 166 86 32 167 110 28 168 17 28 169 85 28 170 112 33 171 95 33 172 94 33 173 114 2 174 96 2 175 95 2 176 113 26 177 94 26 178 97 26 179 115 34 180 98 34 181 96 34 182 116 28 183 99 28 184 98 28 185 116 26 186 130 26 187 102 26 188 94 28 189 132 28 190 106 28 191 23 35 192 73 35 193 24 35 194 49 36 195 80 36 196 48 36 197 42 37 198 66 37 199 38 37 200 38 38 201 63 38 202 8 38 203 48 39 204 57 39 205 49 39 206 44 40 207 59 40 208 51 40 209 17 41 210 71 41 211 11 41 212 33 42 213 74 42 214 32 42 215 10 43 216 68 43 217 16 43 218 46 37 219 81 37 220 49 37 221 24 16 222 70 16 223 17 16 224 48 16 225 79 16 226 47 16 227 47 16 228 56 16 229 48 16 230 45 44 231 52 44 232 44 44 233 51 45 234 58 45 235 50 45 236 45 16 237 58 16 238 53 16 239 49 37 240 54 37 241 46 37 242 46 46 243 55 46 244 47 46 245 66 2 246 64 2 247 63 2 248 62 2 249 61 2 250 60 2 251 8 16 252 64 16 253 31 16 254 31 47 255 65 47 256 42 47 257 9 48 258 67 48 259 39 48 260 22 16 261 61 16 262 9 16 263 41 49 264 60 49 265 22 49 266 39 37 267 62 37 268 41 37 269 68 2 270 83 2 271 75 2 272 69 50 273 76 50 274 68 50 275 72 51 276 81 51 277 73 51 278 73 2 279 78 2 280 70 2 281 75 52 282 82 52 283 74 52 284 70 53 285 79 53 286 71 53 287 74 2 288 77 2 289 69 2 290 72 2 291 79 2 292 80 2 293 45 16 294 82 16 295 50 16 296 11 37 297 72 37 298 23 37 299 51 37 300 76 37 301 44 37 302 50 54 303 83 54 304 51 54 305 32 37 306 69 37 307 10 37 308 44 55 309 77 55 310 45 55 311 16 16 312 75 16 313 33 16 314 47 56 315 78 56 316 46 56 317 33 16 318 84 16 319 16 16 320 17 16 321 86 16 322 24 16 323 33 16 324 86 16 325 87 16 326 101 37 327 130 37 328 128 37 329 114 57 330 127 57 331 115 57 332 94 37 333 119 37 334 124 37 335 112 58 336 125 58 337 114 58 338 121 59 339 122 59 340 120 59 341 119 2 342 120 2 343 118 2 344 124 60 345 118 60 346 132 60 347 128 61 348 129 61 349 127 61 350 126 2 351 127 2 352 125 2 353 131 62 354 125 62 355 133 62 356 115 16 357 129 16 358 116 16 359 101 63 360 126 63 361 100 63 362 106 64 363 118 64 364 108 64 365 104 37 366 126 37 367 131 37 368 108 65 369 120 65 370 109 65 371 96 37 372 123 37 373 121 37 374 109 16 375 122 16 376 110 16 377 96 66 378 119 66 379 95 66 380 18 67 381 1 67 382 2 67 383 20 37 384 21 37 385 6 37 386 12 2 387 4 2 388 10 2 389 5 68 390 6 68 391 14 68 392 28 13 393 27 13 394 7 13 395 0 69 396 3 69 397 37 69 398 29 2 399 0 2 400 8 2 401 20 70 402 5 70 403 11 70 404 35 71 405 1 71 406 9 71 407 13 72 408 17 72 409 11 72 410 24 73 411 17 73 412 39 73 413 12 74 414 15 74 415 7 74 416 28 11 417 15 11 418 37 11 419 13 75 420 14 75 421 36 75 422 12 2 423 16 2 424 38 2 425 36 13 426 14 13 427 25 13 428 33 2 429 24 2 430 41 2 431 20 76 432 23 76 433 32 76 434 18 2 435 22 2 436 9 2 437 32 2 438 23 2 439 24 2 440 6 13 441 21 13 442 25 13 443 30 37 444 27 37 445 21 37 446 29 77 447 18 77 448 19 77 449 0 78 450 29 78 451 26 78 452 4 37 453 7 37 454 27 37 455 30 2 456 32 2 457 10 2 458 16 2 459 33 2 460 42 2 461 40 13 462 25 13 463 28 13 464 18 2 465 29 2 466 31 2 467 21 13 468 27 13 469 28 13 470 40 79 471 43 79 472 26 79 473 42 2 474 41 2 475 22 2 476 2 13 477 36 13 478 40 13 479 34 2 480 38 2 481 8 2 482 35 80 483 36 80 484 2 80 485 26 81 486 43 81 487 37 81 488 13 82 489 35 82 490 39 82 491 34 24 492 37 24 493 15 24 494 90 25 495 93 25 496 100 25 497 93 2 498 92 2 499 101 2 500 88 26 501 90 26 502 104 26 503 92 83 504 91 83 505 102 83 506 91 28 507 89 28 508 103 28 509 92 84 510 93 84 511 32 84 512 92 85 513 23 85 514 89 85 515 93 16 516 90 16 517 88 16 518 98 28 519 99 28 520 111 28 521 110 26 522 122 26 523 123 26 524 97 26 525 94 26 526 106 26 527 104 28 528 131 28 529 133 28 530 102 28 531 103 28 532 117 28 533 105 26 534 104 26 535 112 26 536 106 86 537 108 86 538 87 86 539 108 2 540 109 2 541 86 2 542 107 26 543 106 26 544 84 26 545 109 87 546 110 87 547 85 87 548 110 28 549 111 28 550 17 28 551 112 88 552 114 88 553 95 88 554 114 2 555 115 2 556 96 2 557 113 26 558 112 26 559 94 26 560 115 89 561 116 89 562 98 89 563 116 28 564 117 28 565 99 28 566 116 26 567 129 26 568 130 26 569 94 28 570 124 28 571 132 28 572 23 90 573 72 90 574 73 90 575 49 91 576 81 91 577 80 91 578 42 37 579 65 37 580 66 37 581 38 92 582 66 92 583 63 92 584 48 93 585 56 93 586 57 93 587 44 37 588 52 37 589 59 37 590 17 94 591 70 94 592 71 94 593 33 95 594 75 95 595 74 95 596 10 96 597 69 96 598 68 96 599 46 37 600 78 37 601 81 37 602 24 16 603 73 16 604 70 16 605 48 16 606 80 16 607 79 16 608 47 16 609 55 16 610 56 16 611 45 97 612 53 97 613 52 97 614 51 98 615 59 98 616 58 98 617 45 99 618 50 99 619 58 99 620 49 37 621 57 37 622 54 37 623 46 100 624 54 100 625 55 100 626 66 2 627 65 2 628 64 2 629 62 2 630 67 2 631 61 2 632 8 16 633 63 16 634 64 16 635 31 101 636 64 101 637 65 101 638 9 102 639 61 102 640 67 102 641 22 16 642 60 16 643 61 16 644 41 103 645 62 103 646 60 103 647 39 37 648 67 37 649 62 37 650 68 2 651 76 2 652 83 2 653 69 2 654 77 2 655 76 2 656 72 2 657 80 2 658 81 2 659 73 2 660 81 2 661 78 2 662 75 2 663 83 2 664 82 2 665 70 2 666 78 2 667 79 2 668 74 2 669 82 2 670 77 2 671 72 2 672 71 2 673 79 2 674 45 16 675 77 16 676 82 16 677 11 37 678 71 37 679 72 37 680 51 37 681 83 37 682 76 37 683 50 104 684 82 104 685 83 104 686 32 37 687 74 37 688 69 37 689 44 105 690 76 105 691 77 105 692 16 16 693 68 16 694 75 16 695 47 106 696 79 106 697 78 106 698 33 16 699 87 16 700 84 16 701 17 16 702 85 16 703 86 16 704 33 16 705 24 16 706 86 16 707 101 37 708 102 37 709 130 37 710 114 107 711 125 107 712 127 107 713 94 108 714 95 108 715 119 108 716 112 16 717 133 16 718 125 16 719 121 109 720 123 109 721 122 109 722 119 2 723 121 2 724 120 2 725 124 110 726 119 110 727 118 110 728 128 111 729 130 111 730 129 111 731 126 2 732 128 2 733 127 2 734 131 112 735 126 112 736 125 112 737 115 16 738 127 16 739 129 16 740 101 37 741 128 37 742 126 37 743 106 16 744 132 16 745 118 16 746 104 113 747 100 113 748 126 113 749 108 16 750 118 16 751 120 16 752 96 37 753 98 37 754 123 37 755 109 16 756 120 16 757 122 16 758 96 37 759 121 37 760 119 37 761</p>
        </polylist>
      </mesh>
    </geometry>
    <geometry id="Cube_001-mesh" name="Cube.001">
      <mesh>
        <source id="Cube_001-mesh-positions">
          <float_array id="Cube_001-mesh-positions-array" count="24">0.8698941 2.924659 0.1012709 0.8698943 2.924658 4.149275 0.8698934 -2.928751 0.09541249 0.8698932 -2.928752 4.155133 0.8698938 -0.1894206 4.155133 0.8698938 -0.1894199 0.09541249 0.8698939 0.1893831 4.149275 0.8698938 0.1893838 0.1012709</float_array>
          <technique_common>
            <accessor source="#Cube_001-mesh-positions-array" count="8" stride="3">
              <param name="X" type="float"/>
              <param name="Y" type="float"/>
              <param name="Z" type="float"/>
            </accessor>
          </technique_common>
        </source>
        <source id="Cube_001-mesh-normals">
          <float_array id="Cube_001-mesh-normals-array" count="12">1 -1.7151e-7 0 1 -1.29196e-7 0 1 -1.7151e-7 0 1 -1.29196e-7 0</float_array>
          <technique_common>
            <accessor source="#Cube_001-mesh-normals-array" count="4" stride="3">
              <param name="X" type="float"/>
              <param name="Y" type="float"/>
              <param name="Z" type="float"/>
            </accessor>
          </technique_common>
        </source>
        <source id="Cube_001-mesh-map-0">
          <float_array id="Cube_001-mesh-map-0-array" count="24">0.5002486 0.7413153 1.21636e-4 1.21723e-4 0.5002486 1.21636e-4 0.9998783 0.7391763 0.5004919 1.2181e-4 0.9998783 1.21636e-4 0.5002486 0.7413153 1.21636e-4 0.7413154 1.21636e-4 1.21723e-4 0.9998783 0.7391763 0.500492 0.7391765 0.5004919 1.2181e-4</float_array>
          <technique_common>
            <accessor source="#Cube_001-mesh-map-0-array" count="12" stride="2">
              <param name="S" type="float"/>
              <param name="T" type="float"/>
            </accessor>
          </technique_common>
        </source>
        <vertices id="Cube_001-mesh-vertices">
          <input semantic="POSITION" source="#Cube_001-mesh-positions"/>
        </vertices>
        <polylist material="PBRFULL_SchrankGlas-material" count="4">
          <input semantic="VERTEX" source="#Cube_001-mesh-vertices" offset="0"/>
          <input semantic="NORMAL" source="#Cube_001-mesh-normals" offset="1"/>
          <input semantic="TEXCOORD" source="#Cube_001-mesh-map-0" offset="2" set="0"/>
          <vcount>3 3 3 3 </vcount>
          <p>4 0 0 2 0 1 5 0 2 1 1 3 7 1 4 0 1 5 4 2 6 3 2 7 2 2 8 1 3 9 6 3 10 7 3 11</p>
        </polylist>
      </mesh>
    </geometry>
  </library_geometries>
  <library_controllers/>
  <library_visual_scenes>
    <visual_scene id="Scene" name="Scene">
      <node id="Camera" name="Camera" type="NODE">
        <matrix sid="transform">0.6858805 -0.3173701 0.6548619 7.481132 0.7276338 0.3124686 -0.6106656 -6.50764 -0.01081678 0.8953432 0.4452454 5.343665 0 0 0 1</matrix>
        <instance_camera url="#Camera-camera"/>
      </node>
      <node id="Lamp" name="Lamp" type="NODE">
        <matrix sid="transform">-0.2908646 -0.7711008 0.5663932 4.076245 0.9551712 -0.1998834 0.2183912 1.005454 -0.05518906 0.6045247 0.7946723 5.903862 0 0 0 1</matrix>
        <instance_light url="#Lamp-light"/>
      </node>
      <node id="Laborschrank" name="Laborschrank" type="NODE">
        <matrix sid="transform">0.9334499 0 0 -9.571761 0 0.9334499 0 1.754428 0 0 0.9750938 4.509951 0 0 0 1</matrix>
        <instance_geometry url="#Cube_004-mesh" name="Laborschrank">
          <bind_material>
            <technique_common>
              <instance_material symbol="PBRFULL_Schrank-material" target="#PBRFULL_Schrank-material"/>
            </technique_common>
          </bind_material>
        </instance_geometry>
      </node>
      <node id="Laborschrank_001" name="Laborschrank_001" type="NODE">
        <matrix sid="transform">0.9334499 0 0 -9.571761 0 0.9334499 0 1.754428 0 0 0.9750938 4.509951 0 0 0 1</matrix>
        <instance_geometry url="#Cube_001-mesh" name="Laborschrank_001">
          <bind_material>
            <technique_common>
              <instance_material symbol="PBRFULL_SchrankGlas-material" target="#PBRFULL_SchrankGlas-material"/>
            </technique_common>
          </bind_material>
        </instance_geometry>
      </node>
    </visual_scene>
  </library_visual_scenes>
  <scene>
    <instance_visual_scene url="#Scene"/>
  </scene>
</COLLADA>