<?xml version="1.0" encoding="utf-8"?>
<COLLADA xmlns="http://www.collada.org/2005/11/COLLADASchema" version="1.4.1">
  <asset>
    <contributor>
      <author>Blender User</author>
      <authoring_tool>Blender 2.78.0 commit date:2017-02-24, commit time:14:33, hash:e92f2352830</authoring_tool>
    </contributor>
    <created>2017-07-14T10:06:20</created>
    <modified>2017-07-14T10:06:20</modified>
    <unit name="meter" meter="1"/>
    <up_axis>Z_UP</up_axis>
  </asset>
  <library_images/>
  <library_effects>
    <effect id="Metall_Alu_007-effect">
      <profile_COMMON>
        <technique sid="common">
          <phong>
            <emission>
              <color sid="emission">0 0 0 1</color>
            </emission>
            <ambient>
              <color sid="ambient">0 0 0 1</color>
            </ambient>
            <diffuse>
              <color sid="diffuse">0.45 0.45 0.45 1</color>
            </diffuse>
            <specular>
              <color sid="specular">0.325 0.325 0.325 1</color>
            </specular>
            <shininess>
              <float sid="shininess">70</float>
            </shininess>
            <index_of_refraction>
              <float sid="index_of_refraction">1</float>
            </index_of_refraction>
          </phong>
        </technique>
      </profile_COMMON>
    </effect>
    <effect id="Gummi_012_003-effect">
      <profile_COMMON>
        <technique sid="common">
          <phong>
            <emission>
              <color sid="emission">0 0 0 1</color>
            </emission>
            <ambient>
              <color sid="ambient">0 0 0 1</color>
            </ambient>
            <diffuse>
              <color sid="diffuse">0.1 0.1 0.1 1</color>
            </diffuse>
            <specular>
              <color sid="specular">0.025 0.025 0.025 1</color>
            </specular>
            <shininess>
              <float sid="shininess">50</float>
            </shininess>
            <index_of_refraction>
              <float sid="index_of_refraction">1</float>
            </index_of_refraction>
          </phong>
        </technique>
      </profile_COMMON>
    </effect>
  </library_effects>
  <library_materials>
    <material id="Metall_Alu_007-material" name="Metall_Alu_007">
      <instance_effect url="#Metall_Alu_007-effect"/>
    </material>
    <material id="Gummi_012_003-material" name="Gummi_012_003">
      <instance_effect url="#Gummi_012_003-effect"/>
    </material>
  </library_materials>
  <library_geometries>
    <geometry id="Circle_049-mesh" name="Circle.049">
      <mesh>
        <source id="Circle_049-mesh-positions">
          <float_array id="Circle_049-mesh-positions-array" count="1314">0.002769589 1.3085e-5 0.009046792 0.002511978 0.001218557 0.008996486 0.001724064 0.002165734 0.009043991 6.25402e-4 0.004520177 0.007040917 -8.01869e-4 0.004425406 0.007041215 -0.002932608 0.003391802 0.007042825 -0.004102706 0.00177896 0.00704509 -0.004459679 -1.76712e-4 0.007047712 -0.003940999 -0.00207895 0.007050216 -0.002659142 -0.003572165 0.007052063 -8.61111e-4 -0.00437206 0.007052958 0.001107215 -0.00432378 0.007052719 0.002863943 -0.003436088 0.007051348 0.004015445 -0.00205928 0.007049381 0.002786517 1.20817e-5 0.009797394 0.002511799 0.001215875 0.0097965 0.001741945 0.002181231 0.00979638 6.29481e-4 0.002716958 0.009796977 -6.05274e-4 0.002716958 0.009798228 -0.001717746 0.002181231 0.009799838 -0.002487599 0.001215875 0.009801566 -0.002762317 1.20875e-5 0.009802937 -0.002487599 -0.001191675 0.009803831 -0.001717686 -0.002157032 0.00980395 -6.05266e-4 -0.002692759 0.009803354 6.29488e-4 -0.002692818 0.009802103 0.001741945 -0.002157032 0.009800493 0.002511799 -0.001191675 0.009798824 0.004448235 1.20798e-5 0.009795725 0.004448235 0.001926362 0.009793877 0.004443466 0.003451883 0.009792447 0.001121342 0.004883706 0.009794414 -0.001097381 0.004881322 0.009791493 -0.003102183 0.003916501 0.009788215 -0.004490613 0.002178013 0.009791672 -0.004987478 9.98177e-6 0.009797573 -0.004489183 -0.002152979 0.009791553 -0.003102064 -0.003892183 0.009787797 -0.00109744 -0.004857122 0.009790301 0.001121342 -0.004859745 0.009795427 0.004441797 -0.003424763 0.009796917 0.004448235 -0.001902222 0.009797513 0.005369424 1.20894e-5 0.009733498 0.005369067 0.001926362 0.009731292 0.005365967 0.003188133 0.00971806 0.005365073 -0.003181457 0.00970894 0.005369842 -0.001902222 0.009735703 0.01740348 1.25338e-5 0.007607579 0.0174033 0.001509904 0.007605969 0.01740312 0.002713143 0.007604658 0.01740384 -0.002687692 0.007610559 0.01740372 -0.001486122 0.007609248 0.02105331 0.002713501 0.007576406 0.0210573 -0.002687752 0.007581532 0.00134921 0.005880296 0.009205996 -0.001317858 0.005839049 0.00922358 -0.003727257 0.00468868 0.009226441 -0.005361914 0.002597987 0.009227037 -0.005970001 1.36725e-5 0.009230911 -0.005371689 -0.00257641 0.009219706 -0.003715932 -0.00465399 0.009234666 -0.001313924 -0.005812764 0.009234607 0.001346886 -0.005830228 0.009221792 0.001353502 0.005895614 0.00703901 -0.001320064 0.00583744 0.007039427 -0.003719568 0.004682064 0.007041215 -0.005392313 0.002606749 0.007044196 -0.005960285 1.67242e-5 0.007047653 -0.00535959 -0.002572834 0.00705105 -0.003707528 -0.004654824 0.007053613 -0.001317858 -0.005828797 0.007054924 0.001351535 -0.005856752 0.007054746 0.007516622 0.005062818 0.008450686 0.007524847 0.005091607 0.007060348 0.00908941 0.005138218 0.008078873 0.009107291 0.005192637 0.007040321 0.01056671 0.005856513 0.007238626 0.01054495 0.00591576 0.00496298 0.01278752 0.008200645 0.003533482 0.01288616 0.008502364 0.002700328 0.01173704 0.007175326 0.003809154 0.01172518 0.007145762 0.005663573 0.003426492 -0.005636751 0.008928418 0.003455102 -0.005637109 0.007054209 0.004979968 -0.005977511 0.008364677 0.004998326 -0.006002068 0.00511384 0.006924688 -0.007910549 0.005997896 0.006928741 -0.007929623 0.002110421 0.006048381 -0.006712198 0.007531225 0.006164848 -0.006827592 0.002124965 0.01738089 -0.0044685 0.006725311 0.0211063 -0.004470884 0.00670576 0.01737689 -0.006352543 0.00497353 0.02112734 -0.006352007 0.004949688 0.01738852 -0.007586121 0.002731978 0.021057 -0.007583737 0.002708375 0.01736897 -0.007803738 0.002050161 0.02105724 -0.007958352 0.001185774 0.009823441 -0.007314503 0.005911648 0.01360833 -0.007594108 0.004324018 0.01041817 -0.007943928 0.004846513 0.01391649 -0.007961213 0.00345391 0.004563689 -0.004521846 0.00931406 0.005476295 -0.004487752 0.009149134 0.006834983 -1.35719e-5 0.006993293 0.008238852 -3.58242e-4 0.004987239 0.009468138 -0.001194417 0.001991629 0.01737278 -0.006530344 0.001988768 0.01110988 -0.001836001 0.001990616 0.01797389 -3.47796e-5 0.001981973 0.01761996 0.007716476 0.002540528 0.01754391 0.004490137 0.006744742 0.01746147 0.005428552 0.006018638 0.01737993 0.007538318 0.002992331 0.01738727 0.006736278 0.004527091 0.02111768 0.004678845 0.006617486 0.0186432 0.005420684 0.006026685 0.02106755 -0.005540788 0.001984119 0.02709758 -0.001967608 0.006024718 0.02661299 1.55334e-4 0.006023228 0.02820712 -0.004547059 0.005192637 0.0277667 -0.006715536 0.002581298 0.0245862 0.00201857 0.004473447 0.02369898 0.004622042 0.004471838 0.02698904 0.00475341 0.006088674 0.02226567 0.005935251 0.002932369 0.02286005 0.002423822 0.002934157 0.02231705 0.005836486 9.73895e-4 0.02366131 0.004665315 0.00662738 0.02710807 0.004700243 0.006639957 0.02199178 0.006410777 0.004979312 0.02163779 0.0072999 0.003523945 0.02173399 0.007894337 0.001907885 0.02285021 0.002319812 0.002140045 0.02387505 1.40621e-4 0.002045094 0.02700763 0.002713561 0.007570505 0.02545416 -0.003759562 0.002000868 0.02703428 -0.002687752 0.00757569 0.03624552 5.7774e-5 0.00846368 0.03579002 0.001957535 0.008462309 0.03456169 0.003463804 0.008452415 0.0328142 0.004262506 0.008438408 0.03087455 0.00424695 0.008412361 0.03000575 0.005249381 0.007660567 0.03269535 0.005469024 0.007732689 0.03518718 0.004452884 0.00774759 0.03687876 0.002489924 0.00772041 0.03746026 6.54739e-5 0.007746875 0.03087955 -0.004156887 0.008401334 0.0328058 -0.004165768 0.008428514 0.0345664 -0.003347516 0.008456349 0.03580498 -0.001850664 0.008465945 0.02999377 -0.005279839 0.007539272 0.03270179 -0.005260109 0.00772196 0.0351879 -0.004316627 0.007760643 0.03687095 -0.002337157 0.007737338 0.02711629 -0.00448054 0.006722331 0.0271331 -0.006375491 0.004968404 0.02703332 -0.007950305 0.001185774 0.02834165 0.00493139 0.007227301 0.02824693 0.003913342 0.007764279 0.02999162 0.005287051 0.006108105 0.0326966 0.005495429 0.00617963 0.03523272 0.004512488 0.006186902 0.03691762 0.002509057 0.006182909 0.03751796 6.6687e-5 0.006186366 0.03185242 -0.006029009 0.006080329 0.03270179 -0.005296647 0.006022274 0.03524863 -0.00438553 0.006204664 0.03692585 -0.002367913 0.006189584 0.02822852 0.004973709 0.006088256 0.0281288 -0.004051148 0.007582902 0.02819055 -0.005768418 0.006401836 0.0310257 -0.00641632 0.004998564 0.03099775 -0.007554352 0.00269699 0.03101539 -0.007944941 0.001185774 0.03187656 -0.005620598 0.005998909 0.03114104 -0.005961954 0.005472779 0.03102463 -0.007291674 0.002779543 0.03102338 -0.007540345 0.001185774 0.02889746 0.001608431 0.004592657 0.02857834 1.08305e-4 0.00452125 0.0289188 -0.001383244 0.004522323 0.02987265 -0.002579391 0.004522502 0.03125113 -0.003243207 0.004521727 0.03278106 -0.003243207 0.004520237 0.03415948 -0.002579391 0.00451821 0.03511339 -0.001383244 0.004516124 0.03545385 1.08303e-4 0.004514336 0.02987504 0.002793252 0.004590988 0.03125292 0.003450095 0.004589974 0.03278332 0.003466308 0.004589796 0.03416395 0.002802789 0.004590511 0.03512549 0.001606225 0.004592061 0.02887481 0.001617252 0.006019532 0.02849739 1.18347e-4 0.00602138 0.0288428 -0.001423358 0.006022453 0.02980732 -0.002679228 0.006022691 0.03120857 -0.003368616 0.006021916 0.03280198 -0.003360033 0.006020307 0.03421992 -0.002653717 0.006018221 0.03517663 -0.001408696 0.006016075 0.03551679 1.09806e-4 0.006014287 0.02986705 0.002802789 0.006017446 0.03125107 0.003459692 0.006015419 0.03278362 0.003467381 0.00601387 0.0341655 0.002805054 0.006013095 0.0351271 0.001606941 0.006013274 0.02711957 0.002278268 0.006020665 0.02703291 -0.00757128 0.002703547 0.002769589 1.3085e-5 -0.009046792 0.002511978 0.001218557 -0.008996486 0.001724064 0.002165734 -0.009043991 6.25402e-4 0.004520177 -0.007040917 -8.01869e-4 0.004425406 -0.007041215 -0.002932608 0.003391802 -0.007042825 -0.004102706 0.00177896 -0.00704509 -0.004459679 -1.76712e-4 -0.007047712 -0.003940999 -0.00207895 -0.007050216 -0.002659142 -0.003572165 -0.007052063 -8.61111e-4 -0.00437206 -0.007052958 0.001107215 -0.00432378 -0.007052719 0.002863943 -0.003436088 -0.007051348 0.004015445 -0.00205928 -0.007049381 0.002786517 1.20817e-5 -0.009797394 0.002511799 0.001215875 -0.0097965 0.001741945 0.002181231 -0.00979638 6.29481e-4 0.002716958 -0.009796977 -6.05274e-4 0.002716958 -0.009798228 -0.001717746 0.002181231 -0.009799838 -0.002487599 0.001215875 -0.009801566 -0.002762317 1.20875e-5 -0.009802937 -0.002487599 -0.001191675 -0.009803831 -0.001717686 -0.002157032 -0.00980395 -6.05266e-4 -0.002692759 -0.009803354 6.29488e-4 -0.002692818 -0.009802103 0.001741945 -0.002157032 -0.009800493 0.002511799 -0.001191675 -0.009798824 0.004448235 1.20798e-5 -0.009795725 0.004448235 0.001926362 -0.009793877 0.004443466 0.003451883 -0.009792447 0.001121342 0.004883706 -0.009794414 -0.001097381 0.004881322 -0.009791493 -0.003102183 0.003916501 -0.009788215 -0.004490613 0.002178013 -0.009791672 -0.004987478 9.98177e-6 -0.009797573 -0.004489183 -0.002152979 -0.009791553 -0.003102064 -0.003892183 -0.009787797 -0.00109744 -0.004857122 -0.009790301 0.001121342 -0.004859745 -0.009795427 0.004441797 -0.003424763 -0.009796917 0.004448235 -0.001902222 -0.009797513 0.005369424 1.20894e-5 -0.009733498 0.005369067 0.001926362 -0.009731292 0.005365967 0.003188133 -0.00971806 0.005365073 -0.003181457 -0.00970894 0.005369842 -0.001902222 -0.009735703 0.01740348 1.25338e-5 -0.007607579 0.0174033 0.001509904 -0.007605969 0.01740312 0.002713143 -0.007604658 0.01740384 -0.002687692 -0.007610559 0.01740372 -0.001486122 -0.007609248 0.02105331 0.002713501 -0.007576406 0.0210573 -0.002687752 -0.007581532 0.00134921 0.005880296 -0.009205996 -0.001317858 0.005839049 -0.00922358 -0.003727257 0.00468868 -0.009226441 -0.005361914 0.002597987 -0.009227037 -0.005970001 1.36725e-5 -0.009230911 -0.005371689 -0.00257641 -0.009219706 -0.003715932 -0.00465399 -0.009234666 -0.001313924 -0.005812764 -0.009234607 0.001346886 -0.005830228 -0.009221792 0.001353502 0.005895614 -0.00703901 -0.001320064 0.00583744 -0.007039427 -0.003719568 0.004682064 -0.007041215 -0.005392313 0.002606749 -0.007044196 -0.005960285 1.67242e-5 -0.007047653 -0.00535959 -0.002572834 -0.00705105 -0.003707528 -0.004654824 -0.007053613 -0.001317858 -0.005828797 -0.007054924 0.001351535 -0.005856752 -0.007054746 0.007516622 0.005062818 -0.008450686 0.007524847 0.005091607 -0.007060348 0.00908941 0.005138218 -0.008078873 0.009107291 0.005192637 -0.007040321 0.01056671 0.005856513 -0.007238626 0.01054495 0.00591576 -0.00496298 0.01278752 0.008200645 -0.003533482 0.01288616 0.008502364 -0.002700328 0.01173704 0.007175326 -0.003809154 0.01172518 0.007145762 -0.005663573 0.003426492 -0.005636751 -0.008928418 0.003455102 -0.005637109 -0.007054209 0.004979968 -0.005977511 -0.008364677 0.004998326 -0.006002068 -0.00511384 0.006924688 -0.007910549 -0.005997896 0.006928741 -0.007929623 -0.002110421 0.006048381 -0.006712198 -0.007531225 0.006164848 -0.006827592 -0.002124965 0.01738089 -0.0044685 -0.006725311 0.0211063 -0.004470884 -0.00670576 0.01737689 -0.006352543 -0.00497353 0.02112734 -0.006352007 -0.004949688 0.01738852 -0.007586121 -0.002731978 0.021057 -0.007583737 -0.002708375 0.01736897 -0.007803738 -0.002050161 0.02105724 -0.007958352 -0.001185774 0.01852196 -0.007962942 0 0.02105712 -0.007959485 0 0.009823441 -0.007314503 -0.005911648 0.01360833 -0.007594108 -0.004324018 0.01041817 -0.007943928 -0.004846513 0.01391649 -0.007961213 -0.00345391 0.004563689 -0.004521846 -0.00931406 0.005476295 -0.004487752 -0.009149134 0.006834983 -1.35719e-5 -0.006993293 0.008238852 -3.58242e-4 -0.004987239 0.009468138 -0.001194417 -0.001991629 0.01737278 -0.006530344 -0.001988768 0.01852232 -0.006672978 0 0.00946933 -9.7516e-4 0 0.01110988 -0.001836001 -0.001990616 0.01109772 -9.72964e-4 0 0.01797389 -3.47796e-5 -0.001981973 0.01769381 1.86456e-4 0 0.01302993 0.008899986 0 0.01761996 0.007716476 -0.002540528 0.0176261 0.008119583 0 0.01754391 0.004490137 -0.006744742 0.01746147 0.005428552 -0.006018638 0.01737993 0.007538318 -0.002992331 0.01738727 0.006736278 -0.004527091 0.02111768 0.004678845 -0.006617486 0.0186432 0.005420684 -0.006026685 0.02561807 -0.004043042 0 0.02106755 -0.005540788 -0.001984119 0.02122741 -0.006046056 0 0.02709758 -0.001967608 -0.006024718 0.02661299 1.55334e-4 -0.006023228 0.02820712 -0.004547059 -0.005192637 0.02715927 -0.006044924 0 0.0277667 -0.006715536 -0.002581298 0.0245862 0.00201857 -0.004473447 0.02229535 0.005868017 0 0.02369898 0.004622042 -0.004471838 0.02698904 0.00475341 -0.006088674 0.02226567 0.005935251 -0.002932369 0.02286005 0.002423822 -0.002934157 0.02231705 0.005836486 -9.73895e-4 0.02366131 0.004665315 -0.00662738 0.02710807 0.004700243 -0.006639957 0.02199178 0.006410777 -0.004979312 0.02163779 0.0072999 -0.003523945 0.02169615 0.008094608 0 0.02173399 0.007894337 -0.001907885 0.02285295 0.002373278 0 0.02285021 0.002319812 -0.002140045 0.02285724 0.001766502 0 0.02387505 1.40621e-4 -0.002045094 0.02700763 0.002713561 -0.007570505 0.02545416 -0.003759562 -0.002000868 0.02703428 -0.002687752 -0.00757569 0.03624552 5.7774e-5 -0.00846368 0.03579002 0.001957535 -0.008462309 0.03456169 0.003463804 -0.008452415 0.0328142 0.004262506 -0.008438408 0.03087455 0.00424695 -0.008412361 0.03000575 0.005249381 -0.007660567 0.03269535 0.005469024 -0.007732689 0.03518718 0.004452884 -0.00774759 0.03687876 0.002489924 -0.00772041 0.03746026 6.54739e-5 -0.007746875 0.03087955 -0.004156887 -0.008401334 0.0328058 -0.004165768 -0.008428514 0.0345664 -0.003347516 -0.008456349 0.03580498 -0.001850664 -0.008465945 0.02999377 -0.005279839 -0.007539272 0.03270179 -0.005260109 -0.00772196 0.0351879 -0.004316627 -0.007760643 0.03687095 -0.002337157 -0.007737338 0.02711629 -0.00448054 -0.006722331 0.0271331 -0.006375491 -0.004968404 0.02703332 -0.007950305 -0.001185774 0.02703332 -0.007951438 0 0.02834165 0.00493139 -0.007227301 0.02824693 0.003913342 -0.007764279 0.02999162 0.005287051 -0.006108105 0.0326966 0.005495429 -0.00617963 0.03523272 0.004512488 -0.006186902 0.03691762 0.002509057 -0.006182909 0.03751796 6.6687e-5 -0.006186366 0.03185242 -0.006029009 -0.006080329 0.03270179 -0.005296647 -0.006022274 0.03524863 -0.00438553 -0.006204664 0.03692585 -0.002367913 -0.006189584 0.02822852 0.004973709 -0.006088256 0.0281288 -0.004051148 -0.007582902 0.02819055 -0.005768418 -0.006401836 0.0310257 -0.00641632 -0.004998564 0.03099775 -0.007554352 -0.00269699 0.03101539 -0.007944941 -0.001185774 0.03099811 -0.007946074 0 0.03187656 -0.005620598 -0.005998909 0.03114104 -0.005961954 -0.005472779 0.03102463 -0.007291674 -0.002779543 0.03102338 -0.007540345 -0.001185774 0.03099727 -0.007541954 0 0.02889746 0.001608431 -0.004592657 0.02857834 1.08305e-4 -0.00452125 0.0289188 -0.001383244 -0.004522323 0.02987265 -0.002579391 -0.004522502 0.03125113 -0.003243207 -0.004521727 0.03278106 -0.003243207 -0.004520237 0.03415948 -0.002579391 -0.00451821 0.03511339 -0.001383244 -0.004516124 0.03545385 1.08303e-4 -0.004514336 0.02987504 0.002793252 -0.004590988 0.03125292 0.003450095 -0.004589974 0.03278332 0.003466308 -0.004589796 0.03416395 0.002802789 -0.004590511 0.03512549 0.001606225 -0.004592061 0.02887481 0.001617252 -0.006019532 0.02849739 1.18347e-4 -0.00602138 0.0288428 -0.001423358 -0.006022453 0.02980732 -0.002679228 -0.006022691 0.03120857 -0.003368616 -0.006021916 0.03280198 -0.003360033 -0.006020307 0.03421992 -0.002653717 -0.006018221 0.03517663 -0.001408696 -0.006016075 0.03551679 1.09806e-4 -0.006014287 0.02986705 0.002802789 -0.006017446 0.03125107 0.003459692 -0.006015419 0.03278362 0.003467381 -0.00601387 0.0341655 0.002805054 -0.006013095 0.0351271 0.001606941 -0.006013274 0.02711957 0.002278268 -0.006020665 0.02703291 -0.00757128 -0.002703547</float_array>
          <technique_common>
            <accessor source="#Circle_049-mesh-positions-array" count="438" stride="3">
              <param name="X" type="float"/>
              <param name="Y" type="float"/>
              <param name="Z" type="float"/>
            </accessor>
          </technique_common>
        </source>
        <source id="Circle_049-mesh-normals">
          <float_array id="Circle_049-mesh-normals-array" count="1314">-0.3692786 0.100224 -0.9238985 -0.7575213 0.3595182 0.5448929 -0.6989483 -0.1178953 0.7053878 -0.2712532 0.3394938 -0.9006474 -0.5160554 0.6593754 0.5467276 -0.1050479 0.4163157 -0.9031314 -0.1844282 0.813584 0.551423 0.08420228 0.420981 -0.9031528 0.1859219 0.8118366 0.553493 0.2569107 0.3437989 -0.9032161 0.5198399 0.6495481 0.5548458 0.3794381 0.199958 -0.9033513 0.7506911 0.3591855 0.5544805 0.4279044 0.01709049 -0.9036625 0.8327866 -4.57793e-4 0.5535939 0.3932063 -0.1694718 -0.903697 0.7500454 -0.3606785 0.5543853 0.2741248 -0.3242376 -0.9053871 0.5191583 -0.6509086 0.5538889 0.1044675 -0.4230277 -0.9000746 0.1935519 -0.8131805 0.5488854 0.1140195 -0.4069727 -0.9062963 -0.1941947 -0.8142569 0.5470597 -0.8277871 -0.5521938 -0.09925019 -0.5194105 -0.4728989 0.711744 -0.9291173 -0.3692786 -0.01934897 -0.5851094 -0.2810795 0.7606848 -0.9289321 -0.3635708 -0.07001018 0.0338757 1.22075e-4 0.9994261 0.1034278 -0.186347 0.9770249 0.0470606 -0.2820586 0.9582424 -0.06555455 -0.2838866 0.9566143 -0.1828411 -0.2274299 0.9564752 -0.2667337 -0.1315662 0.9547479 -0.2938092 -2.74674e-4 0.9558641 -0.2659791 0.1293119 0.9552662 -0.1803998 0.2270639 0.9570255 -0.06567716 0.2860863 0.9559505 0.04870915 0.2808101 0.9585266 0.1042517 0.2002329 0.974186 0.03442543 0.001037597 0.9994068 0.03415107 9.76618e-4 0.9994162 0.1237539 -0.006836175 0.9922895 0.1225046 0.004425287 0.9924582 0.1208562 0.001129209 0.9926694 0.09116029 0.001098632 0.9958357 0.1603781 -0.1895849 0.9686777 0.09070354 7.01946e-4 0.9958778 0.1550995 0.1934318 0.9687768 0.09091538 0.00125122 0.9958579 0.07974684 -0.8535938 0.5147992 -0.5514265 -0.6855293 0.475372 -0.7960817 -0.3851466 0.4668148 -0.8820652 -0.001648008 0.4711245 -0.5494351 0.6885411 0.4733205 0.08536136 0.8572151 0.5078346 -0.1979203 -0.8550707 0.479251 0.0345782 -0.7230913 -0.6898865 -0.1727105 -0.7330509 -0.6578811 -0.6743325 -0.326286 -0.6624298 -0.7922725 0.3807852 0.4767673 -0.6804651 0.325339 -0.6565988 -0.2004485 0.8576135 0.4736239 -0.1740817 0.7277922 -0.6633356 0.04455804 0.6912606 -0.7212305 0.01858633 0.6944696 -0.7192819 0.1474411 0.8052647 0.5742909 -0.4908413 0.80873 -0.3240841 0.02325558 0.7998167 0.5997939 -0.7901687 0.5404008 -0.2891374 -0.8073027 0.5417522 -0.2340238 -0.3056206 0.8612555 0.4059987 -0.2356373 0.90849 0.3451395 -0.1536003 0.8430165 0.5154904 -0.2892928 -0.7147935 -0.6366946 0.09085494 -0.8315505 0.5479682 -0.8739235 -0.3144721 -0.3706278 -0.1915723 -0.8290683 0.5253055 -0.7182663 -0.1482921 -0.6797817 -0.3697423 -0.6994736 -0.6115778 -0.04355037 -0.8389636 0.5424423 -0.465632 0.5863965 -0.6628167 -0.7491767 -0.005096614 -0.6623505 -0.4701792 -0.5846263 -0.6611685 0.003540158 -0.2252904 0.9742853 0.09268766 -0.2270956 0.9694517 4.57785e-4 -0.5679889 0.8230361 0.08404892 -0.5705808 0.8169292 -6.71426e-4 -0.7892912 0.6140186 0.09280824 -0.7797297 0.6191998 0.08520817 -0.9217867 0.3782182 0.001068115 -0.9320769 0.362259 -0.01007115 -0.9934486 0.1138352 -0.2574948 -0.9150723 -0.3103854 -0.01321452 -0.9999127 0 0.1066028 -0.9743493 0.1981903 0.1576315 -0.863174 0.4796699 -0.3050353 -0.8963065 0.3218512 0.1088618 -0.9413935 0.3192607 0.153115 -0.7625539 0.6285439 0.1908345 -0.4453313 0.8747928 0.1720955 -0.4270496 0.8877003 -0.7789165 0.362235 -0.5119327 -0.4489342 0.2231853 -0.8652436 -0.4351369 0.8915758 0.1254932 -0.8146522 0.02896279 -0.5792262 -0.5295984 -0.8482486 0 -0.2814508 0.1600442 -0.946135 -0.8907226 -0.4545474 0 0.1245493 -0.9922136 0 0.003753781 -0.501028 -0.865423 0.1354455 -0.9907849 0 0.07153695 -0.6750541 -0.7342919 -0.4664218 0.8845625 0 0.08517807 0.825474 0.5579763 0.08423298 0.6871707 0.7215963 0.09607452 0.2197384 0.9708166 0.08472084 0.5235237 0.8477885 -0.00137335 0.6827265 0.7306729 0.8863704 -0.4629769 0 0.6257237 0.08703917 -0.7751736 0.00350964 0.2251389 0.9743204 0.008514821 0.5642706 0.825546 -0.1976442 0.5920782 -0.7812685 -0.3178845 0.9481295 0 0.7387865 0.3172811 -0.5945817 0.6966907 0.5951842 -0.4004721 0.434744 0.1157893 -0.8930792 0.4465899 0.296984 -0.8440131 0.921823 0.3659214 -0.1278436 0.489167 0.6113368 -0.6220796 0.2854742 0.9583865 0 0.5189199 0.7893821 0.3280216 0.4159249 0.8095093 0.4143684 0.9150004 0.3932722 -0.09006255 0.5958844 0.7807993 0.1878142 0.9757111 0.2189711 0.006286799 0.9801262 0.1983752 0 0.977477 0.211042 0 0.768583 0.5365799 -0.348371 0.1215581 0.7741513 0.6212193 -0.2334095 0.8184592 0.5250188 0.001525938 -0.992482 0.1223817 -0.06583076 -0.8284239 0.5562196 -0.2480571 -0.54763 0.7991052 0.02511757 0.792899 -0.6088353 -0.1326374 0.720594 -0.6805525 -0.04321491 0.01715165 -0.9989186 -0.3263077 -0.329207 0.8860847 -0.3532335 0.272143 0.8950779 -0.1187819 0.1647444 0.9791579 -0.6259171 0.007294058 -0.7798556 -0.573437 0.2903351 -0.7660781 0.2720806 -0.1402977 0.951992 0.7850198 -0.3985832 0.4742103 0.876413 0.001190185 0.4815587 0.1745412 -0.2501991 0.9523317 0.4994729 -0.7182938 0.4843356 0.06509667 -0.3268874 0.9428188 0.1413353 -0.8693757 0.4735085 -0.1349543 -0.2945678 0.9460535 -0.1983767 -0.6597399 0.7248379 0.05905383 0.3041807 0.9507823 0.1225358 0.8698061 0.4779356 -0.2025844 0.8197681 0.5356677 0.1809761 0.2448518 0.9525205 0.5098319 0.7124828 0.48212 0.2691176 0.1394418 0.9529594 0.7858321 0.401965 0.4699916 0.299091 0.002044796 0.9542225 -0.3314994 0.7874867 0.5195892 -0.1174979 0.2856879 0.9510924 0.7020756 -0.3589729 -0.6150028 0.6994097 0.3571057 -0.6191136 0.1258898 0.7737117 -0.6209043 -0.08688879 0.7382344 -0.6689248 0.2489463 -0.7019755 -0.6672751 -0.2573363 -0.7528735 0.6057718 -0.06213593 -0.1597345 0.9852026 0.001342833 -0.9999992 0 0.675848 -0.7318508 0.08731544 0.6224042 -0.7735037 0.1196039 0.4952346 -0.814221 0.3029638 0.346825 -0.0169689 -0.9377765 0.7031589 -0.7110328 0 0.849815 0.5242331 -0.05472141 0.6396152 -0.7220773 0.2636223 0.8686929 0.4671543 -0.1647415 0.3747748 0.5609413 -0.7381659 0.8227379 0.568421 0 0.6126108 0.7903848 0 -0.660717 -0.3134659 -0.6820501 -0.5681759 -0.1778963 -0.8034483 -0.1679143 0.7351364 -0.6567947 -0.1448736 0.6514582 -0.7447241 0.1637969 0.7325235 -0.6607421 -0.1601632 -0.7040102 -0.6918942 -0.0631448 -0.5424228 -0.8377292 -0.4535455 -0.5647879 -0.6894282 -0.6976719 0.3503925 -0.6248833 -0.4633771 0.6009895 -0.6512245 0.4556491 -0.5686917 -0.6848166 0.4306944 -0.5032398 -0.7491677 0.142402 -0.6018972 -0.7857746 0.6633084 -0.3159367 -0.6783849 0.6084304 -0.2871244 -0.7398459 0.7363888 0.01214647 -0.6764498 0.6671839 0.01007133 -0.7448251 0.4677111 0.5988839 -0.650065 0.426904 0.537506 -0.727214 0.6149366 0.3022648 -0.7283469 -0.7325173 0.008453726 -0.680696 0.1618741 -0.7060933 -0.6893687 -0.4050192 0.5209919 -0.7513502 0.1568691 0.6654119 -0.7298076 0.7051498 0.3519492 -0.615545 -0.2779974 -0.3838983 -0.8805337 0.4620907 0.6456331 -0.6079723 0.78865 3.66232e-4 -0.6148424 0.4768925 -0.6523473 -0.5890811 0.4565362 0.4868723 -0.7446678 0.469413 0.846628 -0.2507442 6.1038e-5 -0.9347051 0.3554242 -0.3692786 0.100224 0.9238985 -0.9289321 -0.3635708 0.07001018 -0.6989483 -0.1178953 -0.7053878 -0.2712532 0.3394938 0.9006474 -0.5160554 0.6593754 -0.5467276 -0.1050479 0.4163157 0.9031314 -0.1844282 0.813584 -0.551423 0.08420228 0.420981 0.9031528 0.1859514 0.811832 -0.5534899 0.2569107 0.3437989 0.9032161 0.5198399 0.6495481 -0.5548458 0.3794381 0.199958 0.9033513 0.7506911 0.3591855 -0.5544805 0.4279044 0.01709049 0.9036625 0.8327866 -4.57793e-4 -0.5535939 0.3932063 -0.1694718 0.903697 0.7500454 -0.3606785 -0.5543853 0.2741248 -0.3242376 0.9053871 0.5191583 -0.6509086 -0.5538889 0.1044675 -0.4230277 0.9000746 0.1140195 -0.4069727 0.9062963 -0.1941947 -0.8142569 -0.5470597 -0.8277871 -0.5521938 0.09925019 -0.5194105 -0.4728989 -0.711744 -0.9291173 -0.3692786 0.01934897 -0.7575213 0.3595182 -0.5448929 0.0338757 1.22075e-4 -0.9994261 0.1034278 -0.186347 -0.9770249 0.0470606 -0.2820586 -0.9582424 -0.06555455 -0.2838866 -0.9566143 -0.2667337 -0.1315662 -0.9547479 -0.2938092 -2.74674e-4 -0.9558641 -0.2659791 0.1293119 -0.9552662 0.1935519 -0.8131805 -0.5488854 -0.06567716 0.2860863 -0.9559505 0.04870915 0.2808101 -0.9585266 0.1042517 0.2002329 -0.974186 -0.5851094 -0.2810795 -0.7606848 0.03442543 0.001037597 -0.9994068 0.03415107 9.76618e-4 -0.9994162 0.1208562 0.001129209 -0.9926694 0.1237539 -0.006836175 -0.9922895 0.1550995 0.1934318 -0.9687768 0.1225046 0.004425287 -0.9924582 0.09116029 0.001098632 -0.9958357 0.09070354 7.01946e-4 -0.9958778 0.1603781 -0.1895849 -0.9686777 0.09607452 0.2197384 -0.9708166 0.09091538 0.00125122 -0.9958579 0.07974684 -0.8535938 -0.5147992 -0.1979203 -0.8550707 -0.479251 -0.5514265 -0.6855293 -0.475372 -0.1828411 -0.2274299 -0.9564752 -0.7960817 -0.3851466 -0.4668148 -0.8820652 -0.001648008 -0.4711245 -0.7922725 0.3807852 -0.4767673 -0.5494351 0.6885411 -0.4733205 -0.1803998 0.2270639 -0.9570255 -0.2004485 0.8576135 -0.4736239 0.08536136 0.8572151 -0.5078346 0.0345782 -0.7230913 0.6898865 -0.1727105 -0.7330509 0.6578811 -0.4701792 -0.5846263 0.6611685 -0.6743325 -0.326286 0.6624298 -0.7491767 -0.005096614 0.6623505 -0.6804815 0.3253322 0.6565852 -0.465632 0.5863965 0.6628167 -0.1740817 0.7277922 0.6633356 0.04455804 0.6912606 0.7212305 0.01858633 0.6944696 0.7192819 -0.4908413 0.80873 0.3240841 0.1474411 0.8052647 -0.5742909 -0.7901687 0.5404008 0.2891374 0.02325558 0.7998167 -0.5997939 -0.8073027 0.5417522 0.2340238 -0.4351369 0.8915758 -0.1254932 -0.2356373 0.90849 -0.3451395 -0.1536003 0.8430165 -0.5154904 0.09085494 -0.8315505 -0.5479682 -0.2892928 -0.7147935 0.6366946 -0.04355037 -0.8389636 -0.5424423 -0.8739235 -0.3144721 0.3706278 -0.1915723 -0.8290683 -0.5253055 -0.3050353 -0.8963065 -0.3218512 -0.3697423 -0.6994736 0.6115778 -0.7182663 -0.1482921 0.6797817 0.003540158 -0.2252904 -0.9742853 4.57785e-4 -0.5679889 -0.8230361 0.09268766 -0.2270956 -0.9694517 -6.71426e-4 -0.7892912 -0.6140186 0.08404892 -0.5705808 -0.8169292 0.001068115 -0.9320769 -0.362259 0.08520817 -0.9217867 -0.3782182 -0.01007115 -0.9934486 -0.1138352 -0.2574948 -0.9150723 0.3103854 0.1066028 -0.9743493 -0.1981903 0.1576315 -0.863174 -0.4796699 0.1088618 -0.9413935 -0.3192607 0.153115 -0.7625539 -0.6285439 0.1908345 -0.4453313 -0.8747928 0.1720955 -0.4270496 -0.8877003 0.09280824 -0.7797297 -0.6191998 -0.8146522 0.02896279 0.5792262 -0.7789165 0.362235 0.5119327 -0.4489342 0.2231853 0.8652436 -0.6883074 0.7254192 0 -0.2814508 0.1600442 0.946135 0.003753781 -0.501028 0.865423 0.07153695 -0.6750541 0.7342919 -0.3056206 0.8612555 -0.4059987 0.08517807 0.825474 -0.5579763 0.08423298 0.6871707 -0.7215963 0.08472084 0.5235237 -0.8477885 -0.00137335 0.6827265 -0.7306729 0.6257237 0.08703917 0.7751736 0.00350964 0.2251389 -0.9743204 0.008514821 0.5642706 -0.825546 -0.1976442 0.5920782 0.7812685 0.7387865 0.3172811 0.5945817 0.434744 0.1157893 0.8930792 0.6966907 0.5951842 0.4004721 0.4465899 0.296984 0.8440131 0.921823 0.3659214 0.1278436 0.489167 0.6113368 0.6220796 0.5189199 0.7893821 -0.3280216 0.9757111 0.2189711 -0.006286799 0.9150004 0.3932722 0.09006255 0.5958844 0.7807993 -0.1878142 0.5785821 0.8156243 0 0.768583 0.5365799 0.348371 0.1215581 0.7741513 -0.6212193 -0.2334095 0.8184592 -0.5250188 0.4159249 0.8095093 -0.4143684 0.001525938 -0.992482 -0.1223817 -0.2480571 -0.54763 -0.7991052 -0.06583076 -0.8284239 -0.5562196 -0.06213593 -0.1597345 -0.9852026 0.02511757 0.792899 0.6088353 -0.04321491 0.01715165 0.9989186 -0.1326374 0.720594 0.6805525 -0.3263077 -0.329207 -0.8860847 -0.1187819 0.1647444 -0.9791579 -0.6259171 0.007294058 0.7798556 -0.573437 0.2903351 0.7660781 0.2720806 -0.1402977 -0.951992 0.299091 0.002044796 -0.9542225 0.876413 0.001190185 -0.4815587 0.1745412 -0.2501991 -0.9523317 0.4994729 -0.7182938 -0.4843356 0.06509667 -0.3268874 -0.9428188 0.1413353 -0.8693757 -0.4735085 -0.1349543 -0.2945678 -0.9460535 -0.1983767 -0.6597399 -0.7248379 0.05905383 0.3041807 -0.9507823 -0.1174979 0.2856879 -0.9510924 -0.2025844 0.8197681 -0.5356677 0.1809761 0.2448518 -0.9525205 0.1225358 0.8698061 -0.4779356 0.2691176 0.1394418 -0.9529594 0.5098319 0.7124828 -0.48212 -0.3314994 0.7874867 -0.5195892 0.78865 3.66232e-4 0.6148424 0.7020756 -0.3589729 0.6150028 0.7850198 -0.3985832 -0.4742103 0.7858321 0.401965 -0.4699916 0.6994097 0.3571057 0.6191136 0.4620907 0.6456331 0.6079723 0.1258898 0.7737117 0.6209043 -0.08688879 0.7382344 0.6689248 0.2489463 -0.7019755 0.6672751 0.4768925 -0.6523473 0.5890811 -0.2573363 -0.7528735 -0.6057718 -0.3532335 0.272143 -0.8950779 0.675848 -0.7318508 -0.08731544 0.6224042 -0.7735037 -0.1196039 0.4952346 -0.814221 -0.3029638 0.346825 -0.0169689 0.9377765 0.849815 0.5242331 0.05472141 0.6396152 -0.7220773 -0.2636223 0.8686929 0.4671543 0.1647415 0.3747748 0.5609413 0.7381659 -0.660717 -0.3134659 0.6820501 -0.7325173 0.008453726 0.680696 -0.1679143 0.7351364 0.6567947 0.1637969 0.7325235 0.6607421 -0.1448736 0.6514582 0.7447241 -0.1601632 -0.7040102 0.6918942 -0.4535455 -0.5647879 0.6894282 -0.0631448 -0.5424228 0.8377292 -0.6976719 0.3503925 0.6248833 -0.4633771 0.6009895 0.6512245 0.4556491 -0.5686917 0.6848166 0.1618741 -0.7060933 0.6893687 0.142402 -0.6018972 0.7857746 0.6633084 -0.3159367 0.6783849 0.4306944 -0.5032398 0.7491677 0.7363888 0.01214647 0.6764498 0.6671839 0.01007133 0.7448251 0.4677111 0.5988839 0.650065 0.7051498 0.3519492 0.615545 0.6149366 0.3022648 0.7283469 -0.4050192 0.5209919 0.7513502 0.426904 0.537506 0.727214 -0.2779974 -0.3838983 0.8805337 0.1568691 0.6654119 0.7298076 0.6084304 -0.2871244 0.7398459 -0.5681759 -0.1778963 0.8034483 0.4565362 0.4868723 0.7446678 0.469413 0.846628 0.2507442 6.1038e-5 -0.9347051 -0.3554242 0.0799905 0.9564074 0.2808672 0.08813869 0.9961082 0 0.1040398 0.8902437 0.4434433 0.1040398 0.8902437 -0.4434433 0.0799905 0.9564074 -0.2808672</float_array>
          <technique_common>
            <accessor source="#Circle_049-mesh-normals-array" count="438" stride="3">
              <param name="X" type="float"/>
              <param name="Y" type="float"/>
              <param name="Z" type="float"/>
            </accessor>
          </technique_common>
        </source>
        <vertices id="Circle_049-mesh-vertices">
          <input semantic="POSITION" source="#Circle_049-mesh-positions"/>
        </vertices>
        <polylist material="Metall_Alu_007-material" count="860">
          <input semantic="VERTEX" source="#Circle_049-mesh-vertices" offset="0"/>
          <input semantic="NORMAL" source="#Circle_049-mesh-normals" offset="1"/>
          <vcount>3 3 3 3 3 3 3 3 3 3 3 3 3 3 3 3 3 3 3 3 3 3 3 3 3 3 3 3 3 3 3 3 3 3 3 3 3 3 3 3 3 3 3 3 3 3 3 3 3 3 3 3 3 3 3 3 3 3 3 3 3 3 3 3 3 3 3 3 3 3 3 3 3 3 3 3 3 3 3 3 3 3 3 3 3 3 3 3 3 3 3 3 3 3 3 3 3 3 3 3 3 3 3 3 3 3 3 3 3 3 3 3 3 3 3 3 3 3 3 3 3 3 3 3 3 3 3 3 3 3 3 3 3 3 3 3 3 3 3 3 3 3 3 3 3 3 3 3 3 3 3 3 3 3 3 3 3 3 3 3 3 3 3 3 3 3 3 3 3 3 3 3 3 3 3 3 3 3 3 3 3 3 3 3 3 3 3 3 3 3 3 3 3 3 3 3 3 3 3 3 3 3 3 3 3 3 3 3 3 3 3 3 3 3 3 3 3 3 3 3 3 3 3 3 3 3 3 3 3 3 3 3 3 3 3 3 3 3 3 3 3 3 3 3 3 3 3 3 3 3 3 3 3 3 3 3 3 3 3 3 3 3 3 3 3 3 3 3 3 3 3 3 3 3 3 3 3 3 3 3 3 3 3 3 3 3 3 3 3 3 3 3 3 3 3 3 3 3 3 3 3 3 3 3 3 3 3 3 3 3 3 3 3 3 3 3 3 3 3 3 3 3 3 3 3 3 3 3 3 3 3 3 3 3 3 3 3 3 3 3 3 3 3 3 3 3 3 3 3 3 3 3 3 3 3 3 3 3 3 3 3 3 3 3 3 3 3 3 3 3 3 3 3 3 3 3 3 3 3 3 3 3 3 3 3 3 3 3 3 3 3 3 3 3 3 3 3 3 3 3 3 3 3 3 3 3 3 3 3 3 3 3 3 3 3 3 3 3 3 3 3 3 3 3 3 3 3 3 3 3 3 3 3 3 3 3 3 3 3 3 3 3 3 3 3 3 3 3 3 3 3 3 3 3 3 3 3 3 3 3 3 3 3 3 3 3 3 3 3 3 3 3 3 3 3 3 3 3 3 3 3 3 3 3 3 3 3 3 3 3 3 3 3 3 3 3 3 3 3 3 3 3 3 3 3 3 3 3 3 3 3 3 3 3 3 3 3 3 3 3 3 3 3 3 3 3 3 3 3 3 3 3 3 3 3 3 3 3 3 3 3 3 3 3 3 3 3 3 3 3 3 3 3 3 3 3 3 3 3 3 3 3 3 3 3 3 3 3 3 3 3 3 3 3 3 3 3 3 3 3 3 3 3 3 3 3 3 3 3 3 3 3 3 3 3 3 3 3 3 3 3 3 3 3 3 3 3 3 3 3 3 3 3 3 3 3 3 3 3 3 3 3 3 3 3 3 3 3 3 3 3 3 3 3 3 3 3 3 3 3 3 3 3 3 3 3 3 3 3 3 3 3 3 3 3 3 3 3 3 3 3 3 3 3 3 3 3 3 3 3 3 3 3 3 3 3 3 3 3 3 3 3 3 3 3 3 3 3 3 3 3 3 3 3 3 3 3 3 3 3 3 3 3 3 3 3 3 3 3 3 3 3 3 3 3 3 3 3 3 3 3 3 3 3 3 3 3 3 3 3 3 3 3 3 3 3 3 3 3 3 3 3 3 3 3 3 3 3 3 3 3 3 3 3 3 3 3 3 3 3 3 3 3 3 3 3 3 3 3 3 3 3 3 3 3 3 3 3 3 3 3 3 3 3 3 3 3 3 3 3 3 3 3 3 3 3 3 3 3 3 3 3 3 3 3 3 3 3 3 3 3 3 3 3 3 3 3 3 3 3 3 3 3 3 3 3 3 3 3 3 3 3 3 3 3 3 3 3 3 3 3 3 3 3 3 3 3 3 3 3 3 3 3 3 3 3 3 3 3 3 </vcount>
          <p>13 0 27 1 14 2 12 3 26 4 13 0 11 5 25 6 12 3 10 7 24 8 11 5 9 9 23 10 10 7 8 11 22 12 9 9 7 13 21 14 8 11 6 15 20 16 7 13 5 17 19 18 6 15 4 19 18 20 19 18 3 21 17 22 4 19 2 23 16 24 3 21 1 25 15 26 16 24 0 27 14 2 1 25 27 1 41 28 14 2 26 4 40 29 27 1 25 6 39 30 40 29 24 8 38 31 39 30 23 10 37 32 38 31 22 12 36 33 23 10 21 14 35 34 22 12 20 16 34 35 35 34 19 18 33 36 34 35 18 20 32 37 19 18 17 22 31 38 18 20 16 24 30 39 17 22 15 26 29 40 30 39 14 2 28 41 29 40 28 41 41 28 46 42 41 28 40 29 46 42 30 39 29 40 43 43 29 40 28 41 42 44 42 44 46 42 47 45 46 42 45 46 51 47 44 48 43 43 48 49 43 43 42 44 47 45 39 30 38 31 62 50 38 31 37 32 60 51 37 32 36 33 59 52 36 33 35 34 58 53 35 34 34 35 58 53 34 35 33 36 56 54 33 36 32 37 56 54 32 37 31 38 54 55 62 50 61 56 71 57 61 56 60 51 70 58 60 51 59 52 68 59 59 52 58 53 68 59 58 53 57 60 66 61 57 60 56 54 66 61 56 54 55 62 64 63 55 62 54 55 63 64 63 64 54 55 73 65 73 65 72 66 75 67 75 67 74 68 77 69 80 70 81 71 78 72 77 69 76 73 80 70 62 50 71 57 83 74 82 75 83 74 85 76 88 77 89 78 87 79 84 80 85 76 89 78 3 21 4 19 63 64 4 19 5 17 64 63 5 17 6 15 65 81 6 15 7 13 66 61 7 13 8 11 67 82 8 11 9 9 68 59 9 9 10 7 69 83 10 7 11 5 70 58 12 3 83 74 71 57 53 84 50 85 91 86 91 86 90 87 93 88 93 88 92 89 94 90 95 91 94 90 97 92 97 92 96 93 309 94 101 95 96 93 99 96 86 97 100 98 88 77 100 98 101 95 98 99 45 46 40 29 103 100 84 80 103 100 82 75 39 30 62 50 102 101 39 30 102 101 40 29 45 46 103 100 90 87 90 87 103 100 92 89 94 90 92 89 99 96 98 99 99 96 92 89 88 77 98 99 84 80 96 93 101 95 87 79 100 98 87 79 101 95 87 79 100 98 86 97 89 78 85 76 105 102 85 76 83 74 105 102 77 69 105 102 104 103 80 70 79 104 106 105 77 69 80 70 105 102 13 0 104 103 83 74 75 67 104 103 13 0 0 27 63 64 13 0 1 25 2 23 3 21 0 27 1 25 63 64 308 106 96 93 107 107 321 108 323 109 108 110 323 109 325 111 109 112 87 79 89 78 106 105 107 107 108 110 109 112 96 93 87 79 107 107 106 105 79 104 326 113 81 71 76 73 114 114 76 73 74 68 112 115 49 116 111 117 44 48 44 48 74 68 72 66 30 39 72 66 31 38 114 114 112 115 116 118 112 115 111 117 116 118 325 111 358 119 134 120 49 116 48 49 52 121 48 49 47 45 52 121 111 117 49 116 115 122 47 45 51 47 52 121 51 47 50 85 53 84 109 112 117 123 107 107 117 123 337 124 107 107 122 125 123 126 119 127 134 120 122 125 119 127 118 128 134 120 119 127 134 120 133 129 122 125 136 130 335 131 337 124 131 132 130 133 125 134 132 135 131 132 127 136 356 137 344 138 133 129 132 135 127 136 344 138 125 134 123 126 122 125 125 134 126 139 127 136 128 140 129 141 123 126 130 133 128 140 125 134 358 119 356 137 134 120 97 92 309 94 158 142 91 86 93 88 157 143 53 84 91 86 156 144 124 145 170 146 208 147 171 148 160 149 135 150 195 151 119 127 194 152 151 153 155 154 147 155 150 156 154 157 151 153 149 158 153 159 150 156 148 160 152 161 149 158 141 162 144 163 143 164 140 165 145 166 144 163 139 167 146 168 145 166 138 169 147 155 139 167 143 164 159 170 142 171 159 170 143 164 170 146 129 141 135 150 159 170 147 155 155 154 169 172 155 154 154 157 169 172 146 168 147 155 164 173 145 166 146 168 164 173 144 163 145 166 162 174 143 164 144 163 161 175 153 159 152 161 167 176 154 157 153 159 167 176 152 161 148 160 172 177 156 144 171 148 137 178 172 177 156 144 157 143 172 177 171 148 156 144 160 149 171 148 142 171 53 84 137 178 52 121 142 171 148 160 141 162 141 162 149 158 140 165 140 165 150 156 151 153 138 169 139 167 151 153 158 142 384 179 175 180 166 181 152 161 172 177 157 143 173 182 172 177 166 181 173 182 176 183 175 180 402 184 179 185 174 186 175 180 178 187 173 182 174 186 177 188 179 185 407 189 341 190 182 191 196 192 195 151 190 193 204 194 191 195 184 196 198 197 183 198 180 199 194 152 189 200 186 201 200 202 199 203 187 204 201 205 200 202 188 206 202 207 187 204 192 208 206 209 207 210 181 211 195 151 194 152 185 212 199 203 198 197 189 200 203 213 190 193 191 195 205 214 206 209 193 215 207 210 188 206 183 198 197 216 182 191 163 217 164 173 207 210 162 174 163 217 206 209 161 175 162 174 205 214 164 173 165 218 207 210 165 218 169 172 202 207 169 172 168 219 201 205 168 219 167 176 200 202 166 181 176 183 167 176 170 146 161 175 204 194 198 197 199 203 176 183 176 183 177 188 198 197 196 192 118 128 119 127 198 197 177 188 197 216 194 152 208 147 170 146 197 216 120 220 196 192 208 147 119 127 124 145 129 141 159 170 124 145 181 211 180 199 189 200 93 88 95 91 157 143 178 187 121 221 120 220 115 122 52 121 128 140 135 150 129 141 52 121 121 221 136 130 120 220 109 112 134 120 136 130 115 122 128 140 130 133 116 118 130 133 114 114 95 91 97 92 158 142 209 222 158 142 175 180 157 143 209 222 173 182 121 221 341 190 335 131 121 221 178 187 341 190 223 223 210 224 224 225 222 226 223 223 236 227 221 228 222 226 235 229 220 230 221 228 234 231 219 232 220 230 233 233 218 234 219 232 232 235 217 236 218 234 231 237 216 238 217 236 230 239 215 240 216 238 229 241 214 242 215 240 229 241 213 243 214 242 227 244 212 245 213 243 226 246 211 247 212 245 226 246 210 224 211 247 224 225 237 248 224 225 251 249 236 227 237 248 250 250 235 229 236 227 250 250 234 231 235 229 249 251 233 233 234 231 248 252 232 235 233 233 246 253 231 237 232 235 245 254 230 239 231 237 245 254 229 241 230 239 244 255 228 256 229 241 242 257 227 244 228 256 241 258 226 246 227 244 240 259 225 260 226 246 240 259 224 225 225 260 239 261 238 262 252 263 256 264 251 249 256 264 250 250 240 259 254 265 253 266 239 261 253 266 252 263 252 263 257 267 256 264 256 264 261 268 255 269 254 265 259 270 258 271 253 266 258 271 257 267 249 251 272 272 248 252 248 252 271 273 270 274 247 275 270 274 269 276 246 253 269 276 268 277 245 254 268 277 244 255 244 255 267 278 266 279 243 280 266 279 242 257 242 257 265 281 264 282 272 272 281 283 271 273 271 273 280 284 270 274 270 274 279 285 278 286 269 276 278 286 268 277 268 277 277 287 276 288 267 278 276 288 266 279 266 279 275 289 274 290 265 281 274 290 273 291 273 291 283 292 264 282 283 292 285 293 282 294 285 293 287 295 284 296 290 297 289 298 288 299 287 295 290 297 286 300 272 272 292 301 293 302 292 301 294 303 295 304 298 305 296 306 297 307 294 303 298 305 299 308 213 243 273 291 214 242 214 242 274 290 215 240 215 240 275 289 216 238 216 238 276 288 217 236 217 236 277 287 218 234 218 234 278 286 219 232 219 232 279 285 220 230 220 230 280 284 221 228 222 226 221 228 281 283 263 309 301 310 260 311 301 310 303 312 300 313 303 312 305 314 304 315 305 314 307 316 304 315 307 316 309 94 306 317 313 318 311 319 306 317 296 306 298 305 312 320 312 320 310 321 313 318 255 269 315 322 250 250 294 303 292 301 315 322 249 251 314 323 272 272 249 251 250 250 314 323 255 269 260 311 300 313 300 313 302 324 315 322 304 315 311 319 302 324 310 321 294 303 302 324 298 305 294 303 310 321 306 317 297 307 313 318 312 320 313 318 297 307 297 307 296 306 312 320 299 308 318 325 317 326 295 304 317 326 293 302 287 295 285 293 316 327 290 297 318 325 289 298 287 295 317 326 290 297 223 223 222 226 293 302 285 293 283 292 223 223 210 224 223 223 273 291 211 247 273 291 213 243 210 224 273 291 211 247 308 106 320 328 319 329 321 108 318 325 322 330 323 109 322 330 324 331 297 307 322 330 318 325 319 329 324 331 322 330 306 317 319 329 297 307 318 325 321 108 326 113 291 332 332 333 286 300 286 300 330 334 284 296 259 270 254 265 329 335 254 265 240 259 282 294 240 259 241 258 282 294 332 333 334 336 330 334 330 334 334 336 329 335 325 111 324 331 359 337 259 270 262 338 258 271 258 271 262 338 257 267 329 335 333 339 259 270 257 267 262 338 261 268 261 268 263 309 260 311 324 331 319 329 336 340 336 340 319 329 337 124 343 341 339 342 345 343 359 337 339 342 343 341 338 344 339 342 359 337 359 337 343 341 357 345 361 346 336 340 337 124 353 347 349 348 347 349 355 350 349 348 353 347 356 137 357 345 344 138 355 350 354 351 344 138 347 349 348 352 343 341 347 349 349 348 348 352 350 353 345 343 351 354 352 355 347 349 350 353 358 119 359 337 356 137 307 316 383 356 309 94 301 310 381 357 382 358 263 309 362 359 381 357 346 360 436 361 396 362 397 363 362 359 360 364 423 365 422 366 339 342 376 367 363 368 372 369 375 370 376 367 379 371 374 372 375 370 378 373 373 374 374 372 377 375 366 376 367 377 368 378 365 379 366 376 369 380 364 381 365 379 370 382 363 368 364 381 372 369 368 378 367 377 385 383 385 383 396 362 368 378 351 354 385 383 360 364 372 369 391 384 395 385 380 386 395 385 379 371 371 387 390 388 372 369 370 382 389 389 390 388 369 380 388 390 370 382 368 378 387 391 369 380 378 373 393 392 377 375 379 371 394 393 393 392 377 375 398 394 373 374 381 357 362 359 397 363 398 394 382 358 381 357 398 394 381 357 397 363 386 395 367 377 397 363 263 309 262 338 362 359 367 377 366 376 373 374 366 376 365 379 374 372 365 379 364 381 376 367 363 368 376 367 364 381 383 356 401 396 384 179 392 397 399 398 398 394 382 358 398 394 399 398 392 397 403 399 399 398 401 396 406 400 402 184 400 401 405 402 401 396 399 398 404 403 400 401 406 400 341 190 407 189 410 404 409 405 423 365 418 406 419 407 432 408 412 409 411 410 426 411 408 412 417 413 422 366 414 414 413 415 427 416 415 417 414 414 428 418 416 419 415 417 430 420 420 421 421 422 435 423 409 405 408 412 422 366 413 415 412 409 426 411 417 413 418 406 431 424 419 407 420 421 434 425 421 422 416 419 435 423 411 410 410 404 425 426 389 389 434 425 435 423 388 390 433 427 434 425 387 391 432 408 433 427 390 388 435 423 391 384 391 384 430 420 395 385 395 385 429 428 394 393 394 393 428 418 393 392 392 397 393 392 403 399 396 362 431 424 432 408 426 411 403 399 427 416 403 399 426 411 404 403 424 429 423 365 339 342 426 411 425 426 404 403 422 366 431 424 396 362 425 426 424 429 340 430 436 361 346 360 339 342 351 354 346 360 385 383 409 405 417 413 408 412 303 312 382 358 305 314 405 402 404 403 340 430 333 339 350 353 262 338 360 364 262 338 351 354 342 431 340 430 361 346 324 331 336 340 361 346 333 339 334 336 352 355 334 336 332 333 352 355 305 314 437 432 383 356 437 432 400 401 401 396 382 358 399 398 437 432 342 431 361 346 335 131 342 431 341 190 405 402 0 27 13 0 14 2 26 4 27 1 13 0 25 6 26 4 12 3 24 8 25 6 11 5 23 10 24 8 10 7 22 12 23 10 9 9 21 14 22 12 8 11 20 16 21 14 7 13 19 18 20 16 6 15 5 17 4 19 19 18 17 22 18 20 4 19 16 24 17 22 3 21 2 23 1 25 16 24 14 2 15 26 1 25 41 28 28 41 14 2 40 29 41 28 27 1 26 4 25 6 40 29 25 6 24 8 39 30 24 8 23 10 38 31 36 33 37 32 23 10 35 34 36 33 22 12 21 14 20 16 35 34 20 16 19 18 34 35 32 37 33 36 19 18 31 38 32 37 18 20 30 39 31 38 17 22 16 24 15 26 30 39 15 26 14 2 29 40 42 44 28 41 46 42 40 29 45 46 46 42 44 48 30 39 43 43 43 43 29 40 42 44 46 42 51 47 47 45 45 46 50 85 51 47 49 116 44 48 48 49 48 49 43 43 47 45 38 31 61 56 62 50 61 56 38 31 60 51 60 51 37 32 59 52 59 52 36 33 58 53 34 35 57 60 58 53 57 60 34 35 56 54 32 37 55 62 56 54 55 62 32 37 54 55 61 56 70 58 71 57 60 51 69 83 70 58 69 83 60 51 68 59 58 53 67 82 68 59 67 82 58 53 66 61 56 54 65 81 66 61 65 81 56 54 64 63 64 63 55 62 63 64 54 55 72 66 73 65 72 66 74 68 75 67 74 68 76 73 77 69 79 104 80 70 78 72 76 73 81 71 80 70 82 75 62 50 83 74 84 80 82 75 85 76 86 97 88 77 87 79 88 77 84 80 89 78 4 19 64 63 63 64 5 17 65 81 64 63 6 15 66 61 65 81 7 13 67 82 66 61 8 11 68 59 67 82 9 9 69 83 68 59 10 7 70 58 69 83 11 5 71 57 70 58 11 5 12 3 71 57 50 85 90 87 91 86 90 87 92 89 93 88 95 91 93 88 94 90 94 90 96 93 97 92 96 93 308 106 309 94 96 93 94 90 99 96 100 98 98 99 88 77 101 95 99 96 98 99 40 29 102 101 103 100 103 100 102 101 82 75 62 50 82 75 102 101 50 85 45 46 90 87 103 100 84 80 92 89 84 80 98 99 92 89 106 105 89 78 105 102 83 74 104 103 105 102 75 67 77 69 104 103 80 70 106 105 105 102 12 3 13 0 83 74 73 65 75 67 13 0 63 64 73 65 13 0 63 64 1 25 3 21 320 328 308 106 107 107 106 105 321 108 108 110 108 110 323 109 109 112 108 110 87 79 106 105 87 79 108 110 107 107 321 108 106 105 326 113 76 73 112 115 114 114 74 68 111 117 112 115 111 117 74 68 44 48 30 39 44 48 72 66 72 66 54 55 31 38 111 117 115 122 116 118 109 112 325 111 134 120 49 116 52 121 115 122 51 47 53 84 52 121 337 124 320 328 107 107 123 126 124 145 119 127 133 129 126 139 122 125 117 123 136 130 337 124 127 136 131 132 125 134 344 138 127 136 133 129 354 351 132 135 344 138 126 139 125 134 122 125 126 139 133 129 127 136 129 141 124 145 123 126 128 140 123 126 125 134 356 137 133 129 134 120 309 94 384 179 158 142 156 144 91 86 157 143 137 178 53 84 156 144 137 178 171 148 135 150 119 127 208 147 194 152 138 169 151 153 147 155 154 157 155 154 151 153 153 159 154 157 150 156 152 161 153 159 149 158 142 171 141 162 143 164 141 162 140 165 144 163 140 165 139 167 145 166 147 155 146 168 139 167 159 170 160 149 142 171 143 164 161 175 170 146 135 150 160 149 159 170 165 218 147 155 169 172 154 157 168 219 169 172 147 155 165 218 164 173 163 217 145 166 164 173 145 166 163 217 162 174 144 163 162 174 161 175 152 161 166 181 167 176 168 219 154 157 167 176 148 160 171 148 172 177 171 148 148 160 142 171 137 178 135 150 52 121 148 160 149 158 141 162 149 158 150 156 140 165 139 167 140 165 151 153 384 179 402 184 175 180 173 182 166 181 172 177 173 182 177 188 176 183 402 184 407 189 179 185 175 180 179 185 178 187 174 186 178 187 177 188 181 211 182 191 195 151 204 194 205 214 191 195 198 197 197 216 183 198 194 152 203 213 189 200 185 212 186 201 199 203 186 201 187 204 200 202 202 207 201 205 187 204 193 215 192 208 207 210 180 199 181 211 194 152 184 196 185 212 198 197 203 213 204 194 190 193 192 208 191 195 206 209 207 210 202 207 188 206 197 216 196 192 182 191 206 209 163 217 207 210 205 214 162 174 206 209 204 194 161 175 205 214 165 218 202 207 207 210 169 172 201 205 202 207 168 219 200 202 201 205 167 176 199 203 200 202 203 213 170 146 204 194 199 203 167 176 176 183 195 151 196 192 119 127 177 188 120 220 197 216 203 213 194 152 170 146 120 220 118 128 196 192 159 170 170 146 124 145 188 206 192 208 193 215 192 208 190 193 191 195 188 206 190 193 192 208 181 211 189 200 190 193 181 211 190 193 188 206 186 201 188 206 187 204 181 211 188 206 186 201 184 196 186 201 185 212 183 198 186 201 184 196 182 191 181 211 186 201 183 198 182 191 186 201 95 91 209 222 157 143 177 188 178 187 120 220 129 141 128 140 52 121 136 130 134 120 120 220 134 120 118 128 120 220 117 123 109 112 136 130 116 118 115 122 130 133 209 222 95 91 158 142 174 186 209 222 175 180 209 222 174 186 173 182 136 130 121 221 335 131 178 187 179 185 341 190 237 248 223 223 224 225 223 223 237 248 236 227 222 226 236 227 235 229 221 228 235 229 234 231 220 230 234 231 233 233 219 232 233 233 232 235 218 234 232 235 231 237 217 236 231 237 230 239 216 238 230 239 229 241 228 256 214 242 229 241 214 242 228 256 227 244 213 243 227 244 226 246 225 260 211 247 226 246 211 247 225 260 224 225 224 225 238 262 251 249 237 248 251 249 250 250 249 251 235 229 250 250 248 252 234 231 249 251 247 275 233 233 248 252 233 233 247 275 246 253 232 235 246 253 245 254 244 255 230 239 245 254 243 280 229 241 244 255 229 241 243 280 242 257 228 256 242 257 241 258 227 244 241 258 240 259 239 261 225 260 240 259 238 262 224 225 239 261 251 249 238 262 256 264 256 264 255 269 250 250 239 261 240 259 253 266 238 262 239 261 252 263 257 267 261 268 256 264 261 268 260 311 255 269 253 266 254 265 258 271 252 263 253 266 257 267 272 272 271 273 248 252 247 275 248 252 270 274 246 253 247 275 269 276 245 254 246 253 268 277 268 277 267 278 244 255 243 280 244 255 266 279 266 279 265 281 242 257 241 258 242 257 264 282 281 283 280 284 271 273 280 284 279 285 270 274 269 276 270 274 278 286 278 286 277 287 268 277 267 278 268 277 276 288 276 288 275 289 266 279 265 281 266 279 274 290 264 282 265 281 273 291 283 292 282 294 264 282 285 293 284 296 282 294 287 295 286 300 284 296 291 332 290 297 288 299 290 297 291 332 286 300 281 283 272 272 293 302 293 302 292 301 295 304 299 308 298 305 297 307 295 304 294 303 299 308 273 291 274 290 214 242 274 290 275 289 215 240 275 289 276 288 216 238 276 288 277 287 217 236 277 287 278 286 218 234 278 286 279 285 219 232 279 285 280 284 220 230 280 284 281 283 221 228 293 302 222 226 281 283 301 310 300 313 260 311 303 312 302 324 300 313 302 324 303 312 304 315 307 316 306 317 304 315 309 94 308 106 306 317 311 319 304 315 306 317 298 305 310 321 312 320 310 321 311 319 313 318 315 322 314 323 250 250 292 301 314 323 315 322 314 323 292 301 272 272 315 322 255 269 300 313 302 324 294 303 315 322 311 319 310 321 302 324 295 304 299 308 317 326 317 326 316 327 293 302 317 326 287 295 316 327 317 326 318 325 290 297 316 327 223 223 293 302 316 327 285 293 223 223 223 223 283 292 273 291 212 245 211 247 213 243 306 317 308 106 319 329 323 109 321 108 322 330 325 111 323 109 324 331 299 308 297 307 318 325 319 329 322 330 297 307 289 298 318 325 326 113 332 333 330 334 286 300 330 334 329 335 284 296 254 265 284 296 329 335 284 296 254 265 282 294 241 258 264 282 282 294 334 336 333 339 329 335 358 119 325 111 359 337 333 339 262 338 259 270 262 338 263 309 261 268 319 329 320 328 337 124 339 342 346 360 345 343 343 341 348 352 357 345 335 131 361 346 337 124 352 355 353 347 347 349 357 345 349 348 344 138 349 348 355 350 344 138 345 343 347 349 343 341 349 348 357 345 348 352 345 343 346 360 351 354 347 349 345 343 350 353 359 337 357 345 356 137 383 356 384 179 309 94 303 312 301 310 382 358 301 310 263 309 381 357 386 395 397 363 360 364 422 366 436 361 339 342 380 386 376 367 372 369 376 367 380 386 379 371 375 370 379 371 378 373 374 372 378 373 377 375 369 380 366 376 368 378 370 382 365 379 369 380 371 387 364 381 370 382 364 381 371 387 372 369 367 377 386 395 385 383 396 362 387 391 368 378 385 383 386 395 360 364 380 386 372 369 395 385 395 385 394 393 379 371 390 388 391 384 372 369 371 387 370 382 390 388 388 390 389 389 370 382 387 391 388 390 369 380 393 392 392 397 377 375 378 373 379 371 393 392 398 394 397 363 373 374 367 377 373 374 397 363 262 338 360 364 362 359 366 376 374 372 373 374 365 379 375 370 374 372 375 370 365 379 376 367 401 396 402 184 384 179 377 375 392 397 398 394 403 399 404 403 399 398 406 400 407 189 402 184 405 402 406 400 401 396 404 403 405 402 400 401 424 429 410 404 423 365 419 407 433 427 432 408 411 410 425 426 426 411 417 413 431 424 422 366 428 418 414 414 427 416 429 428 415 417 428 418 415 417 429 428 430 420 434 425 420 421 435 423 423 365 409 405 422 366 427 416 413 415 426 411 418 406 432 408 431 424 433 427 419 407 434 425 416 419 430 420 435 423 410 404 424 429 425 426 390 388 389 389 435 423 389 389 388 390 434 425 388 390 387 391 433 427 435 423 430 420 391 384 430 420 429 428 395 385 429 428 428 418 394 393 428 418 427 416 393 392 387 391 396 362 432 408 403 399 393 392 427 416 338 344 424 429 339 342 425 426 340 430 404 403 436 361 422 366 396 362 424 429 338 344 340 430 346 360 396 362 385 383 420 421 416 419 421 422 418 406 420 421 419 407 418 406 416 419 420 421 409 405 418 406 417 413 409 405 416 419 418 406 416 419 414 414 415 417 409 405 414 414 416 419 414 414 412 409 413 415 411 410 412 409 414 414 410 404 411 410 414 414 409 405 410 404 414 414 382 358 437 432 305 314 342 431 405 402 340 430 262 338 350 353 351 354 340 430 338 344 359 337 361 346 340 430 359 337 359 337 324 331 361 346 350 353 333 339 352 355 307 316 305 314 383 356 383 356 437 432 401 396 399 398 400 401 437 432 341 190 342 431 335 131 341 190 406 400 405 402</p>
        </polylist>
        <polylist material="Gummi_012_003-material" count="24">
          <input semantic="VERTEX" source="#Circle_049-mesh-vertices" offset="0"/>
          <input semantic="NORMAL" source="#Circle_049-mesh-normals" offset="1"/>
          <vcount>3 3 3 3 3 3 3 3 3 3 3 3 3 3 3 3 3 3 3 3 3 3 3 3 </vcount>
          <p>79 104 110 433 328 434 78 72 81 71 113 435 78 72 113 435 110 433 328 434 110 433 354 351 113 435 131 132 132 135 113 435 114 114 130 133 289 298 326 113 328 434 288 299 331 436 291 332 288 299 289 298 327 437 328 434 354 351 327 437 331 436 327 437 355 350 331 436 353 347 352 355 326 113 79 104 328 434 81 71 114 114 113 435 79 104 78 72 110 433 110 433 132 135 354 351 110 433 113 435 132 135 131 132 113 435 130 133 327 437 289 298 328 434 331 436 332 333 291 332 331 436 288 299 327 437 354 351 355 350 327 437 353 347 331 436 355 350 332 333 331 436 352 355</p>
        </polylist>
      </mesh>
    </geometry>
  </library_geometries>
  <library_controllers/>
  <library_visual_scenes>
    <visual_scene id="Scene" name="Scene">
      <node id="COL_hollie_right_hand_n" name="COL_hollie_right_hand_n" type="NODE">
        <instance_geometry url="#Circle_049-mesh" name="COL_hollie_right_hand_n">
          <bind_material>
            <technique_common>
              <instance_material symbol="Metall_Alu_007-material" target="#Metall_Alu_007-material"/>
              <instance_material symbol="Gummi_012_003-material" target="#Gummi_012_003-material"/>
            </technique_common>
          </bind_material>
        </instance_geometry>
      </node>
    </visual_scene>
  </library_visual_scenes>
  <scene>
    <instance_visual_scene url="#Scene"/>
  </scene>
</COLLADA>