<?xml version="1.0" encoding="utf-8"?>
<COLLADA xmlns="http://www.collada.org/2005/11/COLLADASchema" version="1.4.1">
  <asset>
    <contributor>
      <author>Blender User</author>
      <authoring_tool>Blender 2.78.0 commit date:2017-02-24, commit time:14:33, hash:e92f2352830</authoring_tool>
    </contributor>
    <created>2017-07-14T10:06:19</created>
    <modified>2017-07-14T10:06:19</modified>
    <unit name="meter" meter="1"/>
    <up_axis>Z_UP</up_axis>
  </asset>
  <library_images/>
  <library_effects>
    <effect id="Metall_Alu_005_001-effect">
      <profile_COMMON>
        <technique sid="common">
          <phong>
            <emission>
              <color sid="emission">0 0 0 1</color>
            </emission>
            <ambient>
              <color sid="ambient">0 0 0 1</color>
            </ambient>
            <diffuse>
              <color sid="diffuse">0.45 0.45 0.45 1</color>
            </diffuse>
            <specular>
              <color sid="specular">0.325 0.325 0.325 1</color>
            </specular>
            <shininess>
              <float sid="shininess">70</float>
            </shininess>
            <index_of_refraction>
              <float sid="index_of_refraction">1</float>
            </index_of_refraction>
          </phong>
        </technique>
      </profile_COMMON>
    </effect>
    <effect id="Kunststoff_druckteile_003_001-effect">
      <profile_COMMON>
        <technique sid="common">
          <phong>
            <emission>
              <color sid="emission">0 0 0 1</color>
            </emission>
            <ambient>
              <color sid="ambient">0 0 0 1</color>
            </ambient>
            <diffuse>
              <color sid="diffuse">0.5 0.5 0.5 1</color>
            </diffuse>
            <specular>
              <color sid="specular">0.5 0.5 0.5 1</color>
            </specular>
            <shininess>
              <float sid="shininess">50</float>
            </shininess>
            <index_of_refraction>
              <float sid="index_of_refraction">1</float>
            </index_of_refraction>
          </phong>
        </technique>
      </profile_COMMON>
    </effect>
    <effect id="Gummi_005_001-effect">
      <profile_COMMON>
        <technique sid="common">
          <phong>
            <emission>
              <color sid="emission">0 0 0 1</color>
            </emission>
            <ambient>
              <color sid="ambient">0 0 0 1</color>
            </ambient>
            <diffuse>
              <color sid="diffuse">0.1 0.1 0.1 1</color>
            </diffuse>
            <specular>
              <color sid="specular">0.025 0.025 0.025 1</color>
            </specular>
            <shininess>
              <float sid="shininess">50</float>
            </shininess>
            <index_of_refraction>
              <float sid="index_of_refraction">1</float>
            </index_of_refraction>
          </phong>
        </technique>
      </profile_COMMON>
    </effect>
  </library_effects>
  <library_materials>
    <material id="Metall_Alu_005_001-material" name="Metall_Alu_005_001">
      <instance_effect url="#Metall_Alu_005_001-effect"/>
    </material>
    <material id="Kunststoff_druckteile_003_001-material" name="Kunststoff_druckteile_003_001">
      <instance_effect url="#Kunststoff_druckteile_003_001-effect"/>
    </material>
    <material id="Gummi_005_001-material" name="Gummi_005_001">
      <instance_effect url="#Gummi_005_001-effect"/>
    </material>
  </library_materials>
  <library_geometries>
    <geometry id="Circle_003-mesh" name="Circle.003">
      <mesh>
        <source id="Circle_003-mesh-positions">
          <float_array id="Circle_003-mesh-positions-array" count="1587">0.002330541 -1.31695e-4 -0.007918596 0.002066195 -0.001096308 -0.007912576 0.001369833 -0.001900613 -0.007916569 4.46811e-4 -0.002296686 -0.007916629 -5.82134e-4 -0.002267003 -0.007899999 -0.00152707 -0.001751959 -0.007924377 -0.002117276 -9.50532e-4 -0.007907986 -0.002308607 1.02471e-4 -0.007920861 -0.002042472 0.001067817 -0.007914185 -0.00134623 0.001871943 -0.007917225 -4.24205e-4 0.002267837 -0.007914602 6.05607e-4 0.002236664 -0.007898271 0.001549899 0.001721262 -0.007922291 0.002139508 9.20843e-4 -0.007905721 0.002534866 -1.19863e-4 -0.006000995 0.002239346 -0.001204192 -0.006000697 0.001502633 -0.002052962 -0.00600028 4.7066e-4 -0.002497971 -0.005999803 -6.52214e-4 -0.002451181 -0.005999445 -0.001643538 -0.001921713 -0.005999147 -0.002306997 -0.00101459 -0.005999088 -0.002511262 9.05939e-5 -0.005999267 -0.002215743 0.001174926 -0.005999565 -0.00147897 0.002023696 -0.005999982 -4.47024e-4 0.002468705 -0.006000399 6.75852e-4 0.002421915 -0.006000816 0.001667201 0.001892447 -0.006001055 0.00233066 9.85346e-4 -0.006001114 0.007376909 -0.003334879 -0.005798518 0.005785584 -0.003268539 -0.005801558 0.003637015 -0.004970967 -0.00579679 0.001124143 -0.006038665 -0.005770981 -0.001598954 -0.005929172 -0.005778312 -0.00375235 -0.004801392 -0.005797863 -0.003660738 -0.00260502 -0.005798339 -0.003546535 1.33815e-4 -0.005798876 -0.003432273 0.002872645 -0.005799412 -0.003307878 0.005856335 -0.005800008 -0.001114845 0.005764842 -0.005800783 0.001615941 0.005650937 -0.005801737 0.007741153 0.005395472 -0.005803883 0.007583856 0.00162363 -0.005803108 -0.004258155 -0.005496621 -0.005231738 -0.00411576 -4.57175e-4 -0.005366742 -0.004015386 0.0019477 -0.005366683 -0.003935933 0.003851711 -0.005366563 -0.003829479 0.005901157 -0.005341649 -0.004928588 0.001439929 -0.004618287 -0.006069004 0.003150522 -0.003601551 -0.008398711 0.004139006 -0.001608073 -0.008327126 0.006065666 -0.001604795 -0.004294991 -0.005539059 -0.003998935 -0.004095911 -4.5737e-4 -0.005055665 0.004726648 -0.005626142 -0.004799962 -0.004933416 0.001488149 -0.004410505 -0.006101846 0.003106534 -0.003276407 0.003579258 -0.00595808 -0.005239903 0.001064062 -0.006911098 -0.005265831 -0.001611232 -0.006800115 -0.005265057 0.007082223 -0.005882024 -0.004323422 0.003595292 -0.00598675 -0.004000246 0.001064479 -0.006910622 -0.003999173 -0.001611292 -0.006799399 -0.003998219 0.00472337 -0.005656838 -0.003930866 0.005515754 -0.005855917 -0.004391252 0.005790233 -0.006301641 -0.002324819 0.006946623 -0.007559061 -0.001595914 0.006946861 -0.007558822 -7.14216e-4 0.01154577 -0.007756412 -0.001595914 0.01059478 -5.56493e-4 -0.005530059 0.009235739 -0.007659375 -0.001595914 0.01039075 -0.007707893 -0.001595914 0.00808078 -0.007610797 -0.001595914 0.007377266 -0.003334939 -0.004827976 0.01052832 -0.006283819 -0.004452049 0.008751451 -0.007233262 -0.002311885 0.01009184 -0.006948411 -0.002902984 0.007270216 -0.006706893 -0.003114819 0.007596373 0.001623034 -0.004820942 0.007133603 -0.00484842 -0.004137873 0.01050066 -0.005228817 -0.004443645 0.008803486 -0.006442785 -0.002305805 0.01012635 -0.006055712 -0.00300002 0.007324337 -0.005685985 -0.003141224 0.01425087 -6.73667e-4 -0.009000837 0.0141353 -0.003433763 -0.008537769 0.0140379 -0.00577557 -0.007281541 0.01394683 -0.007965326 -0.005003571 0.01389724 -0.009153842 -0.002784967 0.018184 0.008427262 -0.005403876 0.01823949 0.009777009 -0.002818405 0.01745647 -0.008939564 -0.003561496 0.01751905 -0.007494568 -0.005972921 0.01758462 -0.00592184 -0.007358431 0.01769036 -0.003389239 -0.008608639 0.01780647 -6.05484e-4 -0.00900644 0.01469296 0.00992459 -0.002818107 0.01463723 0.008572936 -0.005401015 0.01455152 0.006529569 -0.007374703 0.01444476 0.00398457 -0.008608996 0.01809847 0.006384372 -0.007380366 0.01874428 0.004027247 -0.008721172 0.02038705 -0.008879661 -0.003513574 0.02045357 -0.00761789 -0.005973935 0.02050954 -0.006076872 -0.007343232 0.02032506 -0.004391014 -0.008284091 0.02012509 0.009130954 -0.005329251 0.02053201 0.01041728 -0.002903759 0.01957201 0.007206201 -0.00722593 0.01888537 0.004780411 -0.008489072 0.02541416 0.01016014 -0.004236221 0.02598679 0.01077365 -0.002816736 0.0248807 0.009146153 -0.005717277 0.02443611 0.008060991 -0.006813406 0.03099638 0.01031875 -0.003853499 0.03118628 0.01087987 -0.002283692 0.03060615 0.009718775 -0.004962325 0.03039276 0.009066283 -0.005834519 0.03567957 0.009979069 -0.003686726 0.03572887 0.01037913 -0.002591609 0.03538846 0.009510695 -0.004634976 0.03522801 0.009005248 -0.005411326 0.04164379 0.008937418 -0.00392884 0.04149597 0.009480237 -0.002640962 0.04174846 0.008380472 -0.004878044 0.04193282 0.007682681 -0.00574249 0.01890069 0.003614068 -0.008821606 0.02476179 0.006776332 -0.00770092 0.03053969 0.007944345 -0.006948828 0.0353443 0.00797528 -0.00654155 0.04205012 0.006952941 -0.006512522 0.02375173 -0.008810937 -0.003458559 0.02381867 -0.007585227 -0.005874752 0.02389049 -0.006420612 -0.007192194 0.02366685 -0.005661785 -0.007708251 0.02889198 -0.008705854 -0.003374457 0.02893114 -0.007513642 -0.005711436 0.02894973 -0.006905496 -0.006504178 0.02889305 -0.006287634 -0.007053315 0.03410542 -0.008578658 -0.003283619 0.03409701 -0.008239865 -0.00415939 0.03412336 -0.007118344 -0.005969226 0.03414505 -0.006273567 -0.006644606 0.04507422 -0.008501827 -0.0027197 0.04510921 -0.0077008 -0.004531979 0.04514378 -0.00684601 -0.005759358 0.04517698 -0.006040692 -0.006515204 0.04237622 0.008595108 -0.003918468 0.04238355 0.009063124 -0.002745091 0.04237461 0.008111894 -0.004787504 0.0423606 0.007447481 -0.005558907 0.04233318 0.006802439 -0.006487131 0.04430043 0.008340358 -0.00391066 0.04431897 0.008809804 -0.002740859 0.04427987 0.00785923 -0.004777371 0.04425966 0.007215499 -0.005562543 0.04392385 0.006333708 -0.006517052 0.04867637 0.008082985 -0.003871381 0.04869532 0.008538663 -0.002705693 0.04865676 0.007612764 -0.004738271 0.04863274 0.007037281 -0.005565583 0.0485953 0.006138861 -0.006518661 0.04797971 -0.008621394 -0.002719163 0.04801297 -0.007822632 -0.004532456 0.04804867 -0.006967782 -0.005759835 0.04808223 -0.006161868 -0.006516218 0.05089819 0.006028473 -0.006519496 0.05039215 -0.006258189 -0.006516993 0.05204206 0.005554974 -0.006215453 0.0518881 -0.005518317 -0.006498336 0.05376875 0.002479553 -0.006519854 0.05350863 -0.003764569 -0.006518602 0.05470544 7.73692e-4 -0.00650072 0.05462586 -0.001375019 -0.006500959 0.05020499 0.008518159 -0.002564787 0.05007928 -0.008761107 -0.002549946 0.05274873 0.007629632 -0.002554237 0.05209821 -0.008067846 -0.002533197 0.05534607 0.005212903 -0.002559363 0.05489289 -0.005875766 -0.002534627 0.05661237 0.001210212 -0.002614259 0.05647814 -0.001984596 -0.002604305 0.05402344 -0.002029538 -0.006519079 0.05447608 0.001530289 -0.006519913 0.05641263 -0.003242254 -0.002605915 0.05664485 0.002467811 -0.002619802 0.05021136 0.008668541 -0.001984417 0.04860848 -0.007847726 -0.004532575 0.04932051 -0.007021307 -0.005760252 0.05025887 -0.008755207 -0.001900911 0.05275392 0.007638752 -0.002001762 0.05299657 -0.007552087 -0.001951813 0.05534207 0.005212545 -0.002020835 0.05487942 -0.005869507 -0.00201857 0.05658906 0.001211225 -0.002020537 0.05645579 -0.001983523 -0.002019882 0.05640339 -0.003239214 -0.002019584 0.05664139 0.002466976 -0.002020776 0.04964321 0.008045852 -0.003863871 0.05290848 3.7985e-5 -0.001893818 0.04934233 0.007584035 -0.004738271 0.04976361 0.006990015 -0.005565583 0.01068717 -5.25028e-4 -0.009000778 0.01058095 -0.003283441 -0.008530855 0.0104829 -0.005627274 -0.007281541 0.01406133 0.009944796 -0.002816021 0.0120688 0.008674144 -0.005396425 0.008374571 0.006267845 -0.007717013 0.008218884 0.003101229 -0.008872509 0.00811994 0.001612544 -0.005803346 0.008285105 0.005391955 -0.005804121 0.003785908 0.004330694 -0.001749575 0.002682685 0.004376769 -0.00313425 0.00108838 0.004443585 -0.003902733 -6.81107e-4 0.004517972 -0.003902733 -0.002275347 0.004585087 -0.00313425 -0.00337857 0.004631757 -0.001749575 0.0106067 -0.007828533 -0.004998862 0.01140171 -0.009058654 -0.002787828 0.04985177 -1.16178e-4 -0.008964598 0.0496459 -8.75438e-4 -0.008961498 0.04909336 -0.001498699 -0.008946895 0.04835486 -0.001812219 -0.008945405 0.04756826 -0.001786351 -0.008942604 0.04684048 -0.001385688 -0.008933782 0.04636996 -7.47937e-4 -0.008925974 0.04622548 5.22423e-5 -0.008939623 0.04642683 8.05591e-4 -0.008939504 0.04696702 0.001424074 -0.008931577 0.04769897 0.001742839 -0.008937537 0.04848825 0.001731455 -0.00894916 0.04922223 0.001334309 -0.008949697 0.04970008 6.9515e-4 -0.008947372 0.05002397 -4.15626e-4 -0.005597591 0.04979985 -0.001006126 -0.005870819 0.0492289 -0.001302182 -0.005590677 0.04796916 -0.001992285 -0.005783915 0.04796916 -0.001992285 -0.005783915 0.04672163 -0.001198112 -0.005563855 0.04617649 -8.63889e-4 -0.005867183 0.04600358 -2.27795e-4 -0.005589663 0.0462529 9.63621e-4 -0.0053128 0.04683029 0.001410067 -0.005215644 0.0481339 0.001927971 -0.00578469 0.04813396 0.001928269 -0.00578469 0.04933637 0.001275956 -0.005209922 0.04987913 8.87368e-4 -0.005317032 0.002330541 -1.31697e-4 0.007918596 0.002066195 -0.001096308 0.007912576 0.001369833 -0.001900613 0.007916569 4.46811e-4 -0.002296686 0.007916629 -5.82134e-4 -0.002267003 0.007899999 -0.00152707 -0.001751959 0.007924377 -0.002117276 -9.50535e-4 0.007907986 -0.002308607 1.02469e-4 0.007920861 -0.002042472 0.001067817 0.007914185 -0.00134623 0.001871943 0.007917225 -4.24205e-4 0.002267837 0.007914602 6.05607e-4 0.002236664 0.007898271 0.001549899 0.001721262 0.007922291 0.002139508 9.2084e-4 0.007905721 0.002534866 -1.19864e-4 0.006000995 0.002239346 -0.001204192 0.006000697 0.001502633 -0.002052962 0.00600028 4.7066e-4 -0.002497971 0.005999803 -6.52214e-4 -0.002451181 0.005999445 -0.001643538 -0.001921713 0.005999147 -0.002306997 -0.00101459 0.005999088 -0.002511262 9.0592e-5 0.005999267 -0.002215743 0.001174926 0.005999565 -0.00147897 0.002023696 0.005999982 -4.47024e-4 0.002468705 0.006000459 6.75852e-4 0.002421915 0.006000816 0.001667201 0.001892447 0.006001055 0.00233066 9.85344e-4 0.006001174 0.007376909 -0.003334879 0.005798518 0.005785584 -0.003268539 0.005801558 0.003637015 -0.004970967 0.00579679 0.001124143 -0.006038665 0.005770981 -0.001598954 -0.005929172 0.005778312 -0.00375235 -0.004801392 0.005797863 -0.003660738 -0.00260502 0.005798339 -0.003546535 1.33813e-4 0.005798876 -0.003432273 0.002872645 0.005799412 -0.003307878 0.005856335 0.005800008 -0.001114845 0.005764842 0.005800783 0.001615941 0.005650937 0.005801737 0.007741153 0.005395472 0.005803883 0.007583856 0.00162363 0.005803167 -0.004258155 -0.005496621 0.005231738 -0.00411576 -4.57177e-4 0.005366742 -0.004015386 0.0019477 0.005366683 -0.003935933 0.003851711 0.005366563 -0.003829479 0.005901157 0.005341649 -0.004928588 0.001439929 0.004618346 -0.006069004 0.003150522 0.003601551 -0.008398711 0.004139006 0.001608073 -0.008327126 0.006065666 0.001604795 -0.008568584 0.004199504 0 -0.008473873 0.006071627 0 -0.004294991 -0.005539059 0.003998935 -0.004095911 -4.57372e-4 0.005055665 0.004726648 -0.005626142 0.004799962 -0.004933416 0.001488149 0.004410505 -0.006101846 0.003106534 0.003276467 0.003579258 -0.00595808 0.005239903 0.001064062 -0.006911098 0.005265891 -0.001611232 -0.006800115 0.005265057 0.007082223 -0.005882024 0.004323422 0.003595292 -0.00598675 0.004000246 0.001064479 -0.006910622 0.003999173 -0.001611292 -0.006799399 0.003998219 0.00472337 -0.005656838 0.003930866 0.005515754 -0.005855917 0.004391252 0.005790233 -0.006301641 0.002324819 0.006946623 -0.007559061 0.001595914 0.006946861 -0.007558822 7.14217e-4 0.006213784 -0.006760835 0 0.00694704 -0.007558643 0 0.01154577 -0.007756412 0.001595914 0.01059478 -5.56495e-4 0.005530059 0.01154577 -0.007756114 0 0.009235739 -0.007659375 0.001595914 0.01039075 -0.007707893 0.001595914 0.00808078 -0.007610797 0.001595914 0.007377266 -0.003334939 0.004827976 0.01052832 -0.006283819 0.004452049 0.008751451 -0.007233262 0.002311885 0.01009184 -0.006948411 0.002902984 0.007270216 -0.006706893 0.003114819 0.007596373 0.001623034 0.004820942 0.007133603 -0.00484842 0.004137873 0.01050066 -0.005228817 0.004443645 0.008803486 -0.006442785 0.002305805 0.01012635 -0.006055712 0.00300002 0.007324337 -0.005685985 0.003141224 0.01425087 -6.73669e-4 0.009000837 0.0141353 -0.003433763 0.008537769 0.0140379 -0.00577557 0.007281541 0.01394683 -0.007965326 0.005003571 0.01389724 -0.009153842 0.002784967 0.01387834 -0.009605526 0 0.018184 0.008427262 0.005403876 0.01823949 0.009777009 0.002818405 0.01825803 0.0102269 0 0.01742959 -0.009511947 0 0.01745647 -0.008939564 0.003561496 0.01751905 -0.007494568 0.005972921 0.01758462 -0.00592184 0.007358431 0.01769036 -0.003389239 0.008608639 0.01780647 -6.05487e-4 0.0090065 0.01471179 0.0103777 0 0.01469296 0.00992459 0.002818107 0.01463723 0.008572936 0.005401015 0.01455152 0.006529569 0.007374703 0.01444476 0.00398457 0.008609056 0.01809847 0.006384372 0.007380366 0.01874428 0.004027247 0.008721172 0.02036041 -0.009445607 0 0.02038705 -0.008879661 0.003513574 0.02045357 -0.00761789 0.005973935 0.02050954 -0.006076872 0.007343232 0.02032506 -0.004391074 0.008284091 0.02012509 0.009130954 0.005329251 0.02053201 0.01041728 0.002903819 0.02063316 0.0109083 0 0.01957201 0.007206201 0.00722593 0.01888537 0.004780411 0.008489072 0.02541416 0.01016014 0.004236221 0.02598679 0.01077365 0.002816736 0.02600693 0.01123023 0 0.0248807 0.009146153 0.005717337 0.02443611 0.008060991 0.006813466 0.03099638 0.01031875 0.003853559 0.03118628 0.01087987 0.002283692 0.03121507 0.01118004 0 0.03060615 0.009718775 0.004962325 0.03039276 0.009066283 0.005834519 0.03567957 0.009979069 0.003686785 0.03572887 0.01037913 0.002591609 0.03574568 0.01075631 0 0.03538846 0.009510695 0.004634976 0.03522801 0.009005248 0.005411326 0.04164379 0.008937418 0.00392884 0.04149597 0.009480237 0.002640962 0.04136425 0.009906351 0 0.04174846 0.008380472 0.004878044 0.04193282 0.007682681 0.00574249 0.01890069 0.003614068 0.008821606 0.02476179 0.006776332 0.00770092 0.03053969 0.007944345 0.006948828 0.0353443 0.00797528 0.00654155 0.04205012 0.006952941 0.006512522 0.02372467 -0.009369134 0 0.02375173 -0.008810937 0.003458559 0.02381867 -0.007585227 0.005874752 0.02389049 -0.006420612 0.007192194 0.02366685 -0.005661785 0.007708251 0.02887946 -0.009252727 0 0.02889198 -0.008705854 0.003374457 0.02893114 -0.007513642 0.005711436 0.02894973 -0.006905555 0.006504178 0.02889305 -0.006287634 0.007053315 0.03408133 -0.009117662 0 0.03410542 -0.008578658 0.003283619 0.03409701 -0.008239865 0.00415939 0.03412336 -0.007118344 0.005969226 0.03414505 -0.006273567 0.006644606 0.0450567 -0.008921325 0 0.04507422 -0.008501827 0.0027197 0.04510921 -0.0077008 0.004531979 0.04514378 -0.00684601 0.005759418 0.04517698 -0.006040751 0.006515204 0.04237622 0.008595108 0.003918468 0.04238355 0.009063124 0.002745091 0.04241162 0.00947678 0 0.04237461 0.008111894 0.004787504 0.0423606 0.007447481 0.005558907 0.04233318 0.006802439 0.006487131 0.04430043 0.008340358 0.00391072 0.04431897 0.008809804 0.002740919 0.04433912 0.009234845 0 0.04427987 0.00785923 0.004777371 0.04425966 0.007215499 0.005562543 0.04392385 0.006333708 0.006517052 0.04867637 0.008082985 0.003871381 0.04869532 0.008538663 0.002705693 0.04870694 0.008945226 0 0.04865676 0.007612764 0.004738271 0.04863274 0.007037281 0.005565583 0.0485953 0.006138861 0.006518721 0.04796224 -0.009031593 0 0.04797971 -0.008621394 0.002719163 0.04801297 -0.007822632 0.004532456 0.04804867 -0.006967782 0.005759894 0.04808223 -0.006161868 0.006516218 0.05089819 0.006028473 0.006519496 0.05039215 -0.006258189 0.006516993 0.05204206 0.005554974 0.006215512 0.0518881 -0.005518317 0.006498336 0.05376875 0.002479553 0.006519854 0.05350863 -0.003764569 0.006518602 0.05470544 7.7369e-4 0.00650072 0.05462586 -0.001375019 0.006500959 0.05020499 0.008518159 0.002564787 0.05007928 -0.008761107 0.002549946 0.05274873 0.007629632 0.002554237 0.05209821 -0.008067846 0.002533197 0.05534607 0.005212903 0.002559363 0.05489289 -0.005875766 0.002534627 0.05661237 0.001210212 0.002614259 0.05647814 -0.001984596 0.002604305 0.05402344 -0.002029538 0.006519079 0.05447608 0.001530289 0.006519913 0.05641263 -0.003242254 0.002605915 0.05664485 0.002467811 0.002619802 0.05021136 0.008668541 0.001984417 0.04860848 -0.007847726 0.004532575 0.04932051 -0.007021307 0.005760252 0.04853224 -0.009019315 0 0.05025887 -0.008755207 0.001900911 0.05275392 0.007638752 0.002001762 0.05299657 -0.007552087 0.001951813 0.05534207 0.005212545 0.002020835 0.05487942 -0.005869507 0.00201857 0.05658906 0.001211225 0.002020537 0.05645579 -0.001983523 0.002019882 0.05640339 -0.003239214 0.002019584 0.05664139 0.002466976 0.002020776 0.0500729 -0.008802592 0 0.05299204 -0.007556021 0 0.05020189 0.008708775 0 0.05275428 0.007639348 0 0.04964321 0.008045852 0.00386393 0.05290848 3.79845e-5 0.001893818 0.04934233 0.007584035 0.004738271 0.04976361 0.006990015 0.005565583 0.05281323 9.75725e-5 0 0.01068717 -5.2503e-4 0.009000778 0.01058095 -0.0032835 0.008530855 0.0104829 -0.005627274 0.007281541 0.01203209 0.008737862 0 0.01406133 0.009944796 0.002816021 0.0120688 0.008674144 0.005396425 0.008374571 0.006267845 0.007717013 0.008218884 0.003101229 0.008872509 0.008337378 0.005390942 0 0.00811994 0.001612544 0.005803346 0.008285105 0.005391955 0.005804121 0.004179716 0.004314482 0 0.003785908 0.004330694 0.001749575 0.002682685 0.004376769 0.00313431 0.00108838 0.004443585 0.003902733 -6.81107e-4 0.004517972 0.003902733 -0.002275347 0.004585087 0.00313431 -0.00337857 0.004631757 0.001749575 -0.003773272 0.004648685 0 0.008337676 0.005390942 0 0.0106067 -0.007828533 0.004998862 0.01140171 -0.009058654 0.002787828 0.01162999 -0.009367167 0 0.04985177 -1.16181e-4 0.008964598 0.0496459 -8.75441e-4 0.008961498 0.04909336 -0.001498699 0.008946895 0.04835486 -0.001812219 0.008945405 0.04756826 -0.001786351 0.008942663 0.04684048 -0.001385688 0.008933782 0.04636996 -7.4794e-4 0.008925974 0.04622548 5.22395e-5 0.008939623 0.04642683 8.05588e-4 0.008939504 0.04696702 0.001424074 0.008931577 0.04769897 0.001742839 0.008937537 0.04848825 0.001731455 0.00894916 0.04922223 0.001334309 0.008949697 0.04970008 6.95148e-4 0.008947372 0.05002397 -4.15627e-4 0.005597591 0.04979985 -0.001006126 0.005870819 0.0492289 -0.001302182 0.005590677 0.04796916 -0.001992344 0.005783915 0.04796916 -0.001992344 0.005783915 0.04672163 -0.001198112 0.005563855 0.04617649 -8.63891e-4 0.005867183 0.04600358 -2.27797e-4 0.005589723 0.0462529 9.63619e-4 0.0053128 0.04683029 0.001410067 0.005215644 0.0481339 0.001927971 0.00578469 0.04813396 0.001928269 0.00578469 0.04933637 0.001275956 0.005209922 0.04987913 8.87366e-4 0.005317032</float_array>
          <technique_common>
            <accessor source="#Circle_003-mesh-positions-array" count="529" stride="3">
              <param name="X" type="float"/>
              <param name="Y" type="float"/>
              <param name="Z" type="float"/>
            </accessor>
          </technique_common>
        </source>
        <source id="Circle_003-mesh-normals">
          <float_array id="Circle_003-mesh-normals-array" count="1581">0.6777206 0.2917989 -0.6749433 0.5752652 0.2425398 -0.7811814 0.7137561 -0.0328083 -0.6996257 0.4681357 0.5366516 -0.7020357 0.4061518 0.4716159 -0.7827 0.1924222 0.7205227 -0.6661989 0.1608681 0.611671 -0.7745839 -0.1320877 0.7031659 -0.6986491 -0.1112716 0.6242932 -0.773225 -0.419306 0.5748634 -0.7026482 -0.3745378 0.5082446 -0.7755057 -0.6308001 0.3390066 -0.6979727 -0.5852976 0.2960669 -0.7548318 -0.7138475 0.03341865 -0.6995034 -0.682587 0.02746701 -0.7302882 -0.6778626 -0.2919164 -0.6747496 -0.6082258 -0.246446 -0.7545369 -0.4682617 -0.5370528 -0.7016448 -0.4151535 -0.4808004 -0.7723203 -0.1918759 -0.7214193 -0.6653856 -0.1679773 -0.6138926 -0.7713103 0.1331544 -0.7025477 -0.6990685 0.1136536 -0.6263769 -0.7711906 0.4207642 -0.5755257 -0.701233 0.3726394 -0.5123869 -0.7736923 0.6316894 -0.3380933 -0.6976112 0.5521517 -0.2997587 -0.7779932 0.6281405 -0.0224924 -0.7777748 0.6566538 -0.237654 -0.7157698 0.01425248 0.8297288 -0.5579848 0.03702008 0.8917784 -0.4509554 -0.1807369 0.7732746 -0.6077669 -0.4019066 0.01904392 -0.9154828 -0.4414255 0.004547297 -0.8972864 -0.4192752 -0.1532683 -0.8948281 -0.09189355 -0.3172785 -0.9438698 0.1872625 -0.2941695 -0.9372285 0.05466026 -0.2483366 -0.9671304 -0.2920438 0.863252 -0.4117118 -0.4175339 0.0172739 -0.9084972 -0.6322152 0.02633845 -0.7743452 -0.8769878 -0.06134271 -0.4765813 -0.7653892 -0.4818664 -0.4265963 -0.6243343 0.03552448 -0.7803492 -0.5873212 0.7324728 -0.3442928 -0.7827543 -0.1638571 -0.6003721 -0.872062 -0.2494047 -0.4210765 -0.8650011 0.03677541 -0.5004206 -0.6097506 0.7925934 0 -0.827429 -0.5605105 -0.03448635 0.6062998 -0.5285667 -0.5941531 -0.06314486 -0.813345 -0.5783448 -0.8583458 -0.4947124 -0.136023 -0.8115236 -0.5732028 0.1134381 0.06604295 -0.3209067 -0.9448055 0.1352002 -0.8708664 -0.4725598 0.3414514 -0.7845326 -0.5176096 -0.2095439 -0.8581046 -0.4687728 -0.2379873 -0.9712681 4.88304e-4 0.316112 -0.9484581 -0.02237015 0.2965298 -0.6480866 -0.7014656 -0.6595807 -0.749124 -0.06137406 -0.4227537 -0.9062409 -0.002594113 -0.4215301 -0.9068145 0 -0.5600894 -0.2116205 -0.8009473 -0.6826578 -0.2136663 -0.6988026 -0.9955509 -0.01135295 -0.09353983 -0.9477314 -0.3038148 -0.09747707 -0.6445092 -0.3796616 -0.6636754 -0.6920543 -0.04043799 -0.7207119 -0.03708058 -0.8633221 0.5032892 -0.03741633 -0.8641775 0.5017943 -0.05212712 -0.8542683 0.5172122 -0.02233999 -0.6413595 -0.7669153 -0.2046588 -0.9782481 -0.03384524 -0.8121473 -0.581544 -0.04715216 -0.9885728 -0.1336123 -0.06979703 -0.3794765 -0.9067882 -0.1836649 0.268019 -0.8076279 -0.5252649 0.3371749 -0.01446604 -0.9413309 0.9990548 -0.04199349 -0.01123076 0.8668623 -0.05633807 -0.4953542 -0.427 -0.6220203 -0.6563244 -0.8465411 -0.01028496 -0.532224 0.9956125 -0.06665289 0.06567627 0.9966003 -0.08166903 0.01086479 -0.01388603 0.273082 -0.9618906 -0.0202645 0.2701835 -0.9625956 4.88305e-4 -0.05023443 -0.9987374 0.00589025 0.5755991 -0.8177109 -0.1001315 0.5876663 -0.8028835 0.02856582 0.7985919 -0.6011947 -0.1109982 0.7920028 -0.6003425 0.03509742 0.9485769 -0.3145951 -0.1174679 0.9420939 -0.3141025 -0.2074068 0.9782548 0 -0.1207624 0.9926815 0 -0.01834207 -0.9493627 -0.3136464 -0.008118093 -0.9372743 -0.3484984 -0.02450644 -0.9996997 0 -0.03460872 -0.8124514 -0.582001 -0.06009262 -0.7588337 -0.6485062 -0.02972579 -0.6008037 -0.7988437 -0.04260462 -0.5622836 -0.8258463 -0.01184153 -0.3233839 -0.9461939 0.001159667 -0.2840393 -0.958812 0.08023577 -0.04361236 -0.9958214 -0.02063095 -0.5802308 -0.8141909 0.004059076 -0.7856951 -0.6186006 0.02456748 -0.9996982 0 0.02392715 -0.9502509 -0.3105651 0.05411112 -0.280444 -0.9583439 0.003173947 -0.6541171 -0.7563868 0.01544284 -0.8210666 -0.5706235 0.0227366 -0.9997416 0 0.02465945 -0.9506708 -0.3092198 0.05121129 -0.3281736 -0.9432283 0.03381526 -0.7339877 -0.6783205 0.03540199 -0.84031 -0.5409492 0.02279764 -0.9997401 0 0.02642911 -0.9501972 -0.3105269 0.06967502 -0.3681823 -0.9271393 0.03357064 -0.7535084 -0.6565808 0.01422196 -0.898365 -0.4390196 0.01754856 -0.9621495 -0.2719569 0.02462846 -0.9996967 0 0.04712176 -0.3333012 -0.9416422 0.002258419 -0.3599433 -0.9329715 -0.00250256 -0.7569963 -0.6534144 -0.006195306 -0.8707656 -0.4916596 0.02194285 -0.9997593 0 -0.01196348 -0.9999285 0 0.1926981 0.4279704 -0.8830113 0.07617545 0.4243364 -0.9022948 -0.0298478 0.120429 -0.9922732 0.03836196 0.3187678 -0.9470562 0.05371338 0.4006533 -0.914654 0.1894033 0.4038326 -0.8950116 0.3238405 0.7562077 -0.5685749 0.07507807 0.7520933 -0.6547664 0.259722 0.9303908 -0.2586843 0.2575791 0.9662573 0 0.093876 0.9598795 -0.2642324 0.2579479 0.8729392 -0.4140533 0.08884167 0.8987018 -0.4294676 0.255141 0.7935311 -0.5524596 0.0783112 0.8248317 -0.5599285 0.05249238 0.3574062 -0.9324728 0.03650045 0.773224 -0.6330817 0.09552341 0.9954273 0 0.109929 0.9939395 0 0.05011188 0.9655247 -0.2554427 0.04809761 0.9057673 -0.4210373 -0.03183132 -0.7556203 -0.6542361 -0.03531026 -0.8716183 -0.4889119 -0.009247183 -0.9601567 -0.2793094 -0.03964442 -0.958425 -0.2825773 0.01742666 0.3962671 -0.9179699 -0.01562559 -0.3675379 -0.9298774 0.1733165 -0.4974879 -0.8499807 0.5719883 0.04419159 -0.8190706 0.9782046 -0.0336017 -0.2049065 0.9778841 -0.04590028 -0.2040488 0.3691594 -0.2229117 -0.9022371 0.9206641 -0.2955147 -0.2550466 0.7304726 -0.6317435 -0.2594421 0.4707826 0.2116782 -0.8564789 0.9462981 0.2117093 -0.2443339 0.5519406 -0.1836953 -0.8133989 0.4905345 0.4377058 -0.7535182 0.5158402 0.8065688 -0.2887142 0.2883446 0.2830038 -0.9147494 0.4776212 -0.2688107 -0.8364322 0.4218348 -0.8942092 -0.1498181 0.2474226 0.4722913 -0.8460041 0.2019757 0.9178633 -0.3416618 0.3424836 -0.4330944 -0.8337472 0.180857 -0.9445707 -0.2740018 0.7610946 0.5783441 -0.2936889 0.07806807 -0.7887688 -0.6097126 0.6074362 0.4416219 0.6602965 -0.02475118 -0.9996936 0 0.7062427 -0.03192293 0.7072498 0.7067568 -0.02539169 0.7070009 0.5735399 -0.4821056 0.6622886 0.6772783 0.7242471 0.1294617 0.1612605 0.9808082 -0.1095924 0.7325645 -0.6803757 0.02093648 0.2827616 -0.9585513 -0.03500562 0.2632543 -0.9647265 0 0.05905479 -0.9982548 0 0.232678 0.9725539 0 0.09476345 0.8483545 -0.5208787 0.1812238 0.8802389 -0.4385629 0.1418529 0.7965189 -0.5877375 0.04413044 0.849984 -0.5249569 0.7029069 0.007873773 0.7112385 0.8274394 0.5615552 0 0.9999455 0.01043736 0 0.7451458 0.1521359 0.6493169 0.7262707 -0.2124457 0.6537566 -0.6432822 0.543088 -0.5396698 -0.2549566 0.8767834 -0.4077352 -0.5771169 0.8166617 0 -0.7048723 -0.4177473 -0.5732734 -0.2268147 0.9507787 -0.2111281 -0.8999677 0.3605303 -0.2451044 0.01284855 0.8754106 0.4832093 -0.9309562 -0.3651311 0 -0.2201026 0.9754768 0 -0.9945892 -0.1038872 -3.05192e-5 -0.08856683 0.9767378 0.1952926 0.2822404 0.9493874 0.1378546 0.2605993 0.9143103 0.3100396 0.08984923 0.8681865 0.4880364 -0.6379406 -0.7589793 -0.1303165 -0.7102168 -0.6329112 -0.3082459 -0.7194041 -0.6945918 0 0.6856793 0.3171271 -0.6551904 0.8211358 0.5670678 -0.06457751 0.7234967 -0.02530068 -0.6898642 0.4830265 0.5707385 -0.6640355 0.5526088 0.8326517 -0.03625661 0.1948035 0.7078605 -0.6789589 -0.3427878 0.9343959 -0.09695839 -0.1609 0.7218528 -0.6730823 -0.7556489 0.6513963 -0.06839293 -0.441829 0.6070305 -0.6605309 -0.5227832 0.8517429 -0.03509634 -0.6388308 0.3521932 -0.6839994 -0.8136145 0.5782495 -0.06048923 -0.7266026 0.03442567 -0.6861951 -0.9977779 0.03143423 -0.05874842 -0.6862537 -0.3194134 -0.6534761 -0.7957677 -0.6011748 -0.07309436 -0.4973078 -0.5747957 -0.6498421 -0.5438767 -0.8390247 -0.01535093 -0.2218424 -0.7092913 -0.6690979 -0.3570188 -0.6610861 0.6599264 0.1575697 -0.7281837 -0.6670236 0.3376053 -0.6179257 0.7100638 0.4338368 -0.6223262 -0.6515335 0.4838181 -0.8750414 -0.01492375 0.6294297 -0.368734 -0.6839982 0.7453125 -0.6635208 -0.06518924 0.9965051 -0.06613457 -0.05102765 0.6777206 0.2917989 0.6749433 0.7137561 -0.0328083 0.6996257 0.5752652 0.2425398 0.7811814 0.4681357 0.5366516 0.7020357 0.1924222 0.7205227 0.6661989 0.1608681 0.611671 0.7745839 -0.1320877 0.7031659 0.6986491 -0.419306 0.5748634 0.7026482 -0.1112716 0.6242932 0.773225 -0.6308001 0.3390066 0.6979727 -0.5852976 0.2960669 0.7548318 -0.7138475 0.03341865 0.6995034 -0.6778626 -0.2919164 0.6747496 -0.6082258 -0.246446 0.7545369 -0.4682617 -0.5370528 0.7016448 -0.1918759 -0.7214193 0.6653856 -0.1679773 -0.6138926 0.7713103 0.1331544 -0.7025477 0.6990685 0.4207642 -0.5755257 0.701233 0.3726394 -0.5123869 0.7736923 0.6316894 -0.3380933 0.6976112 0.5521517 -0.2997587 0.7779932 0.6281405 -0.0224924 0.7777748 0.6566538 -0.237654 0.7157698 0.3371749 -0.01446604 0.9413309 0.01425248 0.8297288 0.5579848 0.03702008 0.8917784 0.4509554 -0.1807369 0.7732746 0.6077669 -0.3745378 0.5082446 0.7755057 -0.4019066 0.01904392 0.9154828 -0.682587 0.02746701 0.7302882 -0.4175339 0.0172739 0.9084972 -0.4414255 0.004547297 0.8972864 -0.4192752 -0.1532683 0.8948281 -0.4151535 -0.4808004 0.7723203 -0.09189355 -0.3172785 0.9438698 0.1136536 -0.6263769 0.7711906 0.06604295 -0.3209067 0.9448055 0.1872625 -0.2941695 0.9372285 0.05466026 -0.2483366 0.9671304 0.4061518 0.4716159 0.7827 -0.2920438 0.863252 0.4117118 -0.6243343 0.03552448 0.7803492 -0.6322152 0.02633845 0.7743452 -0.8769878 -0.06134271 0.4765813 -0.7653892 -0.4818664 0.4265963 -0.5873212 0.7324728 0.3442928 -0.8650011 0.03677541 0.5004206 -0.7827543 -0.1638571 0.6003721 -0.872062 -0.2494047 0.4210765 -0.9800244 -0.1888512 -0.06235015 -0.827429 -0.5605105 0.03448635 -0.06314486 -0.813345 0.5783448 -0.8583458 -0.4947124 0.136023 -0.8115236 -0.5732028 -0.1134381 -0.2095439 -0.8581046 0.4687728 0.1352002 -0.8708664 0.4725598 0.3414514 -0.7845326 0.5176096 -0.2379873 -0.9712681 -4.88304e-4 0.1536003 -0.988133 -3.05187e-4 0.316112 -0.9484581 0.02237015 0.6062998 -0.5285667 0.5941531 0.2965298 -0.6480866 0.7014656 -0.6595807 -0.749124 0.06137406 -0.4227537 -0.9062409 0.002594113 -0.7362515 -0.6767081 0 -0.5600894 -0.2116205 0.8009473 -0.9477314 -0.3038148 0.09747707 -0.9955509 -0.01135295 0.09353983 -0.6920543 -0.04043799 0.7207119 -0.03708058 -0.8633221 -0.5032892 -0.02233999 -0.6413595 0.7669153 -0.05212736 -0.8543035 -0.517154 -0.427 -0.6220203 0.6563244 -0.2046588 -0.9782481 0.03384524 -0.8121485 -0.5815448 0.04712176 -0.9885728 -0.1336123 0.06979703 -0.03741627 -0.8640539 -0.502007 -0.3794702 -0.9068038 0.1836008 0.268019 -0.8076279 0.5252649 0.9966003 -0.08166903 -0.01086479 0.9990548 -0.04199349 0.01123076 0.01214665 0.006836295 0.999903 0.8668623 -0.05633807 0.4953542 -0.8465411 -0.01028496 0.532224 0.9956125 -0.06665289 -0.06567627 -0.01388603 0.273082 0.9618906 4.88305e-4 -0.05023443 0.9987374 -0.0202645 0.2701835 0.9625956 0.00589025 0.5755991 0.8177109 0.02856582 0.7985919 0.6011947 -0.1001315 0.5876663 0.8028835 0.03509742 0.9485769 0.3145951 -0.1109982 0.7920028 0.6003425 -0.1174679 0.9420939 0.3141025 -0.01834207 -0.9493627 0.3136464 -0.008118093 -0.9372743 0.3484984 -0.03460872 -0.8124514 0.582001 -0.06009262 -0.7588337 0.6485062 -0.02972579 -0.6008037 0.7988437 -0.04260462 -0.5622836 0.8258463 -0.01184153 -0.3233839 0.9461939 0.001159667 -0.2840393 0.958812 0.08023577 -0.04361236 0.9958214 -0.02063095 -0.5802308 0.8141909 0.004059076 -0.7856951 0.6186006 0.02392715 -0.9502509 0.3105651 0.003173947 -0.6541171 0.7563868 0.05411112 -0.280444 0.9583439 0.01544284 -0.8210666 0.5706235 0.02465945 -0.9506708 0.3092198 0.03381526 -0.7339877 0.6783205 0.05121129 -0.3281736 0.9432283 0.03540199 -0.84031 0.5409492 0.02642911 -0.9501972 0.3105269 0.03357064 -0.7535084 0.6565808 0.06967502 -0.3681823 0.9271393 0.01422196 -0.898365 0.4390196 0.01754856 -0.9621495 0.2719569 -0.002502501 -0.7569813 0.6534319 0.002258419 -0.3599433 0.9329715 -0.006195306 -0.8707656 0.4916596 -0.009247183 -0.9601567 0.2793094 0.1926981 0.4279704 0.8830113 0.07617545 0.4243364 0.9022948 -0.0298478 0.120429 0.9922732 0.03836196 0.3187678 0.9470562 0.05371338 0.4006533 0.914654 0.1894033 0.4038326 0.8950116 0.05249238 0.3574062 0.9324728 0.07507807 0.7520933 0.6547664 0.259722 0.9303908 0.2586843 0.093876 0.9598795 0.2642324 0.2579479 0.8729392 0.4140533 0.08884167 0.8987018 0.4294676 0.255141 0.7935311 0.5524596 0.0783112 0.8248317 0.5599285 0.3238405 0.7562077 0.5685749 0.01742666 0.3962671 0.9179699 0.03650045 0.773224 0.6330817 0.05011188 0.9655247 0.2554427 0.04809761 0.9057673 0.4210373 0.04413044 0.849984 0.5249569 -0.03183132 -0.7556203 0.6542361 -0.03531026 -0.8716183 0.4889119 -0.03964442 -0.958425 0.2825773 -0.01562559 -0.3675379 0.9298774 0.1733165 -0.4974879 0.8499807 0.5719883 0.04419159 0.8190706 0.5519406 -0.1836953 0.8133989 0.9778841 -0.04590028 0.2040488 0.3691594 -0.2229117 0.9022371 0.4776212 -0.2688107 0.8364322 0.7304726 -0.6317435 0.2594421 0.4707826 0.2116782 0.8564789 0.9462981 0.2117093 0.2443339 0.4905345 0.4377058 0.7535182 0.2883446 0.2830038 0.9147494 0.5158402 0.8065688 0.2887142 0.3424836 -0.4330944 0.8337472 0.4218348 -0.8942092 0.1498181 0.2474226 0.4722913 0.8460041 0.2019757 0.9178633 0.3416618 0.180857 -0.9445707 0.2740018 0.9206641 -0.2955147 0.2550466 0.7610946 0.5783441 0.2936889 0.02154642 -0.8723561 0.4883961 0.07806807 -0.7887688 0.6097126 0.7451458 0.1521359 -0.6493169 0.6074362 0.4416219 -0.6602965 0.7262707 -0.2124457 -0.6537566 0.7062427 -0.03192293 -0.7072498 0.9782037 -0.03363221 0.2049064 0.7067568 -0.02539169 -0.7070009 0.5735399 -0.4821056 -0.6622886 0.6772783 0.7242471 -0.1294617 0.7325645 -0.6803757 -0.02093648 0.1612605 0.9808082 0.1095924 0.2827616 -0.9585513 0.03500562 0.09476345 0.8483545 0.5208787 0.141823 0.7965223 0.58774 0.1812238 0.8802389 0.4385629 0.7029069 0.007873773 -0.7112385 0.840286 -0.5421437 0 -0.6432822 0.543088 0.5396698 -0.2549566 0.8767834 0.4077352 -0.2268147 0.9507787 0.2111281 -0.6826578 -0.2136663 0.6988026 -0.7048723 -0.4177473 0.5732734 -0.6445092 -0.3796616 0.6636754 -0.8999677 0.3605303 0.2451044 0.01284855 0.8754106 -0.4832093 -0.1573861 0.9840523 -0.08288937 -0.08856683 0.9767378 -0.1952926 0.2822404 0.9493874 -0.1378546 0.2605993 0.9143103 -0.3100396 0.08984923 0.8681865 -0.4880364 -0.6379406 -0.7589793 0.1303165 -0.7102168 -0.6329112 0.3082459 0.6856793 0.3171271 0.6551904 0.7234967 -0.02530068 0.6898642 0.8211258 0.5670819 0.06457912 0.4830265 0.5707385 0.6640355 0.5526088 0.8326517 0.03625661 0.1947114 0.7078585 0.6789875 -0.162086 0.7209487 0.6737664 -0.7558196 0.6511982 0.06839454 -0.4386258 0.605018 0.6645004 -0.5227611 0.8517565 0.03509688 -0.6437473 0.3554909 0.6776545 -0.7271264 0.03360193 0.6856809 -0.8136145 0.5782495 0.06048923 -0.6862537 -0.3194134 0.6534761 -0.9977779 0.03143423 0.05874842 -0.4973078 -0.5747957 0.6498421 -0.5438767 -0.8390247 0.01535093 -0.2218133 -0.7092961 0.6691024 0.157541 -0.7280705 0.6671538 -0.3580581 -0.6630117 0.6574267 0.4338368 -0.6223262 0.6515335 0.4838181 -0.8750414 0.01492375 0.6294297 -0.368734 0.6839982 0.9965051 -0.06613457 0.05102765 -0.9987237 0.05050837 0 -0.9800244 -0.1888512 0.06235015 0.1536003 -0.988133 3.05187e-4 0.01214665 0.006836295 -0.999903 0.02154642 -0.8723561 -0.4883961 -0.1573861 0.9840523 0.08288937 0.2897186 0.957112 0 -0.6865044 -0.7271258 0 0.04712176 -0.3333012 0.9416422 -0.3399815 0.935468 0.09650099 -0.7957788 -0.6011602 0.07309263 0.3405017 -0.6232003 0.7040454 0.7453125 -0.6635208 0.06518924 -0.1642851 0.986413 0 -0.1604382 0.938062 -0.307082 -0.1476535 0.8038543 -0.576209 -0.1623615 0.3657103 -0.9164578 -0.02578818 0.9996675 0 -0.02368307 0.9585548 -0.2839224 -0.1153623 0.6070255 -0.7862643 -0.04623585 0.8814119 -0.4700802 -0.06933969 0.7798581 -0.6221041 -0.1037637 0.660914 -0.7432536 0.02337753 0.8389369 -0.5437265 0.00967437 0.7555208 -0.6550533 0.09934014 0.852769 -0.512754 0.118811 0.961628 -0.2472966 0.1223518 0.9924869 0 0.2703396 0.9313563 -0.2439099 0.1116693 0.9066302 -0.4068803 0.2699088 0.8724122 -0.4074878 0.2726609 0.802906 -0.5300925 0.0917707 0.7876961 -0.6091904 0.3488718 0.7413259 -0.573345 0.2635331 0.9646503 0 -0.1604382 0.938062 0.307082 -0.1476535 0.8038543 0.576209 -0.1153924 0.6070234 0.7862616 -0.1623615 0.3657103 0.9164578 -0.02368307 0.9585548 0.2839224 -0.04623585 0.8814119 0.4700802 -0.06933969 0.7798581 0.6221041 -0.1037637 0.660914 0.7432536 0.00967437 0.7555208 0.6550533 0.02337753 0.8389369 0.5437265 0.0917707 0.7876961 0.6091904 0.09934014 0.852769 0.512754 0.118811 0.961628 0.2472966 0.2703396 0.9313563 0.2439099 0.1116693 0.9066302 0.4068803 0.2699088 0.8724122 0.4074878 0.2726609 0.802906 0.5300925 0.3488718 0.7413259 0.573345 0.04852497 0.998822 0 0.04498469 0.9713525 -0.2333468 0.0382713 0.9079523 -0.4173223 0.04498469 0.9713525 0.2333468 0.0382713 0.9079523 0.4173223</float_array>
          <technique_common>
            <accessor source="#Circle_003-mesh-normals-array" count="527" stride="3">
              <param name="X" type="float"/>
              <param name="Y" type="float"/>
              <param name="Z" type="float"/>
            </accessor>
          </technique_common>
        </source>
        <vertices id="Circle_003-mesh-vertices">
          <input semantic="POSITION" source="#Circle_003-mesh-positions"/>
        </vertices>
        <polylist material="Metall_Alu_005_001-material" count="854">
          <input semantic="VERTEX" source="#Circle_003-mesh-vertices" offset="0"/>
          <input semantic="NORMAL" source="#Circle_003-mesh-normals" offset="1"/>
          <vcount>3 3 3 3 3 3 3 3 3 3 3 3 3 3 3 3 3 3 3 3 3 3 3 3 3 3 3 3 3 3 3 3 3 3 3 3 3 3 3 3 3 3 3 3 3 3 3 3 3 3 3 3 3 3 3 3 3 3 3 3 3 3 3 3 3 3 3 3 3 3 3 3 3 3 3 3 3 3 3 3 3 3 3 3 3 3 3 3 3 3 3 3 3 3 3 3 3 3 3 3 3 3 3 3 3 3 3 3 3 3 3 3 3 3 3 3 3 3 3 3 3 3 3 3 3 3 3 3 3 3 3 3 3 3 3 3 3 3 3 3 3 3 3 3 3 3 3 3 3 3 3 3 3 3 3 3 3 3 3 3 3 3 3 3 3 3 3 3 3 3 3 3 3 3 3 3 3 3 3 3 3 3 3 3 3 3 3 3 3 3 3 3 3 3 3 3 3 3 3 3 3 3 3 3 3 3 3 3 3 3 3 3 3 3 3 3 3 3 3 3 3 3 3 3 3 3 3 3 3 3 3 3 3 3 3 3 3 3 3 3 3 3 3 3 3 3 3 3 3 3 3 3 3 3 3 3 3 3 3 3 3 3 3 3 3 3 3 3 3 3 3 3 3 3 3 3 3 3 3 3 3 3 3 3 3 3 3 3 3 3 3 3 3 3 3 3 3 3 3 3 3 3 3 3 3 3 3 3 3 3 3 3 3 3 3 3 3 3 3 3 3 3 3 3 3 3 3 3 3 3 3 3 3 3 3 3 3 3 3 3 3 3 3 3 3 3 3 3 3 3 3 3 3 3 3 3 3 3 3 3 3 3 3 3 3 3 3 3 3 3 3 3 3 3 3 3 3 3 3 3 3 3 3 3 3 3 3 3 3 3 3 3 3 3 3 3 3 3 3 3 3 3 3 3 3 3 3 3 3 3 3 3 3 3 3 3 3 3 3 3 3 3 3 3 3 3 3 3 3 3 3 3 3 3 3 3 3 3 3 3 3 3 3 3 3 3 3 3 3 3 3 3 3 3 3 3 3 3 3 3 3 3 3 3 3 3 3 3 3 3 3 3 3 3 3 3 3 3 3 3 3 3 3 3 3 3 3 3 3 3 3 3 3 3 3 3 3 3 3 3 3 3 3 3 3 3 3 3 3 3 3 3 3 3 3 3 3 3 3 3 3 3 3 3 3 3 3 3 3 3 3 3 3 3 3 3 3 3 3 3 3 3 3 3 3 3 3 3 3 3 3 3 3 3 3 3 3 3 3 3 3 3 3 3 3 3 3 3 3 3 3 3 3 3 3 3 3 3 3 3 3 3 3 3 3 3 3 3 3 3 3 3 3 3 3 3 3 3 3 3 3 3 3 3 3 3 3 3 3 3 3 3 3 3 3 3 3 3 3 3 3 3 3 3 3 3 3 3 3 3 3 3 3 3 3 3 3 3 3 3 3 3 3 3 3 3 3 3 3 3 3 3 3 3 3 3 3 3 3 3 3 3 3 3 3 3 3 3 3 3 3 3 3 3 3 3 3 3 3 3 3 3 3 3 3 3 3 3 3 3 3 3 3 3 3 3 3 3 3 3 3 3 3 3 3 3 3 3 3 3 3 3 3 3 3 3 3 3 3 3 3 3 3 3 3 3 3 3 3 3 3 3 3 3 3 3 3 3 3 3 3 3 3 3 3 3 3 3 3 3 3 3 3 3 3 3 3 3 3 3 3 3 3 3 3 3 3 3 3 3 3 3 3 3 3 3 3 3 3 3 3 3 3 3 3 3 3 3 3 3 3 3 3 3 3 3 3 3 3 3 3 3 3 3 3 3 3 3 3 3 3 3 3 3 3 3 3 3 3 3 3 3 3 3 3 3 3 3 3 3 3 3 3 3 3 3 3 3 3 3 3 3 3 3 3 3 3 3 3 3 3 3 3 3 </vcount>
          <p>13 0 27 1 0 2 12 3 26 4 27 1 11 5 25 6 12 3 10 7 24 8 25 6 9 9 23 10 24 8 8 11 22 12 9 9 7 13 21 14 22 12 6 15 20 16 7 13 5 17 19 18 20 16 4 19 18 20 5 17 3 21 17 22 18 20 2 23 16 24 3 21 1 25 15 26 2 23 0 2 14 27 15 26 14 27 27 1 28 28 27 1 26 4 40 29 5 17 3 21 4 19 25 6 24 8 38 30 24 8 23 10 37 31 23 10 22 12 37 31 22 12 21 14 36 32 21 14 20 16 34 33 20 16 19 18 33 34 19 18 18 20 32 35 18 20 17 22 32 35 17 22 16 24 30 36 16 24 15 26 29 37 15 26 14 27 28 28 26 4 25 6 40 29 37 31 36 32 46 38 36 32 35 39 44 40 35 39 34 33 43 41 34 33 33 34 42 42 46 38 45 43 50 44 45 43 44 40 48 45 44 40 43 41 47 46 50 44 49 47 299 48 43 41 42 42 51 49 28 28 59 50 64 51 48 45 47 46 55 52 47 46 43 41 54 53 32 35 31 54 57 55 31 54 30 36 57 55 30 36 29 37 56 56 33 34 32 35 58 57 58 57 57 55 62 58 57 55 56 56 60 59 42 42 58 57 51 49 59 50 77 60 64 51 65 61 64 51 67 62 65 61 67 62 318 63 202 64 203 65 80 66 69 67 209 68 208 69 70 70 72 71 77 60 71 72 70 70 75 73 60 59 56 56 63 74 68 75 71 72 74 76 72 71 66 77 77 60 63 74 53 78 65 61 53 78 29 37 64 51 28 28 41 79 78 80 75 73 77 60 83 81 76 82 75 73 82 83 74 76 76 82 80 66 77 60 59 50 79 84 59 50 28 28 73 85 99 86 101 87 84 88 98 89 100 90 101 87 97 91 89 92 100 90 96 93 90 94 89 92 351 95 344 96 90 94 88 97 91 98 341 99 87 100 92 101 88 97 86 102 93 103 87 100 85 104 94 105 86 102 84 88 95 106 85 104 93 103 94 105 104 107 92 101 93 103 103 108 91 98 92 101 103 108 345 109 91 98 102 110 104 107 105 111 133 112 103 108 104 107 132 113 102 110 103 108 132 113 358 114 102 110 131 115 133 112 134 116 137 117 132 113 133 112 136 118 131 115 132 113 136 118 393 119 131 115 135 120 137 117 138 121 141 122 136 118 137 117 140 123 135 120 136 118 139 124 398 125 135 120 139 124 141 122 142 126 146 127 140 123 141 122 145 128 139 124 140 123 144 129 403 130 139 124 408 131 95 106 105 111 94 105 130 132 146 127 129 133 101 87 126 134 95 106 127 135 105 111 95 106 105 111 127 135 134 116 128 136 138 121 134 116 129 133 142 126 138 121 151 137 150 138 155 139 148 140 415 141 153 142 147 143 148 140 152 144 149 145 147 143 154 146 150 138 149 145 155 139 156 147 155 139 160 148 153 142 421 149 427 150 152 144 153 142 158 151 154 146 152 144 157 152 155 139 154 146 160 148 145 128 146 127 164 153 144 129 145 128 163 154 143 155 144 129 163 154 408 131 143 155 162 156 161 157 165 158 156 147 151 137 156 147 146 127 130 132 151 137 146 127 165 158 161 157 167 159 172 160 180 161 181 162 182 163 184 164 179 165 183 166 185 167 172 160 173 168 182 163 172 160 168 169 176 170 170 171 171 172 179 165 177 173 166 174 174 175 168 169 169 176 177 173 175 177 166 174 168 169 167 159 173 168 181 162 184 164 170 171 178 178 183 166 171 172 169 176 168 169 171 172 170 171 182 163 162 156 163 154 175 177 163 154 164 153 188 179 185 167 178 178 192 180 164 153 165 158 167 159 167 159 175 177 188 179 431 181 162 156 175 177 184 164 181 162 195 182 180 161 185 167 194 183 179 165 184 164 193 184 181 162 180 161 195 182 178 178 176 170 190 185 177 173 179 165 193 184 176 170 174 175 186 186 175 177 177 173 191 187 189 188 191 187 469 189 175 177 189 188 459 190 190 185 186 186 471 191 427 150 471 191 158 151 186 186 174 175 158 151 161 157 160 148 166 174 200 192 198 193 201 194 159 195 157 152 198 193 160 148 159 195 201 194 157 152 158 151 174 175 174 175 166 174 198 193 199 196 190 185 472 197 191 187 199 196 477 198 195 182 194 183 199 196 194 183 197 199 199 196 195 182 199 196 196 200 191 187 193 184 199 196 190 185 199 196 192 180 99 86 84 88 208 69 98 89 99 86 208 69 97 91 98 89 207 201 96 93 97 91 206 202 206 202 207 201 481 203 85 104 86 102 204 204 84 88 85 104 202 64 351 95 96 93 205 205 205 205 206 202 351 95 41 79 40 29 210 206 39 30 38 30 213 207 486 208 207 201 210 206 489 209 497 210 210 206 210 206 40 29 212 211 40 29 39 30 213 207 50 44 299 48 216 212 46 38 50 44 215 213 37 31 46 38 215 213 38 30 37 31 214 214 207 201 208 69 209 68 80 66 203 65 74 76 88 97 341 99 218 215 87 100 88 97 217 216 204 204 217 216 74 76 86 102 87 100 204 204 74 76 217 216 68 75 318 63 67 62 68 75 67 62 66 77 68 75 68 75 218 215 321 217 232 218 246 219 219 220 231 221 245 222 232 218 230 223 244 224 245 222 229 225 243 226 230 223 228 227 242 228 229 225 227 229 241 230 242 228 226 231 240 232 241 230 225 233 239 234 240 232 224 235 238 236 225 233 223 237 237 238 238 236 222 239 236 240 237 238 221 241 235 242 222 239 220 243 234 244 235 242 219 220 233 245 220 243 231 221 229 225 230 223 260 246 247 247 274 248 259 249 260 246 274 248 258 250 259 249 272 251 257 252 258 250 272 251 256 253 257 252 271 254 255 255 256 253 269 256 254 257 255 255 269 256 253 258 254 257 267 259 252 260 253 258 267 259 251 261 252 260 265 262 250 263 251 261 265 262 249 264 250 263 263 265 248 266 249 264 262 267 247 247 248 266 262 267 261 268 275 269 274 248 274 248 288 270 287 271 250 263 252 260 251 261 272 251 286 272 285 272 271 254 285 272 284 273 270 274 284 273 269 256 269 256 283 275 268 276 268 276 282 277 281 278 267 259 281 278 280 279 266 280 280 279 279 281 265 262 279 281 264 282 264 282 278 283 277 284 263 265 277 284 276 285 262 267 276 285 275 269 273 286 287 271 272 251 284 273 293 287 283 275 283 275 292 288 291 289 282 277 291 289 290 290 281 278 290 290 289 291 293 287 297 292 292 288 292 288 296 293 295 294 291 289 295 294 294 295 297 292 299 48 296 293 290 290 301 296 300 297 275 269 276 285 313 298 295 294 304 299 294 295 294 295 303 300 290 290 279 281 307 301 306 302 278 283 306 302 277 284 277 284 305 303 276 285 280 279 289 291 307 301 307 301 311 304 306 302 306 302 310 305 309 306 289 291 300 297 307 301 308 307 313 298 329 308 314 309 316 310 313 298 314 309 317 311 318 63 478 312 320 313 332 314 320 313 478 312 485 315 322 316 327 317 329 308 323 318 328 319 327 317 309 306 312 320 305 303 319 321 326 322 323 318 324 323 329 308 315 324 312 320 314 309 302 325 302 325 313 298 276 285 275 269 325 326 330 327 327 317 333 328 335 329 328 319 334 330 327 317 326 322 332 314 328 319 329 308 335 329 331 331 308 307 331 331 325 326 355 332 336 333 357 334 354 335 355 332 357 334 353 336 354 335 356 337 352 338 353 336 342 339 351 95 352 338 343 340 340 341 341 99 346 342 339 343 340 341 347 344 338 345 339 343 348 346 337 347 338 345 349 348 336 333 337 347 350 349 348 346 361 350 349 348 347 344 360 351 348 346 346 342 359 352 360 351 345 109 358 114 359 352 361 350 396 353 362 354 360 351 395 355 361 350 359 352 394 356 395 355 358 114 393 119 394 356 396 353 401 357 397 358 395 355 400 359 396 353 394 356 399 360 400 359 393 119 398 125 399 360 401 357 406 361 402 362 400 359 405 363 401 357 399 360 404 364 400 359 398 125 403 130 404 364 406 361 411 365 412 366 405 363 410 367 411 365 404 364 409 368 410 367 403 130 408 131 404 364 350 349 349 348 362 354 392 369 391 370 412 366 357 334 350 349 388 371 389 372 388 371 350 349 362 354 397 358 389 372 390 373 389 372 397 358 391 370 390 373 402 362 418 374 424 375 423 376 414 377 420 378 415 141 413 379 419 380 414 377 416 381 422 382 413 379 417 383 423 376 416 381 424 375 430 384 429 385 420 378 426 386 427 150 419 380 425 387 426 386 422 382 428 388 425 387 423 376 429 385 422 382 411 365 434 389 412 366 410 367 433 390 411 365 409 368 432 391 433 390 408 131 431 181 432 391 430 384 424 375 435 392 418 374 412 366 424 375 392 369 412 366 418 374 435 392 437 393 430 384 442 394 443 395 451 396 452 397 441 398 449 399 453 400 442 394 455 401 443 395 442 394 452 397 438 402 440 403 446 404 441 398 439 405 447 406 436 407 438 402 444 408 439 405 437 393 445 409 436 407 437 393 438 402 443 395 452 397 454 410 440 403 453 400 448 411 441 398 440 403 438 402 441 398 452 397 440 403 432 391 445 409 433 390 433 390 457 412 458 413 455 401 468 414 463 415 434 389 458 413 437 393 437 393 458 413 445 409 431 181 459 190 445 409 454 410 467 416 466 417 450 418 465 419 455 401 449 399 464 420 454 410 451 396 466 417 450 418 448 411 463 415 461 421 447 406 462 422 464 420 446 404 461 421 456 423 445 409 460 424 462 422 460 424 469 189 462 422 445 409 459 190 460 424 461 421 472 197 471 191 427 150 426 386 471 191 456 423 426 386 444 408 430 384 436 407 429 385 475 425 476 426 473 427 428 388 475 425 473 427 429 385 476 426 428 388 425 387 473 427 444 408 444 408 473 427 436 407 474 428 477 198 472 197 462 422 470 429 477 198 466 417 474 428 465 419 465 419 474 428 468 414 466 417 467 416 474 428 462 422 474 428 464 420 461 421 463 415 474 428 355 332 485 315 336 333 354 335 484 430 485 315 353 336 483 431 484 430 352 338 482 432 483 431 483 431 481 203 484 430 337 347 479 433 480 434 336 333 478 312 337 347 351 95 482 432 352 338 482 432 351 95 483 431 288 270 487 435 488 436 286 272 492 437 285 272 486 208 497 210 488 436 489 209 490 438 488 436 488 436 490 438 491 439 287 271 491 439 492 437 297 292 495 440 299 48 293 287 494 441 297 292 284 273 494 441 293 287 285 272 493 442 284 273 484 430 488 436 487 435 332 314 326 322 479 433 340 341 499 443 341 99 339 343 498 444 340 341 480 434 326 322 498 444 338 345 480 434 339 343 326 322 319 321 498 444 318 63 321 217 319 321 316 310 319 321 315 324 319 321 321 217 499 443 514 445 501 446 528 447 513 448 514 445 527 449 512 450 513 448 527 449 511 451 512 450 525 452 510 453 511 451 524 454 509 455 510 453 524 454 508 456 509 455 523 457 507 458 508 456 522 459 506 460 507 458 520 461 505 462 506 460 520 461 504 463 505 462 519 464 503 465 504 463 517 466 502 467 503 465 517 466 501 446 502 467 515 468 511 451 513 448 512 450 27 1 14 27 0 2 13 0 12 3 27 1 25 6 26 4 12 3 11 5 10 7 25 6 10 7 9 9 24 8 22 12 23 10 9 9 8 11 7 13 22 12 20 16 21 14 7 13 6 15 5 17 20 16 18 20 19 18 5 17 4 19 3 21 18 20 16 24 17 22 3 21 15 26 16 24 2 23 1 25 0 2 15 26 27 1 41 79 28 28 41 79 27 1 40 29 12 3 10 7 11 5 0 2 12 3 13 0 0 2 10 7 12 3 7 13 5 17 6 15 7 13 3 21 5 17 1 25 2 23 3 21 1 25 3 21 7 13 10 7 8 11 9 9 10 7 0 2 8 11 0 2 1 25 7 13 8 11 0 2 7 13 39 30 25 6 38 30 38 30 24 8 37 31 22 12 36 32 37 31 21 14 35 39 36 32 35 39 21 14 34 33 34 33 20 16 33 34 33 34 19 18 32 35 17 22 31 54 32 35 31 54 17 22 30 36 30 36 16 24 29 37 29 37 15 26 28 28 25 6 39 30 40 29 36 32 45 43 46 38 45 43 36 32 44 40 44 40 35 39 43 41 43 41 34 33 42 42 45 43 49 47 50 44 49 47 45 43 48 45 48 45 44 40 47 46 49 47 298 469 299 48 52 470 43 41 51 49 29 37 28 28 64 51 47 46 54 53 55 52 43 41 52 470 54 53 58 57 32 35 57 55 30 36 56 56 57 55 29 37 53 78 56 56 42 42 33 34 58 57 57 55 61 471 62 58 61 471 57 55 60 59 58 57 62 58 51 49 64 51 66 77 67 62 317 311 65 61 318 63 69 67 202 64 80 66 202 64 69 67 208 69 75 73 70 70 77 60 76 82 71 72 75 73 56 56 53 78 63 74 71 72 76 82 74 76 66 77 64 51 77 60 53 78 64 51 65 61 73 85 28 28 78 80 81 472 75 73 83 81 75 73 81 472 82 83 76 82 82 83 80 66 83 81 77 60 79 84 79 84 59 50 73 85 101 87 95 106 84 88 99 86 98 89 101 87 98 89 97 91 100 90 97 91 96 93 89 92 96 93 351 95 90 94 91 98 345 109 341 99 92 101 91 98 88 97 93 103 92 101 87 100 94 105 93 103 86 102 95 106 94 105 85 104 94 105 105 111 104 107 93 103 104 107 103 108 102 110 91 98 103 108 358 114 345 109 102 110 105 111 134 116 133 112 104 107 133 112 132 113 131 115 102 110 132 113 393 119 358 114 131 115 134 116 138 121 137 117 133 112 137 117 136 118 135 120 131 115 136 118 398 125 393 119 135 120 138 121 142 126 141 122 137 117 141 122 140 123 136 118 140 123 139 124 403 130 398 125 139 124 145 128 141 122 146 127 144 129 140 123 145 128 143 155 139 124 144 129 139 124 143 155 408 131 146 127 142 126 129 133 126 134 127 135 95 106 127 135 128 136 134 116 128 136 129 133 138 121 156 147 151 137 155 139 415 141 421 149 153 142 148 140 153 142 152 144 147 143 152 144 154 146 149 145 154 146 155 139 161 157 156 147 160 148 158 151 153 142 427 150 157 152 152 144 158 151 159 195 154 146 157 152 154 146 159 195 160 148 146 127 165 158 164 153 145 128 164 153 163 154 162 156 143 155 163 154 431 181 408 131 162 156 165 158 146 127 156 147 161 157 166 174 167 159 173 168 172 160 181 162 171 172 182 163 179 165 185 167 180 161 172 160 182 163 183 166 172 160 176 170 178 178 170 171 169 176 171 172 177 173 174 175 176 170 168 169 167 159 169 176 175 177 168 169 169 176 167 159 182 163 173 168 184 164 178 178 185 167 183 166 170 171 171 172 168 169 170 171 183 166 182 163 163 154 187 473 175 177 187 473 163 154 188 179 197 199 185 167 192 180 188 179 164 153 167 159 175 177 187 473 188 179 459 190 431 181 175 177 196 200 184 164 195 182 185 167 197 199 194 183 184 164 196 200 193 184 180 161 194 183 195 182 192 180 178 178 190 185 191 187 177 173 193 184 190 185 176 170 186 186 189 188 175 177 191 187 191 187 470 429 469 189 189 188 469 189 459 190 472 197 190 185 471 191 471 191 186 186 158 151 160 148 201 194 166 174 200 192 159 195 198 193 159 195 200 192 201 194 198 193 157 152 174 175 166 174 201 194 198 193 477 198 199 196 472 197 470 429 191 187 477 198 193 184 196 200 199 196 199 196 197 199 192 180 84 88 202 64 208 69 207 201 98 89 208 69 206 202 97 91 207 201 205 205 96 93 206 202 207 201 486 208 481 203 203 65 85 104 204 204 85 104 203 65 202 64 206 202 481 203 351 95 209 68 41 79 210 206 38 30 214 214 213 207 497 210 486 208 210 206 211 474 489 209 210 206 211 474 210 206 212 211 212 211 40 29 213 207 299 48 496 475 216 212 50 44 216 212 215 213 37 31 215 213 214 214 210 206 207 201 209 68 203 65 204 204 74 76 341 99 500 476 218 215 88 97 218 215 217 216 87 100 217 216 204 204 217 216 218 215 68 75 321 217 318 63 68 75 66 77 72 71 70 70 68 75 66 77 71 72 66 77 70 70 71 72 218 215 500 476 321 217 246 219 233 245 219 220 245 222 246 219 232 218 231 221 230 223 245 222 243 226 244 224 230 223 242 228 243 226 229 225 228 227 227 229 242 228 227 229 226 231 241 230 226 231 225 233 240 232 238 236 239 234 225 233 224 235 223 237 238 236 223 237 222 239 237 238 235 242 236 240 222 239 221 241 220 243 235 242 233 245 234 244 220 243 224 235 222 239 223 237 226 231 224 235 225 233 226 231 222 239 224 235 219 220 231 221 232 218 219 220 229 225 231 221 220 243 221 241 219 220 219 220 221 241 229 225 221 241 222 239 229 225 222 239 226 231 229 225 226 231 227 229 228 227 229 225 226 231 228 227 247 247 261 268 274 248 273 286 259 249 274 248 259 249 273 286 272 251 271 254 257 252 272 251 270 274 256 253 271 254 256 253 270 274 269 256 268 276 254 257 269 256 254 257 268 276 267 259 266 280 252 260 267 259 252 260 266 280 265 262 264 282 250 263 265 262 250 263 264 282 263 265 249 264 263 265 262 267 261 268 247 247 262 267 275 269 288 270 274 248 273 286 274 248 287 271 257 252 259 249 258 250 247 247 260 246 259 249 247 247 259 249 257 252 252 260 254 257 253 258 250 263 254 257 252 260 249 264 248 266 250 263 250 263 248 266 254 257 255 255 257 252 256 253 247 247 257 252 255 255 248 266 247 247 254 257 247 247 255 255 254 257 271 254 272 251 285 272 270 274 271 254 284 273 284 273 283 275 269 256 283 275 282 277 268 276 267 259 268 276 281 278 266 280 267 259 280 279 265 262 266 280 279 281 279 281 278 283 264 282 263 265 264 282 277 284 262 267 263 265 276 285 261 268 262 267 275 269 287 271 286 272 272 251 293 287 292 288 283 275 282 277 283 275 291 289 281 278 282 277 290 290 280 279 281 278 289 291 297 292 296 293 292 288 291 289 292 288 295 294 290 290 291 289 294 295 299 48 298 469 296 293 289 291 290 290 300 297 308 307 275 269 313 298 304 299 303 300 294 295 303 300 301 296 290 290 278 283 279 281 306 302 306 302 305 303 277 284 305 303 302 325 276 285 279 281 280 279 307 301 311 304 310 305 306 302 305 303 306 302 309 306 300 297 311 304 307 301 316 310 315 324 313 298 316 310 314 309 318 63 479 433 478 312 332 314 487 435 320 313 485 315 324 323 322 316 329 308 322 316 323 318 327 317 312 320 302 325 305 303 326 322 328 319 323 318 329 308 313 298 315 324 314 309 313 298 302 325 288 270 275 269 330 327 329 308 327 317 335 329 334 330 333 328 327 317 332 314 334 330 328 319 308 307 329 308 331 331 275 269 308 307 325 326 336 333 350 349 357 334 356 337 354 335 357 334 342 339 353 336 356 337 343 340 352 338 342 339 344 96 351 95 343 340 341 99 345 109 346 342 340 341 346 342 347 344 339 343 347 344 348 346 338 345 348 346 349 348 337 347 349 348 350 349 361 350 362 354 349 348 360 351 361 350 348 346 347 344 346 342 360 351 346 342 345 109 359 352 396 353 397 358 362 354 395 355 396 353 361 350 360 351 359 352 395 355 359 352 358 114 394 356 401 357 402 362 397 358 400 359 401 357 396 353 395 355 394 356 400 359 394 356 393 119 399 360 406 361 407 477 402 362 405 363 406 361 401 357 404 364 405 363 400 359 399 360 398 125 404 364 407 477 406 361 412 366 406 361 405 363 411 365 405 363 404 364 410 367 408 131 409 368 404 364 391 370 407 477 412 366 362 354 389 372 350 349 402 362 390 373 397 358 407 477 391 370 402 362 417 383 418 374 423 376 420 378 421 149 415 141 419 380 420 378 414 377 422 382 419 380 413 379 423 376 422 382 416 381 423 376 424 375 429 385 421 149 420 378 427 150 420 378 419 380 426 386 419 380 422 382 425 387 429 385 428 388 422 382 434 389 435 392 412 366 433 390 434 389 411 365 410 367 409 368 433 390 409 368 408 131 432 391 424 375 412 366 435 392 437 393 436 407 430 384 450 418 442 394 451 396 454 410 452 397 449 399 442 394 450 418 455 401 442 394 453 400 452 397 440 403 448 411 446 404 449 399 441 398 447 406 438 402 446 404 444 408 447 406 439 405 445 409 437 393 439 405 438 402 451 396 443 395 454 410 453 400 455 401 448 411 439 405 441 398 438 402 452 397 453 400 440 403 445 409 457 412 433 390 434 389 433 390 458 413 448 411 455 401 463 415 435 392 434 389 437 393 458 413 457 412 445 409 432 391 431 181 445 409 451 396 454 410 466 417 465 419 468 414 455 401 464 420 467 416 454 410 466 417 465 419 450 418 446 404 448 411 461 421 449 399 447 406 464 420 444 408 446 404 456 423 447 406 445 409 462 422 469 189 470 429 462 422 459 190 469 189 460 424 456 423 461 421 471 191 426 386 456 423 471 191 436 407 476 426 429 385 425 387 428 388 473 427 476 426 475 425 428 388 426 386 425 387 444 408 473 427 476 426 436 407 461 421 474 428 472 197 474 428 462 422 477 198 474 428 467 416 464 420 463 415 468 414 474 428 485 315 478 312 336 333 355 332 354 335 485 315 354 335 353 336 484 430 353 336 352 338 483 431 481 203 486 208 484 430 338 345 337 347 480 434 478 312 479 433 337 347 351 95 481 203 483 431 287 271 288 270 488 436 492 437 493 442 285 272 484 430 486 208 488 436 497 210 489 209 488 436 287 271 488 436 491 439 286 272 287 271 492 437 495 440 496 475 299 48 494 441 495 440 297 292 493 442 494 441 284 273 485 315 484 430 487 435 326 322 480 434 479 433 499 443 500 476 341 99 498 444 499 443 340 341 480 434 498 444 339 343 319 321 499 443 498 444 316 310 318 63 319 321 315 324 322 316 324 323 319 321 323 318 315 324 323 318 322 316 315 324 321 217 500 476 499 443 501 446 515 468 528 447 514 445 528 447 527 449 526 478 512 450 527 449 512 450 526 478 525 452 511 451 525 452 524 454 523 457 509 455 524 454 522 459 508 456 523 457 521 479 507 458 522 459 507 458 521 479 520 461 519 464 505 462 520 461 518 480 504 463 519 464 504 463 518 480 517 466 516 481 502 467 517 466 502 467 516 481 515 468 504 463 506 460 505 462 506 460 508 456 507 458 504 463 508 456 506 460 501 446 514 445 513 448 501 446 513 448 511 451 502 467 501 446 503 465 501 446 511 451 503 465 503 465 511 451 504 463 511 451 510 453 504 463 510 453 509 455 504 463 509 455 508 456 504 463</p>
        </polylist>
        <polylist material="Kunststoff_druckteile_003_001-material" count="94">
          <input semantic="VERTEX" source="#Circle_003-mesh-vertices" offset="0"/>
          <input semantic="NORMAL" source="#Circle_003-mesh-normals" offset="1"/>
          <vcount>3 3 3 3 3 3 3 3 3 3 3 3 3 3 3 3 3 3 3 3 3 3 3 3 3 3 3 3 3 3 3 3 3 3 3 3 3 3 3 3 3 3 3 3 3 3 3 3 3 3 3 3 3 3 3 3 3 3 3 3 3 3 3 3 3 3 3 3 3 3 3 3 3 3 3 3 3 3 3 3 3 3 3 3 3 3 3 3 3 3 3 3 3 3 </vcount>
          <p>90 94 344 96 365 482 89 92 90 94 107 483 100 90 89 92 106 484 101 87 100 90 109 485 107 483 365 482 370 486 106 484 107 483 111 487 108 488 106 484 110 489 109 485 108 488 112 490 113 491 112 490 116 492 117 493 116 492 120 494 119 495 380 496 123 497 118 498 119 495 122 499 120 494 118 498 124 500 121 501 120 494 125 502 121 501 125 502 130 132 117 493 121 501 129 133 113 491 117 493 127 135 109 485 113 491 126 134 109 485 126 134 101 87 130 132 125 502 151 137 123 497 385 503 148 140 122 499 123 497 147 143 124 500 122 499 149 145 125 502 124 500 150 138 343 340 364 504 365 482 342 339 363 505 364 504 356 337 366 506 363 505 357 334 367 507 356 337 364 504 369 508 370 486 363 505 368 509 369 508 366 506 371 510 368 509 367 507 372 511 371 510 372 511 377 512 376 513 377 512 382 514 381 515 379 516 384 517 380 496 378 518 383 519 379 516 381 515 386 520 378 518 382 514 387 521 381 515 382 514 391 370 392 369 377 512 390 373 391 370 372 511 389 372 377 512 367 507 388 371 372 511 367 507 357 334 388 371 392 369 418 374 387 521 384 517 414 377 385 503 383 519 413 379 384 517 386 520 416 381 383 519 387 521 417 383 386 520 107 483 90 94 365 482 106 484 89 92 107 483 108 488 100 90 106 484 100 90 108 488 109 485 111 487 107 483 370 486 110 489 106 484 111 487 112 490 108 488 110 489 113 491 109 485 112 490 117 493 113 491 116 492 121 501 117 493 120 494 380 496 385 503 123 497 119 495 123 497 122 499 118 498 122 499 124 500 120 494 124 500 125 502 129 133 121 501 130 132 128 136 117 493 129 133 117 493 128 136 127 135 113 491 127 135 126 134 125 502 150 138 151 137 385 503 415 141 148 140 123 497 148 140 147 143 122 499 147 143 149 145 124 500 149 145 150 138 344 96 343 340 365 482 343 340 342 339 364 504 342 339 356 337 363 505 367 507 366 506 356 337 365 482 364 504 370 486 364 504 363 505 369 508 363 505 366 506 368 509 366 506 367 507 371 510 371 510 372 511 376 513 376 513 377 512 381 515 384 517 385 503 380 496 383 519 384 517 379 516 386 520 383 519 378 518 387 521 386 520 381 515 387 521 382 514 392 369 382 514 377 512 391 370 389 372 390 373 377 512 388 371 389 372 372 511 418 374 417 383 387 521 414 377 415 141 385 503 413 379 414 377 384 517 416 381 413 379 383 519 417 383 416 381 386 520</p>
        </polylist>
        <polylist material="Gummi_005_001-material" count="24">
          <input semantic="VERTEX" source="#Circle_003-mesh-vertices" offset="0"/>
          <input semantic="NORMAL" source="#Circle_003-mesh-normals" offset="1"/>
          <vcount>3 3 3 3 3 3 3 3 3 3 3 3 3 3 3 3 3 3 3 3 3 3 3 3 </vcount>
          <p>111 487 370 486 375 522 110 489 111 487 115 523 112 490 110 489 114 524 115 523 375 522 119 495 114 524 115 523 119 495 116 492 114 524 118 498 369 508 374 525 375 522 368 509 373 526 374 525 371 510 376 513 373 526 374 525 379 516 375 522 373 526 378 518 379 516 376 513 381 515 378 518 115 523 111 487 375 522 114 524 110 489 115 523 116 492 112 490 114 524 375 522 380 496 119 495 118 498 114 524 119 495 120 494 116 492 118 498 370 486 369 508 375 522 369 508 368 509 374 525 368 509 371 510 373 526 379 516 380 496 375 522 374 525 373 526 379 516 373 526 376 513 378 518</p>
        </polylist>
      </mesh>
    </geometry>
  </library_geometries>
  <library_controllers/>
  <library_visual_scenes>
    <visual_scene id="Scene" name="Scene">
      <node id="COL_hollie_left_hand_l" name="COL_hollie_left_hand_l" type="NODE">
        <instance_geometry url="#Circle_003-mesh" name="COL_hollie_left_hand_l">
          <bind_material>
            <technique_common>
              <instance_material symbol="Metall_Alu_005_001-material" target="#Metall_Alu_005_001-material"/>
              <instance_material symbol="Kunststoff_druckteile_003_001-material" target="#Kunststoff_druckteile_003_001-material"/>
              <instance_material symbol="Gummi_005_001-material" target="#Gummi_005_001-material"/>
            </technique_common>
          </bind_material>
        </instance_geometry>
      </node>
    </visual_scene>
  </library_visual_scenes>
  <scene>
    <instance_visual_scene url="#Scene"/>
  </scene>
</COLLADA>