<?xml version="1.0" encoding="utf-8"?>
<COLLADA xmlns="http://www.collada.org/2005/11/COLLADASchema" version="1.4.1">
  <asset>
    <contributor>
      <author>Blender User</author>
      <authoring_tool>Blender 2.77.0 commit date:2016-04-05, commit time:18:12, hash:abf6f08</authoring_tool>
    </contributor>
    <created>2017-08-03T16:51:52</created>
    <modified>2017-08-03T16:51:52</modified>
    <unit name="meter" meter="1"/>
    <up_axis>Z_UP</up_axis>
  </asset>
  <library_images>
    <image id="PBRFULL_GroundMetalGrid-material_Base_Color_jpg" name="PBRFULL_GroundMetalGrid-material_Base_Color_jpg">
      <init_from>PBRFULL_GroundMetalGrid-material_Base_Color.jpg</init_from>
    </image>
  </library_images>
  <library_effects>
    <effect id="PBRFULL_GroundMetalGrid-effect">
      <profile_COMMON>
        <newparam sid="PBRFULL_GroundMetalGrid-material_Base_Color_jpg-surface">
          <surface type="2D">
            <init_from>PBRFULL_GroundMetalGrid-material_Base_Color_jpg</init_from>
          </surface>
        </newparam>
        <newparam sid="PBRFULL_GroundMetalGrid-material_Base_Color_jpg-sampler">
          <sampler2D>
            <source>PBRFULL_GroundMetalGrid-material_Base_Color_jpg-surface</source>
          </sampler2D>
        </newparam>
        <technique sid="common">
          <phong>
            <emission>
              <color sid="emission">0 0 0 1</color>
            </emission>
            <ambient>
              <color sid="ambient">0 0 0 1</color>
            </ambient>
            <diffuse>
              <texture texture="PBRFULL_GroundMetalGrid-material_Base_Color_jpg-sampler"/>
            </diffuse>
            <specular>
              <color sid="specular">0.5 0.5 0.5 1</color>
            </specular>
            <shininess>
              <float sid="shininess">50</float>
            </shininess>
            <index_of_refraction>
              <float sid="index_of_refraction">1</float>
            </index_of_refraction>
          </phong>
        </technique>
      </profile_COMMON>
    </effect>
  </library_effects>
  <library_materials>
    <material id="PBRFULL_GroundMetalGrid-material" name="PBRFULL_GroundMetalGrid">
      <instance_effect url="#PBRFULL_GroundMetalGrid-effect"/>
    </material>
  </library_materials>
  <library_geometries>
    <geometry id="Cube-mesh" name="Cube">
      <mesh>
        <source id="Cube-mesh-positions">
          <float_array id="Cube-mesh-positions-array" count="24">-0.9067593 -0.2819725 -0.9966512 -0.8186612 -0.2181236 -0.9563537 -0.9067593 0.2819725 -0.9966512 -0.8186612 0.2181236 -0.9563537 0.9067593 -0.2819725 -0.9966512 0.8186612 -0.2181236 -0.9563537 0.9067593 0.2819725 -0.9966512 0.8186612 0.2181236 -0.9563537</float_array>
          <technique_common>
            <accessor source="#Cube-mesh-positions-array" count="8" stride="3">
              <param name="X" type="float"/>
              <param name="Y" type="float"/>
              <param name="Z" type="float"/>
            </accessor>
          </technique_common>
        </source>
        <source id="Cube-mesh-normals">
          <float_array id="Cube-mesh-normals-array" count="30">-0.4159645 0 0.9093809 0 0.5337265 0.8456573 0.4159645 0 0.9093809 0 -0.5337265 0.8456573 0 0 -1 0 0 1 -0.4159652 0 0.9093806 0 0.5337266 0.8456572 0.4159652 0 0.9093806 0 -0.5337266 0.8456572</float_array>
          <technique_common>
            <accessor source="#Cube-mesh-normals-array" count="10" stride="3">
              <param name="X" type="float"/>
              <param name="Y" type="float"/>
              <param name="Z" type="float"/>
            </accessor>
          </technique_common>
        </source>
        <source id="Cube-mesh-map-0">
          <float_array id="Cube-mesh-map-0-array" count="72">0.4427075 0.9509242 8.83688e-4 0.9994492 0.05729269 0.9509242 0.4427073 0.04907584 0.4991165 0.9994492 0.4427075 0.9509242 0.05729246 0.04907584 0.4991163 5.50807e-4 0.4427073 0.04907584 0.05729269 0.9509242 8.83478e-4 5.50807e-4 0.05729246 0.04907584 0.5008837 0.9994492 0.9991164 5.50807e-4 0.9991165 0.9994492 0.4427073 0.04907584 0.05729269 0.9509242 0.05729246 0.04907584 0.4427075 0.9509242 0.4991165 0.9994492 8.83688e-4 0.9994492 0.4427073 0.04907584 0.4991163 5.50807e-4 0.4991165 0.9994492 0.05729246 0.04907584 8.83478e-4 5.50807e-4 0.4991163 5.50807e-4 0.05729269 0.9509242 8.83688e-4 0.9994492 8.83478e-4 5.50807e-4 0.5008837 0.9994492 0.5008835 5.50807e-4 0.9991164 5.50807e-4 0.4427073 0.04907584 0.4427075 0.9509242 0.05729269 0.9509242</float_array>
          <technique_common>
            <accessor source="#Cube-mesh-map-0-array" count="36" stride="2">
              <param name="S" type="float"/>
              <param name="T" type="float"/>
            </accessor>
          </technique_common>
        </source>
        <vertices id="Cube-mesh-vertices">
          <input semantic="POSITION" source="#Cube-mesh-positions"/>
        </vertices>
        <polylist material="PBRFULL_GroundMetalGrid-material" count="12">
          <input semantic="VERTEX" source="#Cube-mesh-vertices" offset="0"/>
          <input semantic="NORMAL" source="#Cube-mesh-normals" offset="1"/>
          <input semantic="TEXCOORD" source="#Cube-mesh-map-0" offset="2" set="0"/>
          <vcount>3 3 3 3 3 3 3 3 3 3 3 3 </vcount>
          <p>3 0 0 0 0 1 1 0 2 7 1 3 2 1 4 3 1 5 5 2 6 6 2 7 7 2 8 1 3 9 4 3 10 5 3 11 2 4 12 4 4 13 0 4 14 7 5 15 1 5 16 5 5 17 3 6 18 2 6 19 0 6 20 7 7 21 6 7 22 2 7 23 5 8 24 4 8 25 6 8 26 1 9 27 0 9 28 4 9 29 2 4 30 6 4 31 4 4 32 7 5 33 3 5 34 1 5 35</p>
        </polylist>
      </mesh>
    </geometry>
  </library_geometries>
  <library_controllers/>
  <library_visual_scenes>
    <visual_scene id="Scene" name="Scene">
      <node id="GroundMetalGrid" name="GroundMetalGrid" type="NODE">
        <matrix sid="transform">1 0 0 0 0 1 0 0 0 0 1 1 0 0 0 1</matrix>
        <instance_geometry url="#Cube-mesh" name="GroundMetalGrid">
          <bind_material>
            <technique_common>
              <instance_material symbol="PBRFULL_GroundMetalGrid-material" target="#PBRFULL_GroundMetalGrid-material"/>
            </technique_common>
          </bind_material>
        </instance_geometry>
      </node>
    </visual_scene>
  </library_visual_scenes>
  <scene>
    <instance_visual_scene url="#Scene"/>
  </scene>
</COLLADA>